%!PS-Adobe-2.0 EPSF-2.0
%%BoundingBox:  0 0 567 362
%%Title: dataset/plots/BDT_ControlPlots.eps: BDT Control Plots
%%Creator: ROOT Version 6.14/04
%%CreationDate: Fri Jan 24 01:14:11 2020
%%DocumentNeededResources: ProcSet (FontSetInit)
%%EndComments
%%BeginProlog
80 dict begin
/s {stroke} def /l {lineto} def /m {moveto} def /t {translate} def
/r {rotate} def /rl {roll}  def /R {repeat} def
/d {rlineto} def /rm {rmoveto} def /gr {grestore} def /f {eofill} def
/c {setrgbcolor} def /black {0 setgray} def /sd {setdash} def
/cl {closepath} def /sf {scalefont setfont} def /lw {setlinewidth} def
/box {m dup 0 exch d exch 0 d 0 exch neg d cl} def
/NC{systemdict begin initclip end}def/C{NC box clip newpath}def
/bl {box s} def /bf {gsave box gsave f grestore 1 lw [] 0 sd s grestore} def /Y { 0 exch d} def /X { 0 d} def 
/K {{pop pop 0 moveto} exch kshow} bind def
/ita {/ang 15 def gsave [1 0 ang dup sin exch cos div 1 0 0] concat} def 
/mp {newpath /y exch def /x exch def} def
/side {[w .77 mul w .23 mul] .385 w mul sd w 0 l currentpoint t -144 r} def
/mr {mp x y w2 0 360 arc} def /m24 {mr s} def /m20 {mr f} def
/mb {mp x y w2 add m w2 neg 0 d 0 w neg d w 0 d 0 w d cl} def
/mt {mp x y w2 add m w2 neg w neg d w 0 d cl} def
/w4 {w 4 div} def
/w6 {w 6 div} def
/w8 {w 8 div} def
/m21 {mb f} def /m25 {mb s} def /m22 {mt f} def /m26{mt s} def
/m23 {mp x y w2 sub m w2 w d w neg 0 d cl f} def
/m27 {mp x y w2 add m w3 neg w2 neg d w3 w2 neg d w3 w2 d cl s} def
/m28 {mp x w2 sub y w2 sub w3 add m w3 0 d  0 w3 neg d w3 0 d 0 w3 d w3 0 d  0 w3 d w3 neg 0 d 0 w3 d w3 neg 0 d 0 w3 neg d w3 neg 0 d cl s } def
/m29 {mp gsave x w2 sub y w2 add w3 sub m currentpoint t 4 {side} repeat cl fill gr} def
/m30 {mp gsave x w2 sub y w2 add w3 sub m currentpoint t 4 {side} repeat cl s gr} def
/m31 {mp x y w2 sub m 0 w d x w2 sub y m w 0 d x w2 sub y w2 add m w w neg d x w2 sub y w2 sub m w w d s} def
/m32 {mp x y w2 sub m w2 w d w neg 0 d cl s} def
/m33 {mp x y w2 add m w3 neg w2 neg d w3 w2 neg d w3 w2 d cl f} def
/m34 {mp x w2 sub y w2 sub w3 add m w3 0 d  0 w3 neg d w3 0 d 0 w3 d w3 0 d  0 w3 d w3 neg 0 d 0 w3 d w3 neg 0 d 0 w3 neg d w3 neg 0 d cl f } def
/m35 {mp x y w2 add m w2 neg w2 neg d w2 w2 neg d w2 w2 d w2 neg w2 d x y w2 sub m 0 w d x w2 sub y m w 0 d s} def
/m36 {mb x w2 sub y w2 add m w w neg d x w2 sub y w2 sub m w w d s} def
/m37 {mp x y m w4 neg w2 d w4 neg w2 neg d w2 0 d  w4 neg w2 neg d w2 0 d w4 neg w2 d w2 0 d w4 neg w2 d w4 neg w2 neg d cl s} def
/m38 {mp x w4 sub y w2 add m w4 neg w4 neg d 0 w2 neg d w4 w4 neg d w2 0 d w4 w4 d 0 w2 d w4 neg w4 d w2 neg 0 d x y w2 sub m 0 w d x w2 sub y m w 0 d cl s} def
/m39 {mp x y m w4 neg w2 d w4 neg w2 neg d w2 0 d  w4 neg w2 neg d w2 0 d w4 neg w2 d w2 0 d w4 neg w2 d w4 neg w2 neg d cl f} def
/m40 {mp x y m w4 w2 d w4 w4 neg d w2 neg w4 neg d w2 w4 neg d w4 neg w4 neg d w4 neg w2 d w4 neg w2 neg d w4 neg w4 d w2 w4 d w2 neg w4 d w4 w4 d w4 w2 neg d cl s} def
/m41 {mp x y m w4 w2 d w4 w4 neg d w2 neg w4 neg d w2 w4 neg d w4 neg w4 neg d w4 neg w2 d w4 neg w2 neg d w4 neg w4 d w2 w4 d w2 neg w4 d w4 w4 d w4 w2 neg d cl f} def
/m42 {mp x y w2 add m w8 neg w2 -3 4 div mul d w2 -3 4 div mul w8 neg d w2 3 4 div mul w8 neg d w8 w2 -3 4 div mul d w8 w2 3 4 div mul d w2 3 4 div mul w8 d w2 -3 4 div mul w8 d w8 neg w2 3 4 div mul d cl s} def
/m43 {mp x y w2 add m w8 neg w2 -3 4 div mul d w2 -3 4 div mul w8 neg d w2 3 4 div mul w8 neg d w8 w2 -3 4 div mul d w8 w2 3 4 div mul d w2 3 4 div mul w8 d w2 -3 4 div mul w8 d w8 neg w2 3 4 div mul d cl f} def
/m44 {mp x y m w6 neg w2 d w2 2 3 div mul 0 d w6 neg w2 neg d w2 w6 d 0 w2 -2 3 div mul d w2 neg w6 d w6 w2 neg d w2 -2 3 div mul 0 d w6 w2 d w2 neg w6 neg d 0 w2 2 3 div mul d w2 w6 neg d cl s} def
/m45 {mp x y m w6 neg w2 d w2 2 3 div mul 0 d w6 neg w2 neg d w2 w6 d 0 w2 -2 3 div mul d w2 neg w6 d w6 w2 neg d w2 -2 3 div mul 0 d w6 w2 d w2 neg w6 neg d 0 w2 2 3 div mul d w2 w6 neg d cl f} def
/m46 {mp x y w4 add m w4 neg w4 d w4 neg w4 neg d  w4 w4 neg d w4 neg w4 neg d w4 w4 neg d w4 w4 d w4 w4 neg d w4 w4 d w4 neg w4 d w4 w4 d w4 neg w4 d w4 neg w4 neg d cl s} def
/m47 {mp x y w4 add m w4 neg w4 d w4 neg w4 neg d w4 w4 neg d w4 neg w4 neg d  w4 w4 neg d w4 w4 d w4 w4 neg d w4 w4 d w4 neg w4 d w4 w4 d w4 neg w4 d w4 neg w4 neg d cl f} def
/m48 {mp x y w4 add m w4 neg w4 d w4 neg w4 neg d w4 w4 neg d  w4 neg w4 neg d w4 w4 neg d w4 w4 d w4 w4 neg d w4 w4 d w4 neg w4 d w4 w4 d w4 neg w4 d w4 neg w4 neg d  w4 w4 neg d w4 neg w4 neg d w4 neg w4 d w4 w4 d cl f} def
/m49 {mp x w2 sub w3 add y w2 sub w3 add m  0 w3 neg d w3 0 d 0 w3 d w3 0 d 0 w3 d w3 neg 0 d 0 w3 d w3 neg 0 d 0 w3 neg d w3 neg 0 d 0 w3 neg d w3 0 d 0 w3 d w3 0 d 0 w3 neg d w3 neg 0 d cl f } def
/m2 {mp x y w2 sub m 0 w d x w2 sub y m w 0 d s} def
/m5 {mp x w2 sub y w2 sub m w w d x w2 sub y w2 add m w w neg d s} def
%%IncludeResource: ProcSet (FontSetInit)
%%IncludeResource: font Times-Roman
%%IncludeResource: font Times-Italic
%%IncludeResource: font Times-Bold
%%IncludeResource: font Times-BoldItalic
%%IncludeResource: font Helvetica
%%IncludeResource: font Helvetica-Oblique
%%IncludeResource: font Helvetica-Bold
%%IncludeResource: font Helvetica-BoldOblique
%%IncludeResource: font Courier
%%IncludeResource: font Courier-Oblique
%%IncludeResource: font Courier-Bold
%%IncludeResource: font Courier-BoldOblique
%%IncludeResource: font Symbol
%%IncludeResource: font ZapfDingbats
/reEncode {exch findfont dup length dict begin {1 index /FID eq  {pop pop} {def} ifelse } forall /Encoding exch def currentdict end dup /FontName get exch definefont pop } def [/Times-Bold /Times-Italic /Times-BoldItalic /Helvetica /Helvetica-Oblique
 /Helvetica-Bold /Helvetica-BoldOblique /Courier /Courier-Oblique /Courier-Bold /Courier-BoldOblique /Times-Roman /AvantGarde-Book /AvantGarde-BookOblique /AvantGarde-Demi /AvantGarde-DemiOblique /Bookman-Demi /Bookman-DemiItalic /Bookman-Light
 /Bookman-LightItalic /Helvetica-Narrow /Helvetica-Narrow-Bold /Helvetica-Narrow-BoldOblique /Helvetica-Narrow-Oblique /NewCenturySchlbk-Roman /NewCenturySchlbk-Bold /NewCenturySchlbk-BoldItalic /NewCenturySchlbk-Italic /Palatino-Bold
 /Palatino-BoldItalic /Palatino-Italic /Palatino-Roman ] {ISOLatin1Encoding reEncode } forall
%%EndProlog
%%BeginSetup
%%EndSetup
newpath  gsave  .25 .25 scale  gsave  0 0 t 0.490196 0.545098 0.615686 c[  ] 0 sd 3 lw 0.941176 0.941176 0.941176 c 2268 1450 0 0 bf 0.490196 0.545098 0.615686 c 0.941176 0.941176 0.941176 c 710 696 23 739 bf 0.490196 0.545098 0.615686 c 0.941176
 0.941176 0.941176 c 710 696 779 739 bf 0.490196 0.545098 0.615686 c 0.941176 0.941176 0.941176 c 711 696 1534 739 bf black 1 1 0.992157 c 590 549 1620 816 bf black 590 549 1620 816 bl 1 1 0.992157 c 590 549 1620 816 bf black 590 549 1620 816 bl 0 0
 1 c 1 1 1 c 0 0 1 c 1620 1239 m 3 X -61 Y 3 X -120 Y 3 X -72 Y 3 X 80 Y 2 X -94 Y 3 X -18 Y 3 X 86 Y 3 X -24 Y 3 X -97 Y 3 X -17 Y 3 X 14 Y 3 X 29 Y 3 X -33 Y 3 X 13 Y 3 X 19 Y 3 X -10 Y 3 X -67 Y 3 X 39 Y 3 X 48 Y 3 X -49 Y 3 X 61 Y 3 X -46 Y 3 X
 -38 Y 3 X 20 Y 2 X 7 Y 3 X -2 Y 3 X 2 Y 3 X -36 Y 3 X 34 Y 3 X 28 Y 3 X -64 Y 3 X 144 Y 3 X -120 Y 3 X 29 Y 3 X -5 Y 3 X 22 Y 3 X -17 Y 3 X -17 Y 3 X -6 Y 3 X -30 Y 3 X 62 Y 3 X -34 Y 3 X 26 Y 3 X -35 Y 2 X 4 Y 3 X -17 Y 3 X -5 Y 3 X 73 Y 3 X -36 Y
 3 X -3 Y 3 X 28 Y 3 X -33 Y 3 X 4 Y 3 X -32 Y 3 X 28 Y 3 X 5 Y 3 X 33 Y 3 X -82 Y 3 X 31 Y 3 X 25 Y 3 X -43 Y 3 X 21 Y 3 X 20 Y 2 X -43 Y 3 X 33 Y 3 X -20 Y 3 X 30 Y 3 X 20 Y 3 X -31 Y 3 X -17 Y 3 X 33 Y 3 X 6 Y 3 X -2 Y 3 X 3 Y 3 X -7 Y 3 X -12 Y 3
 X -13 Y 3 X 6 Y 3 X -10 Y 3 X -11 Y 3 X -9 Y 3 X 60 Y 3 X -4 Y 2 X -29 Y 3 X -7 Y 3 X 34 Y 3 X -19 Y 3 X 26 Y 3 X -13 Y 3 X 31 Y 3 X 28 Y 3 X -94 Y 3 X 7 Y 3 X 13 Y 3 X 24 Y 3 X -41 Y 3 X 44 Y 3 X -60 Y 3 X 32 Y 3 X -25 Y 3 X 46 Y 3 X -27 Y 2 X 15 Y
 3 X 13 Y 3 X -9 Y 3 X -55 Y 3 X 84 Y 3 X -13 Y 3 X -24 Y 3 X -13 Y 3 X 41 Y 3 X -55 Y 3 X 12 Y 3 X 17 Y 3 X 51 Y 3 X -59 Y 3 X -18 Y 3 X 75 Y 3 X -16 Y 3 X -26 Y 3 X 23 Y 3 X 14 Y 2 X -37 Y 3 X 55 Y 3 X -3 Y 3 X -54 Y 3 X 47 Y 3 X -11 Y 3 X -42 Y 3
 X 25 Y 3 X -26 Y 3 X -47 Y 3 X 74 Y 3 X -11 Y 3 X 37 Y 3 X -32 Y 3 X -74 Y 3 X 49 Y 3 X -17 Y 3 X 8 Y 3 X 70 Y 2 X -36 Y 3 X -3 Y 3 X -19 Y 3 X 13 Y 3 X 8 Y 3 X -52 Y 3 X 22 Y 3 X -20 Y 3 X 23 Y 3 X -26 Y 3 X 87 Y 3 X -89 Y 3 X 47 Y 3 X 27 Y 3 X -74
 Y 3 X 27 Y 3 X 26 Y 3 X -27 Y 3 X 10 Y 3 X -8 Y 2 X -8 Y 3 X -7 Y 3 X 51 Y 3 X -13 Y 3 X 32 Y 3 X -57 Y 3 X -9 Y 3 X 15 Y 3 X 4 Y 3 X 17 Y 3 X -3 Y 3 X -40 Y 3 X -14 Y 3 X 64 Y 3 X -29 Y 3 X -17 Y 3 X 36 Y 3 X -20 Y 3 X 25 Y 2 X -26 Y 3 X 34 Y 3 X
 -5 Y 3 X 6 Y 3 X -37 Y 3 X 54 Y 3 X -87 Y 3 X 49 Y 3 X 28 Y 3 X -35 Y 3 X -34 Y 3 X 17 Y 3 X 28 Y 3 X 5 Y 3 X 7 Y 3 X -6 Y 3 X -51 Y 3 X 45 Y 3 X -34 Y 3 X s black 1620 816 m 590 X s 1620 833 m -17 Y s 1634 824 m -8 Y s 1649 824 m -8 Y s 1664 824 m
 -8 Y s 1679 833 m -17 Y s 1693 824 m -8 Y s 1708 824 m -8 Y s 1723 824 m -8 Y s 1738 833 m -17 Y s 1752 824 m -8 Y s 1767 824 m -8 Y s 1782 824 m -8 Y s 1797 833 m -17 Y s 1811 824 m -8 Y s 1826 824 m -8 Y s 1841 824 m -8 Y s 1856 833 m -17 Y s 1870
 824 m -8 Y s 1885 824 m -8 Y s 1900 824 m -8 Y s 1915 833 m -17 Y s 1929 824 m -8 Y s 1944 824 m -8 Y s 1959 824 m -8 Y s 1974 833 m -17 Y s 1988 824 m -8 Y s 2003 824 m -8 Y s 2018 824 m -8 Y s 2033 833 m -17 Y s 2047 824 m -8 Y s 2062 824 m -8 Y s
 2077 824 m -8 Y s 2092 833 m -17 Y s 2106 824 m -8 Y s 2121 824 m -8 Y s 2136 824 m -8 Y s 2151 833 m -17 Y s 2165 824 m -8 Y s 2180 824 m -8 Y s 2195 824 m -8 Y s 2210 833 m -17 Y s
 gsave  711 696 1534 739 C 1611.14 792.943 t 0 r /Helvetica findfont 22.7706 sf 0 0 m (0) show NC gr 
 gsave  711 696 1534 739 C 1664.17 792.943 t 0 r /Helvetica findfont 22.7706 sf 0 0 m (20) show NC gr 
 gsave  711 696 1534 739 C 1724.78 792.943 t 0 r /Helvetica findfont 22.7706 sf 0 0 m (40) show NC gr 
 gsave  711 696 1534 739 C 1782.86 792.943 t 0 r /Helvetica findfont 22.7706 sf 0 0 m (60) show NC gr 
 gsave  711 696 1534 739 C 1840.94 792.943 t 0 r /Helvetica findfont 22.7706 sf 0 0 m (80) show NC gr 
 gsave  711 696 1534 739 C 1893.97 792.943 t 0 r /Helvetica findfont 22.7706 sf 0 0 m (100) show NC gr 
 gsave  711 696 1534 739 C 1952.05 792.943 t 0 r /Helvetica findfont 22.7706 sf 0 0 m (120) show NC gr 
 gsave  711 696 1534 739 C 2010.14 792.943 t 0 r /Helvetica findfont 22.7706 sf 0 0 m (140) show NC gr 
 gsave  711 696 1534 739 C 2070.74 792.943 t 0 r /Helvetica findfont 22.7706 sf 0 0 m (160) show NC gr 
 gsave  711 696 1534 739 C 2128.83 792.943 t 0 r /Helvetica findfont 22.7706 sf 0 0 m (180) show NC gr 
 gsave  711 696 1534 739 C 2186.91 792.943 t 0 r /Helvetica findfont 22.7706 sf 0 0 m (200) show NC gr 
 gsave  711 696 1534 739 C 2154.08 767.69 t 0 r /Helvetica findfont 22.7706 sf 0 0 m (#tree) show NC gr  1620 1365 m 590 X s 1620 1348 m 17 Y s 1634 1357 m 8 Y s 1649 1357 m 8 Y s 1664 1357 m 8 Y s 1679 1348 m 17 Y s 1693 1357 m 8 Y s 1708 1357 m 8 Y
 s 1723 1357 m 8 Y s 1738 1348 m 17 Y s 1752 1357 m 8 Y s 1767 1357 m 8 Y s 1782 1357 m 8 Y s 1797 1348 m 17 Y s 1811 1357 m 8 Y s 1826 1357 m 8 Y s 1841 1357 m 8 Y s 1856 1348 m 17 Y s 1870 1357 m 8 Y s 1885 1357 m 8 Y s 1900 1357 m 8 Y s 1915 1348
 m 17 Y s 1929 1357 m 8 Y s 1944 1357 m 8 Y s 1959 1357 m 8 Y s 1974 1348 m 17 Y s 1988 1357 m 8 Y s 2003 1357 m 8 Y s 2018 1357 m 8 Y s 2033 1348 m 17 Y s 2047 1357 m 8 Y s 2062 1357 m 8 Y s 2077 1357 m 8 Y s 2092 1348 m 17 Y s 2106 1357 m 8 Y s
 2121 1357 m 8 Y s 2136 1357 m 8 Y s 2151 1348 m 17 Y s 2165 1357 m 8 Y s 2180 1357 m 8 Y s 2195 1357 m 8 Y s 2210 1348 m 17 Y s 1620 816 m 549 Y s 1637 816 m -17 X s 1628 829 m -8 X s 1628 843 m -8 X s 1628 856 m -8 X s 1628 870 m -8 X s 1637 883 m
 -17 X s 1628 897 m -8 X s 1628 910 m -8 X s 1628 924 m -8 X s 1628 937 m -8 X s 1637 951 m -17 X s 1628 964 m -8 X s 1628 977 m -8 X s 1628 991 m -8 X s 1628 1004 m -8 X s 1637 1018 m -17 X s 1628 1031 m -8 X s 1628 1045 m -8 X s 1628 1058 m -8 X s
 1628 1072 m -8 X s 1637 1085 m -17 X s 1628 1099 m -8 X s 1628 1112 m -8 X s 1628 1126 m -8 X s 1628 1139 m -8 X s 1637 1153 m -17 X s 1628 1166 m -8 X s 1628 1180 m -8 X s 1628 1193 m -8 X s 1628 1207 m -8 X s 1637 1220 m -17 X s 1628 1233 m -8 X s
 1628 1247 m -8 X s 1628 1260 m -8 X s 1628 1274 m -8 X s 1637 1287 m -17 X s 1628 1301 m -8 X s 1628 1314 m -8 X s 1628 1328 m -8 X s 1628 1341 m -8 X s 1637 1355 m -17 X s 1637 1355 m -17 X s
 gsave  711 696 1534 739 C 1603.56 808.095 t 0 r /Helvetica findfont 22.7706 sf 0 0 m (0) show NC gr 
 gsave  711 696 1534 739 C 1588.41 873.753 t 0 r /Helvetica findfont 22.7706 sf 0 0 m (0.1) show NC gr 
 gsave  711 696 1534 739 C 1583.36 941.936 t 0 r /Helvetica findfont 22.7706 sf 0 0 m (0.2) show NC gr 
 gsave  711 696 1534 739 C 1583.36 1010.12 t 0 r /Helvetica findfont 22.7706 sf 0 0 m (0.3) show NC gr 
 gsave  711 696 1534 739 C 1583.36 1075.78 t 0 r /Helvetica findfont 22.7706 sf 0 0 m (0.4) show NC gr 
 gsave  711 696 1534 739 C 1583.36 1143.96 t 0 r /Helvetica findfont 22.7706 sf 0 0 m (0.5) show NC gr 
 gsave  711 696 1534 739 C 1583.36 1212.14 t 0 r /Helvetica findfont 22.7706 sf 0 0 m (0.6) show NC gr 
 gsave  711 696 1534 739 C 1583.36 1277.8 t 0 r /Helvetica findfont 22.7706 sf 0 0 m (0.7) show NC gr 
 gsave  711 696 1534 739 C 1583.36 1345.98 t 0 r /Helvetica findfont 22.7706 sf 0 0 m (0.8) show NC gr 
 gsave  711 696 1534 739 C 1568.21 1237.4 t 90 r /Helvetica findfont 22.7706 sf 0 0 m (boost weight) show NC gr  2210 816 m 549 Y s 2193 816 m 17 X s 2201 829 m 9 X s 2201 843 m 9 X s 2201 856 m 9 X s 2201 870 m 9 X s 2193 883 m 17 X s 2201 897 m 9 X
 s 2201 910 m 9 X s 2201 924 m 9 X s 2201 937 m 9 X s 2193 951 m 17 X s 2201 964 m 9 X s 2201 977 m 9 X s 2201 991 m 9 X s 2201 1004 m 9 X s 2193 1018 m 17 X s 2201 1031 m 9 X s 2201 1045 m 9 X s 2201 1058 m 9 X s 2201 1072 m 9 X s 2193 1085 m 17 X s
 2201 1099 m 9 X s 2201 1112 m 9 X s 2201 1126 m 9 X s 2201 1139 m 9 X s 2193 1153 m 17 X s 2201 1166 m 9 X s 2201 1180 m 9 X s 2201 1193 m 9 X s 2201 1207 m 9 X s 2193 1220 m 17 X s 2201 1233 m 9 X s 2201 1247 m 9 X s 2201 1260 m 9 X s 2201 1274 m 9
 X s 2193 1287 m 17 X s 2201 1301 m 9 X s 2201 1314 m 9 X s 2201 1328 m 9 X s 2201 1341 m 9 X s 2193 1355 m 17 X s 2193 1355 m 17 X s 0.490196 0.545098 0.615686 c 0.364706 0.419608 0.490196 c 355 40 1542 1392 bf 0.490196 0.545098 0.615686 c 1542 1392
 m 355 X s 1897 1392 m 40 Y s 1897 1432 m -355 X s 1542 1432 m -40 Y s 1 1 1 c black 1 1 1 c
 gsave  711 696 1534 739 C 1560.63 1404.07 t 0 r /Helvetica-Bold findfont 30.3609 sf 0 0 m (Boost weights vs tree) show NC gr  0.490196 0.545098 0.615686 c 0.941176 0.941176 0.941176 c 710 696 23 14 bf black 1 1 0.992157 c 590 550 108 91 bf black 590
 550 108 91 bl 1 1 0.992157 c 590 550 108 91 bf black 590 550 108 91 bl 0 0 1 c 1 1 1 c 0 0 1 c 108 289 m 3 X 29 Y 3 X 65 Y 3 X 43 Y 3 X -48 Y 3 X 57 Y 3 X 12 Y 3 X -53 Y 3 X 14 Y 2 X 61 Y 3 X 11 Y 3 X -9 Y 3 X -19 Y 3 X 22 Y 3 X -9 Y 3 X -12 Y 3 X 6
 Y 3 X 44 Y 3 X -26 Y 3 X -30 Y 3 X 31 Y 3 X -39 Y 3 X 29 Y 3 X 25 Y 3 X -13 Y 3 X -4 Y 3 X 1 Y 3 X -2 Y 3 X 24 Y 2 X -22 Y 3 X -18 Y 3 X 41 Y 3 X -91 Y 3 X 76 Y 3 X -19 Y 3 X 3 Y 3 X -14 Y 3 X 11 Y 3 X 11 Y 3 X 4 Y 3 X 20 Y 3 X -41 Y 3 X 22 Y 3 X
 -17 Y 3 X 23 Y 3 X -2 Y 3 X 10 Y 3 X 4 Y 2 X -47 Y 3 X 22 Y 3 X 2 Y 3 X -18 Y 3 X 22 Y 3 X -3 Y 3 X 21 Y 3 X -18 Y 3 X -4 Y 3 X -21 Y 3 X 54 Y 3 X -21 Y 3 X -16 Y 3 X 28 Y 3 X -14 Y 3 X -13 Y 3 X 28 Y 3 X -21 Y 3 X 13 Y 3 X -20 Y 2 X -13 Y 3 X 20 Y
 3 X 12 Y 3 X -22 Y 3 X -4 Y 3 X 1 Y 3 X -2 Y 3 X 5 Y 3 X 8 Y 3 X 8 Y 3 X -3 Y 3 X 6 Y 3 X 7 Y 3 X 6 Y 3 X -39 Y 3 X 3 Y 3 X 18 Y 3 X 5 Y 3 X -22 Y 2 X 12 Y 3 X -17 Y 3 X 9 Y 3 X -20 Y 3 X -18 Y 3 X 61 Y 3 X -5 Y 3 X -9 Y 3 X -15 Y 3 X 26 Y 3 X -28 Y
 3 X 39 Y 3 X -21 Y 3 X 16 Y 3 X -29 Y 3 X 17 Y 3 X -10 Y 3 X -8 Y 3 X 6 Y 3 X 36 Y 2 X -55 Y 3 X 8 Y 3 X 16 Y 3 X 8 Y 3 X -26 Y 3 X 36 Y 3 X -8 Y 3 X -12 Y 3 X -32 Y 3 X 38 Y 3 X 12 Y 3 X -49 Y 3 X 10 Y 3 X 17 Y 3 X -15 Y 3 X -9 Y 3 X 24 Y 3 X -35 Y
 3 X 2 Y 2 X 34 Y 3 X -30 Y 3 X 7 Y 3 X 27 Y 3 X -16 Y 3 X 17 Y 3 X 31 Y 3 X -49 Y 3 X 7 Y 3 X -23 Y 3 X 20 Y 3 X 49 Y 3 X -33 Y 3 X 12 Y 3 X -6 Y 3 X -45 Y 3 X 23 Y 3 X 2 Y 3 X 13 Y 3 X -9 Y 2 X -5 Y 3 X 34 Y 3 X -15 Y 3 X 13 Y 3 X -15 Y 3 X 18 Y 3
 X -57 Y 3 X 58 Y 3 X -31 Y 3 X -18 Y 3 X 49 Y 3 X -18 Y 3 X -17 Y 3 X 18 Y 3 X -7 Y 3 X 6 Y 3 X 4 Y 3 X 5 Y 3 X -33 Y 2 X 8 Y 3 X -20 Y 3 X 37 Y 3 X 5 Y 3 X -9 Y 3 X -3 Y 3 X -11 Y 3 X 2 Y 3 X 26 Y 3 X 9 Y 3 X -42 Y 3 X 19 Y 3 X 12 Y 3 X -24 Y 3 X
 13 Y 3 X -16 Y 3 X 17 Y 3 X -22 Y 3 X 3 Y 3 X -4 Y 2 X 24 Y 3 X -35 Y 3 X 57 Y 3 X -33 Y 3 X -17 Y 3 X 22 Y 3 X 23 Y 3 X -11 Y 3 X -19 Y 3 X -3 Y 3 X -4 Y 3 X 3 Y 3 X 33 Y 3 X -29 Y 3 X 22 Y 3 X s black 108 91 m 590 X s 108 108 m -17 Y s 123 100 m
 -9 Y s 137 100 m -9 Y s 152 100 m -9 Y s 167 108 m -17 Y s 182 100 m -9 Y s 196 100 m -9 Y s 211 100 m -9 Y s 226 108 m -17 Y s 241 100 m -9 Y s 255 100 m -9 Y s 270 100 m -9 Y s 285 108 m -17 Y s 300 100 m -9 Y s 314 100 m -9 Y s 329 100 m -9 Y s
 344 108 m -17 Y s 359 100 m -9 Y s 373 100 m -9 Y s 388 100 m -9 Y s 403 108 m -17 Y s 418 100 m -9 Y s 432 100 m -9 Y s 447 100 m -9 Y s 462 108 m -17 Y s 477 100 m -9 Y s 491 100 m -9 Y s 506 100 m -9 Y s 521 108 m -17 Y s 536 100 m -9 Y s 550 100
 m -9 Y s 565 100 m -9 Y s 580 108 m -17 Y s 594 100 m -9 Y s 609 100 m -9 Y s 624 100 m -9 Y s 639 108 m -17 Y s 653 100 m -9 Y s 668 100 m -9 Y s 683 100 m -9 Y s 698 108 m -17 Y s
 gsave  710 696 23 14 C 98.4866 68.183 t 0 r /Helvetica findfont 22.7706 sf 0 0 m (0) show NC gr 
 gsave  710 696 23 14 C 154.043 68.183 t 0 r /Helvetica findfont 22.7706 sf 0 0 m (20) show NC gr 
 gsave  710 696 23 14 C 212.125 68.183 t 0 r /Helvetica findfont 22.7706 sf 0 0 m (40) show NC gr 
 gsave  710 696 23 14 C 270.207 68.183 t 0 r /Helvetica findfont 22.7706 sf 0 0 m (60) show NC gr 
 gsave  710 696 23 14 C 330.814 68.183 t 0 r /Helvetica findfont 22.7706 sf 0 0 m (80) show NC gr 
 gsave  710 696 23 14 C 381.32 68.183 t 0 r /Helvetica findfont 22.7706 sf 0 0 m (100) show NC gr 
 gsave  710 696 23 14 C 439.402 68.183 t 0 r /Helvetica findfont 22.7706 sf 0 0 m (120) show NC gr 
 gsave  710 696 23 14 C 500.009 68.183 t 0 r /Helvetica findfont 22.7706 sf 0 0 m (140) show NC gr 
 gsave  710 696 23 14 C 558.091 68.183 t 0 r /Helvetica findfont 22.7706 sf 0 0 m (160) show NC gr 
 gsave  710 696 23 14 C 616.172 68.183 t 0 r /Helvetica findfont 22.7706 sf 0 0 m (180) show NC gr 
 gsave  710 696 23 14 C 676.78 68.183 t 0 r /Helvetica findfont 22.7706 sf 0 0 m (200) show NC gr 
 gsave  710 696 23 14 C 643.951 42.93 t 0 r /Helvetica findfont 22.7706 sf 0 0 m (#tree) show NC gr  108 641 m 590 X s 108 623 m 18 Y s 123 632 m 9 Y s 137 632 m 9 Y s 152 632 m 9 Y s 167 623 m 18 Y s 182 632 m 9 Y s 196 632 m 9 Y s 211 632 m 9 Y s
 226 623 m 18 Y s 241 632 m 9 Y s 255 632 m 9 Y s 270 632 m 9 Y s 285 623 m 18 Y s 300 632 m 9 Y s 314 632 m 9 Y s 329 632 m 9 Y s 344 623 m 18 Y s 359 632 m 9 Y s 373 632 m 9 Y s 388 632 m 9 Y s 403 623 m 18 Y s 418 632 m 9 Y s 432 632 m 9 Y s 447
 632 m 9 Y s 462 623 m 18 Y s 477 632 m 9 Y s 491 632 m 9 Y s 506 632 m 9 Y s 521 623 m 18 Y s 536 632 m 9 Y s 550 632 m 9 Y s 565 632 m 9 Y s 580 623 m 18 Y s 594 632 m 9 Y s 609 632 m 9 Y s 624 632 m 9 Y s 639 623 m 18 Y s 653 632 m 9 Y s 668 632 m
 9 Y s 683 632 m 9 Y s 698 623 m 18 Y s 108 91 m 550 Y s 125 91 m -17 X s 116 109 m -8 X s 116 127 m -8 X s 116 145 m -8 X s 116 162 m -8 X s 125 180 m -17 X s 116 198 m -8 X s 116 216 m -8 X s 116 234 m -8 X s 116 252 m -8 X s 125 269 m -17 X s 116
 287 m -8 X s 116 305 m -8 X s 116 323 m -8 X s 116 341 m -8 X s 125 359 m -17 X s 116 376 m -8 X s 116 394 m -8 X s 116 412 m -8 X s 116 430 m -8 X s 125 448 m -17 X s 116 466 m -8 X s 116 483 m -8 X s 116 501 m -8 X s 116 519 m -8 X s 125 537 m -17
 X s 116 555 m -8 X s 116 573 m -8 X s 116 590 m -8 X s 116 608 m -8 X s 125 626 m -17 X s 125 626 m -17 X s
 gsave  710 696 23 14 C 90.9107 83.3348 t 0 r /Helvetica findfont 22.7706 sf 0 0 m (0) show NC gr 
 gsave  710 696 23 14 C 75.7589 171.72 t 0 r /Helvetica findfont 22.7706 sf 0 0 m (0.1) show NC gr 
 gsave  710 696 23 14 C 70.7083 260.106 t 0 r /Helvetica findfont 22.7706 sf 0 0 m (0.2) show NC gr 
 gsave  710 696 23 14 C 70.7083 348.491 t 0 r /Helvetica findfont 22.7706 sf 0 0 m (0.3) show NC gr 
 gsave  710 696 23 14 C 70.7083 439.402 t 0 r /Helvetica findfont 22.7706 sf 0 0 m (0.4) show NC gr 
 gsave  710 696 23 14 C 70.7083 527.787 t 0 r /Helvetica findfont 22.7706 sf 0 0 m (0.5) show NC gr 
 gsave  710 696 23 14 C 70.7083 616.172 t 0 r /Helvetica findfont 22.7706 sf 0 0 m (0.6) show NC gr 
 gsave  710 696 23 14 C 55.5565 512.635 t 90 r /Helvetica findfont 22.7706 sf 0 0 m (error fraction) show NC gr  698 91 m 550 Y s 681 91 m 17 X s 689 109 m 9 X s 689 127 m 9 X s 689 145 m 9 X s 689 162 m 9 X s 681 180 m 17 X s 689 198 m 9 X s 689 216
 m 9 X s 689 234 m 9 X s 689 252 m 9 X s 681 269 m 17 X s 689 287 m 9 X s 689 305 m 9 X s 689 323 m 9 X s 689 341 m 9 X s 681 359 m 17 X s 689 376 m 9 X s 689 394 m 9 X s 689 412 m 9 X s 689 430 m 9 X s 681 448 m 17 X s 689 466 m 9 X s 689 483 m 9 X
 s 689 501 m 9 X s 689 519 m 9 X s 681 537 m 17 X s 689 555 m 9 X s 689 573 m 9 X s 689 590 m 9 X s 689 608 m 9 X s 681 626 m 17 X s 681 626 m 17 X s 0.490196 0.545098 0.615686 c 0.364706 0.419608 0.490196 c 466 36 30 671 bf 0.490196 0.545098
 0.615686 c 30 671 m 466 X s 496 671 m 36 Y s 496 707 m -466 X s 30 707 m -36 Y s 1 1 1 c black 1 1 1 c
 gsave  710 696 23 14 C 70.7083 676.78 t 0 r /Helvetica-Bold findfont 27.8308 sf 0 0 m (error fraction vs tree number) show NC gr  0.490196 0.545098 0.615686 c 0.941176 0.941176 0.941176 c 710 696 779 14 bf 0.490196 0.545098 0.615686 c 0.941176
 0.941176 0.941176 c 711 696 1534 14 bf
 gr  gr showpage
end
%%EOF
