%!PS-Adobe-2.0 EPSF-2.0
%%BoundingBox:  0 0 567 419
%%Title: dataset/plots/mva_BDT.eps: TMVA response BDT
%%Creator: ROOT Version 6.14/04
%%CreationDate: Fri Jan 24 09:42:00 2020
%%DocumentNeededResources: ProcSet (FontSetInit)
%%EndComments
%%BeginProlog
80 dict begin
/s {stroke} def /l {lineto} def /m {moveto} def /t {translate} def
/r {rotate} def /rl {roll}  def /R {repeat} def
/d {rlineto} def /rm {rmoveto} def /gr {grestore} def /f {eofill} def
/c {setrgbcolor} def /black {0 setgray} def /sd {setdash} def
/cl {closepath} def /sf {scalefont setfont} def /lw {setlinewidth} def
/box {m dup 0 exch d exch 0 d 0 exch neg d cl} def
/NC{systemdict begin initclip end}def/C{NC box clip newpath}def
/bl {box s} def /bf {gsave box gsave f grestore 1 lw [] 0 sd s grestore} def /Y { 0 exch d} def /X { 0 d} def 
/K {{pop pop 0 moveto} exch kshow} bind def
/ita {/ang 15 def gsave [1 0 ang dup sin exch cos div 1 0 0] concat} def 
/mp {newpath /y exch def /x exch def} def
/side {[w .77 mul w .23 mul] .385 w mul sd w 0 l currentpoint t -144 r} def
/mr {mp x y w2 0 360 arc} def /m24 {mr s} def /m20 {mr f} def
/mb {mp x y w2 add m w2 neg 0 d 0 w neg d w 0 d 0 w d cl} def
/mt {mp x y w2 add m w2 neg w neg d w 0 d cl} def
/w4 {w 4 div} def
/w6 {w 6 div} def
/w8 {w 8 div} def
/m21 {mb f} def /m25 {mb s} def /m22 {mt f} def /m26{mt s} def
/m23 {mp x y w2 sub m w2 w d w neg 0 d cl f} def
/m27 {mp x y w2 add m w3 neg w2 neg d w3 w2 neg d w3 w2 d cl s} def
/m28 {mp x w2 sub y w2 sub w3 add m w3 0 d  0 w3 neg d w3 0 d 0 w3 d w3 0 d  0 w3 d w3 neg 0 d 0 w3 d w3 neg 0 d 0 w3 neg d w3 neg 0 d cl s } def
/m29 {mp gsave x w2 sub y w2 add w3 sub m currentpoint t 4 {side} repeat cl fill gr} def
/m30 {mp gsave x w2 sub y w2 add w3 sub m currentpoint t 4 {side} repeat cl s gr} def
/m31 {mp x y w2 sub m 0 w d x w2 sub y m w 0 d x w2 sub y w2 add m w w neg d x w2 sub y w2 sub m w w d s} def
/m32 {mp x y w2 sub m w2 w d w neg 0 d cl s} def
/m33 {mp x y w2 add m w3 neg w2 neg d w3 w2 neg d w3 w2 d cl f} def
/m34 {mp x w2 sub y w2 sub w3 add m w3 0 d  0 w3 neg d w3 0 d 0 w3 d w3 0 d  0 w3 d w3 neg 0 d 0 w3 d w3 neg 0 d 0 w3 neg d w3 neg 0 d cl f } def
/m35 {mp x y w2 add m w2 neg w2 neg d w2 w2 neg d w2 w2 d w2 neg w2 d x y w2 sub m 0 w d x w2 sub y m w 0 d s} def
/m36 {mb x w2 sub y w2 add m w w neg d x w2 sub y w2 sub m w w d s} def
/m37 {mp x y m w4 neg w2 d w4 neg w2 neg d w2 0 d  w4 neg w2 neg d w2 0 d w4 neg w2 d w2 0 d w4 neg w2 d w4 neg w2 neg d cl s} def
/m38 {mp x w4 sub y w2 add m w4 neg w4 neg d 0 w2 neg d w4 w4 neg d w2 0 d w4 w4 d 0 w2 d w4 neg w4 d w2 neg 0 d x y w2 sub m 0 w d x w2 sub y m w 0 d cl s} def
/m39 {mp x y m w4 neg w2 d w4 neg w2 neg d w2 0 d  w4 neg w2 neg d w2 0 d w4 neg w2 d w2 0 d w4 neg w2 d w4 neg w2 neg d cl f} def
/m40 {mp x y m w4 w2 d w4 w4 neg d w2 neg w4 neg d w2 w4 neg d w4 neg w4 neg d w4 neg w2 d w4 neg w2 neg d w4 neg w4 d w2 w4 d w2 neg w4 d w4 w4 d w4 w2 neg d cl s} def
/m41 {mp x y m w4 w2 d w4 w4 neg d w2 neg w4 neg d w2 w4 neg d w4 neg w4 neg d w4 neg w2 d w4 neg w2 neg d w4 neg w4 d w2 w4 d w2 neg w4 d w4 w4 d w4 w2 neg d cl f} def
/m42 {mp x y w2 add m w8 neg w2 -3 4 div mul d w2 -3 4 div mul w8 neg d w2 3 4 div mul w8 neg d w8 w2 -3 4 div mul d w8 w2 3 4 div mul d w2 3 4 div mul w8 d w2 -3 4 div mul w8 d w8 neg w2 3 4 div mul d cl s} def
/m43 {mp x y w2 add m w8 neg w2 -3 4 div mul d w2 -3 4 div mul w8 neg d w2 3 4 div mul w8 neg d w8 w2 -3 4 div mul d w8 w2 3 4 div mul d w2 3 4 div mul w8 d w2 -3 4 div mul w8 d w8 neg w2 3 4 div mul d cl f} def
/m44 {mp x y m w6 neg w2 d w2 2 3 div mul 0 d w6 neg w2 neg d w2 w6 d 0 w2 -2 3 div mul d w2 neg w6 d w6 w2 neg d w2 -2 3 div mul 0 d w6 w2 d w2 neg w6 neg d 0 w2 2 3 div mul d w2 w6 neg d cl s} def
/m45 {mp x y m w6 neg w2 d w2 2 3 div mul 0 d w6 neg w2 neg d w2 w6 d 0 w2 -2 3 div mul d w2 neg w6 d w6 w2 neg d w2 -2 3 div mul 0 d w6 w2 d w2 neg w6 neg d 0 w2 2 3 div mul d w2 w6 neg d cl f} def
/m46 {mp x y w4 add m w4 neg w4 d w4 neg w4 neg d  w4 w4 neg d w4 neg w4 neg d w4 w4 neg d w4 w4 d w4 w4 neg d w4 w4 d w4 neg w4 d w4 w4 d w4 neg w4 d w4 neg w4 neg d cl s} def
/m47 {mp x y w4 add m w4 neg w4 d w4 neg w4 neg d w4 w4 neg d w4 neg w4 neg d  w4 w4 neg d w4 w4 d w4 w4 neg d w4 w4 d w4 neg w4 d w4 w4 d w4 neg w4 d w4 neg w4 neg d cl f} def
/m48 {mp x y w4 add m w4 neg w4 d w4 neg w4 neg d w4 w4 neg d  w4 neg w4 neg d w4 w4 neg d w4 w4 d w4 w4 neg d w4 w4 d w4 neg w4 d w4 w4 d w4 neg w4 d w4 neg w4 neg d  w4 w4 neg d w4 neg w4 neg d w4 neg w4 d w4 w4 d cl f} def
/m49 {mp x w2 sub w3 add y w2 sub w3 add m  0 w3 neg d w3 0 d 0 w3 d w3 0 d 0 w3 d w3 neg 0 d 0 w3 d w3 neg 0 d 0 w3 neg d w3 neg 0 d 0 w3 neg d w3 0 d 0 w3 d w3 0 d 0 w3 neg d w3 neg 0 d cl f } def
/m2 {mp x y w2 sub m 0 w d x w2 sub y m w 0 d s} def
/m5 {mp x w2 sub y w2 sub m w w d x w2 sub y w2 add m w w neg d s} def
%%IncludeResource: ProcSet (FontSetInit)
%%IncludeResource: font Times-Roman
%%IncludeResource: font Times-Italic
%%IncludeResource: font Times-Bold
%%IncludeResource: font Times-BoldItalic
%%IncludeResource: font Helvetica
%%IncludeResource: font Helvetica-Oblique
%%IncludeResource: font Helvetica-Bold
%%IncludeResource: font Helvetica-BoldOblique
%%IncludeResource: font Courier
%%IncludeResource: font Courier-Oblique
%%IncludeResource: font Courier-Bold
%%IncludeResource: font Courier-BoldOblique
%%IncludeResource: font Symbol
%%IncludeResource: font ZapfDingbats
/reEncode {exch findfont dup length dict begin {1 index /FID eq  {pop pop} {def} ifelse } forall /Encoding exch def currentdict end dup /FontName get exch definefont pop } def [/Times-Bold /Times-Italic /Times-BoldItalic /Helvetica /Helvetica-Oblique
 /Helvetica-Bold /Helvetica-BoldOblique /Courier /Courier-Oblique /Courier-Bold /Courier-BoldOblique /Times-Roman /AvantGarde-Book /AvantGarde-BookOblique /AvantGarde-Demi /AvantGarde-DemiOblique /Bookman-Demi /Bookman-DemiItalic /Bookman-Light
 /Bookman-LightItalic /Helvetica-Narrow /Helvetica-Narrow-Bold /Helvetica-Narrow-BoldOblique /Helvetica-Narrow-Oblique /NewCenturySchlbk-Roman /NewCenturySchlbk-Bold /NewCenturySchlbk-BoldItalic /NewCenturySchlbk-Italic /Palatino-Bold
 /Palatino-BoldItalic /Palatino-Italic /Palatino-Roman ] {ISOLatin1Encoding reEncode } forall
%%EndProlog
%%BeginSetup
%%EndSetup
newpath  gsave  .25 .25 scale  gsave  0 0 t 0.490196 0.545098 0.615686 c[  ] 0 sd 3 lw 0.941176 0.941176 0.941176 c 2268 1676 0 0 bf black 1 1 0.992157 c 1916 1308 238 201 bf black 1916 1308 238 201 bl 1 1 0.992157 c 1916 1308 238 201 bf black 1916
 1308 238 201 bl 238 201 m 1916 X s 268 244 m -43 Y s 307 222 m -21 Y s 345 222 m -21 Y s 384 222 m -21 Y s 423 222 m -21 Y s 462 244 m -43 Y s 501 222 m -21 Y s 540 222 m -21 Y s 579 222 m -21 Y s 618 222 m -21 Y s 657 244 m -43 Y s 695 222 m -21 Y
 s 734 222 m -21 Y s 773 222 m -21 Y s 812 222 m -21 Y s 851 244 m -43 Y s 890 222 m -21 Y s 929 222 m -21 Y s 968 222 m -21 Y s 1007 222 m -21 Y s 1046 244 m -43 Y s 1084 222 m -21 Y s 1123 222 m -21 Y s 1162 222 m -21 Y s 1201 222 m -21 Y s 1240
 244 m -43 Y s 1279 222 m -21 Y s 1318 222 m -21 Y s 1357 222 m -21 Y s 1396 222 m -21 Y s 1434 244 m -43 Y s 1473 222 m -21 Y s 1512 222 m -21 Y s 1551 222 m -21 Y s 1590 222 m -21 Y s 1629 244 m -43 Y s 1668 222 m -21 Y s 1707 222 m -21 Y s 1746
 222 m -21 Y s 1785 222 m -21 Y s 1823 244 m -43 Y s 1862 222 m -21 Y s 1901 222 m -21 Y s 1940 222 m -21 Y s 1979 222 m -21 Y s 2018 244 m -43 Y s 268 244 m -43 Y s 2018 244 m -43 Y s 2057 222 m -21 Y s 2096 222 m -21 Y s 2135 222 m -21 Y s
 gsave  2268 1676 0 0 C 235.114 128.934 t 0 r /Helvetica-Bold findfont 64.4669 sf 0 0 m (0.5) show NC gr 
 gsave  2268 1676 0 0 C 204.777 128.934 t 0 r /Symbol findfont 64.4669 sf 0 0 m (-) show NC gr 
 gsave  2268 1676 0 0 C 428.515 128.934 t 0 r /Helvetica-Bold findfont 64.4669 sf 0 0 m (0.4) show NC gr 
 gsave  2268 1676 0 0 C 394.385 128.934 t 0 r /Symbol findfont 64.4669 sf 0 0 m (-) show NC gr 
 gsave  2268 1676 0 0 C 625.708 128.934 t 0 r /Helvetica-Bold findfont 64.4669 sf 0 0 m (0.3) show NC gr 
 gsave  2268 1676 0 0 C 595.37 128.934 t 0 r /Symbol findfont 64.4669 sf 0 0 m (-) show NC gr 
 gsave  2268 1676 0 0 C 819.108 128.934 t 0 r /Helvetica-Bold findfont 64.4669 sf 0 0 m (0.2) show NC gr 
 gsave  2268 1676 0 0 C 788.771 128.934 t 0 r /Symbol findfont 64.4669 sf 0 0 m (-) show NC gr 
 gsave  2268 1676 0 0 C 1016.3 128.934 t 0 r /Helvetica-Bold findfont 64.4669 sf 0 0 m (0.1) show NC gr 
 gsave  2268 1676 0 0 C 985.964 128.934 t 0 r /Symbol findfont 64.4669 sf 0 0 m (-) show NC gr 
 gsave  2268 1676 0 0 C 1217.29 128.934 t 0 r /Helvetica-Bold findfont 64.4669 sf 0 0 m (0) show NC gr 
 gsave  2268 1676 0 0 C 1391.73 128.934 t 0 r /Helvetica-Bold findfont 64.4669 sf 0 0 m (0.1) show NC gr 
 gsave  2268 1676 0 0 C 1581.33 128.934 t 0 r /Helvetica-Bold findfont 64.4669 sf 0 0 m (0.2) show NC gr 
 gsave  2268 1676 0 0 C 1774.73 128.934 t 0 r /Helvetica-Bold findfont 64.4669 sf 0 0 m (0.3) show NC gr 
 gsave  2268 1676 0 0 C 1971.93 128.934 t 0 r /Helvetica-Bold findfont 64.4669 sf 0 0 m (0.4) show NC gr 
 gsave  2268 1676 0 0 C 1664.76 34.1295 t 0 r /Helvetica-Bold findfont 72.0512 sf 0 0 m (BDT response) show NC gr  238 1509 m 1916 X s 268 1466 m 43 Y s 307 1487 m 22 Y s 345 1487 m 22 Y s 384 1487 m 22 Y s 423 1487 m 22 Y s 462 1466 m 43 Y s 501
 1487 m 22 Y s 540 1487 m 22 Y s 579 1487 m 22 Y s 618 1487 m 22 Y s 657 1466 m 43 Y s 695 1487 m 22 Y s 734 1487 m 22 Y s 773 1487 m 22 Y s 812 1487 m 22 Y s 851 1466 m 43 Y s 890 1487 m 22 Y s 929 1487 m 22 Y s 968 1487 m 22 Y s 1007 1487 m 22 Y s
 1046 1466 m 43 Y s 1084 1487 m 22 Y s 1123 1487 m 22 Y s 1162 1487 m 22 Y s 1201 1487 m 22 Y s 1240 1466 m 43 Y s 1279 1487 m 22 Y s 1318 1487 m 22 Y s 1357 1487 m 22 Y s 1396 1487 m 22 Y s 1434 1466 m 43 Y s 1473 1487 m 22 Y s 1512 1487 m 22 Y s
 1551 1487 m 22 Y s 1590 1487 m 22 Y s 1629 1466 m 43 Y s 1668 1487 m 22 Y s 1707 1487 m 22 Y s 1746 1487 m 22 Y s 1785 1487 m 22 Y s 1823 1466 m 43 Y s 1862 1487 m 22 Y s 1901 1487 m 22 Y s 1940 1487 m 22 Y s 1979 1487 m 22 Y s 2018 1466 m 43 Y s
 268 1466 m 43 Y s 2018 1466 m 43 Y s 2057 1487 m 22 Y s 2096 1487 m 22 Y s 2135 1487 m 22 Y s 238 201 m 1308 Y s 291 201 m -53 X s 265 238 m -27 X s 265 274 m -27 X s 265 311 m -27 X s 265 347 m -27 X s 291 384 m -53 X s 265 420 m -27 X s 265 457 m
 -27 X s 265 493 m -27 X s 265 530 m -27 X s 291 566 m -53 X s 265 603 m -27 X s 265 639 m -27 X s 265 676 m -27 X s 265 712 m -27 X s 291 749 m -53 X s 265 785 m -27 X s 265 822 m -27 X s 265 858 m -27 X s 265 895 m -27 X s 291 931 m -53 X s 265 968
 m -27 X s 265 1004 m -27 X s 265 1041 m -27 X s 265 1077 m -27 X s 291 1114 m -53 X s 265 1150 m -27 X s 265 1187 m -27 X s 265 1223 m -27 X s 265 1260 m -27 X s 291 1296 m -53 X s 265 1333 m -27 X s 265 1369 m -27 X s 265 1406 m -27 X s 265 1442 m
 -27 X s 291 1479 m -53 X s 291 1479 m -53 X s
 gsave  2268 1676 0 0 C 174.44 178.232 t 0 r /Helvetica-Bold findfont 64.4669 sf 0 0 m (0) show NC gr 
 gsave  2268 1676 0 0 C 121.349 360.256 t 0 r /Helvetica-Bold findfont 64.4669 sf 0 0 m (0.5) show NC gr 
 gsave  2268 1676 0 0 C 182.024 542.28 t 0 r /Helvetica-Bold findfont 64.4669 sf 0 0 m (1) show NC gr 
 gsave  2268 1676 0 0 C 121.349 724.304 t 0 r /Helvetica-Bold findfont 64.4669 sf 0 0 m (1.5) show NC gr 
 gsave  2268 1676 0 0 C 174.44 906.328 t 0 r /Helvetica-Bold findfont 64.4669 sf 0 0 m (2) show NC gr 
 gsave  2268 1676 0 0 C 121.349 1088.35 t 0 r /Helvetica-Bold findfont 64.4669 sf 0 0 m (2.5) show NC gr 
 gsave  2268 1676 0 0 C 174.44 1270.38 t 0 r /Helvetica-Bold findfont 64.4669 sf 0 0 m (3) show NC gr 
 gsave  2268 1676 0 0 C 121.349 1452.4 t 0 r /Helvetica-Bold findfont 64.4669 sf 0 0 m (3.5) show NC gr 
 gsave  2268 1676 0 0 C 64.4669 1425.86 t 90 r /Helvetica-Bold findfont 72.0512 sf 0 0 m (dx) show NC gr 
 gsave  2268 1676 0 0 C 30.3373 1406.89 t 90 r /Helvetica-Bold findfont 45.506 sf 0 0 m ( ) show NC gr 
 gsave  2268 1676 0 0 C 64.4669 1384.14 t 90 r /Helvetica-Bold findfont 72.0512 sf 0 0 m (/) show NC gr 
 gsave  2268 1676 0 0 C 30.3373 1365.18 t 90 r /Helvetica-Bold findfont 45.506 sf 0 0 m ( ) show NC gr 
 gsave  2268 1676 0 0 C 60.6747 1092.14 t 90 r /Helvetica-Bold findfont 72.0512 sf 0 0 m (\(1/N\) dN) show NC gr  2154 201 m 1308 Y s 2101 201 m 53 X s 2128 238 m 26 X s 2128 274 m 26 X s 2128 311 m 26 X s 2128 347 m 26 X s 2101 384 m 53 X s 2128 420
 m 26 X s 2128 457 m 26 X s 2128 493 m 26 X s 2128 530 m 26 X s 2101 566 m 53 X s 2128 603 m 26 X s 2128 639 m 26 X s 2128 676 m 26 X s 2128 712 m 26 X s 2101 749 m 53 X s 2128 785 m 26 X s 2128 822 m 26 X s 2128 858 m 26 X s 2128 895 m 26 X s 2101
 931 m 53 X s 2128 968 m 26 X s 2128 1004 m 26 X s 2128 1041 m 26 X s 2128 1077 m 26 X s 2101 1114 m 53 X s 2128 1150 m 26 X s 2128 1187 m 26 X s 2128 1223 m 26 X s 2128 1260 m 26 X s 2101 1296 m 53 X s 2128 1333 m 26 X s 2128 1369 m 26 X s 2128 1406
 m 26 X s 2128 1442 m 26 X s 2101 1479 m 53 X s 2101 1479 m 53 X s 0.490196 0.545098 0.615686 c 1 1 1 c 0.490196 0.545098 0.615686 c 680 202 238 1307 bl 238 1307 m 680 X s 918 1307 m 202 Y s 918 1509 m -680 X s 238 1509 m -202 Y s black
 gsave  2268 1676 0 0 C 439.892 1437.23 t 0 r /Helvetica-Bold findfont 75.8434 sf 0 0 m (Signal) show NC gr  0.49 0.6 0.82 c 269 1423 m 143 X 70 Y -143 X f 0 0 0.933333 c 6 lw 269 1493 m 143 X s 269 1423 m 143 X s 412 1423 m 70 Y s 269 1423 m 70 Y s
 black
 gsave  2268 1676 0 0 C 439.892 1338.64 t 0 r /Helvetica-Bold findfont 75.8434 sf 0 0 m (Background) show NC gr  1 0 0 c 3 lw 412 1326 m -4 -4 d s 412 1374 m -52 -52 d s 383 1393 m -71 -71 d s 335 1393 m -66 -66 d s 286 1393 m -17 -18 d s 6 lw 0 0
 0.933333 c 1 0 0 c 269 1393 m 143 X s 269 1322 m 143 X s 412 1322 m 71 Y s 269 1322 m 71 Y s 0 0 0.933333 c 0.49 0.6 0.82 c black 3 lw 0.49 0.6 0.82 c 238 201 m 48 X 6 Y 48 X -6 Y 96 X 6 Y 48 X 24 Y 48 X 6 Y 47 X 6 Y 48 X -6 Y 48 X 72 Y 48 X -24 Y
 48 X 18 Y 48 X 96 Y 48 X -12 Y 48 X 60 Y 48 X 12 Y 48 X -48 Y 48 X 101 Y 47 X 48 Y 48 X 156 Y 48 X -102 Y 48 X 120 Y 48 X -186 Y 48 X 198 Y 48 X 24 Y 48 X 36 Y 48 X 42 Y 48 X 89 Y 47 X 234 Y 48 X -18 Y 48 X 42 Y 48 X 96 Y 48 X -24 Y 48 X -300 Y 48 X
 -6 Y 48 X -287 Y 48 X -120 Y 48 X -209 Y 48 X -66 Y 47 X -30 Y 48 X -48 Y f 6 lw 0 0 0.933333 c 0.49 0.6 0.82 c 0 0 0.933333 c 238 201 m 48 X 6 Y 48 X -6 Y 96 X 6 Y 48 X 24 Y 48 X 6 Y 47 X 6 Y 48 X -6 Y 48 X 72 Y 48 X -24 Y 48 X 18 Y 48 X 96 Y 48 X
 -12 Y 48 X 60 Y 48 X 12 Y 48 X -48 Y 48 X 101 Y 47 X 48 Y 48 X 156 Y 48 X -102 Y 48 X 120 Y 48 X -186 Y 48 X 198 Y 48 X 24 Y 48 X 36 Y 48 X 42 Y 48 X 89 Y 47 X 234 Y 48 X -18 Y 48 X 42 Y 48 X 96 Y 48 X -24 Y 48 X -300 Y 48 X -6 Y 48 X -287 Y 48 X
 -120 Y 48 X -209 Y 48 X -66 Y 47 X -30 Y 48 X -48 Y s 1 0 0 c black 3 lw 1 0 0 c 2126 202 m -1 -1 d s 2080 203 m -3 -2 d s 2042 214 m -13 -13 d s 1991 211 m -10 -10 d s 1963 231 m -30 -30 d s 1925 242 m -40 -41 d s 1890 254 m -53 -53 d s 1856 269 m
 -67 -68 d s 1819 280 m -78 -79 d s 1786 295 m -94 -94 d s 1771 328 m -127 -127 d s 1724 329 m -1 -1 d s 1706 311 m -110 -110 d s 1675 328 m -127 -127 d s 1661 362 m -161 -161 d s 1627 377 m -175 -176 d s 1585 383 m -181 -182 d s 1538 384 m -182 -183
 d s 1517 411 m -209 -210 d s 1484 425 m -225 -224 d s 1440 430 m -229 -229 d s 1402 440 m -239 -239 d s 1359 445 m -244 -244 d s 1340 474 m -273 -273 d s 1299 481 m -280 -280 d s 1292 522 m -321 -321 d s 1292 570 m -369 -369 d s 1292 619 m -417 -418
 d s 1258 633 m -431 -432 d s 1244 667 m -466 -466 d s 1244 715 m -514 -514 d s 1218 737 m -536 -536 d s 1196 763 m -562 -562 d s 1196 811 m -610 -610 d s 1173 836 m -73 -72 d s 1057 720 m -519 -519 d s 1148 860 m -48 -48 d s 1053 764 m -563 -563 d s
 1136 896 m -36 -36 d s 1053 812 m -611 -611 d s 1027 835 m -633 -634 d s 1005 860 m -660 -659 d s 1005 908 m -708 -707 d s 1005 956 m -671 -670 d s 323 274 m -74 -73 d s 993 993 m -611 -611 d s 365 365 m -31 -31 d s 279 279 m -41 -41 d s 957 1005 m
 -527 -527 d s 394 442 m -12 -12 d s 957 1053 m -527 -527 d s 949 1093 m -136 -136 d s 774 918 m -201 -200 d s 569 713 m -91 -91 d s 440 585 m -10 -11 d s 909 1101 m -48 -48 d s 825 1018 m -12 -13 d s 765 957 m -96 -95 d s 659 852 m -86 -86 d s 517
 710 m -39 -40 d s 906 1146 m -45 -45 d s 765 1006 m -48 -48 d s 715 956 m -46 -46 d s 614 854 m -41 -40 d s 765 1054 m -48 -48 d s 765 1102 m -48 -48 d s 757 1142 m -40 -40 d s 6 lw 238 279 m 48 X -5 Y 48 X 91 Y 48 X 77 Y 48 X 143 Y 48 X 125 Y 48 X
 3 Y 47 X 141 Y 48 X -2 Y 48 X 104 Y 48 X 186 Y 48 X -224 Y 48 X 100 Y 48 X 128 Y 48 X -53 Y 48 X -100 Y 48 X -158 Y 48 X -115 Y 47 X 176 Y 48 X -60 Y 48 X -99 Y 48 X -104 Y 48 X -152 Y 48 X -36 Y 48 X -5 Y 48 X -10 Y 48 X -19 Y 48 X -27 Y 47 X -1 Y
 48 X -21 Y 48 X -51 Y 48 X 18 Y 48 X -34 Y 48 X -26 Y 48 X -15 Y 48 X -12 Y 48 X -31 Y 48 X 3 Y 48 X -11 Y 47 X -1 Y 48 X -1 Y s black 3 lw 238 201 m 1916 X s 268 244 m -43 Y s 307 222 m -21 Y s 345 222 m -21 Y s 384 222 m -21 Y s 423 222 m -21 Y s
 462 244 m -43 Y s 501 222 m -21 Y s 540 222 m -21 Y s 579 222 m -21 Y s 618 222 m -21 Y s 657 244 m -43 Y s 695 222 m -21 Y s 734 222 m -21 Y s 773 222 m -21 Y s 812 222 m -21 Y s 851 244 m -43 Y s 890 222 m -21 Y s 929 222 m -21 Y s 968 222 m -21 Y
 s 1007 222 m -21 Y s 1046 244 m -43 Y s 1084 222 m -21 Y s 1123 222 m -21 Y s 1162 222 m -21 Y s 1201 222 m -21 Y s 1240 244 m -43 Y s 1279 222 m -21 Y s 1318 222 m -21 Y s 1357 222 m -21 Y s 1396 222 m -21 Y s 1434 244 m -43 Y s 1473 222 m -21 Y s
 1512 222 m -21 Y s 1551 222 m -21 Y s 1590 222 m -21 Y s 1629 244 m -43 Y s 1668 222 m -21 Y s 1707 222 m -21 Y s 1746 222 m -21 Y s 1785 222 m -21 Y s 1823 244 m -43 Y s 1862 222 m -21 Y s 1901 222 m -21 Y s 1940 222 m -21 Y s 1979 222 m -21 Y s
 2018 244 m -43 Y s 268 244 m -43 Y s 2018 244 m -43 Y s 2057 222 m -21 Y s 2096 222 m -21 Y s 2135 222 m -21 Y s 238 1509 m 1916 X s 268 1466 m 43 Y s 307 1487 m 22 Y s 345 1487 m 22 Y s 384 1487 m 22 Y s 423 1487 m 22 Y s 462 1466 m 43 Y s 501 1487
 m 22 Y s 540 1487 m 22 Y s 579 1487 m 22 Y s 618 1487 m 22 Y s 657 1466 m 43 Y s 695 1487 m 22 Y s 734 1487 m 22 Y s 773 1487 m 22 Y s 812 1487 m 22 Y s 851 1466 m 43 Y s 890 1487 m 22 Y s 929 1487 m 22 Y s 968 1487 m 22 Y s 1007 1487 m 22 Y s 1046
 1466 m 43 Y s 1084 1487 m 22 Y s 1123 1487 m 22 Y s 1162 1487 m 22 Y s 1201 1487 m 22 Y s 1240 1466 m 43 Y s 1279 1487 m 22 Y s 1318 1487 m 22 Y s 1357 1487 m 22 Y s 1396 1487 m 22 Y s 1434 1466 m 43 Y s 1473 1487 m 22 Y s 1512 1487 m 22 Y s 1551
 1487 m 22 Y s 1590 1487 m 22 Y s 1629 1466 m 43 Y s 1668 1487 m 22 Y s 1707 1487 m 22 Y s 1746 1487 m 22 Y s 1785 1487 m 22 Y s 1823 1466 m 43 Y s 1862 1487 m 22 Y s 1901 1487 m 22 Y s 1940 1487 m 22 Y s 1979 1487 m 22 Y s 2018 1466 m 43 Y s 268
 1466 m 43 Y s 2018 1466 m 43 Y s 2057 1487 m 22 Y s 2096 1487 m 22 Y s 2135 1487 m 22 Y s 238 201 m 1308 Y s 291 201 m -53 X s 265 238 m -27 X s 265 274 m -27 X s 265 311 m -27 X s 265 347 m -27 X s 291 384 m -53 X s 265 420 m -27 X s 265 457 m -27
 X s 265 493 m -27 X s 265 530 m -27 X s 291 566 m -53 X s 265 603 m -27 X s 265 639 m -27 X s 265 676 m -27 X s 265 712 m -27 X s 291 749 m -53 X s 265 785 m -27 X s 265 822 m -27 X s 265 858 m -27 X s 265 895 m -27 X s 291 931 m -53 X s 265 968 m
 -27 X s 265 1004 m -27 X s 265 1041 m -27 X s 265 1077 m -27 X s 291 1114 m -53 X s 265 1150 m -27 X s 265 1187 m -27 X s 265 1223 m -27 X s 265 1260 m -27 X s 291 1296 m -53 X s 265 1333 m -27 X s 265 1369 m -27 X s 265 1406 m -27 X s 265 1442 m
 -27 X s 291 1479 m -53 X s 291 1479 m -53 X s 2154 201 m 1308 Y s 2101 201 m 53 X s 2128 238 m 26 X s 2128 274 m 26 X s 2128 311 m 26 X s 2128 347 m 26 X s 2101 384 m 53 X s 2128 420 m 26 X s 2128 457 m 26 X s 2128 493 m 26 X s 2128 530 m 26 X s
 2101 566 m 53 X s 2128 603 m 26 X s 2128 639 m 26 X s 2128 676 m 26 X s 2128 712 m 26 X s 2101 749 m 53 X s 2128 785 m 26 X s 2128 822 m 26 X s 2128 858 m 26 X s 2128 895 m 26 X s 2101 931 m 53 X s 2128 968 m 26 X s 2128 1004 m 26 X s 2128 1041 m 26
 X s 2128 1077 m 26 X s 2101 1114 m 53 X s 2128 1150 m 26 X s 2128 1187 m 26 X s 2128 1223 m 26 X s 2128 1260 m 26 X s 2101 1296 m 53 X s 2128 1333 m 26 X s 2128 1369 m 26 X s 2128 1406 m 26 X s 2128 1442 m 26 X s 2101 1479 m 53 X s 2101 1479 m 53 X
 s
 gsave  2268 1676 0 0 C 2211.02 192.756 t 90 r /Helvetica-Bold findfont 45.506 sf 0 0 m (U/O\255flow \(S,B\): \(0.0, 0.0\)% / \(0.0, 0.0\)%) show NC gr  0.490196 0.545098 0.615686 c 0.364706 0.419608 0.490196 c 1357 96 23 1572 bf 0.490196 0.545098
 0.615686 c 23 1572 m 1357 X s 1380 1572 m 96 Y s 1380 1668 m -1357 X s 23 1668 m -96 Y s 1 1 1 c black 1 1 1 c
 gsave  2268 1676 0 0 C 72.0512 1600.29 t 0 r /Helvetica-Bold findfont 75.8434 sf 0 0 m (TMVA response for classifier: BDT) show NC gr 
 gr  gr showpage
end
%%EOF
