%!PS-Adobe-2.0 EPSF-2.0
%%BoundingBox:  0 0 567 419
%%Title: dataset/plots/mvaeffs_BDT.eps: Cut efficiencies for BDT classifier
%%Creator: ROOT Version 6.14/04
%%CreationDate: Fri Jan 24 01:14:29 2020
%%DocumentNeededResources: ProcSet (FontSetInit)
%%EndComments
%%BeginProlog
80 dict begin
/s {stroke} def /l {lineto} def /m {moveto} def /t {translate} def
/r {rotate} def /rl {roll}  def /R {repeat} def
/d {rlineto} def /rm {rmoveto} def /gr {grestore} def /f {eofill} def
/c {setrgbcolor} def /black {0 setgray} def /sd {setdash} def
/cl {closepath} def /sf {scalefont setfont} def /lw {setlinewidth} def
/box {m dup 0 exch d exch 0 d 0 exch neg d cl} def
/NC{systemdict begin initclip end}def/C{NC box clip newpath}def
/bl {box s} def /bf {gsave box gsave f grestore 1 lw [] 0 sd s grestore} def /Y { 0 exch d} def /X { 0 d} def 
/K {{pop pop 0 moveto} exch kshow} bind def
/ita {/ang 15 def gsave [1 0 ang dup sin exch cos div 1 0 0] concat} def 
/mp {newpath /y exch def /x exch def} def
/side {[w .77 mul w .23 mul] .385 w mul sd w 0 l currentpoint t -144 r} def
/mr {mp x y w2 0 360 arc} def /m24 {mr s} def /m20 {mr f} def
/mb {mp x y w2 add m w2 neg 0 d 0 w neg d w 0 d 0 w d cl} def
/mt {mp x y w2 add m w2 neg w neg d w 0 d cl} def
/w4 {w 4 div} def
/w6 {w 6 div} def
/w8 {w 8 div} def
/m21 {mb f} def /m25 {mb s} def /m22 {mt f} def /m26{mt s} def
/m23 {mp x y w2 sub m w2 w d w neg 0 d cl f} def
/m27 {mp x y w2 add m w3 neg w2 neg d w3 w2 neg d w3 w2 d cl s} def
/m28 {mp x w2 sub y w2 sub w3 add m w3 0 d  0 w3 neg d w3 0 d 0 w3 d w3 0 d  0 w3 d w3 neg 0 d 0 w3 d w3 neg 0 d 0 w3 neg d w3 neg 0 d cl s } def
/m29 {mp gsave x w2 sub y w2 add w3 sub m currentpoint t 4 {side} repeat cl fill gr} def
/m30 {mp gsave x w2 sub y w2 add w3 sub m currentpoint t 4 {side} repeat cl s gr} def
/m31 {mp x y w2 sub m 0 w d x w2 sub y m w 0 d x w2 sub y w2 add m w w neg d x w2 sub y w2 sub m w w d s} def
/m32 {mp x y w2 sub m w2 w d w neg 0 d cl s} def
/m33 {mp x y w2 add m w3 neg w2 neg d w3 w2 neg d w3 w2 d cl f} def
/m34 {mp x w2 sub y w2 sub w3 add m w3 0 d  0 w3 neg d w3 0 d 0 w3 d w3 0 d  0 w3 d w3 neg 0 d 0 w3 d w3 neg 0 d 0 w3 neg d w3 neg 0 d cl f } def
/m35 {mp x y w2 add m w2 neg w2 neg d w2 w2 neg d w2 w2 d w2 neg w2 d x y w2 sub m 0 w d x w2 sub y m w 0 d s} def
/m36 {mb x w2 sub y w2 add m w w neg d x w2 sub y w2 sub m w w d s} def
/m37 {mp x y m w4 neg w2 d w4 neg w2 neg d w2 0 d  w4 neg w2 neg d w2 0 d w4 neg w2 d w2 0 d w4 neg w2 d w4 neg w2 neg d cl s} def
/m38 {mp x w4 sub y w2 add m w4 neg w4 neg d 0 w2 neg d w4 w4 neg d w2 0 d w4 w4 d 0 w2 d w4 neg w4 d w2 neg 0 d x y w2 sub m 0 w d x w2 sub y m w 0 d cl s} def
/m39 {mp x y m w4 neg w2 d w4 neg w2 neg d w2 0 d  w4 neg w2 neg d w2 0 d w4 neg w2 d w2 0 d w4 neg w2 d w4 neg w2 neg d cl f} def
/m40 {mp x y m w4 w2 d w4 w4 neg d w2 neg w4 neg d w2 w4 neg d w4 neg w4 neg d w4 neg w2 d w4 neg w2 neg d w4 neg w4 d w2 w4 d w2 neg w4 d w4 w4 d w4 w2 neg d cl s} def
/m41 {mp x y m w4 w2 d w4 w4 neg d w2 neg w4 neg d w2 w4 neg d w4 neg w4 neg d w4 neg w2 d w4 neg w2 neg d w4 neg w4 d w2 w4 d w2 neg w4 d w4 w4 d w4 w2 neg d cl f} def
/m42 {mp x y w2 add m w8 neg w2 -3 4 div mul d w2 -3 4 div mul w8 neg d w2 3 4 div mul w8 neg d w8 w2 -3 4 div mul d w8 w2 3 4 div mul d w2 3 4 div mul w8 d w2 -3 4 div mul w8 d w8 neg w2 3 4 div mul d cl s} def
/m43 {mp x y w2 add m w8 neg w2 -3 4 div mul d w2 -3 4 div mul w8 neg d w2 3 4 div mul w8 neg d w8 w2 -3 4 div mul d w8 w2 3 4 div mul d w2 3 4 div mul w8 d w2 -3 4 div mul w8 d w8 neg w2 3 4 div mul d cl f} def
/m44 {mp x y m w6 neg w2 d w2 2 3 div mul 0 d w6 neg w2 neg d w2 w6 d 0 w2 -2 3 div mul d w2 neg w6 d w6 w2 neg d w2 -2 3 div mul 0 d w6 w2 d w2 neg w6 neg d 0 w2 2 3 div mul d w2 w6 neg d cl s} def
/m45 {mp x y m w6 neg w2 d w2 2 3 div mul 0 d w6 neg w2 neg d w2 w6 d 0 w2 -2 3 div mul d w2 neg w6 d w6 w2 neg d w2 -2 3 div mul 0 d w6 w2 d w2 neg w6 neg d 0 w2 2 3 div mul d w2 w6 neg d cl f} def
/m46 {mp x y w4 add m w4 neg w4 d w4 neg w4 neg d  w4 w4 neg d w4 neg w4 neg d w4 w4 neg d w4 w4 d w4 w4 neg d w4 w4 d w4 neg w4 d w4 w4 d w4 neg w4 d w4 neg w4 neg d cl s} def
/m47 {mp x y w4 add m w4 neg w4 d w4 neg w4 neg d w4 w4 neg d w4 neg w4 neg d  w4 w4 neg d w4 w4 d w4 w4 neg d w4 w4 d w4 neg w4 d w4 w4 d w4 neg w4 d w4 neg w4 neg d cl f} def
/m48 {mp x y w4 add m w4 neg w4 d w4 neg w4 neg d w4 w4 neg d  w4 neg w4 neg d w4 w4 neg d w4 w4 d w4 w4 neg d w4 w4 d w4 neg w4 d w4 w4 d w4 neg w4 d w4 neg w4 neg d  w4 w4 neg d w4 neg w4 neg d w4 neg w4 d w4 w4 d cl f} def
/m49 {mp x w2 sub w3 add y w2 sub w3 add m  0 w3 neg d w3 0 d 0 w3 d w3 0 d 0 w3 d w3 neg 0 d 0 w3 d w3 neg 0 d 0 w3 neg d w3 neg 0 d 0 w3 neg d w3 0 d 0 w3 d w3 0 d 0 w3 neg d w3 neg 0 d cl f } def
/m2 {mp x y w2 sub m 0 w d x w2 sub y m w 0 d s} def
/m5 {mp x w2 sub y w2 sub m w w d x w2 sub y w2 add m w w neg d s} def
%%IncludeResource: ProcSet (FontSetInit)
%%IncludeResource: font Times-Roman
%%IncludeResource: font Times-Italic
%%IncludeResource: font Times-Bold
%%IncludeResource: font Times-BoldItalic
%%IncludeResource: font Helvetica
%%IncludeResource: font Helvetica-Oblique
%%IncludeResource: font Helvetica-Bold
%%IncludeResource: font Helvetica-BoldOblique
%%IncludeResource: font Courier
%%IncludeResource: font Courier-Oblique
%%IncludeResource: font Courier-Bold
%%IncludeResource: font Courier-BoldOblique
%%IncludeResource: font Symbol
%%IncludeResource: font ZapfDingbats
/reEncode {exch findfont dup length dict begin {1 index /FID eq  {pop pop} {def} ifelse } forall /Encoding exch def currentdict end dup /FontName get exch definefont pop } def [/Times-Bold /Times-Italic /Times-BoldItalic /Helvetica /Helvetica-Oblique
 /Helvetica-Bold /Helvetica-BoldOblique /Courier /Courier-Oblique /Courier-Bold /Courier-BoldOblique /Times-Roman /AvantGarde-Book /AvantGarde-BookOblique /AvantGarde-Demi /AvantGarde-DemiOblique /Bookman-Demi /Bookman-DemiItalic /Bookman-Light
 /Bookman-LightItalic /Helvetica-Narrow /Helvetica-Narrow-Bold /Helvetica-Narrow-BoldOblique /Helvetica-Narrow-Oblique /NewCenturySchlbk-Roman /NewCenturySchlbk-Bold /NewCenturySchlbk-BoldItalic /NewCenturySchlbk-Italic /Palatino-Bold
 /Palatino-BoldItalic /Palatino-Italic /Palatino-Roman ] {ISOLatin1Encoding reEncode } forall
%%EndProlog
%%BeginSetup
%%EndSetup
newpath  gsave  .25 .25 scale  gsave  0 0 t 0.490196 0.545098 0.615686 c[  ] 0 sd 3 lw 0.941176 0.941176 0.941176 c 2268 1676 0 0 bf black 1 1 0.992157 c 1796 1140 245 201 bf black 1796 1140 245 201 bl 1 1 0.992157 c 1796 1140 245 201 bf black 1796
 1140 245 201 bl 245 201 m 1796 X s[ 4 8] 0 sd 297 1341 m -1140 Y s 481 1341 m -1140 Y s 665 1341 m -1140 Y s 849 1341 m -1140 Y s 1033 1341 m -1140 Y s 1217 1341 m -1140 Y s 1401 1341 m -1140 Y s 1585 1341 m -1140 Y s 1769 1341 m -1140 Y s 1953 1341
 m -1140 Y s 297 1341 m -1140 Y s 1953 1341 m -1140 Y s[  ] 0 sd 245 201 m 1140 Y s[ 4 8] 0 sd 2041 201 m -1796 X s 2041 408 m -1796 X s 2041 616 m -1796 X s 2041 823 m -1796 X s 2041 1030 m -1796 X s 2041 1237 m -1796 X s 2041 1237 m -1796 X s 0 0
 0.933333 c[  22 12 ] 0 sd 6 lw 0.49 0.6 0.82 c black 0 0 0.933333 c 245 719 m 9 X s 254 719 m 9 X s 263 719 m 8 X s 271 719 m 9 X s 280 719 m 1 1 d 8 X s 289 720 m 9 X s 298 720 m 8 X 1 Y 1 X s 307 721 m 8 X s 315 721 m 9 X 1 Y s 324 722 m 8 X 1 Y 1
 X s 333 723 m 9 X s 342 723 m 7 X 1 Y 2 X s 351 724 m 2 X 1 Y 6 X s 359 725 m 8 X 1 Y 1 X s 368 726 m 9 X s 377 726 m 1 X 1 Y 8 X s 386 727 m 9 X s 395 727 m 3 X 1 Y 5 X s 403 728 m 9 X s 412 728 m 2 X 1 Y 7 X s 421 729 m 2 X 1 1 d 6 X s 430 730 m 2
 X 1 Y 7 X s 439 731 m 1 Y 6 X 1 Y 2 X s 447 733 m 2 X 1 Y 7 X s 456 734 m 3 X 1 Y 4 X 1 1 d 1 X s 465 736 m 3 X 1 Y 3 X 1 Y 3 X s 474 738 m 2 X 1 1 d 3 X 1 Y 2 X 1 Y 1 X s 483 741 m 5 X 1 Y 3 X s 491 742 m 1 X 1 Y 1 X -7 Y 3 X 1 Y 4 X s 500 737 m 1
 X 1 Y 4 X 1 Y 4 X s 509 739 m 1 X 1 Y 4 X 1 Y 3 X 1 Y 1 X s 518 742 m 4 X 1 Y 4 X 1 Y 1 X s 527 744 m 2 X 1 Y 4 X 1 Y 2 X s 535 746 m 1 1 d 4 X 1 Y 3 X 1 Y 1 X s 544 749 m 2 X 1 Y 4 X 1 Y 3 X s 553 751 m 1 X 1 Y 4 X 1 Y 3 X 1 Y 1 X s 562 754 m 4 X 1
 Y 3 X 1 Y 2 X s 571 756 m 1 Y 5 X 1 Y 1 X 1 Y 2 X s 579 759 m 1 X 1 Y 2 X 1 Y 3 X 1 Y 3 X s 588 762 m 2 X 1 Y 4 X 1 Y 3 X s 597 764 m 1 X 1 Y 3 X 1 Y 2 X 1 1 d 2 X s 606 767 m 1 X 1 Y 3 X 1 Y 3 X 1 Y 2 X s 615 770 m 1 Y 5 X 1 Y 3 X s 623 772 m 2 X 1
 Y 2 X 1 Y 2 X 1 1 d 2 X 1 Y s 632 776 m 3 X -7 Y 2 X 1 Y 2 X 1 Y 2 X s 641 771 m 1 X 1 Y 2 X 1 Y 2 X 1 Y 4 X s 650 774 m 1 Y 4 X 1 1 d 3 X -7 Y 1 X s 659 769 m 2 X 1 Y 2 X 1 Y 4 X 1 Y s 667 772 m 2 X 1 -7 d 1 X 1 Y 4 X 1 Y 1 X s 676 767 m 7 X 1 Y 2
 X s 685 768 m 4 X 1 Y 1 X -8 Y 1 1 d 3 X s 694 762 m 1 Y 4 X 1 Y 2 X 1 Y 1 X 1 Y 2 X s 703 766 m 1 Y 4 X 1 1 d 2 X 1 Y 1 X s 711 769 m 5 X 1 Y 2 X 1 Y 2 X s 720 771 m 1 Y 5 X 1 Y 2 X 1 Y 2 X s 729 774 m 1 Y 4 X 1 Y 2 X 1 1 d 2 X s 738 777 m 1 X 1 1
 d 3 X 1 1 d 1 X 1 Y 1 X -8 Y 1 X s 747 772 m 1 Y 2 X 1 Y 2 X 1 Y 3 X 1 Y 1 X s 755 776 m 3 X 1 1 d 4 X 2 Y 1 X s 764 779 m 2 X 1 Y 2 X 1 Y 3 X 1 Y 2 X 1 Y s 773 783 m 4 X 1 Y 3 X 1 Y 2 X s 782 785 m 1 Y 3 X 1 Y 2 X 1 Y 1 1 d 1 X 1 Y 2 X s 791 790 m
 1 Y 1 X 1 Y 1 1 d 1 X 1 Y 2 X 1 Y 2 X 1 Y 1 X s 799 796 m 1 X -7 Y 1 X 1 1 d 4 X 1 1 d 1 X s 808 791 m 1 X 1 Y 1 X 1 Y 1 1 d 1 X 1 Y 3 X -7 Y 2 X 1 Y s 817 789 m 1 X 1 Y 2 X 1 Y 4 X 1 Y 1 X 1 Y 1 X s 826 793 m 3 X 1 Y 2 X 1 Y 1 X 1 Y 2 X 1 Y 1 X s
 835 797 m 1 X 1 Y 1 X 1 Y 2 X 1 Y 2 X 1 1 d 1 Y 1 X s 843 802 m 2 X 1 Y 1 X 1 Y 4 X 1 Y 2 X s 852 805 m 1 X 2 Y 3 X 2 Y 1 X 1 Y 3 X 1 1 d s 861 811 m 1 1 d 2 X 1 Y 1 X 1 Y 2 X 1 Y 1 X 1 1 d 1 X 1 Y s 870 817 m 1 X 1 1 d 1 X 1 Y 1 X 1 1 d 3 X 1 Y 1 X
 s 879 821 m 1 X 1 Y 2 X 1 Y 2 X 1 Y 3 X 1 Y s 887 825 m 1 X -8 Y 1 X 1 Y 1 X 1 Y 3 X 1 Y 1 X 1 Y 2 X s 896 821 m 1 X 1 1 d 1 X 1 Y 1 X 1 Y 1 X 1 Y 2 X 1 Y 2 X s 905 826 m 1 Y 2 X 1 Y 3 X 1 Y 1 X 1 Y 2 X 1 Y 1 X s 914 831 m 1 X 1 Y 3 X 1 Y 1 X -8 Y 1
 X 1 Y 2 X 1 Y 1 X s 923 827 m 1 X 1 Y 3 X 1 Y 4 X 1 Y s 931 830 m 2 X -8 Y 1 X 1 Y 3 X 1 Y 2 X 1 Y 1 X s 940 825 m 1 1 d 1 X 1 1 d 1 X 1 Y 2 X 1 Y 1 X 1 Y 2 X s 949 830 m 1 Y 2 X 1 Y 4 X 1 Y 1 X 1 Y 2 X s 958 834 m 1 X -8 Y 1 X 1 Y -8 Y 3 X 1 1 d 1
 X 1 Y 1 X 1 Y 1 X s 967 822 m 2 X 1 1 d 1 Y 2 X 1 Y 1 X 1 Y 2 X 1 Y s 975 827 m 4 X 1 Y 2 X 1 Y 3 X s 984 829 m 1 Y 2 X 1 1 d 2 X 1 1 d 1 X 1 1 d 1 X s 993 833 m 1 Y 1 X 1 1 d 1 1 d 2 X 1 Y -9 Y 1 X 1 1 d 1 X 1 Y 1 X s 1002 830 m 2 X 1 1 d 1 X 1 Y 3
 X 1 Y 2 X s 1011 833 m 1 Y 2 X 1 Y 2 X 1 Y 1 X 1 Y 2 X 1 Y 1 X s 1019 838 m 1 X 1 1 d 1 1 d 1 X 1 Y 2 X 1 Y 1 X 1 Y 2 X 1 Y s 1028 844 m 1 X -8 Y 1 X 1 Y 3 X 1 Y 1 X 1 Y 2 X -8 Y 1 X s 1037 831 m 1 1 d 3 X 1 Y 4 X 1 Y 1 X s 1046 834 m 1 X 1 Y 1 X 1
 Y 1 1 d 1 X 1 Y 2 X 1 Y 1 X 1 Y 1 X 1 Y 1 X s 1055 841 m 2 X 2 Y 1 X 1 Y 1 X 2 Y 1 X 1 Y 2 X 1 Y 1 -9 d s 1063 839 m 1 X 1 Y 2 X -8 Y 2 X 1 Y 2 X 1 Y 1 X 1 1 d s 1072 835 m 1 X 1 Y 1 X 1 Y 1 X 1 -8 d 1 X 1 Y 2 X 1 Y 2 X 1 Y s 1081 832 m 1 Y 3 X 1 Y
 3 X 1 1 d 1 X 1 Y 1 X s 1090 836 m 1 X 1 Y 1 X 1 Y 3 X 2 Y 3 X 2 Y 1 X s 1099 842 m 1 1 d 1 1 d 2 X 1 Y 2 X 1 Y 2 X 1 Y s 1107 847 m 1 1 d 1 X 1 Y 2 X 1 Y 2 X 1 Y 1 X 1 Y 1 X 1 Y 1 X s 1116 853 m 1 X 1 Y 3 X 2 Y 2 X 1 Y 2 X 1 Y 1 X s 1125 858 m 2 X
 1 Y -9 Y 1 X 1 Y 2 X 1 Y 3 X 1 Y 1 X s 1134 853 m 1 X 1 Y 2 X 1 Y 2 X 1 Y 3 X 1 Y 1 X s 1143 857 m 1 Y 4 X 1 Y -9 Y 1 1 d 2 X 1 Y 1 X s 1151 852 m 1 X 1 Y 3 X 1 Y 3 X 1 Y 1 X 1 Y -9 Y 1 X s 1160 847 m 2 X 1 Y 1 X 1 Y 2 X 1 Y 1 X -9 Y 1 1 d 1 X 1 Y 1
 X s 1169 843 m 1 X 1 1 d 2 X 1 Y 4 X 1 Y 1 X s 1178 846 m 1 X 1 Y 2 X 1 1 d 1 X 1 Y 3 X 1 Y 1 X s 1187 850 m 2 X 1 Y 3 X 1 Y 2 X 1 1 d s 1195 853 m 1 X 1 Y 1 X -9 Y 2 X 1 Y 2 X 1 Y 1 -9 d 1 X 1 Y 1 X -8 Y s 1204 831 m 2 X 1 Y 4 X 1 Y 3 X s 1213 833
 m 1 X 1 Y 2 X 1 Y 1 X 1 Y 2 X 1 Y 1 X 1 1 d -9 Y 1 X s 1222 829 m 1 X 1 Y 2 X -8 Y 2 X 1 Y 4 X s 1231 823 m 2 X 1 Y 2 X 1 1 d 2 X 1 Y 1 X 1 Y s 1239 827 m 2 X 1 Y 1 X 1 Y 2 X 1 Y 4 X 1 Y s 1248 831 m 1 X -8 Y 2 X 1 Y 2 X 1 Y 1 1 d 1 X 1 Y 2 X 1 Y s
 1257 828 m 3 X 1 Y 1 X 1 Y 4 X 1 1 d s 1266 831 m 1 X 1 Y 1 X 1 Y 2 X 1 Y 2 X 1 1 d 1 X 1 1 d s 1275 836 m 3 X 1 Y 3 X 1 Y 2 X 1 Y s 1283 839 m 1 -9 d 1 X 1 Y 1 -9 d 4 X 1 Y 1 X 1 Y 1 X s 1292 824 m 1 Y 3 X 1 Y 3 X 1 Y 3 X 1 Y s 1301 828 m 1 X 1 -9
 d 1 Y 2 X 1 Y 1 X 1 Y 1 X 1 1 d 2 X s 1310 823 m 2 X 1 Y 1 X 1 1 d 4 X 1 1 d s 1319 826 m 3 X 1 Y 4 X -9 Y 1 X 1 Y s 1327 819 m 2 X 1 1 d 1 X 1 Y -9 Y 1 X 2 Y 1 X 1 1 d 2 X 1 Y s 1336 816 m 3 X 1 Y 1 X 1 1 d 1 Y 2 X 1 Y 2 X 1 Y s 1345 821 m 3 X 1 Y
 2 X 1 Y 1 -9 d 2 X 1 Y 1 X s 1354 815 m 1 Y 3 X 1 1 d 1 X 1 Y 1 X -9 Y 3 X s 1363 809 m 1 Y 1 X -9 Y 2 X 1 1 d 2 X -8 Y 2 X s 1371 794 m 3 X 1 1 d 2 X 1 Y 1 X -9 Y 2 X -9 Y s 1380 778 m 2 X 1 Y 2 X 1 Y 2 X 1 Y 3 X s 1389 781 m 2 X 1 Y 1 X 2 Y 1 X -9
 Y 1 X 1 -9 d 1 1 d 1 X 1 1 d s 1398 768 m 1 X -9 Y 2 X 1 1 d 5 X s 1407 760 m -9 Y 1 X 1 Y 3 X 1 Y 1 X -9 Y 2 X 1 Y 1 X s 1415 745 m 1 X -9 Y 2 X 1 Y 1 X -9 Y 1 X 1 Y 2 X 1 Y -9 Y 2 X s 1424 721 m 3 X 1 Y 2 X -9 Y 1 X 1 Y 1 X 1 Y 2 X s 1433 715 m -9
 Y 1 X -9 Y 2 X 1 Y 2 X 1 -9 d 1 Y 1 X 1 Y 2 X s 1442 691 m 1 X -9 Y 3 X 1 Y 2 X 1 Y 3 X s 1451 684 m 1 X 1 Y 5 X 1 -9 d -8 Y 1 X 1 Y s 1459 669 m 1 -9 d 2 X 1 Y 1 X 1 Y 5 X s 1468 662 m 2 X 1 Y 1 -9 d 1 X 1 Y 1 X -9 Y 3 X 1 1 d s 1477 647 m 5 X 1 Y
 4 X 1 Y s 1486 649 m 4 X -9 Y 4 X 1 1 d s 1495 641 m 1 X 1 1 d 1 -9 d -9 Y 5 X s 1503 624 m 1 X 1 1 d 1 X -9 Y 6 X s 1512 616 m 5 X -9 Y 1 Y 3 X 1 1 d s 1521 609 m 4 X 1 Y 5 X s 1530 610 m 7 X 1 Y 2 X s 1539 611 m 1 X 1 Y 1 X -9 Y 6 X s 1547 603 m 1
 X 1 Y 6 X 1 1 d 1 X s 1556 605 m 5 X 1 Y 4 X s 1565 606 m 2 X -9 Y 4 X -9 Y 3 X s 1574 588 m 1 X 1 1 d 5 X 1 Y 2 X s 1583 590 m 4 X 1 Y 2 X -9 Y 1 X 1 Y 1 X -8 Y s 1591 575 m 6 X 1 Y 2 X -9 Y 1 X s 1600 567 m 3 X 1 Y 1 X -9 Y 1 X 1 -9 d -18 Y 3 X s
 1609 532 m 5 X 1 Y 1 -9 d 3 X s 1618 524 m 1 X -9 Y 2 X 1 Y -9 Y 1 X 1 1 d 4 X s 1627 508 m 6 X 1 -9 d 1 X s 1635 499 m 1 1 d 2 X -9 Y 2 X 1 1 d 3 X s 1644 492 m -9 Y 1 X 1 Y 6 X 1 Y 2 X s 1653 485 m 4 X 1 Y 5 X s 1662 486 m 2 X 1 Y -10 Y 1 Y 4 X 1
 Y 2 X -9 Y 1 X s 1671 470 m 1 X 1 Y 1 -9 d 1 X 1 -9 d 3 X 1 Y 1 X -10 Y s 1679 444 m 3 X 1 1 d 3 X -9 Y 2 X 1 Y s 1688 437 m 6 X 1 Y 3 X s 1697 438 m 1 X -9 Y 4 X 1 -9 d 1 X 1 Y 1 -10 d 1 X s 1706 411 m 1 Y 1 X -9 Y 3 X 1 Y 5 X s 1715 404 m 6 X -9 Y
 2 X s 1723 395 m 9 X s 1732 395 m 2 X 1 1 d 6 X s 1741 396 m 1 X 1 1 d 3 X -9 Y 2 X -18 Y 2 X s 1750 370 m 3 X 1 Y 6 X s 1759 371 m 2 X 1 Y 4 X -9 Y 2 X s 1767 363 m 6 X 1 Y 3 X s 1776 364 m 5 X 1 -9 d 3 X s 1785 355 m 2 X 1 Y 4 X -10 Y 1 -8 d 2 X s
 1794 338 m 2 X 1 Y 3 X -9 Y 4 X s 1803 330 m 6 X 1 Y 1 X -9 Y 2 X s 1812 322 m 5 X -9 Y 3 X 1 Y s 1820 314 m 2 X -9 Y 2 X 1 -9 d 4 X s 1829 296 m 9 X s 1838 296 m 9 X s 1847 296 m 3 X 1 Y -9 Y 3 X -10 Y 3 X s 1856 278 m 8 X s 1864 278 m 1 X -9 Y 1 Y
 5 X -9 Y 3 X s 1873 261 m 9 X s 1882 261 m 1 Y 1 -9 d 8 X s 1891 253 m 4 X -10 Y 1 -9 d 1 Y 4 X s 1900 235 m 5 X -9 Y 2 X -9 Y 1 X s 1908 217 m 9 X s 1917 217 m 7 X 1 Y 2 X s 1926 218 m 4 X -9 Y 5 X s 1935 209 m 9 X s 1944 209 m 8 X s 1952 209 m 9 X
 s 1961 209 m 5 X 1 1 d 3 X s 1970 210 m 9 X s 1979 210 m 9 X s 1988 210 m 8 X s 1996 210 m 9 X s 2005 210 m 9 X s 2014 210 m 9 X s 2023 210 m 9 X s 2032 210 m 8 X s 2040 210 m 1 X s black[  ] 0 sd 3 lw 245 201 m 1796 X s 297 241 m -40 Y s 334 221 m
 -20 Y s 371 221 m -20 Y s 408 221 m -20 Y s 444 221 m -20 Y s 481 241 m -40 Y s 518 221 m -20 Y s 555 221 m -20 Y s 592 221 m -20 Y s 628 221 m -20 Y s 665 241 m -40 Y s 702 221 m -20 Y s 739 221 m -20 Y s 776 221 m -20 Y s 812 221 m -20 Y s 849 241
 m -40 Y s 886 221 m -20 Y s 923 221 m -20 Y s 959 221 m -20 Y s 996 221 m -20 Y s 1033 241 m -40 Y s 1070 221 m -20 Y s 1107 221 m -20 Y s 1143 221 m -20 Y s 1180 221 m -20 Y s 1217 241 m -40 Y s 1254 221 m -20 Y s 1291 221 m -20 Y s 1327 221 m -20
 Y s 1364 221 m -20 Y s 1401 241 m -40 Y s 1438 221 m -20 Y s 1475 221 m -20 Y s 1511 221 m -20 Y s 1548 221 m -20 Y s 1585 241 m -40 Y s 1622 221 m -20 Y s 1659 221 m -20 Y s 1695 221 m -20 Y s 1732 221 m -20 Y s 1769 241 m -40 Y s 1806 221 m -20 Y
 s 1843 221 m -20 Y s 1879 221 m -20 Y s 1916 221 m -20 Y s 1953 241 m -40 Y s 297 241 m -40 Y s 260 221 m -20 Y s 1953 241 m -40 Y s 1990 221 m -20 Y s 2027 221 m -20 Y s
 gsave  2268 1676 0 0 C 265.452 128.934 t 0 r /Helvetica-Bold findfont 64.4669 sf 0 0 m (0.5) show NC gr 
 gsave  2268 1676 0 0 C 235.114 128.934 t 0 r /Symbol findfont 64.4669 sf 0 0 m (-) show NC gr 
 gsave  2268 1676 0 0 C 447.476 128.934 t 0 r /Helvetica-Bold findfont 64.4669 sf 0 0 m (0.4) show NC gr 
 gsave  2268 1676 0 0 C 413.346 128.934 t 0 r /Symbol findfont 64.4669 sf 0 0 m (-) show NC gr 
 gsave  2268 1676 0 0 C 633.292 128.934 t 0 r /Helvetica-Bold findfont 64.4669 sf 0 0 m (0.3) show NC gr 
 gsave  2268 1676 0 0 C 602.955 128.934 t 0 r /Symbol findfont 64.4669 sf 0 0 m (-) show NC gr 
 gsave  2268 1676 0 0 C 815.316 128.934 t 0 r /Helvetica-Bold findfont 64.4669 sf 0 0 m (0.2) show NC gr 
 gsave  2268 1676 0 0 C 784.979 128.934 t 0 r /Symbol findfont 64.4669 sf 0 0 m (-) show NC gr 
 gsave  2268 1676 0 0 C 1004.92 128.934 t 0 r /Helvetica-Bold findfont 64.4669 sf 0 0 m (0.1) show NC gr 
 gsave  2268 1676 0 0 C 974.587 128.934 t 0 r /Symbol findfont 64.4669 sf 0 0 m (-) show NC gr 
 gsave  2268 1676 0 0 C 1194.53 128.934 t 0 r /Helvetica-Bold findfont 64.4669 sf 0 0 m (0) show NC gr 
 gsave  2268 1676 0 0 C 1357.6 128.934 t 0 r /Helvetica-Bold findfont 64.4669 sf 0 0 m (0.1) show NC gr 
 gsave  2268 1676 0 0 C 1535.83 128.934 t 0 r /Helvetica-Bold findfont 64.4669 sf 0 0 m (0.2) show NC gr 
 gsave  2268 1676 0 0 C 1721.64 128.934 t 0 r /Helvetica-Bold findfont 64.4669 sf 0 0 m (0.3) show NC gr 
 gsave  2268 1676 0 0 C 1907.46 128.934 t 0 r /Helvetica-Bold findfont 64.4669 sf 0 0 m (0.4) show NC gr 
 gsave  2268 1676 0 0 C 925.289 30.3373 t 0 r /Helvetica-Bold findfont 72.0512 sf 0 0 m (Cut value applied on BDT output) show NC gr  245 201 m 1140 Y s 291 201 m -46 X s 268 253 m -23 X s 268 305 m -23 X s 268 357 m -23 X s 291 408 m -46 X s 268 460
 m -23 X s 268 512 m -23 X s 268 564 m -23 X s 291 616 m -46 X s 268 667 m -23 X s 268 719 m -23 X s 268 771 m -23 X s 291 823 m -46 X s 268 875 m -23 X s 268 926 m -23 X s 268 978 m -23 X s 291 1030 m -46 X s 268 1082 m -23 X s 268 1134 m -23 X s
 268 1185 m -23 X s 291 1237 m -46 X s 291 1237 m -46 X s 268 1289 m -23 X s 268 1341 m -23 X s
 gsave  2268 1676 0 0 C 182.024 178.232 t 0 r /Helvetica-Bold findfont 64.4669 sf 0 0 m (0) show NC gr 
 gsave  2268 1676 0 0 C 128.934 383.009 t 0 r /Helvetica-Bold findfont 64.4669 sf 0 0 m (0.2) show NC gr 
 gsave  2268 1676 0 0 C 125.142 591.578 t 0 r /Helvetica-Bold findfont 64.4669 sf 0 0 m (0.4) show NC gr 
 gsave  2268 1676 0 0 C 128.934 796.355 t 0 r /Helvetica-Bold findfont 64.4669 sf 0 0 m (0.6) show NC gr 
 gsave  2268 1676 0 0 C 125.142 1004.92 t 0 r /Helvetica-Bold findfont 64.4669 sf 0 0 m (0.8) show NC gr 
 gsave  2268 1676 0 0 C 189.608 1213.49 t 0 r /Helvetica-Bold findfont 64.4669 sf 0 0 m (1) show NC gr 
 gsave  2268 1676 0 0 C 64.4669 731.888 t 90 r /Helvetica-Bold findfont 72.0512 sf 0 0 m (Efficiency \(Purity\)) show NC gr  0 0 0.933333 c[  52 12 ] 0 sd 6 lw 0.49 0.6 0.82 c black 0 0 0.933333 c 245 719 m 9 X s 254 719 m 9 X s 263 719 m 8 X s 271
 719 m 9 X s 280 719 m 1 1 d 8 X s 289 720 m 9 X s 298 720 m 8 X 1 Y 1 X s 307 721 m 8 X s 315 721 m 9 X 1 Y s 324 722 m 8 X 1 Y 1 X s 333 723 m 9 X s 342 723 m 7 X 1 Y 2 X s 351 724 m 2 X 1 Y 6 X s 359 725 m 8 X 1 Y 1 X s 368 726 m 9 X s 377 726 m 1
 X 1 Y 8 X s 386 727 m 9 X s 395 727 m 3 X 1 Y 5 X s 403 728 m 9 X s 412 728 m 2 X 1 Y 7 X s 421 729 m 2 X 1 1 d 6 X s 430 730 m 2 X 1 Y 7 X s 439 731 m 1 Y 6 X 1 Y 2 X s 447 733 m 2 X 1 Y 7 X s 456 734 m 3 X 1 Y 4 X 1 1 d 1 X s 465 736 m 3 X 1 Y 3 X
 1 Y 3 X s 474 738 m 2 X 1 1 d 3 X 1 Y 2 X 1 Y 1 X s 483 741 m 5 X 1 Y 3 X s 491 742 m 1 X 1 Y 1 X -2 Y 3 X 1 Y 4 X s 500 742 m 2 X 1 Y 4 X 1 Y 3 X s 509 744 m 2 X 1 1 d 3 X 1 Y 3 X s 518 746 m 1 Y 4 X 1 Y 4 X 1 Y 1 X s 527 749 m 2 X 1 Y 4 X 1 Y 2 X
 s 535 751 m 1 X 1 Y 4 X 1 Y 3 X 1 Y 1 X s 544 754 m 2 X 1 Y 4 X 1 1 d 2 X s 553 756 m 1 X 1 Y 4 X 1 Y 3 X 1 Y 1 X s 562 759 m 4 X 1 Y 3 X 1 Y 2 X s 571 761 m 1 Y 5 X 1 Y 1 X 1 1 d 1 X s 579 764 m 1 X 1 Y 2 X 1 Y 3 X 1 Y 3 X s 588 767 m 2 X 1 Y 4 X 1
 Y 3 X s 597 769 m 1 X 1 Y 3 X 1 Y 2 X 1 1 d 2 X s 606 772 m 1 1 d 3 X 1 Y 2 X 1 1 d 2 X s 615 775 m 1 Y 4 X 1 1 d 3 X s 623 777 m 1 X 1 1 d 2 X 1 Y 2 X 1 Y 2 X 1 Y 1 X s 632 781 m 3 X -2 Y 1 X 1 Y 2 X 1 1 d 1 X 1 Y 1 X s 641 782 m 3 X 1 Y 2 X 1 Y 2
 X 1 Y 2 X s 650 785 m 3 X 1 1 d 2 X 1 1 d 1 X -3 Y 1 Y 1 X s 659 785 m 3 X 1 Y 4 X 1 Y 1 X s 667 787 m 1 X 1 Y 1 X 1 -2 d 2 X 1 Y 4 X s 676 787 m 2 X 1 Y 7 X 1 Y s 685 789 m 4 X 1 Y 1 X -3 Y 1 1 d 3 X s 694 788 m 1 Y 4 X 1 Y 2 X 1 Y 1 X 1 Y 2 X s
 703 792 m 1 Y 3 X 1 Y 3 X 1 Y 2 X s 711 795 m 2 X 1 Y 4 X 1 Y 1 X 1 1 d 1 X s 720 798 m 3 X 1 Y 4 X 1 Y 2 X 1 Y s 729 801 m 1 X 1 1 d 2 X 1 1 d 4 X s 738 803 m 1 Y 2 X 1 Y 4 X 1 Y 1 X 1 Y 1 X -3 Y 1 X s 747 804 m 1 Y 2 X 1 Y 2 X 1 Y 3 X 1 Y 1 X s
 755 808 m 2 X 1 1 d 5 X 2 Y 1 X s 764 811 m 2 X 1 Y 1 X 1 1 d 3 X 1 Y 1 X 1 Y 1 X s 773 815 m 1 X 1 Y 4 X 1 Y 2 X 1 1 d 1 X s 782 818 m 1 Y 3 X 1 1 d 1 X 1 Y 1 1 d 1 X 1 Y 2 X s 791 823 m 1 Y 1 X 2 Y 2 X 1 Y 1 X 1 Y 2 X 1 Y 2 X s 799 829 m 1 X -2 Y
 1 Y 2 X 1 Y 4 X 1 1 d 1 X s 808 830 m 1 X 1 Y 1 X 1 Y 1 1 d 1 X 1 Y 2 X 1 1 d -3 Y 1 Y 2 X s 817 833 m 1 Y 2 X 1 Y 1 X 1 Y 4 X 1 Y 1 X 1 Y 1 X s 826 838 m 3 X 1 Y 2 X 1 Y 1 X 1 Y 2 X 1 Y 1 X s 835 842 m 1 X 2 Y 2 X 1 1 d 1 X 1 Y 1 X 1 1 d 1 X 1 Y s
 843 848 m 2 X 1 Y 1 X 1 Y 4 X 1 Y 2 X s 852 851 m 1 Y 1 X 1 Y 2 X 1 Y 1 X 1 Y 1 X 1 Y 3 X 1 Y 1 X 1 Y s 861 858 m 1 X 1 Y 2 X 1 1 d 1 Y 2 X 1 1 d 1 X 1 Y 1 X s 870 863 m 1 Y 2 X 1 Y 1 X 1 Y 1 X 1 1 d 3 X 1 Y 1 X s 879 868 m 1 Y 2 X 1 1 d 1 1 d 2 X 1
 Y 2 X s 887 872 m 1 X -2 Y 1 Y 2 X 1 Y 1 1 d 2 X 1 Y 2 X 1 Y 1 X s 896 875 m 2 X 1 Y 1 X 1 Y 1 X 1 1 d 1 Y 2 X 1 Y 2 X s 905 880 m 1 Y 1 X 1 Y 2 X 1 Y 2 X 1 Y 2 X 1 Y 2 X s 914 885 m 1 Y 3 X 1 1 d 1 X 1 Y -2 Y 2 X 1 Y 1 X 1 Y 1 X s 923 888 m 1 X 1 Y
 3 X 1 Y 4 X 1 Y s 931 891 m 2 X -2 Y 1 X 1 Y 2 X 1 Y 3 X 1 Y 1 X 1 Y s 940 893 m 1 X 1 Y 2 X 1 Y 1 X 1 1 d 1 X 1 Y 2 X 1 Y 1 X s 949 898 m 1 X 1 Y 1 X 1 Y 4 X 1 Y 1 X 1 Y 2 X s 958 902 m 1 1 d -3 Y 1 Y 1 X -2 Y 2 X 1 1 d 1 X 1 1 d 1 Y 2 X s 967 902
 m 1 Y 3 X 2 Y 2 X 1 Y 1 X 1 Y 2 X 1 Y s 975 908 m 3 X 1 Y 2 X 1 Y 2 X 1 Y 2 X s 984 911 m 1 1 d 2 X 1 Y 2 X 1 1 d 1 X 1 1 d 1 X 1 Y s 993 916 m 1 X 1 Y 1 X 1 Y 2 X 1 Y 1 X -2 Y 2 X 1 Y 1 X 1 Y 1 X s 1002 919 m 2 X 1 1 d 1 1 d 3 X 2 Y 2 X s 1011 923
 m 1 X 1 Y 2 X 1 Y 2 X 1 Y 1 1 d 1 X 1 Y 1 X s 1019 928 m 1 X 1 Y 1 X 1 1 d 1 X 2 Y 2 X 1 Y 2 X 1 Y 1 X 1 Y s 1028 935 m 1 X -2 Y 1 X 1 Y 2 X 1 Y 1 X 1 Y 1 X 1 1 d 1 X -2 Y 1 X s 1037 935 m 1 1 d 2 X 1 Y 4 X 1 Y 1 X 1 Y 1 X s 1046 939 m 1 X 1 1 d 1 Y
 1 X 1 Y 1 X 1 Y 2 X 1 Y 1 X 1 Y 1 X 1 Y 1 X s 1055 946 m 1 X 1 Y 1 X 1 Y 1 1 d 1 Y 1 X 2 Y 1 1 d 1 X 1 Y 1 X 1 -2 d s 1063 952 m 1 X 1 Y 2 X -2 Y 1 X 1 Y 2 X 1 Y 1 X 1 Y 1 X 1 1 d s 1072 955 m 1 Y 2 X 1 Y 1 X 1 Y 1 -3 d 1 Y 1 X 1 Y 2 X 1 Y 1 X 1 Y 1
 X 1 Y s 1081 960 m 1 X 1 Y 3 X 1 Y 2 X 1 1 d 1 X 1 Y 1 X s 1090 964 m 1 X 2 Y 2 X 1 Y 2 X 2 Y 1 X 1 1 d 1 X 2 Y 1 X s 1099 972 m 1 X 1 Y 1 1 d 2 X 1 Y 1 X 1 1 d 1 X 1 Y 1 X 1 Y s 1107 978 m 1 X 1 1 d 1 Y 2 X 1 Y 1 X 1 1 d 1 Y 1 X 1 Y 2 X 1 Y s 1116
 985 m 1 X 1 Y 3 X 2 Y 2 X 1 Y 1 X 1 Y 2 X s 1125 990 m 1 1 d 1 X -1 Y 1 X 1 1 d 1 X 1 Y 2 X 1 1 d 1 X s 1134 993 m 1 Y 3 X 1 Y 1 X 1 Y 1 X 1 Y 3 X 1 Y 1 X s 1143 998 m 1 Y 2 X 1 1 d 1 X -1 Y 3 X 1 Y 1 X s 1151 1000 m 1 X 1 Y 2 X 1 Y 1 X 1 Y 2 X 1 1
 d 1 1 d -2 Y 1 X s 1160 1003 m 2 X 1 Y 1 1 d 1 X 1 Y 1 X 1 Y 1 X -2 Y 1 X 1 Y 1 X 1 Y 1 X s 1169 1007 m 1 X 1 Y 2 X 1 Y 3 X 1 Y 2 X 1 Y 1 X s 1178 1011 m 1 X 1 Y 2 X 1 1 d 1 Y 3 X 1 Y 1 X 1 Y 1 X s 1187 1016 m 2 X 1 Y 2 X 1 Y 3 X 1 Y 1 X 1 Y s 1195
 1020 m 1 X 1 Y 1 X -2 Y 2 X 1 Y 2 X 1 Y 1 -2 d 1 X 2 Y 1 X -2 Y s 1204 1019 m 1 X 1 Y 4 X 1 Y 1 X 1 Y 3 X s 1213 1022 m 1 X 1 Y 1 X 1 Y 1 X 1 Y 1 X 1 1 d 1 X 1 Y 1 X 1 1 d -2 Y 1 X s 1222 1026 m 1 X 1 Y 1 1 d 1 X -2 Y 1 1 d 1 X 1 Y 4 X s 1231 1028 m
 2 X 1 Y 1 X 1 Y 2 X 1 1 d 2 X 2 Y s 1239 1033 m 2 X 2 Y 1 X 1 1 d 1 X 1 Y 1 X 1 1 d 2 X s 1248 1038 m 1 Y 1 X -1 Y 2 X 1 Y 2 X 2 Y 1 X 1 Y 1 X 1 Y 2 X 1 Y s 1257 1044 m 2 X 1 Y 1 X 1 Y 1 X 1 Y 4 X 1 Y 1 X s 1266 1048 m 1 X 2 Y 1 X 1 1 d 1 X 1 Y 1 X
 1 1 d 1 1 d 1 X 1 1 d s 1275 1055 m 1 X 1 Y 3 X 1 Y 3 X 1 Y 1 X 1 Y s 1283 1059 m 1 -2 d 1 Y 1 X 1 -1 d 4 X 1 Y 1 X 1 Y 1 X 1 Y s 1292 1060 m 1 X 1 Y 2 X 1 Y 2 X 1 1 d 1 X 1 Y 2 X 1 Y s 1301 1065 m 1 X 1 -2 d 1 Y 1 X 1 Y 1 X 1 Y 1 X 2 Y 4 X s 1310
 1068 m 1 X 1 Y 1 X 1 Y 1 X 1 Y 2 X 1 Y 4 X s 1319 1072 m 1 Y 1 X 1 Y 6 X -1 Y 1 X 1 Y s 1327 1074 m 2 X 1 1 d 1 1 d -1 Y 1 X 2 Y 1 X 1 Y 1 1 d 1 X 1 1 d s 1336 1080 m 1 Y 3 X 1 Y 1 X 1 Y 1 X 2 Y 2 X 1 Y 1 X 1 Y 1 X s 1345 1087 m 2 X 1 Y 1 X 1 Y 1 X
 1 1 d 1 -1 d 2 X 1 Y 1 X s 1354 1090 m 1 Y 1 X 1 Y 2 X 1 Y 2 X 1 Y 1 X -1 Y 2 X 1 Y 1 X s 1363 1094 m 1 X -2 Y 1 Y 2 X 1 Y 2 X 1 1 d -1 Y 2 X 1 Y s 1371 1095 m 4 X 1 Y 2 X 1 Y 1 X -2 Y 1 X 1 Y 1 X -2 Y s 1380 1094 m 1 1 d 2 X 1 1 d 1 Y 1 X 1 Y 3 X 1
 Y 1 X s 1389 1099 m 2 X 1 Y 1 X 3 Y 1 X -2 Y 1 X 1 Y 1 -2 d 1 Y 1 X 1 Y 1 X 1 1 d s 1398 1103 m 1 X -1 Y 2 X 1 1 d 5 X s 1407 1103 m -1 Y 1 X 1 Y 2 X 1 Y 2 X -1 Y 1 X 1 1 d 1 X 1 Y s 1415 1105 m 1 1 d -2 Y 2 X 1 Y 1 X 1 Y -2 Y 1 X 1 Y 1 X 1 Y 1 X -1
 Y 2 X s 1424 1105 m 2 X 1 1 d 2 X -1 Y 1 X 2 Y 1 X 1 Y 2 X s 1433 1108 m -2 Y 1 X -1 Y 2 X 1 Y 1 X 1 Y 1 X 1 -1 d 1 X 2 Y 2 X s 1442 1108 m 1 X -1 Y 3 X 1 Y 1 1 d 1 X 1 Y 1 X 1 Y 2 X s 1451 1111 m 1 X 1 Y 3 X 1 Y 2 X 1 -2 d -1 Y 1 X 2 Y s 1459 1112
 m 1 -2 d 1 X 2 Y 1 X 1 Y 1 X 1 Y 3 X 1 Y 1 X 1 Y 1 X s 1468 1116 m 2 X 1 Y 1 -2 d 1 Y 2 X 1 Y -2 Y 1 X 1 Y 3 X s 1477 1116 m 2 X 1 Y 2 X 1 Y 2 X 1 1 d 1 X 1 Y 1 X 1 Y s 1486 1121 m 4 X -2 Y 3 X 1 Y 1 X 1 1 d s 1495 1121 m 1 Y 1 X 1 1 d 1 -1 d -2 Y 1
 X 1 1 d 3 X s 1503 1121 m 1 X 1 1 d 1 X -2 Y 5 X 1 Y 1 X s 1512 1121 m 5 X -2 Y 1 Y 1 1 d 2 X 1 Y 1 X s 1521 1122 m 1 X 1 Y 1 X 1 Y 5 X 1 Y 2 X s 1530 1125 m 1 X 1 1 d 5 X 1 Y 1 1 d 1 X s 1539 1128 m 1 X 1 Y 1 X -2 Y 5 X 1 Y 1 X 1 Y s 1547 1129 m 2
 X 1 Y 3 X 1 Y 2 X 1 1 d 1 X s 1556 1132 m 3 X 1 1 d 1 X 1 Y 1 X 1 Y 3 X s 1565 1135 m 2 X -2 Y 1 X 1 Y 3 X -2 Y 3 X s 1574 1132 m 1 X 1 1 d 4 X 1 1 d 2 Y 2 X s 1583 1136 m 2 X 1 Y 2 X 1 1 d 1 Y 1 X -2 Y 1 X 2 Y 1 X 1 Y -1 Y s 1591 1139 m 4 X 2 Y 2 X
 1 Y 2 X -2 Y 1 X s 1600 1140 m 2 X 2 Y 1 X 1 Y 1 X -1 Y 1 X 1 -3 d -4 Y 1 X 1 1 d 1 X s 1609 1136 m 2 X 1 Y 3 X 1 Y 1 -3 d 1 Y 2 X 1 1 d s 1618 1137 m 1 X -3 Y 1 1 d 1 Y 1 X 1 Y -3 Y 1 Y 1 X 1 Y 1 1 d 4 X s 1627 1137 m 3 X 1 Y 3 X 1 -2 d 1 X 1 Y s
 1635 1137 m 1 1 d 2 Y 2 X -3 Y 1 1 d 1 X 1 1 d 1 X 1 Y 1 X 1 Y 1 X s 1644 1141 m -2 Y 1 X 1 Y 1 X 2 Y 5 X 1 Y 2 X 1 Y s 1653 1144 m 1 1 d 1 X 1 Y 5 X 1 1 d 1 X s 1662 1147 m 1 X 2 Y 1 X 1 Y -3 Y 1 Y 1 1 d 1 Y 2 X 1 1 d 2 X 2 Y -2 Y 1 X s 1671 1151 m
 1 X 3 Y 1 -2 d 1 X 1 -3 d 1 Y 3 X 2 Y 1 X -3 Y s 1679 1149 m 3 X 1 1 d 1 X 1 Y 1 X 1 Y 1 X -3 Y 1 X 1 1 d 1 Y s 1688 1151 m 1 X 1 1 d 1 Y 4 X 2 Y 1 X 1 Y 1 X 1 Y 1 X s 1697 1157 m 1 X -3 Y 1 X 1 Y 3 X 1 -1 d 1 X 1 Y 1 -3 d 1 X s 1706 1152 m 1 Y 1 X
 -4 Y 1 X 3 Y 1 X 1 Y 1 X 1 Y 5 X s 1715 1154 m 3 X 1 1 d 2 X -3 Y 1 X 1 Y 1 X s 1723 1153 m 5 X 1 Y 4 X s 1732 1154 m 1 X 1 2 d 1 1 d 1 Y 2 X 1 Y 4 X 2 Y s 1741 1161 m 1 X 1 1 d 2 X 1 Y 1 X -3 Y 1 Y 1 1 d 1 X -6 Y 2 X s 1750 1156 m 1 1 d 2 X 1 Y 2 X
 2 Y 4 X 1 Y s 1759 1161 m 1 X 2 Y 1 X 2 Y 4 X -3 Y 2 X 1 Y s 1767 1163 m 2 X 2 Y 3 X 1 Y 1 X 2 Y 2 X 1 Y 1 X 2 Y s 1776 1171 m 5 X 1 -4 d 3 X s 1785 1167 m 2 Y 2 X 2 Y 4 X -4 Y 1 -2 d 1 Y 1 X 1 2 d s 1794 1168 m 1 2 d 1 X 4 Y 2 X 1 1 d -3 Y 3 X 1 2
 d s 1803 1174 m 3 X 1 Y 3 X 2 Y 1 X -4 Y 1 X 5 Y 1 X s 1812 1178 m 5 X -5 Y 2 X 1 2 d 5 Y s 1820 1180 m 2 X -2 Y 2 X 1 -5 d 4 X s 1829 1173 m 7 X 2 Y 2 X s 1838 1175 m 8 X 3 Y 1 X s 1847 1178 m 2 X 1 3 d 2 Y -5 Y 3 X -6 Y 3 X s 1856 1172 m 8 X s
 1864 1172 m 1 X -7 Y 3 Y 2 X 4 Y 3 X -9 Y 2 X 4 Y 1 X s 1873 1167 m 5 X 4 Y 1 X 1 4 d 2 X s 1882 1175 m 5 Y 1 -9 d 8 X s 1891 1171 m 4 X -13 Y 1 -18 d 7 Y 3 X 7 Y 1 X s 1900 1154 m 5 X -25 Y 2 X -46 Y 1 X 12 Y s 1908 1095 m 4 X 13 Y 2 X 13 Y 3 X s
 1917 1121 m 7 X 26 Y 2 X s 1926 1147 m 4 X -75 Y 3 X 23 Y 2 X s 1935 1095 m 9 X s 1944 1095 m 7 X 26 Y 1 X s 1952 1121 m 9 X s 1961 1121 m 5 X 1 26 d 3 X s 1970 1147 m 3 X 28 Y 6 X s 1979 1175 m 4 X 1 30 d 4 X s 1988 1205 m 8 X s 1996 1205 m 9 X s
 2005 1205 m 9 X s 2014 1205 m 6 X 1 32 d 2 X s 2023 1237 m 9 X s 2032 1237 m 8 X s 2040 1237 m 1 X s[  ] 0 sd 9 lw 0.49 0.6 0.82 c black 0 0 0.933333 c 245 1237 m 9 X s 254 1237 m 9 X s 263 1237 m 8 X s 271 1237 m 9 X s 280 1237 m 9 X s 289 1237 m 9
 X s 298 1237 m 9 X s 307 1237 m 8 X s 315 1237 m 9 X s 324 1237 m 9 X s 333 1237 m 9 X s 342 1237 m 9 X s 351 1237 m 8 X s 359 1237 m 9 X s 368 1237 m 9 X s 377 1237 m 9 X s 386 1237 m 9 X s 395 1237 m 8 X s 403 1237 m 9 X s 412 1237 m 9 X s 421
 1237 m 9 X s 430 1237 m 9 X s 439 1237 m 8 X s 447 1237 m 9 X s 456 1237 m 9 X s 465 1237 m 9 X s 474 1237 m 9 X s 483 1237 m 8 X s 491 1237 m 2 X -9 Y 7 X s 500 1228 m 9 X s 509 1228 m 9 X s 518 1228 m 9 X s 527 1228 m 8 X s 535 1228 m 9 X s 544
 1228 m 9 X s 553 1228 m 9 X s 562 1228 m 9 X s 571 1228 m 8 X s 579 1228 m 9 X s 588 1228 m 9 X s 597 1228 m 9 X s 606 1228 m 9 X s 615 1228 m 8 X s 623 1228 m 9 X s 632 1228 m 3 X -9 Y 6 X s 641 1219 m 9 X s 650 1219 m 8 X -9 Y 1 X s 659 1210 m 8 X
 s 667 1210 m 2 X 1 -9 d 6 X s 676 1201 m 9 X s 685 1201 m 5 X -10 Y 4 X s 694 1191 m 9 X s 703 1191 m 8 X s 711 1191 m 9 X s 720 1191 m 9 X s 729 1191 m 9 X s 738 1191 m 8 X -9 Y 1 X s 747 1182 m 8 X s 755 1182 m 9 X s 764 1182 m 9 X s 773 1182 m 9
 X s 782 1182 m 9 X s 791 1182 m 8 X s 799 1182 m 1 X -9 Y 8 X s 808 1173 m 7 X -9 Y 2 X s 817 1164 m 9 X s 826 1164 m 9 X s 835 1164 m 8 X s 843 1164 m 9 X s 852 1164 m 9 X s 861 1164 m 9 X s 870 1164 m 9 X s 879 1164 m 8 X s 887 1164 m 1 X -9 Y 8 X
 s 896 1155 m 9 X s 905 1155 m 9 X s 914 1155 m 5 X -9 Y 4 X s 923 1146 m 8 X s 931 1146 m 2 X -10 Y 7 X s 940 1136 m 9 X s 949 1136 m 9 X s 958 1136 m 1 X -9 Y 1 X -9 Y 7 X s 967 1118 m 8 X s 975 1118 m 9 X s 984 1118 m 9 X s 993 1118 m 5 X -9 Y 4 X
 s 1002 1109 m 9 X s 1011 1109 m 8 X s 1019 1109 m 9 X s 1028 1109 m 1 X -9 Y 7 X -9 Y 1 X s 1037 1091 m 9 X s 1046 1091 m 9 X s 1055 1091 m 7 X 1 -10 d s 1063 1081 m 3 X -9 Y 6 X s 1072 1072 m 3 X 1 -9 d 5 X s 1081 1063 m 9 X s 1090 1063 m 9 X s
 1099 1063 m 8 X s 1107 1063 m 9 X s 1116 1063 m 9 X s 1125 1063 m 2 X -9 Y 7 X s 1134 1054 m 9 X s 1143 1054 m 4 X -9 Y 4 X s 1151 1045 m 8 X -9 Y 1 X s 1160 1036 m 6 X -10 Y 3 X s 1169 1026 m 9 X s 1178 1026 m 9 X s 1187 1026 m 8 X s 1195 1026 m 2
 X -9 Y 4 X 1 -9 d 2 X -9 Y s 1204 999 m 9 X s 1213 999 m 8 X -9 Y 1 X s 1222 990 m 3 X -9 Y 6 X s 1231 981 m 8 X s 1239 981 m 9 X s 1248 981 m 1 X -10 Y 8 X s 1257 971 m 9 X s 1266 971 m 9 X s 1275 971 m 8 X s 1283 971 m 1 -9 d 1 X 1 -9 d 6 X s 1292
 953 m 9 X s 1301 953 m 1 X 1 -9 d 7 X s 1310 944 m 9 X s 1319 944 m 7 X -9 Y 1 X s 1327 935 m 4 X -9 Y 5 X s 1336 926 m 9 X s 1345 926 m 5 X 1 -10 d 3 X s 1354 916 m 6 X -9 Y 3 X s 1363 907 m 1 X -9 Y 5 X -9 Y 2 X s 1371 889 m 7 X -9 Y 2 X -9 Y s
 1380 871 m 9 X s 1389 871 m 4 X -10 Y 1 X 1 -9 d 3 X s 1398 852 m 1 X -9 Y 8 X s 1407 843 m -9 Y 5 X -9 Y 3 X s 1415 825 m 1 X -10 Y 3 X -9 Y 3 X -9 Y 2 X s 1424 797 m 5 X -9 Y 4 X s 1433 788 m -9 Y 1 X -9 Y 4 X 1 -10 d 3 X s 1442 760 m 1 X -9 Y 8 X
 s 1451 751 m 6 X 1 -9 d -9 Y 1 X s 1459 733 m 1 -9 d 8 X s 1468 724 m 2 X 1 -9 d 2 X -10 Y 4 X s 1477 705 m 9 X s 1486 705 m 4 X -9 Y 5 X s 1495 696 m 2 X 1 -9 d -9 Y 5 X s 1503 678 m 3 X -9 Y 6 X s 1512 669 m 5 X -9 Y 4 X s 1521 660 m 9 X s 1530
 660 m 9 X s 1539 660 m 2 X -10 Y 6 X s 1547 650 m 9 X s 1556 650 m 9 X s 1565 650 m 2 X -9 Y 4 X -9 Y 3 X s 1574 632 m 9 X s 1583 632 m 6 X -9 Y 2 X -9 Y s 1591 614 m 8 X -9 Y 1 X s 1600 605 m 4 X -10 Y 1 X 1 -9 d -18 Y 3 X s 1609 568 m 5 X 1 -9 d 3
 X s 1618 559 m 1 X -9 Y 2 X -10 Y 6 X s 1627 540 m 6 X 1 -9 d 1 X s 1635 531 m 3 X -9 Y 6 X s 1644 522 m -9 Y 9 X s 1653 513 m 9 X s 1662 513 m 2 X -9 Y 6 X -9 Y 1 X s 1671 495 m 1 X 1 -10 d 1 X 1 -9 d 4 X -9 Y s 1679 467 m 7 X -9 Y 2 X s 1688 458 m
 9 X s 1697 458 m 1 X -9 Y 4 X 1 -9 d 1 X 1 -10 d 1 X s 1706 430 m 1 X -9 Y 8 X s 1715 421 m 6 X -9 Y 2 X s 1723 412 m 9 X s 1732 412 m 9 X s 1741 412 m 5 X -9 Y 2 X -18 Y 2 X s 1750 385 m 9 X s 1759 385 m 6 X -10 Y 2 X s 1767 375 m 9 X s 1776 375 m
 5 X 1 -9 d 3 X s 1785 366 m 6 X -9 Y 1 -9 d 2 X s 1794 348 m 5 X -9 Y 4 X s 1803 339 m 7 X -9 Y 2 X s 1812 330 m 5 X -10 Y 3 X s 1820 320 m 2 X -9 Y 2 X 1 -9 d 4 X s 1829 302 m 9 X s 1838 302 m 9 X s 1847 302 m 3 X -9 Y 3 X -9 Y 3 X s 1856 284 m 8 X
 s 1864 284 m 1 X -10 Y 5 X -9 Y 3 X s 1873 265 m 9 X s 1882 265 m 1 -9 d 8 X s 1891 256 m 4 X -9 Y 1 -9 d 4 X s 1900 238 m 5 X -9 Y 2 X -10 Y 1 X s 1908 219 m 9 X s 1917 219 m 9 X s 1926 219 m 4 X -9 Y 5 X s 1935 210 m 9 X s 1944 210 m 8 X s 1952
 210 m 9 X s 1961 210 m 9 X s 1970 210 m 9 X s 1979 210 m 9 X s 1988 210 m 8 X s 1996 210 m 9 X s 2005 210 m 9 X s 2014 210 m 9 X s 2023 210 m 9 X s 2032 210 m 8 X s 2040 210 m 1 X s 1 0 0 c black 1 0 0 c 245 1237 m 9 X s 254 1237 m 9 X s 263 1237 m
 8 X s 271 1237 m 6 X -1 Y 3 X s 280 1236 m 1 -1 d 8 X s 289 1235 m 8 X -1 Y 1 X s 298 1234 m 7 X -2 Y 1 X 1 -1 d s 307 1231 m 2 X -1 Y 6 X s 315 1230 m 4 X -1 Y 4 X -1 Y 1 X s 324 1228 m 1 -1 d -1 Y 2 X -1 Y 5 X -2 Y 1 X s 333 1223 m 9 X s 342 1223
 m 1 -1 d 6 X -3 Y 1 X -1 Y 1 X s 351 1218 m -1 Y 2 X -1 Y 1 X -1 Y 5 X s 359 1215 m 4 X -2 Y 4 X -1 Y 1 X s 368 1212 m 7 X -2 Y 2 X s 377 1210 m 1 X -2 Y 8 X -1 Y s 386 1207 m 3 X -1 Y 6 X s 395 1206 m 1 -1 d 2 X -1 Y 5 X s 403 1204 m 2 X -1 Y 4 X 1
 -1 d 2 X -1 Y s 412 1201 m 3 X -1 Y 5 X -1 Y 1 X s 421 1199 m 1 -1 d -1 Y 2 X -1 Y 2 X -1 Y 3 X -1 Y 1 X s 430 1194 m 1 X -1 Y 3 X -1 Y 1 X -1 Y 3 X -1 Y 1 X s 439 1190 m -1 Y 1 X -1 Y 3 X -2 Y 2 X -1 Y 1 X -2 Y 1 X -1 Y s 447 1182 m 2 X -1 Y 1 X -1
 Y 2 X 1 -1 d 3 X -1 Y s 456 1178 m 4 X -1 Y 1 X -1 Y 2 X -2 Y 1 X -2 Y 1 X s 465 1172 m -1 Y 3 X -1 Y 2 X -1 Y 1 X -2 Y 1 -1 d 1 X -1 Y 1 X s 474 1165 m 1 X -1 Y 1 X -1 Y 1 -1 d 2 X -2 Y 1 X -1 Y 1 -1 d 1 X -2 Y 1 X s 483 1156 m -1 Y 1 -1 d -1 Y 3 X
 -1 Y 1 X -1 Y 1 X -1 Y 1 X -1 Y 1 X -1 Y s 491 1148 m 2 X -2 Y 1 X -1 Y 2 X -2 Y 2 X 1 -1 d 1 X s 500 1142 m 1 -1 d -1 Y 3 X -2 Y 1 X -1 Y 1 -1 d 1 X -1 Y 1 X 1 -1 d s 509 1134 m -1 Y 2 X 1 -1 d 1 -1 d -1 Y 1 X -1 Y 1 X -1 Y 1 X -1 Y 1 X -1 Y 1 X s
 518 1126 m -2 Y 1 X 1 -1 d 2 X -2 Y 2 X -2 Y 2 X -2 Y 1 X s 527 1117 m 1 X -1 Y 1 X -2 Y 1 X -1 Y 1 X -1 Y 2 X -1 Y 1 X -1 Y 1 X -2 Y s 535 1108 m 1 X -1 Y 1 X -1 Y 1 -1 d 2 X -2 Y 1 X -1 Y 1 X -1 Y 1 X -1 Y 1 X -1 Y s 544 1099 m 1 X -1 Y 1 X -1 Y 1
 X -1 Y 1 X -1 Y 2 X -1 Y 1 X -1 Y 1 X -2 Y 1 X s 553 1091 m 1 X -2 Y 2 X -1 Y 1 X -1 Y 1 X 1 -1 d 1 X -1 Y 1 -1 d -1 Y 1 X s 562 1083 m -1 Y 3 X -1 Y 1 -1 d 1 X -2 Y 2 X -2 Y 1 -1 d -1 Y 1 X s 571 1074 m -1 Y 1 -1 d 2 X 1 -1 d -1 Y 1 X -1 Y 1 X -3 Y
 2 X -1 Y s 579 1065 m 1 X -2 Y 1 X -2 Y 1 X -2 Y 1 X -2 Y 2 X -1 Y 1 X 1 -1 d 1 X -1 Y s 588 1054 m 1 X -1 Y 1 X -1 Y 1 X -1 Y 2 X -1 Y 2 X -1 Y 1 -1 d -1 Y 1 X s 597 1047 m 1 X -1 Y 1 X -1 Y 1 X 1 -1 d -2 Y 1 X -1 Y 1 X -1 Y 1 X -1 Y 1 X -1 Y 1 X
 -1 Y s 606 1037 m 1 -1 d 1 X -1 Y 1 X -1 Y 1 X -2 Y 2 X -2 Y 1 X -1 Y 1 X -2 Y 1 X s 615 1027 m -1 Y 2 X -1 Y 1 X -1 Y 1 X 1 -1 d 1 X -1 Y 2 X -1 Y s 623 1021 m 1 X -1 Y 1 X -1 Y 1 X -1 Y 1 -1 d -1 Y 1 X -1 Y 1 X -1 Y 1 -1 d -1 Y 1 X -1 Y 1 X -1 Y s
 632 1010 m 1 X -1 Y 1 X -1 Y 1 X 1 -1 d -1 Y 1 X -1 Y 1 X -1 Y 1 X -3 Y 1 X -1 Y 1 X s 641 1000 m 1 X -1 Y 1 X -1 Y 1 X -3 Y 1 X -1 Y 1 X -1 Y 1 -1 d -1 Y 3 X s 650 991 m -1 Y 1 -1 d 1 X -1 Y 2 X -1 Y 1 X -1 Y 1 X -1 Y 1 X -1 Y 1 X -1 Y 1 X s 659
 983 m 2 X -1 Y 1 X -2 Y 1 X -1 Y 1 X -1 Y 2 X -1 Y 1 X -1 Y s 667 976 m 1 X -2 Y 1 X 1 -1 d 1 X -1 Y 1 -1 d 1 X -1 Y 1 X -1 Y 1 X -1 Y 1 X s 676 968 m 2 X -1 Y 2 X -1 Y 3 X -1 Y 2 X s 685 965 m -1 Y 1 X 1 -1 d 2 X -2 Y 2 X -2 Y 2 X -1 Y 1 X s 694
 958 m 1 X -1 Y 1 -1 d -1 Y 2 X 1 -1 d -2 Y 1 X -1 Y 1 X -3 Y 1 X -1 Y 1 X s 703 947 m -2 Y 1 X -1 Y 2 X -1 Y 1 X -1 Y 1 X -1 Y 1 X -1 Y 1 X -1 Y 1 X -1 Y s 711 938 m 2 X -1 Y 2 X -1 Y 1 X 1 -1 d -2 Y 1 X -1 Y 1 -1 d 1 X s 720 931 m -1 Y 1 X -1 Y 2 X
 -1 Y 2 X -2 Y 2 X -2 Y 1 X -1 Y 1 X -2 Y s 729 921 m 1 -1 d 1 X -1 Y 2 X -1 Y 1 -1 d -1 Y 1 X 1 -1 d 2 X s 738 915 m -1 Y 1 X -1 Y 1 -1 d -1 Y 2 X -1 Y 1 X 1 -1 d -1 Y 1 X -2 Y 1 X -1 Y 1 X s 747 905 m 1 X -3 Y 1 X 1 -1 d -1 Y 1 X -1 Y 1 X -1 Y 1 X
 -1 Y 1 X -1 Y 1 X -1 Y s 755 895 m 1 X -1 Y 2 X -1 Y 2 X -1 Y 2 X -1 Y 1 X -4 Y 1 X s 764 887 m 1 -1 d 1 X -2 Y 1 X -1 Y 1 X -2 Y 2 X 1 -1 d -2 Y 1 X -2 Y 1 X s 773 876 m 1 X -1 Y 1 X -1 Y 2 X -1 Y 1 X -1 Y 1 X -1 Y 1 X -2 Y 1 X 1 -1 d s 782 868 m
 -2 Y 1 X -1 Y 2 X -1 Y 1 X -1 Y 1 X -3 Y 1 -1 d -1 Y 1 X -2 Y 1 X -2 Y 1 X s 791 854 m -1 Y 1 X -5 Y 1 X -1 Y 1 -1 d -1 Y 1 X -2 Y 1 X -2 Y 1 X -1 Y 1 X -1 Y 1 X s 799 839 m 1 -1 d -1 Y 1 X -2 Y 1 X -1 Y 1 X -1 Y 2 X -1 Y 3 X s 808 832 m -1 Y 1 X -2
 Y 1 -1 d -3 Y 1 -1 d -1 Y 1 -1 d -1 Y 1 X -1 Y 1 X -1 Y 1 X -1 Y 1 X -1 Y 1 X -1 Y s 817 816 m 1 -1 d -1 Y 1 X -2 Y 1 X -1 Y 2 X -1 Y 1 X -1 Y 1 X -1 Y 1 -1 d -1 Y 1 X s 826 806 m 1 X -1 Y 1 X -1 Y 1 X -2 Y 2 X -2 Y 1 X -2 Y 2 X -3 Y 1 X s 835 795 m
 1 -1 d -3 Y 1 X -1 Y 1 X -1 Y 1 X -2 Y 1 X -1 Y 1 X 1 -2 d -2 Y 1 X -1 Y s 843 781 m 2 X -2 Y 1 -1 d -2 Y 2 X -1 Y 3 X -1 Y 1 X -2 Y s 852 772 m 1 X -2 Y 1 X -1 Y 1 X -1 Y 1 X -4 Y 1 -1 d -1 Y 1 X -1 Y 2 X -1 Y 1 -1 d -1 Y s 861 758 m -1 Y 1 X -1 Y
 1 X -1 Y 1 X -1 Y 1 -1 d -2 Y 1 X -1 Y 1 X -1 Y 1 X -1 Y 1 -1 d -1 Y 1 -1 d s 870 745 m -1 Y 1 -1 d 1 -1 d -1 Y 1 X -2 Y 1 X -1 Y 1 -1 d 1 X 1 -1 d 1 X -2 Y 1 X s 879 734 m -1 Y 1 X -1 Y 1 X -1 Y 1 X -2 Y 1 X -1 Y 1 X -1 Y 1 X -1 Y 2 X -1 Y s 887
 725 m 1 X -2 Y 1 X -1 Y 1 X -2 Y 1 -1 d 1 X -1 Y 1 X -1 Y 1 X -2 Y 2 X -1 Y s 896 714 m 1 X 1 -1 d -1 Y 1 X -2 Y 1 X -2 Y 1 X -3 Y 2 X -1 Y 1 -1 d 1 X -1 Y s 905 702 m -1 Y 1 X -1 Y 1 X -1 Y 1 -1 d -1 Y 2 X -2 Y 1 X -1 Y 1 X -1 Y 1 X -1 Y 1 X s 914
 692 m -1 Y 1 X -1 Y 2 X 1 -1 d -1 Y 1 -1 d -1 Y 1 X -1 Y 1 X -1 Y 1 X -2 Y 1 X s 923 682 m -1 Y 1 X -1 Y 1 X 1 -1 d 1 X -1 Y 2 X -1 Y 2 X -1 Y s 931 676 m 1 X -1 Y 1 X 1 -1 d 1 -1 d 1 X -2 Y 2 X -1 Y 1 X -1 Y 1 X -2 Y s 940 667 m 1 X -2 Y 1 X 1 -1 d
 -1 Y 1 X -1 Y 1 -1 d 1 -1 d -1 Y 1 X -1 Y 1 X -1 Y 1 X -1 Y s 949 656 m 1 X -1 Y 1 X -2 Y 2 X -1 Y 2 X -1 Y 1 X -2 Y 1 X -1 Y 1 X s 958 648 m 1 -1 d 1 X -1 Y 1 X -1 Y 1 X 1 -1 d 1 X -1 Y 1 -1 d -2 Y 1 X -1 Y 1 X s 967 639 m -1 Y 2 X -1 Y 1 X -2 Y 1
 -1 d -1 Y 1 X -2 Y 2 X -1 Y 1 X -2 Y s 975 628 m 3 X -1 Y 1 X -1 Y 1 -1 d 1 X -1 Y 1 X -1 Y 2 X s 984 623 m -1 Y 1 -1 d 1 X -1 Y 1 X 1 -1 d 1 X -1 Y 1 X -1 Y 1 X -1 Y 1 X -1 Y 1 -1 d s 993 614 m -1 Y 1 X -1 Y 1 -1 d -1 Y 1 -1 d 1 X -1 Y 1 X -1 Y 2 X
 -1 Y 1 X -2 Y 1 X s 1002 604 m 2 X -1 Y 1 X -2 Y 1 X -1 Y 2 X 1 -1 d -2 Y 2 X s 1011 597 m -1 Y 1 X -1 Y 1 X -1 Y 1 X -1 Y 1 X -1 Y 1 X -2 Y 1 X -1 Y 1 X -2 Y 1 X s 1019 587 m 1 X -1 Y 1 X -1 Y 1 -1 d -1 Y 1 X -2 Y 2 X -2 Y 1 X -1 Y 1 X -1 Y 1 X -1
 Y s 1028 576 m -1 Y 2 X -2 Y 2 X -1 Y 1 X -2 Y 1 X -1 Y 1 -1 d 2 X -1 Y s 1037 567 m 1 -1 d 2 X -1 Y 2 X -1 Y 2 X -1 Y 1 X -2 Y 1 X s 1046 561 m 1 X -1 Y 1 -1 d -2 Y 1 X -1 Y 1 X -2 Y 1 X -1 Y 1 X 1 -1 d -2 Y 1 X -1 Y 1 X s 1055 549 m 1 -1 d -1 Y 1
 X -2 Y 1 -1 d -2 Y 1 X -3 Y 1 -1 d -1 Y 1 X -1 Y 2 X -1 Y s 1063 535 m 2 X -1 Y 2 X -1 Y 1 X -2 Y 2 X -2 Y 1 X -1 Y 1 -1 d s 1072 527 m 1 X -2 Y 1 X -1 Y 1 X -1 Y 1 X -1 Y 1 X -1 Y 1 X -1 Y 2 X -2 Y 1 X -1 Y s 1081 517 m -1 Y 1 X -1 Y 1 X -1 Y 2 X 1
 -1 d 1 X -1 Y 1 X -1 Y 1 X -1 Y 1 X s 1090 510 m -1 Y 1 X -2 Y 1 X -1 Y 3 X -3 Y 1 X -1 Y 1 X -1 Y 1 X -3 Y 1 X s 1099 498 m 1 -1 d -1 Y 1 -1 d 1 X -1 Y 1 X -1 Y 1 X 1 -1 d -1 Y 2 X -2 Y s 1107 489 m 1 -1 d 1 -1 d -1 Y 1 X 1 -1 d -1 Y 1 X 1 -1 d -1
 Y 1 X -1 Y 1 X -2 Y 1 X s 1116 479 m 1 X -1 Y 1 X -1 Y 1 X 1 -1 d -2 Y 2 X -2 Y 1 X -1 Y 2 X s 1125 471 m 1 -1 d -1 Y 1 X -1 Y 3 X -2 Y 2 X -1 Y 1 X -1 Y 1 X s 1134 464 m -1 Y 2 X -1 Y 1 X -1 Y 1 X -1 Y 1 X -1 Y 3 X -2 Y 1 X s 1143 457 m -1 Y 1 X -1
 Y 3 X -1 Y 1 -1 d 2 X -2 Y 1 X s 1151 451 m 1 X -1 Y 2 X -1 Y 1 X -1 Y 1 X 1 -1 d 1 X -1 Y 1 -1 d 1 X s 1160 445 m 2 X -2 Y 1 -1 d 1 X -1 Y 1 X -1 Y 1 X 1 -1 d -1 Y 1 X -1 Y 1 X s 1169 437 m 1 X -1 Y 1 X 1 -1 d 1 X -1 Y 2 X -1 Y 2 X -1 Y 1 X s 1178
 432 m 1 X -1 Y 1 X -1 Y 1 X 1 -1 d -1 Y 2 X -1 Y 1 X -1 Y 2 X s 1187 426 m 2 X -2 Y 2 X -1 Y 2 X 1 -1 d -1 Y 1 X -1 Y s 1195 420 m 1 X -1 Y 3 X -1 Y 1 X -1 Y 2 X 1 -1 d -2 Y 1 X s 1204 414 m 1 X -1 Y 3 X -1 Y 2 X -2 Y 3 X s 1213 410 m 1 X 1 -1 d -1
 Y 1 X -1 Y 1 X -1 Y 1 X 1 -1 d 1 X -1 Y 1 -1 d 1 X s 1222 403 m 1 X -2 Y 2 X 1 -1 d 1 X -1 Y 2 X 1 -1 d 1 X s 1231 398 m 3 X -2 Y 2 X 1 -1 d 1 X -1 Y 1 X -1 Y s 1239 393 m 1 X -1 Y 1 X -2 Y 1 X 1 -1 d 1 X -1 Y 1 X -1 Y 3 X -1 Y s 1248 386 m 1 X -1 Y
 2 X -1 Y 1 X -1 Y 1 X -2 Y 1 X -1 Y 1 X -1 Y 1 X -1 Y 1 X s 1257 378 m -1 Y 3 X -1 Y 1 -1 d 2 X -1 Y 2 X 1 -1 d s 1266 373 m 1 X -2 Y 1 X 1 -1 d 1 X -2 Y 2 X 1 -1 d 1 X -1 Y 1 X s 1275 366 m -1 Y 3 X -1 Y 2 X -1 Y 2 X -1 Y 1 X -1 Y s 1283 361 m 2 X
 -1 Y 2 X -1 Y 3 X -1 Y 1 X -1 Y 1 X s 1292 357 m -1 Y 2 X -1 Y 2 X -1 Y 2 X -1 Y 1 X -1 Y 2 X -1 Y s 1301 351 m 2 X -1 Y 2 X -2 Y 1 X -1 Y 1 -1 d 3 X s 1310 346 m 1 X -1 Y 2 X -2 Y 2 X -1 Y 4 X s 1319 342 m -1 Y 3 X -1 Y 4 X 1 -1 d s 1327 339 m 2 X
 -1 Y 1 X -1 Y 1 -1 d -1 Y 1 X -1 Y 1 -1 d -1 Y 2 X 1 -1 d -1 Y s 1336 330 m 1 X -1 Y 3 X -1 Y 1 X -2 Y 2 X -1 Y 1 X -1 Y 1 X s 1345 324 m 2 X -1 Y 2 X -1 Y 1 X -1 Y 1 -1 d 2 X -1 Y 1 X s 1354 319 m -1 Y 3 X -1 Y 1 X -1 Y 3 X -1 Y 2 X s 1363 315 m -1
 Y 2 X -1 Y 3 X 1 -1 d 1 X -1 Y 1 X s 1371 311 m 3 X 1 -1 d 2 X -1 Y 3 X s 1380 309 m -1 Y 2 X -1 Y 2 X -1 Y 1 X -1 Y 3 X -1 Y 1 X s 1389 304 m 2 X -1 Y 1 X -2 Y 2 X -1 Y 2 X -1 Y 1 X 1 -1 d s 1398 298 m 2 X -1 Y 6 X -1 Y 1 X s 1407 296 m 1 X 1 -1 d
 2 X -1 Y 2 X 1 -1 d 1 X -1 Y s 1415 292 m 3 X -1 Y 1 X -1 Y 2 X -1 Y 2 X -1 Y 1 X s 1424 288 m 4 X 1 -1 d 1 X -1 Y 1 X -1 Y 2 X s 1433 285 m 1 X -1 Y 3 X -1 Y 2 X -1 Y 1 X -1 Y 2 X s 1442 281 m 3 X -1 Y 1 X -1 Y 2 X -1 Y 3 X s 1451 278 m 1 -1 d 3 X
 -1 Y 3 X 1 -1 d -1 Y s 1459 274 m 2 X -1 Y 1 X -1 Y 4 X -1 Y 2 X s 1468 271 m 2 X -1 Y 2 X -1 Y 1 X 1 -1 d 3 X s 1477 268 m 2 X -1 Y 4 X 1 -1 d 1 X 1 -1 d s 1486 265 m 8 X -1 Y 1 X s 1495 264 m -1 Y 2 X 1 -1 d 5 X -1 Y s 1503 261 m 9 X -1 Y s 1512
 260 m 5 X 1 -1 d 2 X 1 -1 d s 1521 258 m 4 X -1 Y 5 X s 1530 257 m 1 X 1 -1 d 5 X 1 -1 d 1 X s 1539 255 m 6 X -1 Y 2 X s 1547 254 m 2 X -1 Y 3 X -1 Y 4 X s 1556 252 m 3 X 1 -1 d 5 X s 1565 251 m -1 Y 9 X s 1574 250 m 1 X 1 -1 d 5 X -1 Y 2 X s 1583
 248 m 2 X -1 Y 3 X -1 Y 2 X -1 Y 1 X -1 Y s 1591 244 m 4 X 1 -1 d 4 X s 1600 243 m 2 X -1 Y 1 X 1 -1 d 5 X s 1609 241 m 2 X -1 Y 7 X s 1618 240 m 1 X 1 -1 d 1 X -1 Y 6 X s 1627 238 m 3 X -1 Y 5 X s 1635 237 m 1 -1 d -1 Y 6 X -1 Y 2 X s 1644 234 m 1
 X -1 Y 6 X -1 Y 2 X s 1653 232 m 2 X -1 Y 7 X s 1662 231 m 1 X -1 Y 1 X 1 -1 d 3 X -1 Y 3 X s 1671 228 m 1 X -1 Y 3 X -1 Y 4 X s 1679 226 m 5 X -1 Y 4 X -1 Y s 1688 224 m 6 X -1 Y 3 X s 1697 223 m 2 X -1 Y 7 X s 1706 222 m 2 X -1 Y 2 X -1 Y 5 X s
 1715 220 m 8 X s 1723 220 m 5 X -1 Y 4 X s 1732 219 m 5 X -1 Y 4 X s 1741 218 m 4 X -1 Y 5 X s 1750 217 m 3 X -1 Y 6 X s 1759 216 m 1 X -1 Y 7 X s 1767 215 m 2 X -1 Y 6 X -1 Y 1 X s 1776 213 m 9 X s 1785 213 m 2 X -1 Y 7 X s 1794 212 m 1 -1 d 3 X 1
 -1 d 4 X s 1803 210 m 8 X -1 Y 1 X s 1812 209 m 8 X -1 Y s 1820 208 m 9 X s 1829 208 m 9 X s 1838 208 m 8 X -1 Y 1 X s 1847 207 m 9 X s 1856 207 m 8 X s 1864 207 m 1 X -1 Y 8 X s 1873 206 m 6 X 1 -1 d 2 X s 1882 205 m 9 X s 1891 205 m 8 X -1 Y 1 X s
 1900 204 m 8 X s 1908 204 m 6 X -1 Y 3 X s 1917 203 m 9 X s 1926 203 m 9 X s 1935 203 m 9 X s 1944 203 m 7 X -1 Y 1 X s 1952 202 m 9 X s 1961 202 m 9 X s 1970 202 m 9 X s 1979 202 m 4 X 1 -1 d 4 X s 1988 201 m 8 X s 1996 201 m 9 X s 2005 201 m 9 X s
 2014 201 m 9 X s 2023 201 m 9 X s 2032 201 m 8 X s 2040 201 m 1 X s 0 0.666667 0 c 1 1 1 c black 0 0.666667 0 c 245 1121 m 9 X s 254 1121 m 9 X s 263 1121 m 8 X s 271 1121 m 9 X s 280 1121 m 9 X s 289 1121 m 8 X 1 Y 1 X s 298 1122 m 9 X s 307 1122 m
 7 X 1 Y 1 X s 315 1123 m 9 X s 324 1123 m 3 X 1 Y 6 X s 333 1124 m 9 X s 342 1124 m 7 X 1 Y 2 X s 351 1125 m 2 X 1 Y 6 X s 359 1126 m 9 X s 368 1126 m 1 X 1 Y 8 X s 377 1127 m 3 X 1 Y 6 X s 386 1128 m 9 X s 395 1128 m 8 X s 403 1128 m 2 X 1 Y 7 X s
 412 1129 m 8 X 1 1 d s 421 1130 m 8 X 1 Y 1 X s 430 1131 m 8 X 1 Y 1 X s 439 1132 m 5 X 1 1 d 2 X s 447 1133 m 2 X 1 Y 7 X s 456 1134 m 4 X 1 1 d 3 X 1 Y 1 X s 465 1136 m 6 X 1 Y 3 X s 474 1137 m 1 X 1 Y 5 X 1 Y 2 X 1 Y 1 X s 483 1140 m 5 X 1 Y 3 X
 s 491 1141 m 2 X 1 Y -6 Y 5 X 1 1 d 1 X s 500 1137 m 5 X 1 Y 4 X 1 Y s 509 1139 m 5 X 1 Y 3 X 1 Y 1 X s 518 1141 m 4 X 1 Y 4 X 1 Y 1 X s 527 1143 m 3 X 1 Y 5 X 1 Y s 535 1145 m 2 X 1 1 d 5 X 1 Y 1 X s 544 1147 m 2 X 1 Y 5 X 1 Y 2 X s 553 1149 m 3 X
 1 Y 4 X 1 Y 2 X s 562 1151 m 3 X 1 Y 4 X 1 Y 2 X s 571 1153 m 1 Y 6 X 1 Y 2 X s 579 1155 m 1 X 1 Y 1 X 1 Y 3 X 1 Y 4 X s 588 1158 m 2 X 1 Y 5 X 1 Y 2 X s 597 1160 m 2 X 1 1 d 2 X 1 Y 4 X 1 Y s 606 1163 m 3 X 1 Y 4 X 1 Y 2 X s 615 1165 m 1 X 1 Y 6 X
 1 Y 1 X s 623 1167 m 3 X 1 Y 3 X 1 Y 2 X 1 Y 1 X s 632 1170 m 3 X -6 Y 2 X 1 Y 2 X 1 Y 2 X s 641 1166 m 2 X 1 Y 2 X 1 Y 4 X 1 Y 1 X s 650 1169 m 4 X 1 Y 4 X -6 Y 1 X s 659 1164 m 2 X 1 Y 3 X 1 Y 3 X s 667 1166 m 1 X 1 Y 1 X 1 -6 d 3 X 1 1 d 2 X s
 676 1162 m 4 X 1 Y 5 X s 685 1163 m 2 X 1 Y 3 X -6 Y 4 X 1 Y s 694 1159 m 4 X 1 1 d 2 X 1 Y 1 X 1 Y 1 X s 703 1162 m 3 X 1 Y 3 X 1 Y 2 X s 711 1164 m 5 X 1 Y 2 X 1 Y 2 X s 720 1166 m 1 X 1 1 d 5 X 1 Y 2 X 1 Y s 729 1169 m 4 X 1 Y 3 X 1 Y 2 X s 738
 1171 m 2 X 1 Y 4 X 1 Y 2 X -6 Y 1 X s 747 1167 m 1 X 1 Y 3 X 1 Y 3 X 1 Y 1 X s 755 1170 m 4 X 1 Y 4 X 1 Y 1 X s 764 1172 m 1 X 1 Y 3 X 1 Y 3 X 1 Y 2 X s 773 1175 m 1 X 1 Y 4 X 1 Y 3 X 1 Y 1 X s 782 1178 m 1 X 1 Y 4 X 1 Y 1 1 d 2 X 1 Y 1 X s 791 1182
 m 1 X 2 Y 2 X 1 Y 2 X 1 Y 2 X 1 1 d s 799 1187 m 1 X -6 Y 2 X 1 Y 6 X s 808 1182 m 1 Y 2 X 1 Y 1 1 d 1 X 1 Y 3 X -6 Y 2 X 1 Y s 817 1181 m 2 X 1 Y 4 X 1 Y 2 X 1 Y 1 X s 826 1184 m 3 X 1 Y 2 X 1 Y 3 X 1 Y 1 X s 835 1187 m 1 1 d 1 1 d 2 X 1 Y 2 X 1 1
 d 1 X 1 Y s 843 1192 m 2 X 1 1 d 2 X 1 Y 4 X s 852 1194 m 1 Y 2 X 1 Y 2 X 1 Y 1 X 1 Y 3 X 1 Y 1 X s 861 1199 m 1 1 d 2 X 1 1 d 1 X 1 Y 2 X 1 Y 2 X 1 Y s 870 1204 m 2 X 1 Y 1 X 1 Y 4 X 1 Y 2 X s 879 1207 m 1 Y 3 X 1 Y 3 X 1 Y 2 X s 887 1210 m 1 X -6
 Y 1 X 1 Y 1 X 1 1 d 3 X 1 Y 2 X s 896 1207 m 1 X 1 1 d 1 X 1 Y 1 X 1 1 d 1 X 1 Y 3 X s 905 1211 m 1 Y 2 X 1 Y 3 X 1 Y 2 X 1 Y 2 X s 914 1215 m 1 X 1 Y 3 X 1 Y 1 X -7 Y 1 1 d 2 X 1 Y 1 X s 923 1212 m 1 X 1 Y 5 X 1 Y 2 X s 931 1214 m 1 X 1 Y 1 X -7 Y
 1 X 1 1 d 3 X 1 Y 2 X 1 Y s 940 1211 m 2 X 1 1 d 1 X 1 Y 2 X 1 Y 3 X 1 Y s 949 1215 m 2 X 1 Y 4 X 1 Y 2 X 1 Y 1 X s 958 1218 m 1 X -7 Y 1 1 d -7 Y 1 X 1 1 d 2 X 1 1 d 1 1 d 1 X s 967 1208 m 3 X 1 Y 1 1 d 1 X 1 Y 3 X 1 Y s 975 1212 m 4 X 1 Y 3 X 1 Y
 2 X s 984 1214 m 1 X 1 Y 4 X 1 Y 2 X 1 1 d 1 X s 993 1217 m 1 X 1 Y 1 X 1 Y 2 X 1 Y 1 X -7 Y 2 X 1 Y 2 X s 1002 1214 m 1 X 1 Y 2 X 1 Y 4 X 1 Y 2 X s 1011 1217 m 1 Y 3 X 1 1 d 1 X 1 Y 2 X 1 Y 1 X s 1019 1221 m 2 X 1 Y 1 X 1 1 d 1 Y 3 X 1 Y 2 X s 1028
 1225 m 1 Y 1 X -7 Y 1 X 1 Y 3 X 1 Y 1 X 1 Y 2 X -7 Y 1 X 1 Y s 1037 1216 m 5 X 1 Y 3 X 1 Y 1 X s 1046 1218 m 1 X 1 1 d 1 1 d 1 X 1 Y 2 X 1 1 d 1 X 1 Y 1 X s 1055 1223 m 1 X 1 Y 1 X 1 1 d 1 Y 1 X 1 Y 1 1 d 2 X 1 -6 d s 1063 1222 m 3 X -6 Y 2 X 1 Y 2
 X 1 Y 2 X 1 Y s 1072 1219 m 2 X 1 Y 1 X 1 -7 d 1 Y 2 X 1 Y 2 X 1 Y 1 X s 1081 1216 m 1 Y 4 X 1 1 d 2 X 1 1 d 1 X s 1090 1219 m 1 X 1 Y 1 X 1 Y 3 X 1 Y 1 X 1 Y 2 X 1 Y 1 X s 1099 1224 m 1 1 d 1 X 1 Y 3 X 1 Y 2 X 1 Y 1 X s 1107 1228 m 1 1 d 1 X 1 Y 2
 X 1 Y 3 X 1 Y 1 X 1 Y 1 X s 1116 1233 m 2 X 1 Y 2 X 1 Y 2 X 1 Y 2 X 1 1 d s 1125 1237 m 2 X -6 Y 3 X 1 Y 3 X 1 Y 1 X s 1134 1233 m 2 X 1 Y 2 X 1 1 d 3 X 1 Y 1 X s 1143 1236 m 1 Y 4 X -6 Y 3 X 1 Y 1 X s 1151 1232 m 3 X 1 Y 2 X 1 Y 2 X 1 1 d -7 Y 1 X
 s 1160 1228 m 2 X 1 Y 2 X 1 Y 1 X 1 1 d -7 Y 2 X 1 Y 1 X s 1169 1225 m 2 X 1 1 d 3 X 1 Y 3 X s 1178 1227 m 1 X 1 Y 2 X 1 1 d 2 X 1 Y 3 X s 1187 1230 m 2 X 1 Y 2 X 1 Y 3 X 1 1 d s 1195 1233 m 1 X 1 1 d -7 Y 3 X 1 Y 1 X 1 -7 d 1 X 1 Y 1 X -7 Y s 1204
 1215 m 1 X 1 Y 5 X 1 Y 3 X s 1213 1217 m 1 X 1 1 d 1 X 1 Y 3 X 1 Y 1 X 1 1 d -7 Y 1 X s 1222 1214 m 1 X 1 1 d 1 X -7 Y 2 X 1 Y 4 X s 1231 1209 m 3 X 1 Y 2 X 1 1 d 2 X 1 Y s 1239 1212 m 2 X 1 Y 1 X 1 1 d 2 X 1 Y 3 X s 1248 1215 m 1 1 d -7 Y 3 X 1 Y 1
 X 1 Y 2 X 1 Y 2 X 1 Y s 1257 1213 m 3 X 1 Y 4 X 1 1 d 1 X s 1266 1215 m 1 X 1 Y 1 X 1 1 d 1 X 1 Y 3 X 1 Y 2 X s 1275 1219 m 2 X 1 Y 4 X 1 Y 2 X 1 Y s 1283 1222 m 1 -7 d 1 X 1 -7 d 4 X 1 Y 2 X 1 Y s 1292 1210 m 2 X 1 Y 4 X 1 Y 3 X 1 Y s 1301 1213 m 1
 X 1 -7 d 2 X 1 Y 1 X 1 Y 3 X 1 Y 1 X s 1310 1209 m 3 X 1 Y 2 X 1 Y 4 X s 1319 1211 m 1 X 1 Y 6 X -7 Y 1 X s 1327 1205 m 2 X 1 Y 1 X 1 1 d -7 Y 1 X 1 Y 1 X 1 Y 2 X 1 1 d s 1336 1203 m 1 X 1 Y 4 X 1 Y 1 1 d 2 X 1 Y 1 X s 1345 1207 m 3 X 1 Y 2 X 1 Y 1
 -7 d 3 X s 1354 1202 m 1 Y 3 X 1 1 d 1 X 1 Y 1 X -8 Y 2 X 1 Y 1 X s 1363 1198 m 1 X -7 Y 3 X 1 Y 2 X -7 Y 2 X s 1371 1185 m 3 X 1 1 d 3 X -7 Y 2 X -7 Y s 1380 1172 m 3 X 1 1 d 1 X 1 Y 4 X s 1389 1174 m 1 X 1 Y 2 X 1 Y 1 X -7 Y 1 X 1 -7 d 2 X 1 Y 1 X
 s 1398 1163 m 1 X -7 Y 7 X 1 Y 1 X s 1407 1157 m -8 Y 3 X 1 Y 2 X -8 Y 1 X 1 Y 2 X 1 Y s 1415 1144 m 1 X -8 Y 2 X 1 Y 1 X -8 Y 1 X 1 Y 2 X -8 Y 2 X 1 Y s 1424 1123 m 5 X -8 Y 1 X 1 Y 1 X 1 Y 2 X s 1433 1117 m -8 Y 1 X -8 Y 2 X 1 Y 2 X 1 -8 d 1 X 1 Y
 2 X s 1442 1095 m 1 X -8 Y 2 X 1 1 d 1 X 1 Y 4 X s 1451 1089 m 1 X 1 Y 5 X 1 -8 d -8 Y 1 X 1 Y s 1459 1075 m 1 -9 d 1 X 1 Y 1 X 1 Y 4 X 1 Y 2 X s 1468 1069 m 2 X 1 Y 1 -9 d 1 X 1 Y 1 X -9 Y 1 1 d 3 X s 1477 1054 m 4 X 1 Y 4 X 1 Y 1 X s 1486 1056 m 4
 X -9 Y 3 X 1 Y 2 X s 1495 1048 m 1 Y 2 X 1 -8 d -9 Y 5 X 1 Y s 1503 1033 m 3 X -9 Y 6 X 1 Y s 1512 1025 m 5 X -10 Y 1 Y 3 X 1 Y 1 X s 1521 1017 m 2 X 1 Y 7 X s 1530 1018 m 2 X 1 Y 6 X 1 1 d s 1539 1020 m 2 X -9 Y 6 X s 1547 1011 m 1 X 1 Y 4 X 1 Y 4
 X s 1556 1013 m 4 X 1 Y 5 X s 1565 1014 m 2 X -9 Y 4 X -9 Y 3 X s 1574 996 m 1 X 1 1 d 5 X 1 Y 2 X s 1583 998 m 4 X 1 Y 2 X -9 Y 1 X 1 Y 1 X -9 Y s 1591 982 m 4 X 1 Y 4 X -9 Y 1 X s 1600 974 m 3 X 1 Y 1 X -9 Y 1 X 1 -10 d -20 Y 3 X s 1609 936 m 2 X
 1 Y 3 X 1 -10 d 3 X s 1618 927 m 1 X -10 Y 1 X 1 Y 1 X -11 Y 1 Y 6 X s 1627 908 m 3 X 1 Y 3 X 1 -11 d 1 X 1 Y s 1635 899 m 1 X 1 Y 2 X -11 Y 2 X 1 1 d 2 X 1 Y 1 X s 1644 891 m -11 Y 2 X 1 Y 7 X 1 Y s 1653 882 m 4 X 1 Y 5 X s 1662 883 m 2 X 1 Y -11 Y
 1 X 1 Y 5 X 1 Y -11 Y 1 X s 1671 864 m 1 X 1 Y 1 -11 d 1 X 1 -12 d 3 X 1 Y 1 X -12 Y s 1679 831 m 3 X 1 1 d 3 X -12 Y 1 X 1 1 d s 1688 821 m 2 X 1 Y 5 X 1 Y 2 X s 1697 823 m 1 X -12 Y 4 X 1 -12 d 1 X 1 Y 1 -13 d 1 X s 1706 787 m 1 X -12 Y 2 X 1 Y 6
 X s 1715 776 m 6 X -13 Y 1 X 1 Y 1 X s 1723 764 m 9 X s 1732 764 m 2 X 1 1 d 6 X 1 Y s 1741 766 m 4 X 1 Y 1 X -14 Y 1 Y 2 X -28 Y 2 X s 1750 726 m 1 1 d 8 X 1 Y s 1759 728 m 2 X 1 Y 4 X -14 Y 2 X s 1767 715 m 2 X 1 Y 6 X 1 Y 1 X s 1776 717 m 5 X 1
 -15 d 3 X s 1785 702 m 1 Y 6 X -15 Y 1 -15 d 1 Y 2 X s 1794 674 m 2 X 1 Y 2 X 1 1 d -16 Y 4 X s 1803 660 m 3 X 1 Y 4 X -16 Y 1 X 1 Y 1 X s 1812 646 m 5 X -18 Y 2 X 1 1 d 1 Y s 1820 630 m 2 X -17 Y 2 X 1 -19 d 4 X s 1829 594 m 7 X 1 Y 2 X s 1838 595
 m 9 X s 1847 595 m 2 X 1 1 d -19 Y 3 X -20 Y 3 X s 1856 557 m 8 X s 1864 557 m 1 X -22 Y 2 X 1 Y 3 X -23 Y 2 X 1 Y 1 X s 1873 514 m 6 X 1 1 d 2 X s 1882 515 m 1 Y 1 -25 d 8 X s 1891 491 m 4 X -27 Y 1 -30 d 1 Y 3 X 1 Y 1 X s 1900 436 m 5 X -34 Y 2 X
 -41 Y 1 X 1 Y s 1908 362 m 4 X 1 Y 2 X 1 Y 3 X s 1917 364 m 7 X 2 Y 2 X s 1926 366 m 4 X -53 Y 3 X 2 Y 2 X s 1935 315 m 9 X s 1944 315 m 7 X 1 Y 1 X s 1952 316 m 9 X s 1961 316 m 5 X 1 2 d 3 X s 1970 318 m 3 X 2 Y 6 X s 1979 320 m 4 X 1 2 d 4 X s
 1988 322 m 8 X s 1996 322 m 9 X s 2005 322 m 9 X s 2014 322 m 6 X 1 1 d 2 X s 2023 323 m 9 X s 2032 323 m 8 X s 2040 323 m 1 X s black 3 lw 245 201 m 1796 X s 297 241 m -40 Y s 334 221 m -20 Y s 371 221 m -20 Y s 408 221 m -20 Y s 444 221 m -20 Y s
 481 241 m -40 Y s 518 221 m -20 Y s 555 221 m -20 Y s 592 221 m -20 Y s 628 221 m -20 Y s 665 241 m -40 Y s 702 221 m -20 Y s 739 221 m -20 Y s 776 221 m -20 Y s 812 221 m -20 Y s 849 241 m -40 Y s 886 221 m -20 Y s 923 221 m -20 Y s 959 221 m -20 Y
 s 996 221 m -20 Y s 1033 241 m -40 Y s 1070 221 m -20 Y s 1107 221 m -20 Y s 1143 221 m -20 Y s 1180 221 m -20 Y s 1217 241 m -40 Y s 1254 221 m -20 Y s 1291 221 m -20 Y s 1327 221 m -20 Y s 1364 221 m -20 Y s 1401 241 m -40 Y s 1438 221 m -20 Y s
 1475 221 m -20 Y s 1511 221 m -20 Y s 1548 221 m -20 Y s 1585 241 m -40 Y s 1622 221 m -20 Y s 1659 221 m -20 Y s 1695 221 m -20 Y s 1732 221 m -20 Y s 1769 241 m -40 Y s 1806 221 m -20 Y s 1843 221 m -20 Y s 1879 221 m -20 Y s 1916 221 m -20 Y s
 1953 241 m -40 Y s 297 241 m -40 Y s 260 221 m -20 Y s 1953 241 m -40 Y s 1990 221 m -20 Y s 2027 221 m -20 Y s 245 201 m 1140 Y s 291 201 m -46 X s 268 253 m -23 X s 268 305 m -23 X s 268 357 m -23 X s 291 408 m -46 X s 268 460 m -23 X s 268 512 m
 -23 X s 268 564 m -23 X s 291 616 m -46 X s 268 667 m -23 X s 268 719 m -23 X s 268 771 m -23 X s 291 823 m -46 X s 268 875 m -23 X s 268 926 m -23 X s 268 978 m -23 X s 291 1030 m -46 X s 268 1082 m -23 X s 268 1134 m -23 X s 268 1185 m -23 X s 291
 1237 m -46 X s 291 1237 m -46 X s 268 1289 m -23 X s 268 1341 m -23 X s 0.490196 0.545098 0.615686 c 1 1 1 c 0.490196 0.545098 0.615686 c 907 201 245 1341 bl 245 1341 m 907 X s 1152 1341 m 201 Y s 1152 1542 m -907 X s 245 1542 m -201 Y s black
 gsave  2268 1676 0 0 C 515.735 1471.36 t 0 r /Helvetica-Bold findfont 56.8825 sf 0 0 m (Signal efficiency) show NC gr  0 0 0.933333 c 9 lw 286 1492 m 190 X s black
 gsave  2268 1676 0 0 C 515.735 1368.97 t 0 r /Helvetica-Bold findfont 56.8825 sf 0 0 m (Background efficiency) show NC gr  1 0 0 c 286 1391 m 190 X s 0.490196 0.545098 0.615686 c 3 lw 1 1 1 c 0.490196 0.545098 0.615686 c 889 201 1152 1341 bl 1152
 1341 m 889 X s 2041 1341 m 201 Y s 2041 1542 m -889 X s 1152 1542 m -201 Y s black
 gsave  2268 1676 0 0 C 1418.27 1494.11 t 0 r /Helvetica-Bold findfont 56.8825 sf 0 0 m (Signal purity) show NC gr  0 0 0.933333 c[  52 12 ] 0 sd 6 lw 1192 1509 m 187 X s black
 gsave  2268 1676 0 0 C 1418.27 1429.65 t 0 r /Helvetica-Bold findfont 56.8825 sf 0 0 m (Signal efficiency*purity) show NC gr  0 0 0.933333 c[  22 12 ] 0 sd 1192 1441 m 187 X s black
 gsave  2268 1676 0 0 C 1501.7 1361.39 t 0 r /Helvetica-Bold findfont 56.8825 sf 0 0 m (S+B) show NC gr [  ] 0 sd 1483 1407 m 7 -49 d s 3 lw 1490 1358 m 8 64 d s 1498 1422 m 114 X s
 gsave  2268 1676 0 0 C 1418.27 1361.39 t 0 r /Helvetica-Bold findfont 56.8825 sf 0 0 m (S/) show NC gr  0 0.666667 0 c 9 lw 1192 1374 m 187 X s black 3 lw 245 1237 m 1796 X s
 gsave  2268 1676 0 0 C 337.503 386.801 t 0 r /Helvetica-Bold findfont 53.0904 sf 0 0 m (For 1000 signal and 1000 background) show NC gr 
 gsave  2268 1676 0 0 C 1058.01 318.542 t 0 r /Helvetica-Bold findfont 53.0904 sf 0 0 m ( is) show NC gr 
 gsave  2268 1676 0 0 C 955.626 318.542 t 0 r /Helvetica-Bold findfont 53.0904 sf 0 0 m (S+B) show NC gr  6 lw 933 360 m 7 -45 d s 3 lw 940 315 m 8 60 d s 948 375 m 110 X s
 gsave  2268 1676 0 0 C 337.503 318.542 t 0 r /Helvetica-Bold findfont 53.0904 sf 0 0 m (events the maximum S/) show NC gr 
 gsave  2268 1676 0 0 C 337.503 254.075 t 0 r /Helvetica-Bold findfont 53.0904 sf 0 0 m (25.19 when cutting at \2550.04) show NC gr  0.490196 0.545098 0.615686 c 0.364706 0.419608 0.490196 c 1471 96 23 1572 bf 0.490196 0.545098 0.615686 c 23 1572 m
 1471 X s 1494 1572 m 96 Y s 1494 1668 m -1471 X s 23 1668 m -96 Y s 1 1 1 c black 1 1 1 c
 gsave  2268 1676 0 0 C 75.8434 1600.29 t 0 r /Helvetica-Bold findfont 75.8434 sf 0 0 m (Cut efficiencies and optimal cut value) show NC gr  0 0.666667 0 c 2041 201 m 1140 Y s 1995 201 m 46 X s 2018 242 m 23 X s 2018 283 m 23 X s 2018 325 m 23 X s
 2018 366 m 23 X s 1995 407 m 46 X s 2018 448 m 23 X s 2018 489 m 23 X s 2018 530 m 23 X s 2018 571 m 23 X s 1995 612 m 46 X s 2018 654 m 23 X s 2018 695 m 23 X s 2018 736 m 23 X s 2018 777 m 23 X s 1995 818 m 46 X s 2018 859 m 23 X s 2018 900 m 23 X
 s 2018 942 m 23 X s 2018 983 m 23 X s 1995 1024 m 46 X s 2018 1065 m 23 X s 2018 1106 m 23 X s 2018 1147 m 23 X s 2018 1188 m 23 X s 1995 1229 m 46 X s 1995 1229 m 46 X s 2018 1271 m 23 X s 2018 1312 m 23 X s black 0 0.666667 0 c
 gsave  2268 1676 0 0 C 2051.56 178.232 t 0 r /Helvetica-Bold findfont 64.4669 sf 0 0 m (0) show NC gr  black 0 0.666667 0 c
 gsave  2268 1676 0 0 C 2051.56 383.009 t 0 r /Helvetica-Bold findfont 64.4669 sf 0 0 m (5) show NC gr  black 0 0.666667 0 c
 gsave  2268 1676 0 0 C 2051.56 587.786 t 0 r /Helvetica-Bold findfont 64.4669 sf 0 0 m (10) show NC gr  black 0 0.666667 0 c
 gsave  2268 1676 0 0 C 2051.56 792.563 t 0 r /Helvetica-Bold findfont 64.4669 sf 0 0 m (15) show NC gr  black 0 0.666667 0 c
 gsave  2268 1676 0 0 C 2051.56 997.34 t 0 r /Helvetica-Bold findfont 64.4669 sf 0 0 m (20) show NC gr  black 0 0.666667 0 c
 gsave  2268 1676 0 0 C 2051.56 1205.91 t 0 r /Helvetica-Bold findfont 64.4669 sf 0 0 m (25) show NC gr  black 0 0.666667 0 c
 gsave  2268 1676 0 0 C 2203.25 963.211 t 90 r /Helvetica-Bold findfont 64.4669 sf 0 0 m (Significance) show NC gr 
 gr  gr showpage
end
%%EOF
