%!PS-Adobe-2.0 EPSF-2.0
%%BoundingBox:  0 0 567 419
%%Title: dataset/plots/overtrain_BDT.eps: TMVA comparison BDT
%%Creator: ROOT Version 6.14/04
%%CreationDate: Mon Jan 27 23:51:14 2020
%%DocumentNeededResources: ProcSet (FontSetInit)
%%EndComments
%%BeginProlog
80 dict begin
/s {stroke} def /l {lineto} def /m {moveto} def /t {translate} def
/r {rotate} def /rl {roll}  def /R {repeat} def
/d {rlineto} def /rm {rmoveto} def /gr {grestore} def /f {eofill} def
/c {setrgbcolor} def /black {0 setgray} def /sd {setdash} def
/cl {closepath} def /sf {scalefont setfont} def /lw {setlinewidth} def
/box {m dup 0 exch d exch 0 d 0 exch neg d cl} def
/NC{systemdict begin initclip end}def/C{NC box clip newpath}def
/bl {box s} def /bf {gsave box gsave f grestore 1 lw [] 0 sd s grestore} def /Y { 0 exch d} def /X { 0 d} def 
/K {{pop pop 0 moveto} exch kshow} bind def
/ita {/ang 15 def gsave [1 0 ang dup sin exch cos div 1 0 0] concat} def 
/mp {newpath /y exch def /x exch def} def
/side {[w .77 mul w .23 mul] .385 w mul sd w 0 l currentpoint t -144 r} def
/mr {mp x y w2 0 360 arc} def /m24 {mr s} def /m20 {mr f} def
/mb {mp x y w2 add m w2 neg 0 d 0 w neg d w 0 d 0 w d cl} def
/mt {mp x y w2 add m w2 neg w neg d w 0 d cl} def
/w4 {w 4 div} def
/w6 {w 6 div} def
/w8 {w 8 div} def
/m21 {mb f} def /m25 {mb s} def /m22 {mt f} def /m26{mt s} def
/m23 {mp x y w2 sub m w2 w d w neg 0 d cl f} def
/m27 {mp x y w2 add m w3 neg w2 neg d w3 w2 neg d w3 w2 d cl s} def
/m28 {mp x w2 sub y w2 sub w3 add m w3 0 d  0 w3 neg d w3 0 d 0 w3 d w3 0 d  0 w3 d w3 neg 0 d 0 w3 d w3 neg 0 d 0 w3 neg d w3 neg 0 d cl s } def
/m29 {mp gsave x w2 sub y w2 add w3 sub m currentpoint t 4 {side} repeat cl fill gr} def
/m30 {mp gsave x w2 sub y w2 add w3 sub m currentpoint t 4 {side} repeat cl s gr} def
/m31 {mp x y w2 sub m 0 w d x w2 sub y m w 0 d x w2 sub y w2 add m w w neg d x w2 sub y w2 sub m w w d s} def
/m32 {mp x y w2 sub m w2 w d w neg 0 d cl s} def
/m33 {mp x y w2 add m w3 neg w2 neg d w3 w2 neg d w3 w2 d cl f} def
/m34 {mp x w2 sub y w2 sub w3 add m w3 0 d  0 w3 neg d w3 0 d 0 w3 d w3 0 d  0 w3 d w3 neg 0 d 0 w3 d w3 neg 0 d 0 w3 neg d w3 neg 0 d cl f } def
/m35 {mp x y w2 add m w2 neg w2 neg d w2 w2 neg d w2 w2 d w2 neg w2 d x y w2 sub m 0 w d x w2 sub y m w 0 d s} def
/m36 {mb x w2 sub y w2 add m w w neg d x w2 sub y w2 sub m w w d s} def
/m37 {mp x y m w4 neg w2 d w4 neg w2 neg d w2 0 d  w4 neg w2 neg d w2 0 d w4 neg w2 d w2 0 d w4 neg w2 d w4 neg w2 neg d cl s} def
/m38 {mp x w4 sub y w2 add m w4 neg w4 neg d 0 w2 neg d w4 w4 neg d w2 0 d w4 w4 d 0 w2 d w4 neg w4 d w2 neg 0 d x y w2 sub m 0 w d x w2 sub y m w 0 d cl s} def
/m39 {mp x y m w4 neg w2 d w4 neg w2 neg d w2 0 d  w4 neg w2 neg d w2 0 d w4 neg w2 d w2 0 d w4 neg w2 d w4 neg w2 neg d cl f} def
/m40 {mp x y m w4 w2 d w4 w4 neg d w2 neg w4 neg d w2 w4 neg d w4 neg w4 neg d w4 neg w2 d w4 neg w2 neg d w4 neg w4 d w2 w4 d w2 neg w4 d w4 w4 d w4 w2 neg d cl s} def
/m41 {mp x y m w4 w2 d w4 w4 neg d w2 neg w4 neg d w2 w4 neg d w4 neg w4 neg d w4 neg w2 d w4 neg w2 neg d w4 neg w4 d w2 w4 d w2 neg w4 d w4 w4 d w4 w2 neg d cl f} def
/m42 {mp x y w2 add m w8 neg w2 -3 4 div mul d w2 -3 4 div mul w8 neg d w2 3 4 div mul w8 neg d w8 w2 -3 4 div mul d w8 w2 3 4 div mul d w2 3 4 div mul w8 d w2 -3 4 div mul w8 d w8 neg w2 3 4 div mul d cl s} def
/m43 {mp x y w2 add m w8 neg w2 -3 4 div mul d w2 -3 4 div mul w8 neg d w2 3 4 div mul w8 neg d w8 w2 -3 4 div mul d w8 w2 3 4 div mul d w2 3 4 div mul w8 d w2 -3 4 div mul w8 d w8 neg w2 3 4 div mul d cl f} def
/m44 {mp x y m w6 neg w2 d w2 2 3 div mul 0 d w6 neg w2 neg d w2 w6 d 0 w2 -2 3 div mul d w2 neg w6 d w6 w2 neg d w2 -2 3 div mul 0 d w6 w2 d w2 neg w6 neg d 0 w2 2 3 div mul d w2 w6 neg d cl s} def
/m45 {mp x y m w6 neg w2 d w2 2 3 div mul 0 d w6 neg w2 neg d w2 w6 d 0 w2 -2 3 div mul d w2 neg w6 d w6 w2 neg d w2 -2 3 div mul 0 d w6 w2 d w2 neg w6 neg d 0 w2 2 3 div mul d w2 w6 neg d cl f} def
/m46 {mp x y w4 add m w4 neg w4 d w4 neg w4 neg d  w4 w4 neg d w4 neg w4 neg d w4 w4 neg d w4 w4 d w4 w4 neg d w4 w4 d w4 neg w4 d w4 w4 d w4 neg w4 d w4 neg w4 neg d cl s} def
/m47 {mp x y w4 add m w4 neg w4 d w4 neg w4 neg d w4 w4 neg d w4 neg w4 neg d  w4 w4 neg d w4 w4 d w4 w4 neg d w4 w4 d w4 neg w4 d w4 w4 d w4 neg w4 d w4 neg w4 neg d cl f} def
/m48 {mp x y w4 add m w4 neg w4 d w4 neg w4 neg d w4 w4 neg d  w4 neg w4 neg d w4 w4 neg d w4 w4 d w4 w4 neg d w4 w4 d w4 neg w4 d w4 w4 d w4 neg w4 d w4 neg w4 neg d  w4 w4 neg d w4 neg w4 neg d w4 neg w4 d w4 w4 d cl f} def
/m49 {mp x w2 sub w3 add y w2 sub w3 add m  0 w3 neg d w3 0 d 0 w3 d w3 0 d 0 w3 d w3 neg 0 d 0 w3 d w3 neg 0 d 0 w3 neg d w3 neg 0 d 0 w3 neg d w3 0 d 0 w3 d w3 0 d 0 w3 neg d w3 neg 0 d cl f } def
/m2 {mp x y w2 sub m 0 w d x w2 sub y m w 0 d s} def
/m5 {mp x w2 sub y w2 sub m w w d x w2 sub y w2 add m w w neg d s} def
%%IncludeResource: ProcSet (FontSetInit)
%%IncludeResource: font Times-Roman
%%IncludeResource: font Times-Italic
%%IncludeResource: font Times-Bold
%%IncludeResource: font Times-BoldItalic
%%IncludeResource: font Helvetica
%%IncludeResource: font Helvetica-Oblique
%%IncludeResource: font Helvetica-Bold
%%IncludeResource: font Helvetica-BoldOblique
%%IncludeResource: font Courier
%%IncludeResource: font Courier-Oblique
%%IncludeResource: font Courier-Bold
%%IncludeResource: font Courier-BoldOblique
%%IncludeResource: font Symbol
%%IncludeResource: font ZapfDingbats
/reEncode {exch findfont dup length dict begin {1 index /FID eq  {pop pop} {def} ifelse } forall /Encoding exch def currentdict end dup /FontName get exch definefont pop } def [/Times-Bold /Times-Italic /Times-BoldItalic /Helvetica /Helvetica-Oblique
 /Helvetica-Bold /Helvetica-BoldOblique /Courier /Courier-Oblique /Courier-Bold /Courier-BoldOblique /Times-Roman /AvantGarde-Book /AvantGarde-BookOblique /AvantGarde-Demi /AvantGarde-DemiOblique /Bookman-Demi /Bookman-DemiItalic /Bookman-Light
 /Bookman-LightItalic /Helvetica-Narrow /Helvetica-Narrow-Bold /Helvetica-Narrow-BoldOblique /Helvetica-Narrow-Oblique /NewCenturySchlbk-Roman /NewCenturySchlbk-Bold /NewCenturySchlbk-BoldItalic /NewCenturySchlbk-Italic /Palatino-Bold
 /Palatino-BoldItalic /Palatino-Italic /Palatino-Roman ] {ISOLatin1Encoding reEncode } forall
%%EndProlog
%%BeginSetup
%%EndSetup
newpath  gsave  .25 .25 scale  gsave  0 0 t 0.490196 0.545098 0.615686 c[  ] 0 sd 3 lw 0.941176 0.941176 0.941176 c 2268 1676 0 0 bf black 1 1 0.992157 c 1916 1308 238 201 bf black 1916 1308 238 201 bl 1 1 0.992157 c 1916 1308 238 201 bf black 1916
 1308 238 201 bl 238 201 m 1916 X s 366 244 m -43 Y s 412 222 m -21 Y s 458 222 m -21 Y s 504 222 m -21 Y s 550 222 m -21 Y s 596 244 m -43 Y s 643 222 m -21 Y s 689 222 m -21 Y s 735 222 m -21 Y s 781 222 m -21 Y s 827 244 m -43 Y s 873 222 m -21 Y
 s 919 222 m -21 Y s 965 222 m -21 Y s 1011 222 m -21 Y s 1057 244 m -43 Y s 1103 222 m -21 Y s 1149 222 m -21 Y s 1195 222 m -21 Y s 1241 222 m -21 Y s 1287 244 m -43 Y s 1334 222 m -21 Y s 1380 222 m -21 Y s 1426 222 m -21 Y s 1472 222 m -21 Y s
 1518 244 m -43 Y s 1564 222 m -21 Y s 1610 222 m -21 Y s 1656 222 m -21 Y s 1702 222 m -21 Y s 1748 244 m -43 Y s 1794 222 m -21 Y s 1840 222 m -21 Y s 1886 222 m -21 Y s 1932 222 m -21 Y s 1979 244 m -43 Y s 366 244 m -43 Y s 320 222 m -21 Y s 274
 222 m -21 Y s 1979 244 m -43 Y s 2025 222 m -21 Y s 2071 222 m -21 Y s 2117 222 m -21 Y s
 gsave  2268 1676 0 0 C 333.711 128.934 t 0 r /Helvetica-Bold findfont 64.4669 sf 0 0 m (0.4) show NC gr 
 gsave  2268 1676 0 0 C 299.581 128.934 t 0 r /Symbol findfont 64.4669 sf 0 0 m (-) show NC gr 
 gsave  2268 1676 0 0 C 565.033 128.934 t 0 r /Helvetica-Bold findfont 64.4669 sf 0 0 m (0.3) show NC gr 
 gsave  2268 1676 0 0 C 534.696 128.934 t 0 r /Symbol findfont 64.4669 sf 0 0 m (-) show NC gr 
 gsave  2268 1676 0 0 C 796.355 128.934 t 0 r /Helvetica-Bold findfont 64.4669 sf 0 0 m (0.2) show NC gr 
 gsave  2268 1676 0 0 C 766.018 128.934 t 0 r /Symbol findfont 64.4669 sf 0 0 m (-) show NC gr 
 gsave  2268 1676 0 0 C 1027.68 128.934 t 0 r /Helvetica-Bold findfont 64.4669 sf 0 0 m (0.1) show NC gr 
 gsave  2268 1676 0 0 C 997.34 128.934 t 0 r /Symbol findfont 64.4669 sf 0 0 m (-) show NC gr 
 gsave  2268 1676 0 0 C 1266.58 128.934 t 0 r /Helvetica-Bold findfont 64.4669 sf 0 0 m (0) show NC gr 
 gsave  2268 1676 0 0 C 1475.15 128.934 t 0 r /Helvetica-Bold findfont 64.4669 sf 0 0 m (0.1) show NC gr 
 gsave  2268 1676 0 0 C 1698.89 128.934 t 0 r /Helvetica-Bold findfont 64.4669 sf 0 0 m (0.2) show NC gr 
 gsave  2268 1676 0 0 C 1930.21 128.934 t 0 r /Helvetica-Bold findfont 64.4669 sf 0 0 m (0.3) show NC gr 
 gsave  2268 1676 0 0 C 1664.76 34.1295 t 0 r /Helvetica-Bold findfont 72.0512 sf 0 0 m (BDT response) show NC gr  238 1509 m 1916 X s 366 1466 m 43 Y s 412 1487 m 22 Y s 458 1487 m 22 Y s 504 1487 m 22 Y s 550 1487 m 22 Y s 596 1466 m 43 Y s 643
 1487 m 22 Y s 689 1487 m 22 Y s 735 1487 m 22 Y s 781 1487 m 22 Y s 827 1466 m 43 Y s 873 1487 m 22 Y s 919 1487 m 22 Y s 965 1487 m 22 Y s 1011 1487 m 22 Y s 1057 1466 m 43 Y s 1103 1487 m 22 Y s 1149 1487 m 22 Y s 1195 1487 m 22 Y s 1241 1487 m 22
 Y s 1287 1466 m 43 Y s 1334 1487 m 22 Y s 1380 1487 m 22 Y s 1426 1487 m 22 Y s 1472 1487 m 22 Y s 1518 1466 m 43 Y s 1564 1487 m 22 Y s 1610 1487 m 22 Y s 1656 1487 m 22 Y s 1702 1487 m 22 Y s 1748 1466 m 43 Y s 1794 1487 m 22 Y s 1840 1487 m 22 Y
 s 1886 1487 m 22 Y s 1932 1487 m 22 Y s 1979 1466 m 43 Y s 366 1466 m 43 Y s 320 1487 m 22 Y s 274 1487 m 22 Y s 1979 1466 m 43 Y s 2025 1487 m 22 Y s 2071 1487 m 22 Y s 2117 1487 m 22 Y s 238 201 m 1308 Y s 291 201 m -53 X s 265 239 m -27 X s 265
 276 m -27 X s 265 314 m -27 X s 265 352 m -27 X s 291 389 m -53 X s 265 427 m -27 X s 265 465 m -27 X s 265 502 m -27 X s 265 540 m -27 X s 291 578 m -53 X s 265 615 m -27 X s 265 653 m -27 X s 265 691 m -27 X s 265 728 m -27 X s 291 766 m -53 X s
 265 803 m -27 X s 265 841 m -27 X s 265 879 m -27 X s 265 916 m -27 X s 291 954 m -53 X s 265 992 m -27 X s 265 1029 m -27 X s 265 1067 m -27 X s 265 1105 m -27 X s 291 1142 m -53 X s 265 1180 m -27 X s 265 1218 m -27 X s 265 1255 m -27 X s 265 1293
 m -27 X s 291 1331 m -53 X s 291 1331 m -53 X s 265 1368 m -27 X s 265 1406 m -27 X s 265 1443 m -27 X s 265 1481 m -27 X s
 gsave  2268 1676 0 0 C 174.44 178.232 t 0 r /Helvetica-Bold findfont 64.4669 sf 0 0 m (0) show NC gr 
 gsave  2268 1676 0 0 C 182.024 364.048 t 0 r /Helvetica-Bold findfont 64.4669 sf 0 0 m (1) show NC gr 
 gsave  2268 1676 0 0 C 174.44 553.657 t 0 r /Helvetica-Bold findfont 64.4669 sf 0 0 m (2) show NC gr 
 gsave  2268 1676 0 0 C 174.44 739.473 t 0 r /Helvetica-Bold findfont 64.4669 sf 0 0 m (3) show NC gr 
 gsave  2268 1676 0 0 C 174.44 929.081 t 0 r /Helvetica-Bold findfont 64.4669 sf 0 0 m (4) show NC gr 
 gsave  2268 1676 0 0 C 174.44 1118.69 t 0 r /Helvetica-Bold findfont 64.4669 sf 0 0 m (5) show NC gr 
 gsave  2268 1676 0 0 C 174.44 1304.51 t 0 r /Helvetica-Bold findfont 64.4669 sf 0 0 m (6) show NC gr 
 gsave  2268 1676 0 0 C 64.4669 1425.86 t 90 r /Helvetica-Bold findfont 72.0512 sf 0 0 m (dx) show NC gr 
 gsave  2268 1676 0 0 C 30.3373 1406.89 t 90 r /Helvetica-Bold findfont 45.506 sf 0 0 m ( ) show NC gr 
 gsave  2268 1676 0 0 C 64.4669 1384.14 t 90 r /Helvetica-Bold findfont 72.0512 sf 0 0 m (/) show NC gr 
 gsave  2268 1676 0 0 C 30.3373 1365.18 t 90 r /Helvetica-Bold findfont 45.506 sf 0 0 m ( ) show NC gr 
 gsave  2268 1676 0 0 C 60.6747 1092.14 t 90 r /Helvetica-Bold findfont 72.0512 sf 0 0 m (\(1/N\) dN) show NC gr  2154 201 m 1308 Y s 2101 201 m 53 X s 2128 239 m 26 X s 2128 276 m 26 X s 2128 314 m 26 X s 2128 352 m 26 X s 2101 389 m 53 X s 2128 427
 m 26 X s 2128 465 m 26 X s 2128 502 m 26 X s 2128 540 m 26 X s 2101 578 m 53 X s 2128 615 m 26 X s 2128 653 m 26 X s 2128 691 m 26 X s 2128 728 m 26 X s 2101 766 m 53 X s 2128 803 m 26 X s 2128 841 m 26 X s 2128 879 m 26 X s 2128 916 m 26 X s 2101
 954 m 53 X s 2128 992 m 26 X s 2128 1029 m 26 X s 2128 1067 m 26 X s 2128 1105 m 26 X s 2101 1142 m 53 X s 2128 1180 m 26 X s 2128 1218 m 26 X s 2128 1255 m 26 X s 2128 1293 m 26 X s 2101 1331 m 53 X s 2101 1331 m 53 X s 2128 1368 m 26 X s 2128 1406
 m 26 X s 2128 1443 m 26 X s 2128 1481 m 26 X s 0.490196 0.545098 0.615686 c 1 1 1 c 0.490196 0.545098 0.615686 c 907 202 238 1307 bl 238 1307 m 907 X s 1145 1307 m 202 Y s 1145 1509 m -907 X s 238 1509 m -202 Y s black
 gsave  2268 1676 0 0 C 417.138 1437.23 t 0 r /Helvetica-Bold findfont 56.8825 sf 0 0 m (Signal \(test sample\)) show NC gr  0.49 0.6 0.82 c 265 1423 m 127 X 70 Y -127 X f 0 0 0.933333 c 265 1493 m 127 X s 265 1423 m 127 X s 392 1423 m 70 Y s 265
 1423 m 70 Y s black
 gsave  2268 1676 0 0 C 417.138 1338.64 t 0 r /Helvetica-Bold findfont 56.8825 sf 0 0 m (Background \(test sample\)) show NC gr  1 0 0 c 392 1354 m -32 -32 d s 383 1393 m -71 -71 d s 335 1393 m -70 -69 d s 286 1393 m -21 -21 d s 0 0 0.933333 c 1 0 0
 c 265 1393 m 127 X s 265 1322 m 127 X s 392 1322 m 71 Y s 265 1322 m 71 Y s 0 0 0.933333 c 0.49 0.6 0.82 c black 0.49 0.6 0.82 c 238 201 m 335 X 232 Y 48 X -155 Y 48 X -77 Y 48 X 77 Y 144 X -77 Y 48 X 77 Y 48 X 155 Y 48 X 78 Y 48 X -233 Y 47 X 155 Y
 48 X -77 Y 96 X -78 Y 48 X 155 Y 48 X 155 Y 48 X -77 Y 48 X -310 Y 48 X 232 Y 48 X -155 Y 47 X 387 Y 48 X 310 Y 48 X -310 Y 96 X 542 Y 48 X -232 Y 48 X -619 Y 48 X 619 Y 48 X -310 Y 48 X -77 Y 48 X -232 Y 47 X -78 Y 48 X -77 Y f 0 0 0.933333 c 0.49
 0.6 0.82 c 0 0 0.933333 c 238 201 m 335 X 232 Y 48 X -155 Y 48 X -77 Y 48 X 77 Y 144 X -77 Y 48 X 77 Y 48 X 155 Y 48 X 78 Y 48 X -233 Y 47 X 155 Y 48 X -77 Y 96 X -78 Y 48 X 155 Y 48 X 155 Y 48 X -77 Y 48 X -310 Y 48 X 232 Y 48 X -155 Y 47 X 387 Y
 48 X 310 Y 48 X -310 Y 96 X 542 Y 48 X -232 Y 48 X -619 Y 48 X 619 Y 48 X -310 Y 48 X -77 Y 48 X -232 Y 47 X -78 Y 48 X -77 Y s 1 0 0 c black 1 0 0 c 2128 204 m -3 -3 d s 2091 215 m -14 -14 d s 2054 226 m -25 -25 d s 2011 231 m -30 -30 d s 1969 237
 m -36 -36 d s 1915 231 m -30 -30 d s 1897 262 m -60 -61 d s 1867 279 m -78 -78 d s 1831 292 m -90 -91 d s 1789 298 m -97 -97 d s 1752 309 m -108 -108 d s 1693 298 m -97 -97 d s 1636 289 m -88 -88 d s 1610 311 m -110 -110 d s 1565 314 m -113 -113 d s
 1495 292 m -91 -91 d s 1466 311 m -110 -110 d s 1418 311 m -110 -110 d s 1388 330 m -129 -129 d s 1346 336 m -135 -135 d s 1340 378 m -177 -177 d s 1340 426 m -225 -225 d s 1315 449 m -23 -23 d s 1287 421 m -220 -220 d s 1244 426 m -225 -225 d s
 1224 454 m -253 -253 d s 1184 463 m -261 -262 d s 1148 475 m -273 -274 d s 1148 523 m -321 -322 d s 1114 537 m -336 -336 d s 1080 551 m -350 -350 d s 1053 571 m -371 -370 d s 1053 620 m -419 -419 d s 1043 658 m -457 -457 d s 987 650 m -449 -449 d s
 957 668 m -467 -467 d s 937 697 m -495 -496 d s 909 716 m -515 -515 d s 909 764 m -48 -47 d s 825 680 m -480 -479 d s 867 771 m -6 -6 d s 813 717 m -335 -336 d s 476 380 m -46 -46 d s 421 325 m -124 -124 d s 789 741 m -24 -24 d s 759 711 m -281 -281
 d s 359 311 m -25 -25 d s 288 240 m -2 -2 d s 277 229 m -28 -28 d s 708 708 m -39 -39 d s 636 636 m -110 -110 d s 512 512 m -34 -34 d s 596 644 m -23 -22 d s 544 592 m -18 -18 d s 238 229 m 48 X 11 Y 48 X 71 Y 48 X 14 Y 48 X 55 Y 48 X 132 Y 48 X 80
 Y 47 X 52 Y 48 X -8 Y 48 X 72 Y 48 X 3 Y 48 X 30 Y 48 X -61 Y 48 X 91 Y 48 X -74 Y 48 X -47 Y 48 X 8 Y 48 X -107 Y 47 X -14 Y 48 X -74 Y 48 X -9 Y 48 X -33 Y 48 X 28 Y 48 X -113 Y 48 X -25 Y 96 X -19 Y 48 X 22 Y 47 X -3 Y 48 X -22 Y 48 X 9 Y 48 X 11
 Y 48 X -11 Y 48 X -6 Y 48 X -30 Y 48 X -31 Y 48 X 6 Y 48 X -11 Y 48 X -11 Y 47 X -11 Y 48 X -3 Y s 0.490196 0.545098 0.615686 c 1 1 1 c 0.490196 0.545098 0.615686 c 952 202 1202 1307 bl 1202 1307 m 952 X s 2154 1307 m 202 Y s 2154 1509 m -952 X s
 1202 1509 m -202 Y s black
 gsave  2268 1676 0 0 C 1296.92 1437.23 t 0 r /Helvetica-Bold findfont 56.8825 sf 0 0 m (Signal \(training sample\)) show NC gr  0 0 0.933333 c /w 21 def /w2 {w 2 div} def /w3 {w 3 div} def 1250 1458 m20 black
 gsave  2268 1676 0 0 C 1296.92 1338.64 t 0 r /Helvetica-Bold findfont 56.8825 sf 0 0 m (Background \(training sample\)) show NC gr  1 0 0 c 1250 1358 m20 0 0 0.933333 c 1 1 1 c 0 0 0.933333 c 502 201 m 2 Y s 502 218 m 1 Y s 478 210 m 16 X s 509 210
 m 17 X s 494 201 m 15 X s 494 219 m 15 X s 478 203 m 15 Y s 526 203 m 15 Y s 502 210 m20 549 213 m 8 Y s 549 236 m 8 Y s 526 228 m 16 X s 557 228 m 16 X s 542 213 m 15 X s 542 244 m 15 X s 526 221 m 15 Y s 573 221 m 15 Y s 549 228 m20 597 213 m 8 Y
 s 597 236 m 8 Y s 573 228 m 17 X s 605 228 m 16 X s 590 213 m 15 X s 590 244 m 15 X s 573 221 m 15 Y s 621 221 m 15 Y s 597 228 m20 645 206 m 6 Y s 645 227 m 5 Y s 621 219 m 17 X s 653 219 m 16 X s 638 206 m 15 X s 638 232 m 15 X s 621 212 m 15 Y s
 669 212 m 15 Y s 645 219 m20 693 256 m 19 Y s 693 290 m 20 Y s 669 283 m 17 X s 701 283 m 16 X s 686 256 m 15 X s 686 310 m 15 X s 669 275 m 15 Y s 717 275 m 15 Y s 693 283 m20 741 219 m 11 Y s 741 245 m 11 Y s 717 237 m 17 X s 749 237 m 16 X s 734
 219 m 15 X s 734 256 m 15 X s 717 230 m 15 Y s 765 230 m 15 Y s 741 237 m20 789 241 m 16 Y s 789 272 m 17 Y s 765 265 m 16 X s 797 265 m 16 X s 781 241 m 16 X s 781 289 m 16 X s 765 257 m 15 Y s 813 257 m 15 Y s 789 265 m20 837 279 m 23 Y s 837 318
 m 24 Y s 813 310 m 16 X s 845 310 m 16 X s 829 279 m 16 X s 829 342 m 16 X s 813 302 m 16 Y s 861 302 m 16 Y s 837 310 m20 885 256 m 19 Y s 885 290 m 20 Y s 861 283 m 16 X s 892 283 m 17 X s 877 256 m 15 X s 877 310 m 15 X s 861 275 m 15 Y s 909 275
 m 15 Y s 885 283 m20 933 326 m 31 Y s 933 372 m 31 Y s 909 365 m 16 X s 940 365 m 17 X s 925 326 m 15 X s 925 403 m 15 X s 909 357 m 15 Y s 957 357 m 15 Y s 933 365 m20 981 350 m 34 Y s 981 399 m 34 Y s 957 392 m 16 X s 988 392 m 17 X s 973 350 m 15
 X s 973 433 m 15 X s 957 384 m 15 Y s 1005 384 m 15 Y s 981 392 m20 1029 350 m 34 Y s 1029 399 m 34 Y s 1005 392 m 16 X s 1036 392 m 17 X s 1021 350 m 15 X s 1021 433 m 15 X s 1005 384 m 15 Y s 1053 384 m 15 Y s 1029 392 m20 1076 342 m 33 Y s 1076
 390 m 33 Y s 1053 383 m 16 X s 1084 383 m 16 X s 1069 342 m 15 X s 1069 423 m 15 X s 1053 375 m 15 Y s 1100 375 m 15 Y s 1076 383 m20 1124 310 m 29 Y s 1124 354 m 29 Y s 1100 346 m 17 X s 1132 346 m 16 X s 1117 310 m 15 X s 1117 383 m 15 X s 1100
 339 m 15 Y s 1148 339 m 15 Y s 1124 346 m20 1172 334 m 32 Y s 1172 381 m 32 Y s 1148 374 m 17 X s 1180 374 m 16 X s 1165 334 m 15 X s 1165 413 m 15 X s 1148 366 m 15 Y s 1196 366 m 15 Y s 1172 374 m20 1220 399 m 40 Y s 1220 454 m 39 Y s 1196 446 m
 17 X s 1228 446 m 16 X s 1213 399 m 15 X s 1213 493 m 15 X s 1196 439 m 15 Y s 1244 439 m 15 Y s 1220 446 m20 1268 407 m 41 Y s 1268 463 m 40 Y s 1244 455 m 16 X s 1276 455 m 16 X s 1260 407 m 16 X s 1260 503 m 16 X s 1244 448 m 15 Y s 1292 448 m 15
 Y s 1268 455 m20 1316 375 m 36 Y s 1316 427 m 36 Y s 1292 419 m 16 X s 1324 419 m 16 X s 1308 375 m 16 X s 1308 463 m 16 X s 1292 411 m 16 Y s 1340 411 m 16 Y s 1316 419 m20 1364 424 m 42 Y s 1364 481 m 42 Y s 1340 473 m 16 X s 1371 473 m 17 X s
 1356 424 m 15 X s 1356 523 m 15 X s 1340 466 m 15 Y s 1388 466 m 15 Y s 1364 473 m20 1412 326 m 31 Y s 1412 372 m 31 Y s 1388 365 m 16 X s 1419 365 m 17 X s 1404 326 m 15 X s 1404 403 m 15 X s 1388 357 m 15 Y s 1436 357 m 15 Y s 1412 365 m20 1460
 391 m 39 Y s 1460 445 m 38 Y s 1436 437 m 16 X s 1467 437 m 17 X s 1452 391 m 15 X s 1452 483 m 15 X s 1436 430 m 15 Y s 1484 430 m 15 Y s 1460 437 m20 1508 399 m 40 Y s 1508 454 m 39 Y s 1484 446 m 16 X s 1515 446 m 17 X s 1500 399 m 15 X s 1500
 493 m 15 X s 1484 439 m 15 Y s 1532 439 m 15 Y s 1508 446 m20 1556 366 m 36 Y s 1556 418 m 35 Y s 1532 410 m 16 X s 1563 410 m 16 X s 1548 366 m 15 X s 1548 453 m 15 X s 1532 402 m 16 Y s 1579 402 m 16 Y s 1556 410 m20 1603 549 m 53 Y s 1603 617 m
 54 Y s 1579 610 m 17 X s 1611 610 m 16 X s 1596 549 m 15 X s 1596 671 m 15 X s 1579 602 m 15 Y s 1627 602 m 15 Y s 1603 610 m20 1651 557 m 54 Y s 1651 626 m 54 Y s 1627 619 m 17 X s 1659 619 m 16 X s 1644 557 m 15 X s 1644 680 m 15 X s 1627 611 m 15
 Y s 1675 611 m 15 Y s 1651 619 m20 1699 735 m 67 Y s 1699 817 m 67 Y s 1675 809 m 17 X s 1707 809 m 16 X s 1692 735 m 15 X s 1692 884 m 15 X s 1675 802 m 15 Y s 1723 802 m 15 Y s 1699 809 m20 1747 684 m 63 Y s 1747 763 m 63 Y s 1723 755 m 17 X s
 1755 755 m 16 X s 1740 684 m 15 X s 1740 826 m 15 X s 1723 747 m 16 Y s 1771 747 m 16 Y s 1747 755 m20 1795 769 m 69 Y s 1795 853 m 69 Y s 1771 846 m 16 X s 1803 846 m 16 X s 1787 769 m 16 X s 1787 922 m 16 X s 1771 838 m 15 Y s 1819 838 m 15 Y s
 1795 846 m20 1843 863 m 75 Y s 1843 953 m 75 Y s 1819 946 m 16 X s 1851 946 m 16 X s 1835 863 m 16 X s 1835 1028 m 16 X s 1819 938 m 15 Y s 1867 938 m 15 Y s 1843 946 m20 1891 693 m 63 Y s 1891 772 m 63 Y s 1867 764 m 16 X s 1898 764 m 17 X s 1883
 693 m 15 X s 1883 835 m 15 X s 1867 756 m 16 Y s 1915 756 m 16 Y s 1891 764 m20 1939 727 m 66 Y s 1939 808 m 66 Y s 1915 800 m 16 X s 1946 800 m 17 X s 1931 727 m 15 X s 1931 874 m 15 X s 1915 793 m 15 Y s 1963 793 m 15 Y s 1939 800 m20 1987 574 m
 55 Y s 1987 644 m 56 Y s 1963 637 m 16 X s 1994 637 m 17 X s 1979 574 m 15 X s 1979 700 m 15 X s 1963 629 m 15 Y s 2011 629 m 15 Y s 1987 637 m20 2035 540 m 53 Y s 2035 608 m 53 Y s 2011 601 m 16 X s 2042 601 m 17 X s 2027 540 m 15 X s 2027 661 m 15
 X s 2011 593 m 15 Y s 2059 593 m 15 Y s 2035 601 m20 2082 416 m 41 Y s 2082 472 m 41 Y s 2059 464 m 16 X s 2090 464 m 16 X s 2075 416 m 15 X s 2075 513 m 15 X s 2059 457 m 15 Y s 2106 457 m 15 Y s 2082 464 m20 2130 248 m 18 Y s 2130 281 m 18 Y s
 2106 274 m 17 X s 2138 274 m 16 X s 2123 248 m 15 X s 2123 299 m 15 X s 2106 266 m 15 Y s 2154 266 m 15 Y s 2130 274 m20 1 0 0 c 1 1 1 c 1 0 0 c 262 219 m 11 Y s 262 245 m 10 Y s 238 237 m 16 X s 270 237 m 16 X s 254 219 m 16 X s 254 255 m 16 X s
 238 230 m 15 Y s 286 230 m 15 Y s 262 237 m20 310 233 m 15 Y s 310 263 m 15 Y s 286 255 m 16 X s 318 255 m 16 X s 302 233 m 16 X s 302 278 m 16 X s 286 248 m 15 Y s 334 248 m 15 Y s 310 255 m20 358 271 m 22 Y s 358 308 m 23 Y s 334 301 m 16 X s 365
 301 m 17 X s 350 271 m 15 X s 350 331 m 15 X s 334 293 m 15 Y s 382 293 m 15 Y s 358 301 m20 406 310 m 29 Y s 406 354 m 28 Y s 382 346 m 16 X s 413 346 m 17 X s 398 310 m 15 X s 398 382 m 15 X s 382 339 m 15 Y s 430 339 m 15 Y s 406 346 m20 454 366
 m 36 Y s 454 417 m 36 Y s 430 410 m 16 X s 461 410 m 17 X s 446 366 m 15 X s 446 453 m 15 X s 430 402 m 15 Y s 478 402 m 15 Y s 454 410 m20 502 432 m 42 Y s 502 490 m 42 Y s 478 482 m 16 X s 509 482 m 17 X s 494 432 m 15 X s 494 532 m 15 X s 478 474
 m 16 Y s 526 474 m 16 Y s 502 482 m20 549 523 m 51 Y s 549 589 m 51 Y s 526 582 m 16 X s 557 582 m 16 X s 542 523 m 15 X s 542 640 m 15 X s 526 574 m 15 Y s 573 574 m 15 Y s 549 582 m20 597 582 m 56 Y s 597 653 m 56 Y s 573 645 m 17 X s 605 645 m 16
 X s 590 582 m 15 X s 590 709 m 15 X s 573 638 m 15 Y s 621 638 m 15 Y s 597 645 m20 645 692 m 63 Y s 645 770 m 64 Y s 621 763 m 17 X s 653 763 m 16 X s 638 692 m 15 X s 638 834 m 15 X s 621 755 m 15 Y s 669 755 m 15 Y s 645 763 m20 693 565 m 54 Y s
 693 635 m 54 Y s 669 627 m 17 X s 701 627 m 16 X s 686 565 m 15 X s 686 689 m 15 X s 669 619 m 16 Y s 717 619 m 16 Y s 693 627 m20 741 683 m 63 Y s 741 761 m 64 Y s 717 754 m 17 X s 749 754 m 16 X s 734 683 m 15 X s 734 825 m 15 X s 717 746 m 15 Y s
 765 746 m 15 Y s 741 754 m20 789 726 m 66 Y s 789 807 m 66 Y s 765 799 m 16 X s 797 799 m 16 X s 781 726 m 16 X s 781 873 m 16 X s 765 792 m 15 Y s 813 792 m 15 Y s 789 799 m20 837 649 m 61 Y s 837 725 m 61 Y s 813 718 m 16 X s 845 718 m 16 X s 829
 649 m 16 X s 829 786 m 16 X s 813 710 m 15 Y s 861 710 m 15 Y s 837 718 m20 885 675 m 62 Y s 885 752 m 63 Y s 861 745 m 16 X s 892 745 m 17 X s 877 675 m 15 X s 877 815 m 15 X s 861 737 m 15 Y s 909 737 m 15 Y s 885 745 m20 933 590 m 57 Y s 933 662
 m 56 Y s 909 654 m 16 X s 940 654 m 17 X s 925 590 m 15 X s 925 718 m 15 X s 909 647 m 15 Y s 957 647 m 15 Y s 933 654 m20 981 675 m 62 Y s 981 752 m 63 Y s 957 745 m 16 X s 988 745 m 17 X s 973 675 m 15 X s 973 815 m 15 X s 957 737 m 15 Y s 1005
 737 m 15 Y s 981 745 m20 1029 423 m 42 Y s 1029 481 m 42 Y s 1005 473 m 16 X s 1036 473 m 17 X s 1021 423 m 15 X s 1021 523 m 15 X s 1005 465 m 16 Y s 1053 465 m 16 Y s 1029 473 m20 1076 490 m 48 Y s 1076 553 m 48 Y s 1053 545 m 16 X s 1084 545 m 16
 X s 1069 490 m 15 X s 1069 601 m 15 X s 1053 538 m 15 Y s 1100 538 m 15 Y s 1076 545 m20 1124 465 m 46 Y s 1124 526 m 46 Y s 1100 518 m 17 X s 1132 518 m 16 X s 1117 465 m 15 X s 1117 572 m 15 X s 1100 511 m 15 Y s 1148 511 m 15 Y s 1124 518 m20
 1172 415 m 41 Y s 1172 471 m 42 Y s 1148 464 m 17 X s 1180 464 m 16 X s 1165 415 m 15 X s 1165 513 m 15 X s 1148 456 m 15 Y s 1196 456 m 15 Y s 1172 464 m20 1220 358 m 35 Y s 1220 408 m 35 Y s 1196 400 m 17 X s 1228 400 m 16 X s 1213 358 m 15 X s
 1213 443 m 15 X s 1196 393 m 15 Y s 1244 393 m 15 Y s 1220 400 m20 1268 423 m 42 Y s 1268 481 m 42 Y s 1244 473 m 16 X s 1276 473 m 16 X s 1260 423 m 16 X s 1260 523 m 16 X s 1244 465 m 16 Y s 1292 465 m 16 Y s 1268 473 m20 1316 407 m 40 Y s 1316
 462 m 41 Y s 1292 455 m 16 X s 1324 455 m 16 X s 1308 407 m 16 X s 1308 503 m 16 X s 1292 447 m 15 Y s 1340 447 m 15 Y s 1316 455 m20 1364 326 m 31 Y s 1364 372 m 31 Y s 1340 364 m 16 X s 1371 364 m 17 X s 1356 326 m 15 X s 1356 403 m 15 X s 1340
 357 m 15 Y s 1388 357 m 15 Y s 1364 364 m20 1412 278 m 24 Y s 1412 317 m 24 Y s 1388 310 m 16 X s 1419 310 m 17 X s 1404 278 m 15 X s 1404 341 m 15 X s 1388 302 m 15 Y s 1436 302 m 15 Y s 1412 310 m20 1460 278 m 24 Y s 1460 317 m 24 Y s 1436 310 m
 16 X s 1467 310 m 17 X s 1452 278 m 15 X s 1452 341 m 15 X s 1436 302 m 15 Y s 1484 302 m 15 Y s 1460 310 m20 1508 241 m 16 Y s 1508 272 m 17 Y s 1484 265 m 16 X s 1515 265 m 17 X s 1500 241 m 15 X s 1500 289 m 15 X s 1484 257 m 15 Y s 1532 257 m 15
 Y s 1508 265 m20 1556 263 m 21 Y s 1556 299 m 21 Y s 1532 292 m 16 X s 1563 292 m 16 X s 1548 263 m 15 X s 1548 320 m 15 X s 1532 284 m 15 Y s 1579 284 m 15 Y s 1556 292 m20 1603 263 m 21 Y s 1603 299 m 21 Y s 1579 292 m 17 X s 1611 292 m 16 X s
 1596 263 m 15 X s 1596 320 m 15 X s 1579 284 m 15 Y s 1627 284 m 15 Y s 1603 292 m20 1651 302 m 27 Y s 1651 345 m 27 Y s 1627 337 m 17 X s 1659 337 m 16 X s 1644 302 m 15 X s 1644 372 m 15 X s 1627 329 m 16 Y s 1675 329 m 16 Y s 1651 337 m20 1699
 255 m 20 Y s 1699 290 m 20 Y s 1675 283 m 17 X s 1707 283 m 16 X s 1692 255 m 15 X s 1692 310 m 15 X s 1675 275 m 15 Y s 1723 275 m 15 Y s 1699 283 m20 1747 263 m 21 Y s 1747 299 m 21 Y s 1723 292 m 17 X s 1755 292 m 16 X s 1740 263 m 15 X s 1740
 320 m 15 X s 1723 284 m 15 Y s 1771 284 m 15 Y s 1747 292 m20 1795 302 m 27 Y s 1795 345 m 27 Y s 1771 337 m 16 X s 1803 337 m 16 X s 1787 302 m 16 X s 1787 372 m 16 X s 1771 329 m 16 Y s 1819 329 m 16 Y s 1795 337 m20 1843 233 m 15 Y s 1843 263 m
 15 Y s 1819 255 m 16 X s 1851 255 m 16 X s 1835 233 m 16 X s 1835 278 m 16 X s 1819 248 m 15 Y s 1867 248 m 15 Y s 1843 255 m20 1891 241 m 16 Y s 1891 272 m 17 Y s 1867 265 m 16 X s 1898 265 m 17 X s 1883 241 m 15 X s 1883 289 m 15 X s 1867 257 m 15
 Y s 1915 257 m 15 Y s 1891 265 m20 1939 226 m 13 Y s 1939 254 m 13 Y s 1915 246 m 16 X s 1946 246 m 17 X s 1931 226 m 15 X s 1931 267 m 15 X s 1915 239 m 15 Y s 1963 239 m 15 Y s 1939 246 m20 1987 219 m 11 Y s 1987 245 m 10 Y s 1963 237 m 16 X s
 1994 237 m 17 X s 1979 219 m 15 X s 1979 255 m 15 X s 1963 230 m 15 Y s 2011 230 m 15 Y s 1987 237 m20 2035 206 m 6 Y s 2035 227 m 5 Y s 2011 219 m 16 X s 2042 219 m 17 X s 2027 206 m 15 X s 2027 232 m 15 X s 2011 212 m 15 Y s 2059 212 m 15 Y s 2035
 219 m20 black
 gsave  2268 1676 0 0 C 272.126 1240.34 t 0 r /Helvetica-Bold findfont 49.2982 sf 0 0 m (Kolmogorov\255Smirnov test: signal \(background\) probability = 0.074 \(0.367\)) show NC gr  238 201 m 1916 X s 366 244 m -43 Y s 412 222 m -21 Y s 458 222 m -21
 Y s 504 222 m -21 Y s 550 222 m -21 Y s 596 244 m -43 Y s 643 222 m -21 Y s 689 222 m -21 Y s 735 222 m -21 Y s 781 222 m -21 Y s 827 244 m -43 Y s 873 222 m -21 Y s 919 222 m -21 Y s 965 222 m -21 Y s 1011 222 m -21 Y s 1057 244 m -43 Y s 1103 222
 m -21 Y s 1149 222 m -21 Y s 1195 222 m -21 Y s 1241 222 m -21 Y s 1287 244 m -43 Y s 1334 222 m -21 Y s 1380 222 m -21 Y s 1426 222 m -21 Y s 1472 222 m -21 Y s 1518 244 m -43 Y s 1564 222 m -21 Y s 1610 222 m -21 Y s 1656 222 m -21 Y s 1702 222 m
 -21 Y s 1748 244 m -43 Y s 1794 222 m -21 Y s 1840 222 m -21 Y s 1886 222 m -21 Y s 1932 222 m -21 Y s 1979 244 m -43 Y s 366 244 m -43 Y s 320 222 m -21 Y s 274 222 m -21 Y s 1979 244 m -43 Y s 2025 222 m -21 Y s 2071 222 m -21 Y s 2117 222 m -21 Y
 s 238 1509 m 1916 X s 366 1466 m 43 Y s 412 1487 m 22 Y s 458 1487 m 22 Y s 504 1487 m 22 Y s 550 1487 m 22 Y s 596 1466 m 43 Y s 643 1487 m 22 Y s 689 1487 m 22 Y s 735 1487 m 22 Y s 781 1487 m 22 Y s 827 1466 m 43 Y s 873 1487 m 22 Y s 919 1487 m
 22 Y s 965 1487 m 22 Y s 1011 1487 m 22 Y s 1057 1466 m 43 Y s 1103 1487 m 22 Y s 1149 1487 m 22 Y s 1195 1487 m 22 Y s 1241 1487 m 22 Y s 1287 1466 m 43 Y s 1334 1487 m 22 Y s 1380 1487 m 22 Y s 1426 1487 m 22 Y s 1472 1487 m 22 Y s 1518 1466 m 43
 Y s 1564 1487 m 22 Y s 1610 1487 m 22 Y s 1656 1487 m 22 Y s 1702 1487 m 22 Y s 1748 1466 m 43 Y s 1794 1487 m 22 Y s 1840 1487 m 22 Y s 1886 1487 m 22 Y s 1932 1487 m 22 Y s 1979 1466 m 43 Y s 366 1466 m 43 Y s 320 1487 m 22 Y s 274 1487 m 22 Y s
 1979 1466 m 43 Y s 2025 1487 m 22 Y s 2071 1487 m 22 Y s 2117 1487 m 22 Y s 238 201 m 1308 Y s 291 201 m -53 X s 265 239 m -27 X s 265 276 m -27 X s 265 314 m -27 X s 265 352 m -27 X s 291 389 m -53 X s 265 427 m -27 X s 265 465 m -27 X s 265 502 m
 -27 X s 265 540 m -27 X s 291 578 m -53 X s 265 615 m -27 X s 265 653 m -27 X s 265 691 m -27 X s 265 728 m -27 X s 291 766 m -53 X s 265 803 m -27 X s 265 841 m -27 X s 265 879 m -27 X s 265 916 m -27 X s 291 954 m -53 X s 265 992 m -27 X s 265
 1029 m -27 X s 265 1067 m -27 X s 265 1105 m -27 X s 291 1142 m -53 X s 265 1180 m -27 X s 265 1218 m -27 X s 265 1255 m -27 X s 265 1293 m -27 X s 291 1331 m -53 X s 291 1331 m -53 X s 265 1368 m -27 X s 265 1406 m -27 X s 265 1443 m -27 X s 265
 1481 m -27 X s 2154 201 m 1308 Y s 2101 201 m 53 X s 2128 239 m 26 X s 2128 276 m 26 X s 2128 314 m 26 X s 2128 352 m 26 X s 2101 389 m 53 X s 2128 427 m 26 X s 2128 465 m 26 X s 2128 502 m 26 X s 2128 540 m 26 X s 2101 578 m 53 X s 2128 615 m 26 X
 s 2128 653 m 26 X s 2128 691 m 26 X s 2128 728 m 26 X s 2101 766 m 53 X s 2128 803 m 26 X s 2128 841 m 26 X s 2128 879 m 26 X s 2128 916 m 26 X s 2101 954 m 53 X s 2128 992 m 26 X s 2128 1029 m 26 X s 2128 1067 m 26 X s 2128 1105 m 26 X s 2101 1142
 m 53 X s 2128 1180 m 26 X s 2128 1218 m 26 X s 2128 1255 m 26 X s 2128 1293 m 26 X s 2101 1331 m 53 X s 2101 1331 m 53 X s 2128 1368 m 26 X s 2128 1406 m 26 X s 2128 1443 m 26 X s 2128 1481 m 26 X s
 gsave  2268 1676 0 0 C 2211.02 192.756 t 90 r /Helvetica-Bold findfont 45.506 sf 0 0 m (U/O\255flow \(S,B\): \(0.0, 0.0\)% / \(0.0, 0.0\)%) show NC gr  0.490196 0.545098 0.615686 c 0.364706 0.419608 0.490196 c 1587 96 23 1572 bf 0.490196 0.545098
 0.615686 c 23 1572 m 1587 X s 1610 1572 m 96 Y s 1610 1668 m -1587 X s 23 1668 m -96 Y s 1 1 1 c black 1 1 1 c
 gsave  2268 1676 0 0 C 102.389 1600.29 t 0 r /Helvetica-Bold findfont 68.259 sf 0 0 m (TMVA overtraining check for classifier: BDT) show NC gr 
 gr  gr showpage
end
%%EOF
