%!PS-Adobe-2.0 EPSF-2.0
%%BoundingBox:  0 0 567 419
%%Title: dataset/plots/overtrain_MLP.eps: TMVA comparison MLP
%%Creator: ROOT Version 6.14/04
%%CreationDate: Fri Jan 24 01:17:27 2020
%%DocumentNeededResources: ProcSet (FontSetInit)
%%EndComments
%%BeginProlog
80 dict begin
/s {stroke} def /l {lineto} def /m {moveto} def /t {translate} def
/r {rotate} def /rl {roll}  def /R {repeat} def
/d {rlineto} def /rm {rmoveto} def /gr {grestore} def /f {eofill} def
/c {setrgbcolor} def /black {0 setgray} def /sd {setdash} def
/cl {closepath} def /sf {scalefont setfont} def /lw {setlinewidth} def
/box {m dup 0 exch d exch 0 d 0 exch neg d cl} def
/NC{systemdict begin initclip end}def/C{NC box clip newpath}def
/bl {box s} def /bf {gsave box gsave f grestore 1 lw [] 0 sd s grestore} def /Y { 0 exch d} def /X { 0 d} def 
/K {{pop pop 0 moveto} exch kshow} bind def
/ita {/ang 15 def gsave [1 0 ang dup sin exch cos div 1 0 0] concat} def 
/mp {newpath /y exch def /x exch def} def
/side {[w .77 mul w .23 mul] .385 w mul sd w 0 l currentpoint t -144 r} def
/mr {mp x y w2 0 360 arc} def /m24 {mr s} def /m20 {mr f} def
/mb {mp x y w2 add m w2 neg 0 d 0 w neg d w 0 d 0 w d cl} def
/mt {mp x y w2 add m w2 neg w neg d w 0 d cl} def
/w4 {w 4 div} def
/w6 {w 6 div} def
/w8 {w 8 div} def
/m21 {mb f} def /m25 {mb s} def /m22 {mt f} def /m26{mt s} def
/m23 {mp x y w2 sub m w2 w d w neg 0 d cl f} def
/m27 {mp x y w2 add m w3 neg w2 neg d w3 w2 neg d w3 w2 d cl s} def
/m28 {mp x w2 sub y w2 sub w3 add m w3 0 d  0 w3 neg d w3 0 d 0 w3 d w3 0 d  0 w3 d w3 neg 0 d 0 w3 d w3 neg 0 d 0 w3 neg d w3 neg 0 d cl s } def
/m29 {mp gsave x w2 sub y w2 add w3 sub m currentpoint t 4 {side} repeat cl fill gr} def
/m30 {mp gsave x w2 sub y w2 add w3 sub m currentpoint t 4 {side} repeat cl s gr} def
/m31 {mp x y w2 sub m 0 w d x w2 sub y m w 0 d x w2 sub y w2 add m w w neg d x w2 sub y w2 sub m w w d s} def
/m32 {mp x y w2 sub m w2 w d w neg 0 d cl s} def
/m33 {mp x y w2 add m w3 neg w2 neg d w3 w2 neg d w3 w2 d cl f} def
/m34 {mp x w2 sub y w2 sub w3 add m w3 0 d  0 w3 neg d w3 0 d 0 w3 d w3 0 d  0 w3 d w3 neg 0 d 0 w3 d w3 neg 0 d 0 w3 neg d w3 neg 0 d cl f } def
/m35 {mp x y w2 add m w2 neg w2 neg d w2 w2 neg d w2 w2 d w2 neg w2 d x y w2 sub m 0 w d x w2 sub y m w 0 d s} def
/m36 {mb x w2 sub y w2 add m w w neg d x w2 sub y w2 sub m w w d s} def
/m37 {mp x y m w4 neg w2 d w4 neg w2 neg d w2 0 d  w4 neg w2 neg d w2 0 d w4 neg w2 d w2 0 d w4 neg w2 d w4 neg w2 neg d cl s} def
/m38 {mp x w4 sub y w2 add m w4 neg w4 neg d 0 w2 neg d w4 w4 neg d w2 0 d w4 w4 d 0 w2 d w4 neg w4 d w2 neg 0 d x y w2 sub m 0 w d x w2 sub y m w 0 d cl s} def
/m39 {mp x y m w4 neg w2 d w4 neg w2 neg d w2 0 d  w4 neg w2 neg d w2 0 d w4 neg w2 d w2 0 d w4 neg w2 d w4 neg w2 neg d cl f} def
/m40 {mp x y m w4 w2 d w4 w4 neg d w2 neg w4 neg d w2 w4 neg d w4 neg w4 neg d w4 neg w2 d w4 neg w2 neg d w4 neg w4 d w2 w4 d w2 neg w4 d w4 w4 d w4 w2 neg d cl s} def
/m41 {mp x y m w4 w2 d w4 w4 neg d w2 neg w4 neg d w2 w4 neg d w4 neg w4 neg d w4 neg w2 d w4 neg w2 neg d w4 neg w4 d w2 w4 d w2 neg w4 d w4 w4 d w4 w2 neg d cl f} def
/m42 {mp x y w2 add m w8 neg w2 -3 4 div mul d w2 -3 4 div mul w8 neg d w2 3 4 div mul w8 neg d w8 w2 -3 4 div mul d w8 w2 3 4 div mul d w2 3 4 div mul w8 d w2 -3 4 div mul w8 d w8 neg w2 3 4 div mul d cl s} def
/m43 {mp x y w2 add m w8 neg w2 -3 4 div mul d w2 -3 4 div mul w8 neg d w2 3 4 div mul w8 neg d w8 w2 -3 4 div mul d w8 w2 3 4 div mul d w2 3 4 div mul w8 d w2 -3 4 div mul w8 d w8 neg w2 3 4 div mul d cl f} def
/m44 {mp x y m w6 neg w2 d w2 2 3 div mul 0 d w6 neg w2 neg d w2 w6 d 0 w2 -2 3 div mul d w2 neg w6 d w6 w2 neg d w2 -2 3 div mul 0 d w6 w2 d w2 neg w6 neg d 0 w2 2 3 div mul d w2 w6 neg d cl s} def
/m45 {mp x y m w6 neg w2 d w2 2 3 div mul 0 d w6 neg w2 neg d w2 w6 d 0 w2 -2 3 div mul d w2 neg w6 d w6 w2 neg d w2 -2 3 div mul 0 d w6 w2 d w2 neg w6 neg d 0 w2 2 3 div mul d w2 w6 neg d cl f} def
/m46 {mp x y w4 add m w4 neg w4 d w4 neg w4 neg d  w4 w4 neg d w4 neg w4 neg d w4 w4 neg d w4 w4 d w4 w4 neg d w4 w4 d w4 neg w4 d w4 w4 d w4 neg w4 d w4 neg w4 neg d cl s} def
/m47 {mp x y w4 add m w4 neg w4 d w4 neg w4 neg d w4 w4 neg d w4 neg w4 neg d  w4 w4 neg d w4 w4 d w4 w4 neg d w4 w4 d w4 neg w4 d w4 w4 d w4 neg w4 d w4 neg w4 neg d cl f} def
/m48 {mp x y w4 add m w4 neg w4 d w4 neg w4 neg d w4 w4 neg d  w4 neg w4 neg d w4 w4 neg d w4 w4 d w4 w4 neg d w4 w4 d w4 neg w4 d w4 w4 d w4 neg w4 d w4 neg w4 neg d  w4 w4 neg d w4 neg w4 neg d w4 neg w4 d w4 w4 d cl f} def
/m49 {mp x w2 sub w3 add y w2 sub w3 add m  0 w3 neg d w3 0 d 0 w3 d w3 0 d 0 w3 d w3 neg 0 d 0 w3 d w3 neg 0 d 0 w3 neg d w3 neg 0 d 0 w3 neg d w3 0 d 0 w3 d w3 0 d 0 w3 neg d w3 neg 0 d cl f } def
/m2 {mp x y w2 sub m 0 w d x w2 sub y m w 0 d s} def
/m5 {mp x w2 sub y w2 sub m w w d x w2 sub y w2 add m w w neg d s} def
%%IncludeResource: ProcSet (FontSetInit)
%%IncludeResource: font Times-Roman
%%IncludeResource: font Times-Italic
%%IncludeResource: font Times-Bold
%%IncludeResource: font Times-BoldItalic
%%IncludeResource: font Helvetica
%%IncludeResource: font Helvetica-Oblique
%%IncludeResource: font Helvetica-Bold
%%IncludeResource: font Helvetica-BoldOblique
%%IncludeResource: font Courier
%%IncludeResource: font Courier-Oblique
%%IncludeResource: font Courier-Bold
%%IncludeResource: font Courier-BoldOblique
%%IncludeResource: font Symbol
%%IncludeResource: font ZapfDingbats
/reEncode {exch findfont dup length dict begin {1 index /FID eq  {pop pop} {def} ifelse } forall /Encoding exch def currentdict end dup /FontName get exch definefont pop } def [/Times-Bold /Times-Italic /Times-BoldItalic /Helvetica /Helvetica-Oblique
 /Helvetica-Bold /Helvetica-BoldOblique /Courier /Courier-Oblique /Courier-Bold /Courier-BoldOblique /Times-Roman /AvantGarde-Book /AvantGarde-BookOblique /AvantGarde-Demi /AvantGarde-DemiOblique /Bookman-Demi /Bookman-DemiItalic /Bookman-Light
 /Bookman-LightItalic /Helvetica-Narrow /Helvetica-Narrow-Bold /Helvetica-Narrow-BoldOblique /Helvetica-Narrow-Oblique /NewCenturySchlbk-Roman /NewCenturySchlbk-Bold /NewCenturySchlbk-BoldItalic /NewCenturySchlbk-Italic /Palatino-Bold
 /Palatino-BoldItalic /Palatino-Italic /Palatino-Roman ] {ISOLatin1Encoding reEncode } forall
%%EndProlog
%%BeginSetup
%%EndSetup
newpath  gsave  .25 .25 scale  gsave  0 0 t 0.490196 0.545098 0.615686 c[  ] 0 sd 3 lw 0.941176 0.941176 0.941176 c 2268 1676 0 0 bf black 1 1 0.992157 c 1916 1308 238 201 bf black 1916 1308 238 201 bl 1 1 0.992157 c 1916 1308 238 201 bf black 1916
 1308 238 201 bl 238 201 m 1916 X s 428 244 m -43 Y s 467 222 m -21 Y s 505 222 m -21 Y s 543 222 m -21 Y s 582 222 m -21 Y s 620 244 m -43 Y s 659 222 m -21 Y s 697 222 m -21 Y s 735 222 m -21 Y s 774 222 m -21 Y s 812 244 m -43 Y s 851 222 m -21 Y
 s 889 222 m -21 Y s 927 222 m -21 Y s 966 222 m -21 Y s 1004 244 m -43 Y s 1042 222 m -21 Y s 1081 222 m -21 Y s 1119 222 m -21 Y s 1158 222 m -21 Y s 1196 244 m -43 Y s 1234 222 m -21 Y s 1273 222 m -21 Y s 1311 222 m -21 Y s 1350 222 m -21 Y s
 1388 244 m -43 Y s 1426 222 m -21 Y s 1465 222 m -21 Y s 1503 222 m -21 Y s 1541 222 m -21 Y s 1580 244 m -43 Y s 1618 222 m -21 Y s 1657 222 m -21 Y s 1695 222 m -21 Y s 1733 222 m -21 Y s 1772 244 m -43 Y s 1810 222 m -21 Y s 1849 222 m -21 Y s
 1887 222 m -21 Y s 1925 222 m -21 Y s 1964 244 m -43 Y s 428 244 m -43 Y s 390 222 m -21 Y s 351 222 m -21 Y s 313 222 m -21 Y s 275 222 m -21 Y s 1964 244 m -43 Y s 2002 222 m -21 Y s 2041 222 m -21 Y s 2079 222 m -21 Y s 2117 222 m -21 Y s
 gsave  2268 1676 0 0 C 383.009 128.934 t 0 r /Helvetica-Bold findfont 64.4669 sf 0 0 m (0.1) show NC gr 
 gsave  2268 1676 0 0 C 572.617 128.934 t 0 r /Helvetica-Bold findfont 64.4669 sf 0 0 m (0.2) show NC gr 
 gsave  2268 1676 0 0 C 766.018 128.934 t 0 r /Helvetica-Bold findfont 64.4669 sf 0 0 m (0.3) show NC gr 
 gsave  2268 1676 0 0 C 955.626 128.934 t 0 r /Helvetica-Bold findfont 64.4669 sf 0 0 m (0.4) show NC gr 
 gsave  2268 1676 0 0 C 1149.03 128.934 t 0 r /Helvetica-Bold findfont 64.4669 sf 0 0 m (0.5) show NC gr 
 gsave  2268 1676 0 0 C 1342.43 128.934 t 0 r /Helvetica-Bold findfont 64.4669 sf 0 0 m (0.6) show NC gr 
 gsave  2268 1676 0 0 C 1532.04 128.934 t 0 r /Helvetica-Bold findfont 64.4669 sf 0 0 m (0.7) show NC gr 
 gsave  2268 1676 0 0 C 1725.44 128.934 t 0 r /Helvetica-Bold findfont 64.4669 sf 0 0 m (0.8) show NC gr 
 gsave  2268 1676 0 0 C 1915.04 128.934 t 0 r /Helvetica-Bold findfont 64.4669 sf 0 0 m (0.9) show NC gr 
 gsave  2268 1676 0 0 C 1660.97 34.1295 t 0 r /Helvetica-Bold findfont 72.0512 sf 0 0 m (MLP response) show NC gr  238 1509 m 1916 X s 428 1466 m 43 Y s 467 1487 m 22 Y s 505 1487 m 22 Y s 543 1487 m 22 Y s 582 1487 m 22 Y s 620 1466 m 43 Y s 659
 1487 m 22 Y s 697 1487 m 22 Y s 735 1487 m 22 Y s 774 1487 m 22 Y s 812 1466 m 43 Y s 851 1487 m 22 Y s 889 1487 m 22 Y s 927 1487 m 22 Y s 966 1487 m 22 Y s 1004 1466 m 43 Y s 1042 1487 m 22 Y s 1081 1487 m 22 Y s 1119 1487 m 22 Y s 1158 1487 m 22
 Y s 1196 1466 m 43 Y s 1234 1487 m 22 Y s 1273 1487 m 22 Y s 1311 1487 m 22 Y s 1350 1487 m 22 Y s 1388 1466 m 43 Y s 1426 1487 m 22 Y s 1465 1487 m 22 Y s 1503 1487 m 22 Y s 1541 1487 m 22 Y s 1580 1466 m 43 Y s 1618 1487 m 22 Y s 1657 1487 m 22 Y
 s 1695 1487 m 22 Y s 1733 1487 m 22 Y s 1772 1466 m 43 Y s 1810 1487 m 22 Y s 1849 1487 m 22 Y s 1887 1487 m 22 Y s 1925 1487 m 22 Y s 1964 1466 m 43 Y s 428 1466 m 43 Y s 390 1487 m 22 Y s 351 1487 m 22 Y s 313 1487 m 22 Y s 275 1487 m 22 Y s 1964
 1466 m 43 Y s 2002 1487 m 22 Y s 2041 1487 m 22 Y s 2079 1487 m 22 Y s 2117 1487 m 22 Y s 238 201 m 1308 Y s 291 201 m -53 X s 265 242 m -27 X s 265 282 m -27 X s 265 323 m -27 X s 265 363 m -27 X s 291 404 m -53 X s 265 444 m -27 X s 265 485 m -27
 X s 265 525 m -27 X s 265 566 m -27 X s 291 606 m -53 X s 265 647 m -27 X s 265 687 m -27 X s 265 728 m -27 X s 265 768 m -27 X s 291 809 m -53 X s 265 849 m -27 X s 265 890 m -27 X s 265 930 m -27 X s 265 971 m -27 X s 291 1012 m -53 X s 265 1052 m
 -27 X s 265 1093 m -27 X s 265 1133 m -27 X s 265 1174 m -27 X s 291 1214 m -53 X s 265 1255 m -27 X s 265 1295 m -27 X s 265 1336 m -27 X s 265 1376 m -27 X s 291 1417 m -53 X s 291 1417 m -53 X s 265 1457 m -27 X s 265 1498 m -27 X s
 gsave  2268 1676 0 0 C 174.44 178.232 t 0 r /Helvetica-Bold findfont 64.4669 sf 0 0 m (0) show NC gr 
 gsave  2268 1676 0 0 C 182.024 379.217 t 0 r /Helvetica-Bold findfont 64.4669 sf 0 0 m (1) show NC gr 
 gsave  2268 1676 0 0 C 174.44 580.202 t 0 r /Helvetica-Bold findfont 64.4669 sf 0 0 m (2) show NC gr 
 gsave  2268 1676 0 0 C 174.44 784.979 t 0 r /Helvetica-Bold findfont 64.4669 sf 0 0 m (3) show NC gr 
 gsave  2268 1676 0 0 C 174.44 985.964 t 0 r /Helvetica-Bold findfont 64.4669 sf 0 0 m (4) show NC gr 
 gsave  2268 1676 0 0 C 174.44 1190.74 t 0 r /Helvetica-Bold findfont 64.4669 sf 0 0 m (5) show NC gr 
 gsave  2268 1676 0 0 C 174.44 1391.73 t 0 r /Helvetica-Bold findfont 64.4669 sf 0 0 m (6) show NC gr 
 gsave  2268 1676 0 0 C 64.4669 1425.86 t 90 r /Helvetica-Bold findfont 72.0512 sf 0 0 m (dx) show NC gr 
 gsave  2268 1676 0 0 C 30.3373 1406.89 t 90 r /Helvetica-Bold findfont 45.506 sf 0 0 m ( ) show NC gr 
 gsave  2268 1676 0 0 C 64.4669 1384.14 t 90 r /Helvetica-Bold findfont 72.0512 sf 0 0 m (/) show NC gr 
 gsave  2268 1676 0 0 C 30.3373 1365.18 t 90 r /Helvetica-Bold findfont 45.506 sf 0 0 m ( ) show NC gr 
 gsave  2268 1676 0 0 C 60.6747 1092.14 t 90 r /Helvetica-Bold findfont 72.0512 sf 0 0 m (\(1/N\) dN) show NC gr  2154 201 m 1308 Y s 2101 201 m 53 X s 2128 242 m 26 X s 2128 282 m 26 X s 2128 323 m 26 X s 2128 363 m 26 X s 2101 404 m 53 X s 2128 444
 m 26 X s 2128 485 m 26 X s 2128 525 m 26 X s 2128 566 m 26 X s 2101 606 m 53 X s 2128 647 m 26 X s 2128 687 m 26 X s 2128 728 m 26 X s 2128 768 m 26 X s 2101 809 m 53 X s 2128 849 m 26 X s 2128 890 m 26 X s 2128 930 m 26 X s 2128 971 m 26 X s 2101
 1012 m 53 X s 2128 1052 m 26 X s 2128 1093 m 26 X s 2128 1133 m 26 X s 2128 1174 m 26 X s 2101 1214 m 53 X s 2128 1255 m 26 X s 2128 1295 m 26 X s 2128 1336 m 26 X s 2128 1376 m 26 X s 2101 1417 m 53 X s 2101 1417 m 53 X s 2128 1457 m 26 X s 2128
 1498 m 26 X s 0.490196 0.545098 0.615686 c 1 1 1 c 0.490196 0.545098 0.615686 c 907 202 238 1307 bl 238 1307 m 907 X s 1145 1307 m 202 Y s 1145 1509 m -907 X s 238 1509 m -202 Y s black
 gsave  2268 1676 0 0 C 417.138 1437.23 t 0 r /Helvetica-Bold findfont 56.8825 sf 0 0 m (Signal \(test sample\)) show NC gr  0.49 0.6 0.82 c 265 1423 m 127 X 70 Y -127 X f 0 0 0.933333 c 265 1493 m 127 X s 265 1423 m 127 X s 392 1423 m 70 Y s 265
 1423 m 70 Y s black
 gsave  2268 1676 0 0 C 417.138 1338.64 t 0 r /Helvetica-Bold findfont 56.8825 sf 0 0 m (Background \(test sample\)) show NC gr  1 0 0 c 392 1354 m -32 -32 d s 383 1393 m -71 -71 d s 335 1393 m -70 -69 d s 286 1393 m -21 -21 d s 0 0 0.933333 c 1 0 0
 c 265 1393 m 127 X s 265 1322 m 127 X s 392 1322 m 71 Y s 265 1322 m 71 Y s 0 0 0.933333 c 0.49 0.6 0.82 c black 0.49 0.6 0.82 c 238 201 m 48 X 144 Y 48 X -144 Y 192 X 216 Y 47 X -72 Y 48 X -72 Y 48 X -72 Y 48 X 144 Y 96 X 72 Y 48 X -216 Y 48 X 72 Y
 144 X 72 Y 47 X -72 Y 96 X 215 Y 48 X -215 Y 48 X 72 Y 48 X -144 Y 96 X 144 Y 48 X 72 Y 48 X 143 Y 47 X -215 Y 48 X 143 Y 48 X 144 Y 48 X -144 Y 48 X -143 Y 96 X 431 Y 48 X 359 Y 48 X 72 Y 48 X -503 Y 48 X 215 Y 47 X -574 Y 48 X -144 Y f 0 0
 0.933333 c 0.49 0.6 0.82 c 0 0 0.933333 c 238 201 m 48 X 144 Y 48 X -144 Y 192 X 216 Y 47 X -72 Y 48 X -72 Y 48 X -72 Y 48 X 144 Y 96 X 72 Y 48 X -216 Y 48 X 72 Y 144 X 72 Y 47 X -72 Y 96 X 215 Y 48 X -215 Y 48 X 72 Y 48 X -144 Y 96 X 144 Y 48 X 72
 Y 48 X 143 Y 47 X -215 Y 48 X 143 Y 48 X 144 Y 48 X -144 Y 48 X -143 Y 96 X 431 Y 48 X 359 Y 48 X 72 Y 48 X -503 Y 48 X 215 Y 47 X -574 Y 48 X -144 Y s 1 0 0 c black 1 0 0 c 2130 206 m -5 -5 d s 2106 230 m -29 -29 d s 2084 256 m -55 -55 d s 2059 279
 m -78 -78 d s 2011 279 m -78 -78 d s 1978 295 m -93 -94 d s 1930 295 m -93 -94 d s 1887 299 m -98 -98 d s 1841 301 m -100 -100 d s 1772 281 m -80 -80 d s 1736 292 m -92 -91 d s 1676 281 m -80 -80 d s 1628 281 m -80 -80 d s 1600 301 m -100 -100 d s
 1557 306 m -105 -105 d s 1509 306 m -105 -105 d s 1465 311 m -109 -110 d s 1410 304 m -102 -103 d s 1358 299 m -99 -98 d s 1340 330 m -129 -129 d s 1325 363 m -33 -33 d s 1284 322 m -121 -121 d s 1244 330 m -129 -129 d s 1222 356 m -155 -155 d s
 1196 378 m -177 -177 d s 1160 390 m -12 -11 d s 1144 374 m -173 -173 d s 1069 347 m -146 -146 d s 1016 343 m -141 -142 d s 972 347 m -145 -146 d s 945 368 m -167 -167 d s 909 380 m -179 -179 d s 909 428 m -227 -227 d s 876 443 m -242 -242 d s 819
 434 m -233 -233 d s 813 476 m -275 -275 d s 800 511 m -310 -310 d s 754 514 m -312 -313 d s 717 525 m -323 -324 d s 669 525 m -324 -324 d s 655 559 m -358 -358 d s 610 561 m -361 -360 d s 539 539 m -301 -301 d s 513 561 m -275 -275 d s 478 574 m
 -240 -240 d s 463 607 m -225 -225 d s 430 622 m -192 -191 d s 430 670 m -192 -191 d s 430 718 m -192 -191 d s 416 753 m -34 -34 d s 355 691 m -69 -68 d s 284 621 m -46 -46 d s 334 719 m -48 -48 d s 309 742 m -23 -23 d s 238 621 m 48 X 121 Y 48 X -51
 Y 48 X 62 Y 48 X -146 Y 48 X -46 Y 48 X -22 Y 47 X 22 Y 48 X -2 Y 48 X -34 Y 48 X -11 Y 48 X -3 Y 48 X -77 Y 48 X 9 Y 48 X -75 Y 48 X -21 Y 48 X -4 Y 48 X 4 Y 47 X 27 Y 48 X 16 Y 48 X -34 Y 48 X -34 Y 48 X 41 Y 48 X -64 Y 48 X 5 Y 48 X 7 Y 48 X -5 Y
 95 X -5 Y 48 X -20 Y 96 X 11 Y 48 X -11 Y 48 X 20 Y 48 X -2 Y 48 X -4 Y 96 X -16 Y 48 X -23 Y 47 X -50 Y 48 X -5 Y s 0.490196 0.545098 0.615686 c 1 1 1 c 0.490196 0.545098 0.615686 c 952 202 1202 1307 bl 1202 1307 m 952 X s 2154 1307 m 202 Y s 2154
 1509 m -952 X s 1202 1509 m -202 Y s black
 gsave  2268 1676 0 0 C 1296.92 1437.23 t 0 r /Helvetica-Bold findfont 56.8825 sf 0 0 m (Signal \(training sample\)) show NC gr  0 0 0.933333 c /w 21 def /w2 {w 2 div} def /w3 {w 3 div} def 1250 1458 m20 black
 gsave  2268 1676 0 0 C 1296.92 1338.64 t 0 r /Helvetica-Bold findfont 56.8825 sf 0 0 m (Background \(training sample\)) show NC gr  1 0 0 c 1250 1358 m20 0 0 0.933333 c 1 1 1 c 0 0 0.933333 c 262 206 m 4 Y s 262 225 m 4 Y s 238 217 m 16 X s 270 217
 m 16 X s 254 206 m 16 X s 254 229 m 16 X s 238 210 m 15 Y s 286 210 m 15 Y s 262 217 m20 310 201 m 1 Y s 310 217 m s 286 209 m 16 X s 318 209 m 16 X s 302 201 m 16 X s 302 217 m 16 X s 286 202 m 15 Y s 334 202 m 15 Y s 310 209 m20 358 217 m 9 Y s
 358 241 m 9 Y s 334 234 m 16 X s 365 234 m 17 X s 350 217 m 15 X s 350 250 m 15 X s 334 226 m 15 Y s 382 226 m 15 Y s 358 234 m20 406 217 m 9 Y s 406 241 m 9 Y s 382 234 m 16 X s 413 234 m 17 X s 398 217 m 15 X s 398 250 m 15 X s 382 226 m 15 Y s
 430 226 m 15 Y s 406 234 m20 454 257 m 18 Y s 454 290 m 18 Y s 430 282 m 16 X s 461 282 m 17 X s 446 257 m 15 X s 446 308 m 15 X s 430 275 m 15 Y s 478 275 m 15 Y s 454 282 m20 502 243 m 15 Y s 502 274 m 15 Y s 478 266 m 16 X s 509 266 m 17 X s 494
 243 m 15 X s 494 289 m 15 X s 478 258 m 16 Y s 526 258 m 16 Y s 502 266 m20 549 217 m 9 Y s 549 241 m 9 Y s 526 234 m 16 X s 557 234 m 16 X s 542 217 m 15 X s 542 250 m 15 X s 526 226 m 15 Y s 573 226 m 15 Y s 549 234 m20 597 224 m 10 Y s 597 249 m
 11 Y s 573 242 m 17 X s 605 242 m 16 X s 590 224 m 15 X s 590 260 m 15 X s 573 234 m 15 Y s 621 234 m 15 Y s 597 242 m20 645 230 m 12 Y s 645 257 m 13 Y s 621 250 m 17 X s 653 250 m 16 X s 638 230 m 15 X s 638 270 m 15 X s 621 242 m 15 Y s 669 242 m
 15 Y s 645 250 m20 693 217 m 9 Y s 693 241 m 9 Y s 669 234 m 17 X s 701 234 m 16 X s 686 217 m 15 X s 686 250 m 15 X s 669 226 m 15 Y s 717 226 m 15 Y s 693 234 m20 741 264 m 19 Y s 741 298 m 19 Y s 717 290 m 17 X s 749 290 m 16 X s 734 264 m 15 X s
 734 317 m 15 X s 717 283 m 15 Y s 765 283 m 15 Y s 741 290 m20 789 257 m 18 Y s 789 290 m 18 Y s 765 282 m 16 X s 797 282 m 16 X s 781 257 m 16 X s 781 308 m 16 X s 765 275 m 15 Y s 813 275 m 15 Y s 789 282 m20 837 277 m 22 Y s 837 314 m 22 Y s 813
 307 m 16 X s 845 307 m 16 X s 829 277 m 16 X s 829 336 m 16 X s 813 299 m 15 Y s 861 299 m 15 Y s 837 307 m20 885 224 m 10 Y s 885 249 m 11 Y s 861 242 m 16 X s 892 242 m 17 X s 877 224 m 15 X s 877 260 m 15 X s 861 234 m 15 Y s 909 234 m 15 Y s 885
 242 m20 933 250 m 17 Y s 933 282 m 17 Y s 909 274 m 16 X s 940 274 m 17 X s 925 250 m 15 X s 925 299 m 15 X s 909 267 m 15 Y s 957 267 m 15 Y s 933 274 m20 981 270 m 21 Y s 981 306 m 21 Y s 957 299 m 16 X s 988 299 m 17 X s 973 270 m 15 X s 973 327
 m 15 X s 957 291 m 15 Y s 1005 291 m 15 Y s 981 299 m20 1029 299 m 24 Y s 1029 339 m 24 Y s 1005 331 m 16 X s 1036 331 m 17 X s 1021 299 m 15 X s 1021 363 m 15 X s 1005 323 m 16 Y s 1053 323 m 16 Y s 1029 331 m20 1076 257 m 18 Y s 1076 290 m 18 Y s
 1053 282 m 16 X s 1084 282 m 16 X s 1069 257 m 15 X s 1069 308 m 15 X s 1053 275 m 15 Y s 1100 275 m 15 Y s 1076 282 m20 1124 320 m 28 Y s 1124 363 m 28 Y s 1100 355 m 17 X s 1132 355 m 16 X s 1117 320 m 15 X s 1117 391 m 15 X s 1100 348 m 15 Y s
 1148 348 m 15 Y s 1124 355 m20 1172 270 m 21 Y s 1172 306 m 21 Y s 1148 299 m 17 X s 1180 299 m 16 X s 1165 270 m 15 X s 1165 327 m 15 X s 1148 291 m 15 Y s 1196 291 m 15 Y s 1172 299 m20 1220 349 m 31 Y s 1220 395 m 32 Y s 1196 388 m 17 X s 1228
 388 m 16 X s 1213 349 m 15 X s 1213 427 m 15 X s 1196 380 m 15 Y s 1244 380 m 15 Y s 1220 388 m20 1268 257 m 18 Y s 1268 290 m 18 Y s 1244 282 m 16 X s 1276 282 m 16 X s 1260 257 m 16 X s 1260 308 m 16 X s 1244 275 m 15 Y s 1292 275 m 15 Y s 1268
 282 m20 1316 291 m 24 Y s 1316 330 m 24 Y s 1292 323 m 16 X s 1324 323 m 16 X s 1308 291 m 16 X s 1308 354 m 16 X s 1292 315 m 15 Y s 1340 315 m 15 Y s 1316 323 m20 1364 284 m 23 Y s 1364 322 m 23 Y s 1340 315 m 16 X s 1371 315 m 17 X s 1356 284 m
 15 X s 1356 345 m 15 X s 1340 307 m 15 Y s 1388 307 m 15 Y s 1364 315 m20 1412 349 m 31 Y s 1412 395 m 32 Y s 1388 388 m 16 X s 1419 388 m 17 X s 1404 349 m 15 X s 1404 427 m 15 X s 1388 380 m 15 Y s 1436 380 m 15 Y s 1412 388 m20 1460 349 m 31 Y s
 1460 395 m 32 Y s 1436 388 m 16 X s 1467 388 m 17 X s 1452 349 m 15 X s 1452 427 m 15 X s 1436 380 m 15 Y s 1484 380 m 15 Y s 1460 388 m20 1508 334 m 30 Y s 1508 379 m 30 Y s 1484 372 m 16 X s 1515 372 m 17 X s 1500 334 m 15 X s 1500 409 m 15 X s
 1484 364 m 15 Y s 1532 364 m 15 Y s 1508 372 m20 1556 363 m 33 Y s 1556 412 m 33 Y s 1532 404 m 16 X s 1563 404 m 16 X s 1548 363 m 15 X s 1548 445 m 15 X s 1532 396 m 16 Y s 1579 396 m 16 Y s 1556 404 m20 1603 349 m 31 Y s 1603 395 m 32 Y s 1579
 388 m 17 X s 1611 388 m 16 X s 1596 349 m 15 X s 1596 427 m 15 X s 1579 380 m 15 Y s 1627 380 m 15 Y s 1603 388 m20 1651 385 m 36 Y s 1651 436 m 35 Y s 1627 428 m 17 X s 1659 428 m 16 X s 1644 385 m 15 X s 1644 471 m 15 X s 1627 421 m 15 Y s 1675
 421 m 15 Y s 1651 428 m20 1699 445 m 41 Y s 1699 501 m 41 Y s 1675 493 m 17 X s 1707 493 m 16 X s 1692 445 m 15 X s 1692 542 m 15 X s 1675 486 m 15 Y s 1723 486 m 15 Y s 1699 493 m20 1747 580 m 52 Y s 1747 647 m 52 Y s 1723 639 m 17 X s 1755 639 m
 16 X s 1740 580 m 15 X s 1740 699 m 15 X s 1723 632 m 15 Y s 1771 632 m 15 Y s 1747 639 m20 1795 430 m 40 Y s 1795 485 m 39 Y s 1771 477 m 16 X s 1803 477 m 16 X s 1787 430 m 16 X s 1787 524 m 16 X s 1771 470 m 15 Y s 1819 470 m 15 Y s 1795 477 m20
 1843 610 m 54 Y s 1843 680 m 54 Y s 1819 672 m 16 X s 1851 672 m 16 X s 1835 610 m 16 X s 1835 734 m 16 X s 1819 664 m 16 Y s 1867 664 m 16 Y s 1843 672 m20 1891 572 m 52 Y s 1891 639 m 51 Y s 1867 631 m 16 X s 1898 631 m 17 X s 1883 572 m 15 X s
 1883 690 m 15 X s 1867 624 m 15 Y s 1915 624 m 15 Y s 1891 631 m20 1939 656 m 57 Y s 1939 728 m 58 Y s 1915 721 m 16 X s 1946 721 m 17 X s 1931 656 m 15 X s 1931 786 m 15 X s 1915 713 m 15 Y s 1963 713 m 15 Y s 1939 721 m20 1987 801 m 66 Y s 1987
 882 m 67 Y s 1963 875 m 16 X s 1994 875 m 17 X s 1979 801 m 15 X s 1979 949 m 15 X s 1963 867 m 15 Y s 2011 867 m 15 Y s 1987 875 m20 2035 1009 m 77 Y s 2035 1102 m 77 Y s 2011 1094 m 16 X s 2042 1094 m 17 X s 2027 1009 m 15 X s 2027 1179 m 15 X s
 2011 1086 m 16 Y s 2059 1086 m 16 Y s 2035 1094 m20 2082 1110 m 82 Y s 2082 1207 m 83 Y s 2059 1200 m 16 X s 2090 1200 m 16 X s 2075 1110 m 15 X s 2075 1290 m 15 X s 2059 1192 m 15 Y s 2106 1192 m 15 Y s 2082 1200 m20 2130 291 m 24 Y s 2130 330 m 24
 Y s 2106 323 m 17 X s 2138 323 m 16 X s 2123 291 m 15 X s 2123 354 m 15 X s 2106 315 m 15 Y s 2154 315 m 15 Y s 2130 323 m20 1 0 0 c 1 1 1 c 1 0 0 c 262 580 m 52 Y s 262 647 m 52 Y s 238 639 m 16 X s 270 639 m 16 X s 254 580 m 16 X s 254 699 m 16 X
 s 238 632 m 15 Y s 286 632 m 15 Y s 262 639 m20 310 671 m 58 Y s 310 744 m 59 Y s 286 737 m 16 X s 318 737 m 16 X s 302 671 m 16 X s 302 803 m 16 X s 286 729 m 15 Y s 334 729 m 15 Y s 310 737 m20 358 724 m 62 Y s 358 801 m 62 Y s 334 794 m 16 X s
 365 794 m 17 X s 350 724 m 15 X s 350 863 m 15 X s 334 786 m 15 Y s 382 786 m 15 Y s 358 794 m20 406 694 m 60 Y s 406 769 m 60 Y s 382 761 m 16 X s 413 761 m 17 X s 398 694 m 15 X s 398 829 m 15 X s 382 754 m 15 Y s 430 754 m 15 Y s 406 761 m20 454
 603 m 53 Y s 454 671 m 54 Y s 430 664 m 16 X s 461 664 m 17 X s 446 603 m 15 X s 446 725 m 15 X s 430 656 m 15 Y s 478 656 m 15 Y s 454 664 m20 502 603 m 53 Y s 502 671 m 54 Y s 478 664 m 16 X s 509 664 m 17 X s 494 603 m 15 X s 494 725 m 15 X s 478
 656 m 15 Y s 526 656 m 15 Y s 502 664 m20 549 482 m 44 Y s 549 542 m 44 Y s 526 534 m 16 X s 557 534 m 16 X s 542 482 m 15 X s 542 586 m 15 X s 526 526 m 16 Y s 573 526 m 16 Y s 549 534 m20 597 408 m 37 Y s 597 460 m 38 Y s 573 453 m 17 X s 605 453
 m 16 X s 590 408 m 15 X s 590 498 m 15 X s 573 445 m 15 Y s 621 445 m 15 Y s 597 453 m20 645 550 m 49 Y s 645 615 m 49 Y s 621 607 m 17 X s 653 607 m 16 X s 638 550 m 15 X s 638 664 m 15 X s 621 599 m 16 Y s 669 599 m 16 Y s 645 607 m20 693 415 m 38
 Y s 693 468 m 39 Y s 669 461 m 17 X s 701 461 m 16 X s 686 415 m 15 X s 686 507 m 15 X s 669 453 m 15 Y s 717 453 m 15 Y s 693 461 m20 741 474 m 44 Y s 741 533 m 44 Y s 717 526 m 17 X s 749 526 m 16 X s 734 474 m 15 X s 734 577 m 15 X s 717 518 m 15
 Y s 765 518 m 15 Y s 741 526 m20 789 408 m 37 Y s 789 460 m 38 Y s 765 453 m 16 X s 797 453 m 16 X s 781 408 m 16 X s 781 498 m 16 X s 765 445 m 15 Y s 813 445 m 15 Y s 789 453 m20 837 349 m 31 Y s 837 395 m 32 Y s 813 388 m 16 X s 845 388 m 16 X s
 829 349 m 16 X s 829 427 m 16 X s 813 380 m 15 Y s 861 380 m 15 Y s 837 388 m20 885 349 m 31 Y s 885 395 m 32 Y s 861 388 m 16 X s 892 388 m 17 X s 877 349 m 15 X s 877 427 m 15 X s 861 380 m 15 Y s 909 380 m 15 Y s 885 388 m20 933 284 m 23 Y s 933
 322 m 23 Y s 909 315 m 16 X s 940 315 m 17 X s 925 284 m 15 X s 925 345 m 15 X s 909 307 m 15 Y s 957 307 m 15 Y s 933 315 m20 981 327 m 29 Y s 981 371 m 29 Y s 957 363 m 16 X s 988 363 m 17 X s 973 327 m 15 X s 973 400 m 15 X s 957 356 m 15 Y s
 1005 356 m 15 Y s 981 363 m20 1029 291 m 24 Y s 1029 330 m 24 Y s 1005 323 m 16 X s 1036 323 m 17 X s 1021 291 m 15 X s 1021 354 m 15 X s 1005 315 m 15 Y s 1053 315 m 15 Y s 1029 323 m20 1076 342 m 30 Y s 1076 387 m 31 Y s 1053 380 m 16 X s 1084 380
 m 16 X s 1069 342 m 15 X s 1069 418 m 15 X s 1053 372 m 15 Y s 1100 372 m 15 Y s 1076 380 m20 1124 342 m 30 Y s 1124 387 m 31 Y s 1100 380 m 17 X s 1132 380 m 16 X s 1117 342 m 15 X s 1117 418 m 15 X s 1100 372 m 15 Y s 1148 372 m 15 Y s 1124 380
 m20 1172 291 m 24 Y s 1172 330 m 24 Y s 1148 323 m 17 X s 1180 323 m 16 X s 1165 291 m 15 X s 1165 354 m 15 X s 1148 315 m 15 Y s 1196 315 m 15 Y s 1172 323 m20 1220 291 m 24 Y s 1220 330 m 24 Y s 1196 323 m 17 X s 1228 323 m 16 X s 1213 291 m 15 X
 s 1213 354 m 15 X s 1196 315 m 15 Y s 1244 315 m 15 Y s 1220 323 m20 1268 385 m 36 Y s 1268 436 m 35 Y s 1244 428 m 16 X s 1276 428 m 16 X s 1260 385 m 16 X s 1260 471 m 16 X s 1244 421 m 15 Y s 1292 421 m 15 Y s 1268 428 m20 1316 264 m 19 Y s 1316
 298 m 19 Y s 1292 290 m 16 X s 1324 290 m 16 X s 1308 264 m 16 X s 1308 317 m 16 X s 1292 283 m 15 Y s 1340 283 m 15 Y s 1316 290 m20 1364 306 m 26 Y s 1364 347 m 26 Y s 1340 339 m 16 X s 1371 339 m 17 X s 1356 306 m 15 X s 1356 373 m 15 X s 1340
 332 m 15 Y s 1388 332 m 15 Y s 1364 339 m20 1412 284 m 23 Y s 1412 322 m 23 Y s 1388 315 m 16 X s 1419 315 m 17 X s 1404 284 m 15 X s 1404 345 m 15 X s 1388 307 m 15 Y s 1436 307 m 15 Y s 1412 315 m20 1460 230 m 12 Y s 1460 257 m 13 Y s 1436 250 m
 16 X s 1467 250 m 17 X s 1452 230 m 15 X s 1452 270 m 15 X s 1436 242 m 15 Y s 1484 242 m 15 Y s 1460 250 m20 1508 264 m 19 Y s 1508 298 m 19 Y s 1484 290 m 16 X s 1515 290 m 17 X s 1500 264 m 15 X s 1500 317 m 15 X s 1484 283 m 15 Y s 1532 283 m 15
 Y s 1508 290 m20 1556 250 m 17 Y s 1556 282 m 17 Y s 1532 274 m 16 X s 1563 274 m 16 X s 1548 250 m 15 X s 1548 299 m 15 X s 1532 267 m 15 Y s 1579 267 m 15 Y s 1556 274 m20 1603 334 m 30 Y s 1603 379 m 30 Y s 1579 372 m 17 X s 1611 372 m 16 X s
 1596 334 m 15 X s 1596 409 m 15 X s 1579 364 m 15 Y s 1627 364 m 15 Y s 1603 372 m20 1651 243 m 15 Y s 1651 274 m 15 Y s 1627 266 m 17 X s 1659 266 m 16 X s 1644 243 m 15 X s 1644 289 m 15 X s 1627 258 m 16 Y s 1675 258 m 16 Y s 1651 266 m20 1699
 270 m 21 Y s 1699 306 m 21 Y s 1675 299 m 17 X s 1707 299 m 16 X s 1692 270 m 15 X s 1692 327 m 15 X s 1675 291 m 15 Y s 1723 291 m 15 Y s 1699 299 m20 1747 236 m 14 Y s 1747 266 m 13 Y s 1723 258 m 17 X s 1755 258 m 16 X s 1740 236 m 15 X s 1740
 279 m 15 X s 1723 250 m 16 Y s 1771 250 m 16 Y s 1747 258 m20 1795 299 m 24 Y s 1795 339 m 24 Y s 1771 331 m 16 X s 1803 331 m 16 X s 1787 299 m 16 X s 1787 363 m 16 X s 1771 323 m 16 Y s 1819 323 m 16 Y s 1795 331 m20 1843 327 m 29 Y s 1843 371 m
 29 Y s 1819 363 m 16 X s 1851 363 m 16 X s 1835 327 m 16 X s 1835 400 m 16 X s 1819 356 m 15 Y s 1867 356 m 15 Y s 1843 363 m20 1891 284 m 23 Y s 1891 322 m 23 Y s 1867 315 m 16 X s 1898 315 m 17 X s 1883 284 m 15 X s 1883 345 m 15 X s 1867 307 m 15
 Y s 1915 307 m 15 Y s 1891 315 m20 1939 277 m 22 Y s 1939 314 m 22 Y s 1915 307 m 16 X s 1946 307 m 17 X s 1931 277 m 15 X s 1931 336 m 15 X s 1915 299 m 15 Y s 1963 299 m 15 Y s 1939 307 m20 1987 257 m 18 Y s 1987 290 m 18 Y s 1963 282 m 16 X s
 1994 282 m 17 X s 1979 257 m 15 X s 1979 308 m 15 X s 1963 275 m 15 Y s 2011 275 m 15 Y s 1987 282 m20 2035 250 m 17 Y s 2035 282 m 17 Y s 2011 274 m 16 X s 2042 274 m 17 X s 2027 250 m 15 X s 2027 299 m 15 X s 2011 267 m 15 Y s 2059 267 m 15 Y s
 2035 274 m20 2082 217 m 9 Y s 2082 241 m 9 Y s 2059 234 m 16 X s 2090 234 m 16 X s 2075 217 m 15 X s 2075 250 m 15 X s 2059 226 m 15 Y s 2106 226 m 15 Y s 2082 234 m20 black
 gsave  2268 1676 0 0 C 272.126 1240.34 t 0 r /Helvetica-Bold findfont 49.2982 sf 0 0 m (Kolmogorov\255Smirnov test: signal \(background\) probability =     0 \(0.106\)) show NC gr  238 201 m 1916 X s 428 244 m -43 Y s 467 222 m -21 Y s 505 222 m -21
 Y s 543 222 m -21 Y s 582 222 m -21 Y s 620 244 m -43 Y s 659 222 m -21 Y s 697 222 m -21 Y s 735 222 m -21 Y s 774 222 m -21 Y s 812 244 m -43 Y s 851 222 m -21 Y s 889 222 m -21 Y s 927 222 m -21 Y s 966 222 m -21 Y s 1004 244 m -43 Y s 1042 222 m
 -21 Y s 1081 222 m -21 Y s 1119 222 m -21 Y s 1158 222 m -21 Y s 1196 244 m -43 Y s 1234 222 m -21 Y s 1273 222 m -21 Y s 1311 222 m -21 Y s 1350 222 m -21 Y s 1388 244 m -43 Y s 1426 222 m -21 Y s 1465 222 m -21 Y s 1503 222 m -21 Y s 1541 222 m
 -21 Y s 1580 244 m -43 Y s 1618 222 m -21 Y s 1657 222 m -21 Y s 1695 222 m -21 Y s 1733 222 m -21 Y s 1772 244 m -43 Y s 1810 222 m -21 Y s 1849 222 m -21 Y s 1887 222 m -21 Y s 1925 222 m -21 Y s 1964 244 m -43 Y s 428 244 m -43 Y s 390 222 m -21
 Y s 351 222 m -21 Y s 313 222 m -21 Y s 275 222 m -21 Y s 1964 244 m -43 Y s 2002 222 m -21 Y s 2041 222 m -21 Y s 2079 222 m -21 Y s 2117 222 m -21 Y s 238 1509 m 1916 X s 428 1466 m 43 Y s 467 1487 m 22 Y s 505 1487 m 22 Y s 543 1487 m 22 Y s 582
 1487 m 22 Y s 620 1466 m 43 Y s 659 1487 m 22 Y s 697 1487 m 22 Y s 735 1487 m 22 Y s 774 1487 m 22 Y s 812 1466 m 43 Y s 851 1487 m 22 Y s 889 1487 m 22 Y s 927 1487 m 22 Y s 966 1487 m 22 Y s 1004 1466 m 43 Y s 1042 1487 m 22 Y s 1081 1487 m 22 Y
 s 1119 1487 m 22 Y s 1158 1487 m 22 Y s 1196 1466 m 43 Y s 1234 1487 m 22 Y s 1273 1487 m 22 Y s 1311 1487 m 22 Y s 1350 1487 m 22 Y s 1388 1466 m 43 Y s 1426 1487 m 22 Y s 1465 1487 m 22 Y s 1503 1487 m 22 Y s 1541 1487 m 22 Y s 1580 1466 m 43 Y s
 1618 1487 m 22 Y s 1657 1487 m 22 Y s 1695 1487 m 22 Y s 1733 1487 m 22 Y s 1772 1466 m 43 Y s 1810 1487 m 22 Y s 1849 1487 m 22 Y s 1887 1487 m 22 Y s 1925 1487 m 22 Y s 1964 1466 m 43 Y s 428 1466 m 43 Y s 390 1487 m 22 Y s 351 1487 m 22 Y s 313
 1487 m 22 Y s 275 1487 m 22 Y s 1964 1466 m 43 Y s 2002 1487 m 22 Y s 2041 1487 m 22 Y s 2079 1487 m 22 Y s 2117 1487 m 22 Y s 238 201 m 1308 Y s 291 201 m -53 X s 265 242 m -27 X s 265 282 m -27 X s 265 323 m -27 X s 265 363 m -27 X s 291 404 m -53
 X s 265 444 m -27 X s 265 485 m -27 X s 265 525 m -27 X s 265 566 m -27 X s 291 606 m -53 X s 265 647 m -27 X s 265 687 m -27 X s 265 728 m -27 X s 265 768 m -27 X s 291 809 m -53 X s 265 849 m -27 X s 265 890 m -27 X s 265 930 m -27 X s 265 971 m
 -27 X s 291 1012 m -53 X s 265 1052 m -27 X s 265 1093 m -27 X s 265 1133 m -27 X s 265 1174 m -27 X s 291 1214 m -53 X s 265 1255 m -27 X s 265 1295 m -27 X s 265 1336 m -27 X s 265 1376 m -27 X s 291 1417 m -53 X s 291 1417 m -53 X s 265 1457 m
 -27 X s 265 1498 m -27 X s 2154 201 m 1308 Y s 2101 201 m 53 X s 2128 242 m 26 X s 2128 282 m 26 X s 2128 323 m 26 X s 2128 363 m 26 X s 2101 404 m 53 X s 2128 444 m 26 X s 2128 485 m 26 X s 2128 525 m 26 X s 2128 566 m 26 X s 2101 606 m 53 X s 2128
 647 m 26 X s 2128 687 m 26 X s 2128 728 m 26 X s 2128 768 m 26 X s 2101 809 m 53 X s 2128 849 m 26 X s 2128 890 m 26 X s 2128 930 m 26 X s 2128 971 m 26 X s 2101 1012 m 53 X s 2128 1052 m 26 X s 2128 1093 m 26 X s 2128 1133 m 26 X s 2128 1174 m 26 X
 s 2101 1214 m 53 X s 2128 1255 m 26 X s 2128 1295 m 26 X s 2128 1336 m 26 X s 2128 1376 m 26 X s 2101 1417 m 53 X s 2101 1417 m 53 X s 2128 1457 m 26 X s 2128 1498 m 26 X s
 gsave  2268 1676 0 0 C 2211.02 192.756 t 90 r /Helvetica-Bold findfont 45.506 sf 0 0 m (U/O\255flow \(S,B\): \(0.0, 0.0\)% / \(0.0, 0.0\)%) show NC gr  0.490196 0.545098 0.615686 c 0.364706 0.419608 0.490196 c 1587 96 23 1572 bf 0.490196 0.545098
 0.615686 c 23 1572 m 1587 X s 1610 1572 m 96 Y s 1610 1668 m -1587 X s 23 1668 m -96 Y s 1 1 1 c black 1 1 1 c
 gsave  2268 1676 0 0 C 98.5964 1600.29 t 0 r /Helvetica-Bold findfont 68.259 sf 0 0 m (TMVA overtraining check for classifier: MLP) show NC gr 
 gr  gr showpage
end
%%EOF
