%!PS-Adobe-2.0 EPSF-2.0
%%BoundingBox:  0 0 567 419
%%Title: dataset/plots/mvaeffs_BDT.eps: Cut efficiencies for BDT classifier
%%Creator: ROOT Version 6.14/04
%%CreationDate: Mon Mar  2 14:26:06 2020
%%DocumentNeededResources: ProcSet (FontSetInit)
%%EndComments
%%BeginProlog
80 dict begin
/s {stroke} def /l {lineto} def /m {moveto} def /t {translate} def
/r {rotate} def /rl {roll}  def /R {repeat} def
/d {rlineto} def /rm {rmoveto} def /gr {grestore} def /f {eofill} def
/c {setrgbcolor} def /black {0 setgray} def /sd {setdash} def
/cl {closepath} def /sf {scalefont setfont} def /lw {setlinewidth} def
/box {m dup 0 exch d exch 0 d 0 exch neg d cl} def
/NC{systemdict begin initclip end}def/C{NC box clip newpath}def
/bl {box s} def /bf {gsave box gsave f grestore 1 lw [] 0 sd s grestore} def /Y { 0 exch d} def /X { 0 d} def 
/K {{pop pop 0 moveto} exch kshow} bind def
/ita {/ang 15 def gsave [1 0 ang dup sin exch cos div 1 0 0] concat} def 
/mp {newpath /y exch def /x exch def} def
/side {[w .77 mul w .23 mul] .385 w mul sd w 0 l currentpoint t -144 r} def
/mr {mp x y w2 0 360 arc} def /m24 {mr s} def /m20 {mr f} def
/mb {mp x y w2 add m w2 neg 0 d 0 w neg d w 0 d 0 w d cl} def
/mt {mp x y w2 add m w2 neg w neg d w 0 d cl} def
/w4 {w 4 div} def
/w6 {w 6 div} def
/w8 {w 8 div} def
/m21 {mb f} def /m25 {mb s} def /m22 {mt f} def /m26{mt s} def
/m23 {mp x y w2 sub m w2 w d w neg 0 d cl f} def
/m27 {mp x y w2 add m w3 neg w2 neg d w3 w2 neg d w3 w2 d cl s} def
/m28 {mp x w2 sub y w2 sub w3 add m w3 0 d  0 w3 neg d w3 0 d 0 w3 d w3 0 d  0 w3 d w3 neg 0 d 0 w3 d w3 neg 0 d 0 w3 neg d w3 neg 0 d cl s } def
/m29 {mp gsave x w2 sub y w2 add w3 sub m currentpoint t 4 {side} repeat cl fill gr} def
/m30 {mp gsave x w2 sub y w2 add w3 sub m currentpoint t 4 {side} repeat cl s gr} def
/m31 {mp x y w2 sub m 0 w d x w2 sub y m w 0 d x w2 sub y w2 add m w w neg d x w2 sub y w2 sub m w w d s} def
/m32 {mp x y w2 sub m w2 w d w neg 0 d cl s} def
/m33 {mp x y w2 add m w3 neg w2 neg d w3 w2 neg d w3 w2 d cl f} def
/m34 {mp x w2 sub y w2 sub w3 add m w3 0 d  0 w3 neg d w3 0 d 0 w3 d w3 0 d  0 w3 d w3 neg 0 d 0 w3 d w3 neg 0 d 0 w3 neg d w3 neg 0 d cl f } def
/m35 {mp x y w2 add m w2 neg w2 neg d w2 w2 neg d w2 w2 d w2 neg w2 d x y w2 sub m 0 w d x w2 sub y m w 0 d s} def
/m36 {mb x w2 sub y w2 add m w w neg d x w2 sub y w2 sub m w w d s} def
/m37 {mp x y m w4 neg w2 d w4 neg w2 neg d w2 0 d  w4 neg w2 neg d w2 0 d w4 neg w2 d w2 0 d w4 neg w2 d w4 neg w2 neg d cl s} def
/m38 {mp x w4 sub y w2 add m w4 neg w4 neg d 0 w2 neg d w4 w4 neg d w2 0 d w4 w4 d 0 w2 d w4 neg w4 d w2 neg 0 d x y w2 sub m 0 w d x w2 sub y m w 0 d cl s} def
/m39 {mp x y m w4 neg w2 d w4 neg w2 neg d w2 0 d  w4 neg w2 neg d w2 0 d w4 neg w2 d w2 0 d w4 neg w2 d w4 neg w2 neg d cl f} def
/m40 {mp x y m w4 w2 d w4 w4 neg d w2 neg w4 neg d w2 w4 neg d w4 neg w4 neg d w4 neg w2 d w4 neg w2 neg d w4 neg w4 d w2 w4 d w2 neg w4 d w4 w4 d w4 w2 neg d cl s} def
/m41 {mp x y m w4 w2 d w4 w4 neg d w2 neg w4 neg d w2 w4 neg d w4 neg w4 neg d w4 neg w2 d w4 neg w2 neg d w4 neg w4 d w2 w4 d w2 neg w4 d w4 w4 d w4 w2 neg d cl f} def
/m42 {mp x y w2 add m w8 neg w2 -3 4 div mul d w2 -3 4 div mul w8 neg d w2 3 4 div mul w8 neg d w8 w2 -3 4 div mul d w8 w2 3 4 div mul d w2 3 4 div mul w8 d w2 -3 4 div mul w8 d w8 neg w2 3 4 div mul d cl s} def
/m43 {mp x y w2 add m w8 neg w2 -3 4 div mul d w2 -3 4 div mul w8 neg d w2 3 4 div mul w8 neg d w8 w2 -3 4 div mul d w8 w2 3 4 div mul d w2 3 4 div mul w8 d w2 -3 4 div mul w8 d w8 neg w2 3 4 div mul d cl f} def
/m44 {mp x y m w6 neg w2 d w2 2 3 div mul 0 d w6 neg w2 neg d w2 w6 d 0 w2 -2 3 div mul d w2 neg w6 d w6 w2 neg d w2 -2 3 div mul 0 d w6 w2 d w2 neg w6 neg d 0 w2 2 3 div mul d w2 w6 neg d cl s} def
/m45 {mp x y m w6 neg w2 d w2 2 3 div mul 0 d w6 neg w2 neg d w2 w6 d 0 w2 -2 3 div mul d w2 neg w6 d w6 w2 neg d w2 -2 3 div mul 0 d w6 w2 d w2 neg w6 neg d 0 w2 2 3 div mul d w2 w6 neg d cl f} def
/m46 {mp x y w4 add m w4 neg w4 d w4 neg w4 neg d  w4 w4 neg d w4 neg w4 neg d w4 w4 neg d w4 w4 d w4 w4 neg d w4 w4 d w4 neg w4 d w4 w4 d w4 neg w4 d w4 neg w4 neg d cl s} def
/m47 {mp x y w4 add m w4 neg w4 d w4 neg w4 neg d w4 w4 neg d w4 neg w4 neg d  w4 w4 neg d w4 w4 d w4 w4 neg d w4 w4 d w4 neg w4 d w4 w4 d w4 neg w4 d w4 neg w4 neg d cl f} def
/m48 {mp x y w4 add m w4 neg w4 d w4 neg w4 neg d w4 w4 neg d  w4 neg w4 neg d w4 w4 neg d w4 w4 d w4 w4 neg d w4 w4 d w4 neg w4 d w4 w4 d w4 neg w4 d w4 neg w4 neg d  w4 w4 neg d w4 neg w4 neg d w4 neg w4 d w4 w4 d cl f} def
/m49 {mp x w2 sub w3 add y w2 sub w3 add m  0 w3 neg d w3 0 d 0 w3 d w3 0 d 0 w3 d w3 neg 0 d 0 w3 d w3 neg 0 d 0 w3 neg d w3 neg 0 d 0 w3 neg d w3 0 d 0 w3 d w3 0 d 0 w3 neg d w3 neg 0 d cl f } def
/m2 {mp x y w2 sub m 0 w d x w2 sub y m w 0 d s} def
/m5 {mp x w2 sub y w2 sub m w w d x w2 sub y w2 add m w w neg d s} def
%%IncludeResource: ProcSet (FontSetInit)
%%IncludeResource: font Times-Roman
%%IncludeResource: font Times-Italic
%%IncludeResource: font Times-Bold
%%IncludeResource: font Times-BoldItalic
%%IncludeResource: font Helvetica
%%IncludeResource: font Helvetica-Oblique
%%IncludeResource: font Helvetica-Bold
%%IncludeResource: font Helvetica-BoldOblique
%%IncludeResource: font Courier
%%IncludeResource: font Courier-Oblique
%%IncludeResource: font Courier-Bold
%%IncludeResource: font Courier-BoldOblique
%%IncludeResource: font Symbol
%%IncludeResource: font ZapfDingbats
/reEncode {exch findfont dup length dict begin {1 index /FID eq  {pop pop} {def} ifelse } forall /Encoding exch def currentdict end dup /FontName get exch definefont pop } def [/Times-Bold /Times-Italic /Times-BoldItalic /Helvetica /Helvetica-Oblique
 /Helvetica-Bold /Helvetica-BoldOblique /Courier /Courier-Oblique /Courier-Bold /Courier-BoldOblique /Times-Roman /AvantGarde-Book /AvantGarde-BookOblique /AvantGarde-Demi /AvantGarde-DemiOblique /Bookman-Demi /Bookman-DemiItalic /Bookman-Light
 /Bookman-LightItalic /Helvetica-Narrow /Helvetica-Narrow-Bold /Helvetica-Narrow-BoldOblique /Helvetica-Narrow-Oblique /NewCenturySchlbk-Roman /NewCenturySchlbk-Bold /NewCenturySchlbk-BoldItalic /NewCenturySchlbk-Italic /Palatino-Bold
 /Palatino-BoldItalic /Palatino-Italic /Palatino-Roman ] {ISOLatin1Encoding reEncode } forall
%%EndProlog
%%BeginSetup
%%EndSetup
newpath  gsave  .25 .25 scale  gsave  0 0 t 0.490196 0.545098 0.615686 c[  ] 0 sd 3 lw 0.941176 0.941176 0.941176 c 2268 1676 0 0 bf black 1 1 0.992157 c 1796 1140 245 201 bf black 1796 1140 245 201 bl 1 1 0.992157 c 1796 1140 245 201 bf black 1796
 1140 245 201 bl 245 201 m 1796 X s[ 4 8] 0 sd 245 1341 m -1140 Y s 429 1341 m -1140 Y s 613 1341 m -1140 Y s 797 1341 m -1140 Y s 982 1341 m -1140 Y s 1166 1341 m -1140 Y s 1350 1341 m -1140 Y s 1534 1341 m -1140 Y s 1718 1341 m -1140 Y s 1902 1341
 m -1140 Y s 245 1341 m -1140 Y s 1902 1341 m -1140 Y s[  ] 0 sd 245 201 m 1140 Y s[ 4 8] 0 sd 2041 310 m -1796 X s 2041 425 m -1796 X s 2041 539 m -1796 X s 2041 654 m -1796 X s 2041 768 m -1796 X s 2041 883 m -1796 X s 2041 997 m -1796 X s 2041
 1112 m -1796 X s 2041 1226 m -1796 X s 2041 1341 m -1796 X s 2041 310 m -1796 X s 0 0 0.933333 c[  22 12 ] 0 sd 6 lw 0.49 0.6 0.82 c black 0 0 0.933333 c 245 654 m 9 X s 254 654 m 9 X s 263 654 m 8 X s 271 654 m 9 X s 280 654 m 5 X 1 Y 4 X s 289 655
 m 9 X s 298 655 m 9 X s 307 655 m 8 X s 315 655 m 3 X 1 Y 6 X s 324 656 m 9 X s 333 656 m 9 X s 342 656 m 4 X 1 Y 5 X s 351 657 m 4 X 1 Y 4 X s 359 658 m 9 X s 368 658 m 3 X 1 Y 6 X s 377 659 m 3 X 1 1 d 3 X 1 Y 2 X s 386 661 m 7 X 1 1 d 1 X s 395
 662 m 1 X 1 Y 7 X s 403 663 m 1 X 1 Y 8 X s 412 664 m 1 X 1 Y 6 X 1 Y 2 X s 421 666 m 8 X 1 Y 1 X s 430 667 m 7 X 1 Y 2 X s 439 668 m 3 X 1 Y 5 X 1 Y s 447 670 m 7 X 3 Y 2 X s 456 673 m 2 X 1 Y 4 X 1 Y 3 X s 465 675 m 1 Y 6 X 1 Y 3 X s 474 677 m 2 X
 1 Y 4 X 1 Y 1 X 1 1 d 1 X s 483 680 m 4 X 1 Y 2 X 1 Y 2 X s 491 682 m 5 X 1 Y 4 X 1 Y s 500 684 m 3 X 1 Y 5 X 1 Y 1 X s 509 686 m 4 X 1 1 d 4 X s 518 687 m 1 Y 2 X 1 Y 4 X 1 Y 3 X s 527 690 m 1 1 d 5 X 1 1 d 1 X s 535 692 m 3 X 1 Y 3 X 1 1 d 2 X s
 544 694 m 2 X 1 Y 3 X 1 Y 2 X 1 Y 2 X s 553 697 m 4 X 1 Y 5 X s 562 698 m 1 1 d 3 X 1 Y 5 X s 571 700 m 1 Y 6 X 1 Y 2 X s 579 702 m 4 X 1 Y 4 X 1 Y 1 X 1 Y s 588 705 m 1 X 1 Y 2 X 1 Y 4 X 2 Y 2 X s 597 709 m 2 X 1 Y 6 X 1 Y 1 X s 606 711 m 1 Y 5 X 1
 Y 1 X 1 Y 3 X s 615 714 m 1 Y 1 1 d 3 X 1 Y 4 X 1 Y s 623 718 m 5 X 1 Y 4 X s 632 719 m 1 X 1 Y 2 X 1 Y 4 X 1 Y 2 X s 641 722 m 3 X 1 Y 3 X 1 1 d 1 X 1 Y 1 X s 650 725 m 4 X 1 Y 1 X 1 Y 3 X 1 Y 1 X s 659 728 m 2 X 1 Y 4 X 1 Y 2 X 1 Y s 667 731 m 6 X
 1 Y 3 X 4 Y s 676 736 m 1 X 1 Y 6 X 1 Y 2 X s 685 738 m 2 X 1 Y 5 X 1 Y 2 X s 694 740 m 3 Y 3 X 1 1 d 2 X 1 Y 3 X s 703 745 m 3 X 1 Y 4 X 1 Y 1 X s 711 747 m 7 X 1 Y 2 X 1 Y -1 Y 1 Y s 720 749 m 3 X 1 1 d 3 X 1 Y 2 X s 729 751 m 2 X 1 Y 4 X 1 Y 3 X
 s 738 753 m 2 X 1 Y 4 X 1 Y 2 X 1 1 d s 747 756 m 8 X s 755 756 m 1 X 1 Y 6 X 1 1 d 1 X s 764 758 m 1 Y 3 X 1 Y 2 X 1 Y 4 X s 773 761 m 6 X 1 Y 3 X s 782 762 m 2 X 5 Y 3 X 1 1 d 2 Y 3 X s 791 770 m 1 1 d 7 X s 799 771 m 3 X 2 Y 3 X 1 1 d 2 Y 2 X s
 808 776 m 5 X 1 Y 1 -1 d 1 Y 3 X s 817 777 m 1 X -1 Y 1 X 1 Y 6 X 1 Y 1 X s 826 778 m -1 Y 2 X 1 Y 1 X 1 Y 6 X s 835 779 m 1 Y 8 X s 843 780 m 7 X 1 Y 2 X s 852 781 m 9 X s 861 781 m 9 X s 870 781 m 5 X 1 1 d 3 X s 879 782 m 6 X 1 Y 2 X -1 Y s 887
 782 m 9 X 4 Y s 896 786 m 9 X s 905 786 m 9 X s 914 786 m 1 Y 8 X 1 1 d s 923 788 m 2 X -2 Y 2 X 1 Y 1 X -1 Y 1 Y 1 -1 d 1 X 1 Y 1 X s 931 787 m 7 X 1 Y 2 X s 940 788 m 9 X s 949 788 m 9 X s 958 788 m 9 X s 967 788 m 8 X s 975 788 m 5 X -1 Y 4 X s
 984 787 m 3 X 1 Y 1 X -1 Y 4 X 1 Y 1 X -1 Y s 993 787 m 9 X s 1002 787 m 2 X -2 Y 7 X s 1011 785 m 8 X s 1019 785 m 9 X s 1028 785 m 8 X -1 Y 1 X s 1037 784 m 9 X s 1046 784 m 4 X -1 Y 3 X -1 Y 2 X s 1055 782 m 8 X s 1063 782 m 9 X s 1072 782 m 5 X
 -1 Y 1 -1 d 3 X s 1081 780 m 9 X s 1090 780 m 8 X -1 Y 1 X s 1099 779 m 1 X 1 1 d -1 Y 1 X 1 Y -1 Y 5 X s 1107 779 m 8 X -1 Y 1 X -10 Y s 1116 768 m 9 X s 1125 768 m 9 X s 1134 768 m -2 Y 8 X 1 -1 d s 1143 765 m 8 X s 1151 765 m 7 X 1 -1 d 1 X s
 1160 764 m 3 X -1 Y 6 X s 1169 763 m 6 X -1 Y 2 X -1 Y 1 X s 1178 761 m 9 X s 1187 761 m 1 X -2 Y 4 X -1 Y 3 X s 1195 758 m 9 X s 1204 758 m 3 X -1 Y 3 X -1 Y 3 X s 1213 756 m 9 X s 1222 756 m 3 X -1 Y 1 X 1 1 d -1 Y 1 Y -1 Y 4 X s 1231 755 m 8 X s
 1239 755 m 7 X 1 -1 d 1 X s 1248 754 m 2 X 1 -1 d 6 X s 1257 753 m 9 X -1 Y s 1266 752 m 9 X s 1275 752 m 1 X -1 Y 7 X s 1283 751 m 9 X s 1292 751 m 3 X 1 -1 d 2 X -1 Y 3 X s 1301 749 m 5 X -1 Y 4 X s 1310 748 m 2 X -1 Y 7 X s 1319 747 m 6 X -1 Y 2
 X -19 Y s 1327 727 m 9 X s 1336 727 m 2 X -1 Y 7 X -1 Y s 1345 725 m 7 X -1 Y 2 X s 1354 724 m 2 X -1 Y 2 X 1 -1 d 2 X -1 Y 2 X s 1363 721 m 8 X -1 Y s 1371 720 m 4 X -1 Y 5 X s 1380 719 m 4 X -1 Y 5 X s 1389 718 m 3 X 1 -1 d 5 X s 1398 717 m 2 X 1
 -1 d 4 X -1 Y 2 X s 1407 715 m 3 X -1 Y 5 X s 1415 714 m 1 X -1 Y 8 X s 1424 713 m 9 X s 1433 713 m 1 X -1 Y 6 X -1 Y 2 X s 1442 711 m 7 X -1 Y 2 X s 1451 710 m 8 X s 1459 710 m 3 X -14 Y 6 X -1 Y s 1468 695 m 5 X -1 Y 4 X s 1477 694 m 3 X -1 Y 6 X
 s 1486 693 m 1 X -1 Y 4 X -9 Y 4 X s 1495 683 m 8 X s 1503 683 m 1 X -1 Y 1 X -1 Y 4 X -1 Y 3 X s 1512 680 m 5 X -1 Y 2 X -3 Y 2 X s 1521 676 m 1 X -1 Y 7 X -1 Y 1 X s 1530 674 m 3 X -1 Y 3 X 1 -1 d -1 Y 2 X -1 Y s 1539 670 m 8 X -1 Y s 1547 669 m 3
 X -1 Y 3 X -1 Y 3 X s 1556 667 m 7 X 1 -1 d 1 X s 1565 666 m 1 X -1 Y 4 X -1 Y 4 X s 1574 664 m 5 X -1 Y 2 X -1 Y 2 X s 1583 662 m 5 X -1 Y 3 X s 1591 661 m 6 X -1 Y 2 X -1 Y 1 X s 1600 659 m 6 X -1 Y 3 X s 1609 658 m 1 X -1 Y 8 X s 1618 657 m 3 X
 -1 Y 3 X -4 Y 3 X s 1627 652 m -2 Y 2 X -1 Y 5 X 1 -1 d s 1635 648 m 6 X -1 Y 3 X s 1644 647 m 3 X -1 Y 6 X -12 Y s 1653 634 m -1 Y 6 X -1 Y 3 X s 1662 632 m 3 X -1 Y 6 X s 1671 631 m -1 Y 3 X 1 -1 d 2 X -1 Y 2 X s 1679 628 m 1 X 1 -41 d 4 X -1 Y 3
 X s 1688 586 m 2 X -1 Y 7 X s 1697 585 m 1 X -2 Y 1 -7 d -1 Y 1 X -1 Y 5 X 1 -1 d s 1706 573 m 5 X -7 Y 1 -1 d 3 X s 1715 565 m 2 X 1 -1 d 2 X -1 Y 3 X s 1723 563 m 4 X 1 -1 d -14 Y 1 X -4 Y 3 X s 1732 544 m -1 Y 4 X 1 -1 d 4 X -5 Y s 1741 537 m 2 X
 1 -1 d 6 X s 1750 536 m 2 X -1 Y 7 X s 1759 535 m -12 Y 8 X s 1767 523 m 2 X -1 Y 3 X -1 Y 4 X s 1776 521 m 6 X -1 Y 1 X -1 Y 2 X s 1785 519 m 3 X 1 -10 d 5 X s 1794 509 m -1 Y 6 X -1 Y 3 X s 1803 507 m 8 X 1 -1 d s 1812 506 m -1 Y 8 X s 1820 505 m
 2 X 1 -1 d 3 X -1 Y 3 X s 1829 503 m 5 X -1 Y 2 X -2 Y 2 X s 1838 500 m 1 X -5 Y 8 X s 1847 495 m 2 X -1 Y 4 X 1 -2 d 1 X -1 Y 1 X s 1856 491 m 1 -1 d 3 X -1 Y 4 X s 1864 489 m 3 X -1 Y 3 X -1 Y 3 X s 1873 487 m 2 X -1 Y 4 X -3 Y 3 X s 1882 483 m 1
 X -1 Y 7 X -1 Y 1 X s 1891 481 m 2 X -8 Y 1 X -1 Y 6 X s 1900 472 m 2 X -1 Y 1 X -1 Y 1 X 1 -1 d 3 X -2 Y s 1908 467 m 2 X -4 Y 5 X -2 Y 2 X s 1917 461 m 3 X 1 -1 d 2 X 1 -17 d -1 Y 2 X s 1926 442 m 5 X 1 -1 d 1 X -3 Y 2 X -1 Y s 1935 437 m 2 X -1 Y
 5 X -1 Y 1 X -1 Y 1 X s 1944 434 m 5 X -1 Y 3 X s 1952 433 m -1 Y 1 X -26 Y 4 X 1 -1 d 3 X s 1961 405 m 2 X -1 Y 1 -24 d 2 X -1 Y 4 X s 1970 379 m 2 X -22 Y 1 X -1 Y 5 X 1 -1 d s 1979 355 m -1 Y 1 -4 d 6 X -2 Y 2 X s 1988 348 m 5 X -29 Y 3 X s 1996
 319 m 1 X -2 Y 1 X -1 Y 3 X -20 Y 2 X -1 Y 2 X s 2005 295 m 6 X 1 -2 d 2 X s 2014 293 m -17 Y 5 X -3 Y 2 X -13 Y 2 X s 2023 260 m 3 X -5 Y 6 X s 2032 255 m 8 X s 2040 255 m 1 X s black[  ] 0 sd 3 lw 245 201 m 1796 X s 245 241 m -40 Y s 291 221 m -20
 Y s 337 221 m -20 Y s 383 221 m -20 Y s 429 241 m -40 Y s 475 221 m -20 Y s 521 221 m -20 Y s 567 221 m -20 Y s 613 241 m -40 Y s 659 221 m -20 Y s 705 221 m -20 Y s 751 221 m -20 Y s 797 241 m -40 Y s 843 221 m -20 Y s 889 221 m -20 Y s 936 221 m
 -20 Y s 982 241 m -40 Y s 1028 221 m -20 Y s 1074 221 m -20 Y s 1120 221 m -20 Y s 1166 241 m -40 Y s 1212 221 m -20 Y s 1258 221 m -20 Y s 1304 221 m -20 Y s 1350 241 m -40 Y s 1396 221 m -20 Y s 1442 221 m -20 Y s 1488 221 m -20 Y s 1534 241 m -40
 Y s 1580 221 m -20 Y s 1626 221 m -20 Y s 1672 221 m -20 Y s 1718 241 m -40 Y s 1764 221 m -20 Y s 1810 221 m -20 Y s 1856 221 m -20 Y s 1902 241 m -40 Y s 245 241 m -40 Y s 1902 241 m -40 Y s 1948 221 m -20 Y s 1994 221 m -20 Y s 2040 221 m -20 Y s
 gsave  2268 1676 0 0 C 242.699 128.934 t 0 r /Helvetica-Bold findfont 64.4669 sf 0 0 m (1) show NC gr 
 gsave  2268 1676 0 0 C 212.361 128.934 t 0 r /Symbol findfont 64.4669 sf 0 0 m (-) show NC gr 
 gsave  2268 1676 0 0 C 398.178 128.934 t 0 r /Helvetica-Bold findfont 64.4669 sf 0 0 m (0.8) show NC gr 
 gsave  2268 1676 0 0 C 364.048 128.934 t 0 r /Symbol findfont 64.4669 sf 0 0 m (-) show NC gr 
 gsave  2268 1676 0 0 C 580.202 128.934 t 0 r /Helvetica-Bold findfont 64.4669 sf 0 0 m (0.6) show NC gr 
 gsave  2268 1676 0 0 C 549.864 128.934 t 0 r /Symbol findfont 64.4669 sf 0 0 m (-) show NC gr 
 gsave  2268 1676 0 0 C 766.018 128.934 t 0 r /Helvetica-Bold findfont 64.4669 sf 0 0 m (0.4) show NC gr 
 gsave  2268 1676 0 0 C 731.888 128.934 t 0 r /Symbol findfont 64.4669 sf 0 0 m (-) show NC gr 
 gsave  2268 1676 0 0 C 948.042 128.934 t 0 r /Helvetica-Bold findfont 64.4669 sf 0 0 m (0.2) show NC gr 
 gsave  2268 1676 0 0 C 917.705 128.934 t 0 r /Symbol findfont 64.4669 sf 0 0 m (-) show NC gr 
 gsave  2268 1676 0 0 C 1145.23 128.934 t 0 r /Helvetica-Bold findfont 64.4669 sf 0 0 m (0) show NC gr 
 gsave  2268 1676 0 0 C 1300.71 128.934 t 0 r /Helvetica-Bold findfont 64.4669 sf 0 0 m (0.2) show NC gr 
 gsave  2268 1676 0 0 C 1486.53 128.934 t 0 r /Helvetica-Bold findfont 64.4669 sf 0 0 m (0.4) show NC gr 
 gsave  2268 1676 0 0 C 1672.35 128.934 t 0 r /Helvetica-Bold findfont 64.4669 sf 0 0 m (0.6) show NC gr 
 gsave  2268 1676 0 0 C 1854.37 128.934 t 0 r /Helvetica-Bold findfont 64.4669 sf 0 0 m (0.8) show NC gr 
 gsave  2268 1676 0 0 C 925.289 30.3373 t 0 r /Helvetica-Bold findfont 72.0512 sf 0 0 m (Cut value applied on BDT output) show NC gr  245 201 m 1140 Y s 291 310 m -46 X s 268 333 m -23 X s 268 356 m -23 X s 268 379 m -23 X s 268 402 m -23 X s 291 425
 m -46 X s 268 447 m -23 X s 268 470 m -23 X s 268 493 m -23 X s 268 516 m -23 X s 291 539 m -46 X s 268 562 m -23 X s 268 585 m -23 X s 268 608 m -23 X s 268 631 m -23 X s 291 654 m -46 X s 268 677 m -23 X s 268 699 m -23 X s 268 722 m -23 X s 268
 745 m -23 X s 291 768 m -46 X s 268 791 m -23 X s 268 814 m -23 X s 268 837 m -23 X s 268 860 m -23 X s 291 883 m -46 X s 268 906 m -23 X s 268 929 m -23 X s 268 951 m -23 X s 268 974 m -23 X s 291 997 m -46 X s 268 1020 m -23 X s 268 1043 m -23 X s
 268 1066 m -23 X s 268 1089 m -23 X s 291 1112 m -46 X s 268 1135 m -23 X s 268 1158 m -23 X s 268 1181 m -23 X s 268 1203 m -23 X s 291 1226 m -46 X s 268 1249 m -23 X s 268 1272 m -23 X s 268 1295 m -23 X s 268 1318 m -23 X s 291 1341 m -46 X s
 291 310 m -46 X s 268 287 m -23 X s 268 264 m -23 X s 268 241 m -23 X s 268 218 m -23 X s
 gsave  2268 1676 0 0 C 128.934 284.413 t 0 r /Helvetica-Bold findfont 64.4669 sf 0 0 m (0.2) show NC gr 
 gsave  2268 1676 0 0 C 128.934 398.178 t 0 r /Helvetica-Bold findfont 64.4669 sf 0 0 m (0.3) show NC gr 
 gsave  2268 1676 0 0 C 125.142 515.735 t 0 r /Helvetica-Bold findfont 64.4669 sf 0 0 m (0.4) show NC gr 
 gsave  2268 1676 0 0 C 128.934 629.5 t 0 r /Helvetica-Bold findfont 64.4669 sf 0 0 m (0.5) show NC gr 
 gsave  2268 1676 0 0 C 128.934 743.265 t 0 r /Helvetica-Bold findfont 64.4669 sf 0 0 m (0.6) show NC gr 
 gsave  2268 1676 0 0 C 125.142 857.03 t 0 r /Helvetica-Bold findfont 64.4669 sf 0 0 m (0.7) show NC gr 
 gsave  2268 1676 0 0 C 125.142 970.795 t 0 r /Helvetica-Bold findfont 64.4669 sf 0 0 m (0.8) show NC gr 
 gsave  2268 1676 0 0 C 128.934 1088.35 t 0 r /Helvetica-Bold findfont 64.4669 sf 0 0 m (0.9) show NC gr 
 gsave  2268 1676 0 0 C 189.608 1202.12 t 0 r /Helvetica-Bold findfont 64.4669 sf 0 0 m (1) show NC gr 
 gsave  2268 1676 0 0 C 136.518 1315.88 t 0 r /Helvetica-Bold findfont 64.4669 sf 0 0 m (1.1) show NC gr 
 gsave  2268 1676 0 0 C 64.4669 731.888 t 90 r /Helvetica-Bold findfont 72.0512 sf 0 0 m (Efficiency \(Purity\)) show NC gr  0 0 0.933333 c[  52 12 ] 0 sd 6 lw 0.49 0.6 0.82 c black 0 0 0.933333 c 245 654 m 9 X s 254 654 m 9 X s 263 654 m 8 X s 271
 654 m 9 X s 280 654 m 1 1 d 8 X s 289 655 m 9 X s 298 655 m 9 X s 307 655 m 8 X 1 Y s 315 656 m 9 X s 324 656 m 9 X s 333 656 m 9 X s 342 656 m 4 X 1 Y 5 X s 351 657 m 3 X 1 Y 5 X s 359 658 m 5 X 1 Y 4 X s 368 659 m 7 X 1 Y 2 X s 377 660 m 7 X 1 Y 2
 X s 386 661 m 2 X 1 Y 7 X s 395 662 m 1 Y 3 X 1 Y 5 X s 403 664 m 1 X 1 Y 7 X 1 1 d s 412 666 m 3 X 1 Y 6 X s 421 667 m 1 X 1 Y 8 X s 430 668 m 2 X 1 Y 7 X s 439 669 m 1 Y 4 X 1 Y 4 X 1 Y s 447 672 m 4 X 1 1 d 2 X 2 Y 2 X 1 Y s 456 676 m 2 X 1 Y 4 X
 1 Y 3 X s 465 678 m 1 Y 5 X 1 Y 2 X 1 Y 2 X s 474 681 m 5 X 1 1 d 1 Y 1 X 1 1 d 1 X s 483 684 m 4 X 1 Y 1 1 d 3 X s 491 686 m 2 X 1 Y 4 X 1 1 d 2 X 1 Y s 500 689 m 3 X 1 Y 1 X 1 1 d 4 X s 509 691 m 1 X 1 Y 5 X 1 Y 3 X 1 Y s 518 694 m 2 X 1 Y 1 X 1 Y
 3 X 1 1 d 2 X s 527 697 m 1 1 d 5 X 1 Y 2 X s 535 699 m 1 X 1 Y 2 X 1 Y 3 X 1 1 d 2 X s 544 702 m 1 1 d 2 X 1 Y 2 X 1 Y 1 X 1 Y 2 X 1 Y 1 X s 553 707 m 5 X 1 Y 3 X 1 Y 1 X s 562 709 m 3 X 1 1 d 1 1 d 4 X s 571 711 m 1 Y 4 X 1 Y 4 X 1 Y s 579 714 m 4
 X 1 Y 4 X 2 Y 1 X 1 Y s 588 718 m 1 X 1 Y 2 X 1 Y 1 X 1 1 d 2 X 2 Y 2 X s 597 723 m 1 X 1 Y 2 X 1 Y 4 X 1 Y 1 X 1 Y 1 X s 606 727 m 1 X 1 Y 3 X 1 Y 2 X 1 Y 1 X 1 Y 2 X s 615 731 m 2 Y 2 X 1 Y 3 X 1 Y 3 X 1 Y s 623 736 m 2 X 1 Y 3 X 1 Y 3 X 1 Y 1 X s
 632 739 m 1 X 1 Y 2 X 1 Y 3 X 1 Y 2 X 1 1 d s 641 743 m 1 X 1 Y 3 X 1 Y 2 X 1 1 d 1 X 1 Y 1 X s 650 747 m 1 1 d 2 X 1 Y 1 X 1 Y 1 X 1 Y 1 X 1 Y 3 X s 659 752 m 1 Y 1 X 1 Y 2 X 1 Y 3 X 1 Y 2 X 2 Y s 667 758 m 3 X 1 Y 3 X 1 Y 1 X 1 1 d 1 X 6 Y s 676
 767 m 1 X 1 Y 3 X 1 Y 4 X 1 Y 1 X s 685 770 m 1 X 1 1 d 1 X 1 Y 4 X 1 Y 1 X 1 Y 1 X s 694 774 m 5 Y 3 X 1 Y 2 X 1 Y 1 X 1 Y 3 X s 703 782 m 1 X 1 Y 2 X 1 Y 1 X 1 Y 3 X 1 Y 1 X s 711 786 m 2 X 1 1 d 2 X 1 Y 3 X 2 Y 1 X s 720 790 m 2 X 1 Y 1 X 1 1 d 1
 1 d 2 X 2 Y 2 X 1 Y s 729 796 m 2 X 1 Y 2 X 1 1 d 2 X 1 Y 2 X s 738 799 m 2 X 2 Y 3 X 1 Y 2 X 1 1 d 1 1 d s 747 804 m 1 Y 1 X 1 1 d 5 X 1 1 d s 755 807 m 1 X 1 Y 2 X 1 Y 2 X 1 Y 3 X 2 Y 1 X s 764 812 m 1 X 1 Y 1 X 1 Y 1 X 1 Y 1 X 1 1 d 1 Y 1 X 1 Y 3
 X 1 Y s 773 819 m 3 X 1 Y 4 X 1 Y 2 X s 782 821 m 1 Y 2 X 12 Y 2 X 1 Y 2 X 5 Y 3 X s 791 840 m 1 1 d 1 Y 2 X 1 1 d 2 X 1 Y 2 X s 799 844 m 2 X 1 Y 1 X 3 Y 1 1 d 1 X 1 Y 2 X 4 Y 1 X 1 1 d 1 Y s 808 856 m 1 X 1 Y 3 X 1 Y 3 X 1 Y 2 X s 817 859 m 2 X 1
 Y 1 X 1 Y 2 X 1 Y 1 X 1 1 d 1 X 1 Y 1 X s 826 864 m 2 X 2 Y 1 X 3 Y 1 1 d 2 X 1 Y 3 X s 835 871 m 2 Y 2 X 1 Y 5 X 1 Y 1 X s 843 875 m 4 X 1 Y 1 1 d 2 X 5 Y 1 X 1 Y 1 X s 852 883 m 2 X 1 Y 4 X 1 Y 3 X s 861 885 m 2 X 1 Y 1 X 1 Y 1 X 1 Y 3 X 1 Y 2 X s
 870 889 m 2 X 1 Y 1 X 1 Y 2 X 1 Y 1 1 d 1 Y 3 X s 879 894 m 3 X 1 Y 3 X 1 Y 2 X 1 Y s 887 897 m 2 X 1 1 d 5 X 1 Y 1 X 9 Y s 896 908 m 1 X 1 Y 4 X 1 Y 4 X s 905 910 m 2 X 1 1 d 2 X 1 Y 4 X s 914 912 m 3 Y 2 X 1 Y 3 X 1 Y 3 X 1 Y 1 1 d s 923 919 m 2 X
 2 Y 3 X 1 Y 2 X 1 Y 1 1 d s 931 924 m 5 X 1 1 d 1 1 d 1 Y 1 2 d 1 X s 940 929 m 1 X 3 Y 1 1 d 1 X 1 Y 4 X 1 Y 2 X s 949 935 m 2 X 1 Y 4 X 1 Y 3 X s 958 937 m 1 X 1 Y 1 X 1 1 d 1 X 10 Y 5 X s 967 949 m 1 X 1 Y 3 X 1 Y 4 X s 975 951 m 1 X 2 Y 4 X 2 Y
 1 X 1 Y 3 X s 984 956 m 2 Y 3 X 1 Y 4 X 1 Y 2 X s 993 960 m 1 X 1 1 d 3 X 1 Y 4 X s 1002 962 m 2 X 6 Y 2 X 1 1 d 3 X 1 Y 1 X s 1011 970 m 2 X 1 1 d 5 X 1 Y s 1019 972 m 5 X 1 Y 4 X s 1028 973 m 2 X 1 Y 5 X 1 Y 1 X 1 Y 1 X s 1037 976 m 1 X 1 Y 2 X 1
 Y 6 X s 1046 978 m 3 X 1 Y 1 X 5 Y 4 X 1 Y 1 X s 1055 985 m 2 X 1 1 d 3 X 1 Y 2 X s 1063 987 m 5 X 1 Y 1 X 1 1 d 2 X s 1072 989 m 5 X 1 Y 2 X 1 Y 2 X s 1081 991 m 1 X 1 Y 8 X s 1090 992 m 2 X 1 Y 2 X 1 Y 1 X 1 Y 4 X s 1099 995 m 3 X 1 Y 5 X s 1107
 996 m 4 X 1 Y 5 X 19 Y s 1116 1016 m 3 X 1 Y 6 X s 1125 1017 m 1 X 1 Y 5 X 1 Y 3 X s 1134 1019 m 2 Y 5 X 1 1 d 3 X s 1143 1022 m 1 Y 3 X 1 Y 4 X 1 Y 1 X s 1151 1025 m 8 X 1 Y 1 X s 1160 1026 m 2 X 1 Y 3 X 1 1 d 3 X s 1169 1028 m 4 X 1 Y 3 X 1 1 d 1
 X s 1178 1030 m 4 X 1 Y 5 X s 1187 1031 m 1 Y 2 X 1 Y 3 X 1 Y 3 X s 1195 1034 m 8 X 1 Y -1 Y 1 Y 1 X s 1204 1035 m 6 X 1 Y 3 X s 1213 1036 m 3 X 1 Y 4 X 1 Y 2 X s 1222 1038 m 9 X s 1231 1038 m 2 X 1 Y 6 X s 1239 1039 m 7 X 1 Y 2 X s 1248 1040 m 2 X
 1 1 d 6 X s 1257 1041 m 5 X 1 Y 4 X s 1266 1042 m 2 X 1 1 d 5 X 1 Y 1 X s 1275 1044 m 5 X 1 Y 3 X 1 Y s 1283 1046 m 9 X s 1292 1046 m 5 X 1 Y 3 X 1 Y 1 X s 1301 1048 m 5 X 1 Y 4 X 1 Y s 1310 1050 m 9 X s 1319 1050 m 1 Y 7 X 1 Y 1 X 15 Y s 1327 1067
 m 7 X 1 Y 2 X s 1336 1068 m 2 X 1 Y 7 X 1 Y s 1345 1070 m 5 X 1 Y 4 X s 1354 1071 m 2 X 1 Y 3 X 1 Y 4 X s 1363 1073 m 2 X 1 Y 6 X s 1371 1074 m 3 X 1 1 d 4 X 1 1 d s 1380 1076 m 7 X 1 1 d 1 X s 1389 1077 m 9 X s 1398 1077 m 2 X 1 1 d 2 X 1 Y 4 X s
 1407 1079 m 3 X 1 1 d 4 X s 1415 1080 m 9 X s 1424 1080 m 3 X 1 Y 6 X s 1433 1081 m 6 X 1 Y 3 X s 1442 1082 m 9 X s 1451 1082 m 7 X 1 Y 1 X s 1459 1083 m 3 X 7 Y 6 X s 1468 1090 m 7 X 1 Y 2 X s 1477 1091 m 9 X s 1486 1091 m 1 X 1 Y 4 X 4 Y 4 X s
 1495 1096 m 8 X s 1503 1096 m 2 X 1 Y 7 X s 1512 1097 m 1 X 1 Y 6 X 1 Y 2 X s 1521 1099 m 2 X 1 1 d 6 X s 1530 1100 m 6 X 1 1 d 2 X s 1539 1101 m 1 Y 8 X s 1547 1102 m 5 X 1 Y 4 X s 1556 1103 m 9 X s 1565 1103 m 3 X 1 Y 6 X s 1574 1104 m 9 X s 1583
 1104 m 6 X 1 Y -1 Y 1 Y 2 X s 1591 1105 m 9 X s 1600 1105 m 9 X s 1609 1105 m 2 X 1 Y 1 -1 d 1 Y 6 X s 1618 1106 m 6 X 1 Y 3 X s 1627 1107 m 1 Y 8 X s 1635 1108 m 9 X s 1644 1108 m 5 X 1 Y -1 Y 1 1 d 3 X 3 Y s 1653 1112 m 3 X 1 Y 6 X s 1662 1113 m 9
 X s 1671 1113 m 1 Y 8 X s 1679 1114 m 1 X 1 6 d 7 X s 1688 1120 m 9 X s 1697 1120 m 1 X 1 Y 1 1 d 1 X 1 Y 6 X s 1706 1123 m 5 X 1 1 d 3 X s 1715 1124 m 8 X s 1723 1124 m 4 X 1 1 d 2 Y 1 X 1 Y 3 X s 1732 1128 m 9 X -1 Y 1 Y s 1741 1128 m 9 X s 1750
 1128 m 9 X s 1759 1128 m 8 X s 1767 1128 m 2 X 1 Y 7 X s 1776 1129 m 7 X 1 Y 2 X s 1785 1130 m 3 X 1 -1 d 5 X s 1794 1129 m 6 X 1 Y 3 X s 1803 1130 m 9 X s 1812 1130 m 1 X 1 1 d 6 X s 1820 1131 m 9 X s 1829 1131 m 7 X 1 Y -1 Y 2 X s 1838 1131 m 1 X
 2 Y 3 X 1 1 d 1 X -1 Y 1 Y 3 X s 1847 1134 m 9 X s 1856 1134 m 1 1 d 7 X s 1864 1135 m 9 X s 1873 1135 m 6 X 2 Y 3 X s 1882 1137 m 9 X s 1891 1137 m 2 X 2 Y 7 X s 1900 1139 m 8 X s 1908 1139 m 2 X 2 Y 7 X s 1917 1141 m 6 X 1 2 d 2 X s 1926 1143 m 7
 X 1 Y 2 X s 1935 1144 m 7 X 1 Y 2 X s 1944 1145 m 8 X s 1952 1145 m 9 X s 1961 1145 m 2 X 1 6 d 6 X s 1970 1151 m 9 X s 1979 1151 m 9 X s 1988 1151 m 1 X 1 Y 4 X 6 Y 3 X s 1996 1158 m 5 X -3 Y 4 X s 2005 1155 m 6 X 1 1 d 2 X s 2014 1156 m 9 X s 2023
 1156 m 3 X 1 Y 6 X s 2032 1157 m 8 X s 2040 1157 m 1 X s[  ] 0 sd 9 lw 0.49 0.6 0.82 c black 0 0 0.933333 c 245 1226 m 9 X s 254 1226 m 9 X s 263 1226 m 8 X s 271 1226 m 9 X s 280 1226 m 9 X s 289 1226 m 9 X s 298 1226 m 9 X s 307 1226 m 8 X s 315
 1226 m 9 X s 324 1226 m 9 X s 333 1226 m 9 X s 342 1226 m 9 X s 351 1226 m 8 X s 359 1226 m 6 X -1 Y 3 X s 368 1225 m 9 X s 377 1225 m 9 X s 386 1225 m 9 X s 395 1225 m 7 X -1 Y 1 X s 403 1224 m 9 X s 412 1224 m 9 X s 421 1224 m 5 X -1 Y 4 X s 430
 1223 m 9 X s 439 1223 m 8 X -1 Y s 447 1222 m 9 X -1 Y s 456 1221 m 9 X s 465 1221 m -1 Y 9 X s 474 1220 m 4 X -1 Y 5 X s 483 1219 m 2 X -1 Y 6 X s 491 1218 m 5 X -1 Y 4 X s 500 1217 m 3 X -1 Y 6 X s 509 1216 m 4 X -1 Y 5 X s 518 1215 m 2 X -1 Y 5 X
 -1 Y 2 X s 527 1213 m 7 X 1 -1 d s 535 1212 m 6 X 1 -1 d 2 X s 544 1211 m 2 X -1 Y 4 X 1 -1 d 2 X s 553 1209 m 5 X -1 Y 4 X s 562 1208 m 3 X -1 Y 3 X -1 Y 3 X s 571 1206 m 5 X -1 Y 3 X s 579 1205 m 3 X -1 Y 5 X -1 Y 1 X s 588 1203 m 1 X -1 Y 3 X 1
 -1 d 2 X -1 Y 2 X s 597 1200 m 6 X -1 Y 2 X 1 -1 d s 606 1198 m 6 X -1 Y 2 X -1 Y 1 X s 615 1196 m 2 X -1 Y 6 X -1 Y s 623 1194 m 3 X 1 -1 d 4 X -1 Y 1 X s 632 1192 m 2 X -1 Y 4 X -1 Y 3 X s 641 1190 m 1 X -1 Y 4 X -1 Y 3 X -1 Y 1 X s 650 1187 m 3 X
 -1 Y 2 X -1 Y 2 X -1 Y 2 X s 659 1184 m 1 X -1 Y 4 X -1 Y 3 X -1 Y s 667 1181 m 1 X -1 Y 3 X -1 Y 3 X -1 Y 2 X -3 Y s 676 1175 m 2 X -1 Y 6 X -1 Y 1 X s 685 1173 m 1 X 1 -1 d 5 X -1 Y 1 X 1 -1 d s 694 1170 m -3 Y 4 X 1 -1 d 4 X s 703 1166 m -1 Y 3 X
 -1 Y 1 X 1 -1 d 3 X s 711 1163 m 1 X -1 Y 2 X -1 Y 4 X -1 Y 2 X -1 Y s 720 1159 m 3 X -1 Y 2 X -1 Y 2 X -1 Y 2 X -1 Y s 729 1155 m 2 X -1 Y 4 X -1 Y 3 X s 738 1153 m 1 X -1 Y 2 X -1 Y 4 X -1 Y 1 X 1 -1 d s 747 1149 m 1 X -1 Y 3 X 1 -1 d 3 X -1 Y s
 755 1146 m 2 X -1 Y 1 X -1 Y 4 X -1 Y 2 X -1 Y s 764 1142 m 2 X -1 Y 2 X -1 Y 1 X -1 Y 1 X -1 Y 3 X -1 Y s 773 1137 m 3 X -1 Y 3 X -1 Y 2 X -1 Y 1 X s 782 1134 m 1 X -1 Y 1 X -8 Y 1 X 1 -1 d 2 X -3 Y 3 X s 791 1121 m 1 -1 d 2 X 1 -1 d 1 -1 d 2 X -1
 Y 1 X s 799 1117 m 2 X -1 Y 1 X -2 Y 1 -1 d 1 X -1 Y 2 X -2 Y 2 X -1 Y s 808 1109 m 1 X -2 Y 3 X -1 Y 3 X -1 Y 2 X s 817 1105 m 1 X -1 Y 2 X -1 Y 2 X -2 Y 2 X -1 Y 2 X s 826 1100 m 1 X -1 Y 1 X -1 Y 1 X -3 Y 1 X 1 -1 d 2 X -1 Y 2 X s 835 1093 m -1 Y
 1 X 1 -1 d 3 X -1 Y 3 X s 843 1090 m 3 X -1 Y 1 X -2 Y 3 X -6 Y 2 X s 852 1081 m 1 X -1 Y 4 X 1 -1 d 3 X s 861 1079 m -1 Y 3 X -2 Y 1 X -1 Y 3 X -1 Y 2 X s 870 1074 m 1 -1 d 1 X -2 Y 3 X -1 Y 1 X -1 Y 3 X s 879 1069 m 3 X -1 Y 3 X -1 Y 2 X -2 Y s
 887 1065 m 1 -1 d 4 X 1 -1 d 3 X -7 Y s 896 1056 m 5 X -1 Y 3 X -1 Y 1 X s 905 1054 m 5 X -1 Y 4 X s 914 1053 m -3 Y 3 X 1 -1 d 2 X -1 Y 2 X 1 -1 d s 923 1047 m 2 X -4 Y 3 X -1 Y 2 X -1 Y 1 X s 931 1041 m 4 X -1 Y 2 X 1 -1 d -1 Y 1 -2 d 1 X s 940
 1036 m 1 -1 d -3 Y 1 X -1 Y 4 X -1 Y 3 X s 949 1030 m 1 X -1 Y 1 X -1 Y 5 X -1 Y 2 X s 958 1027 m 1 X -2 Y 3 X -10 Y 1 X -1 Y 4 X s 967 1014 m 1 X -1 Y 2 X -1 Y 5 X s 975 1012 m 1 X -3 Y 4 X -2 Y 1 X -1 Y 2 X -1 Y 1 X s 984 1005 m -1 Y 2 X -1 Y 4 X
 -1 Y 3 X -1 Y s 993 1001 m 3 X -1 Y 3 X -1 Y 3 X s 1002 999 m 1 X -1 Y 1 X -8 Y 4 X -1 Y 3 X s 1011 989 m -1 Y 4 X -1 Y 4 X s 1019 987 m 3 X 1 -1 d 1 X -1 Y 4 X s 1028 985 m 2 X -1 Y 3 X 1 -1 d 2 X -2 Y 1 X -1 Y s 1037 980 m 2 X 1 -1 d 6 X s 1046
 979 m 1 X -1 Y 2 X -1 Y 1 X -6 Y 3 X -1 Y 2 X s 1055 970 m 1 X 1 -1 d 1 -1 d 5 X s 1063 968 m 2 X -1 Y 3 X -1 Y 1 X -1 Y 3 X s 1072 965 m 5 X -3 Y 3 X -1 Y 1 X s 1081 961 m 1 X -1 Y 8 X s 1090 960 m 1 X -1 Y 2 X -1 Y 2 X -1 Y 1 X -1 Y 3 X s 1099 956
 m 5 X -1 Y 3 X s 1107 955 m 4 X -1 Y 3 X -1 Y 2 X -30 Y s 1116 923 m 2 X 1 -1 d 4 X 1 -1 d 1 X s 1125 921 m 6 X -1 Y 3 X s 1134 920 m -4 Y 5 X -1 Y 3 X -1 Y 1 X s 1143 914 m -1 Y 2 X -1 Y 3 X -1 Y 3 X s 1151 911 m 2 X -1 Y 6 X -1 Y 1 X s 1160 909 m
 2 X -1 Y 1 X -1 Y 2 X -1 Y 4 X s 1169 906 m 2 X -1 Y 3 X -1 Y 2 X 1 -1 d -1 Y 1 X s 1178 902 m 3 X -1 Y 6 X s 1187 901 m -1 Y 1 X -2 Y 1 X -2 Y 3 X -1 Y 3 X s 1195 895 m 7 X 1 -1 d 1 X s 1204 894 m 2 X -1 Y 4 X -2 Y 3 X s 1213 891 m 2 X 1 -1 d -1 Y
 6 X -1 Y s 1222 888 m 9 X s 1231 888 m 2 X -1 Y 6 X s 1239 887 m 3 X 1 -1 d 4 X -1 Y 1 X s 1248 885 m 2 X 1 -2 d 3 X -1 Y 3 X s 1257 882 m 9 X s 1266 882 m -1 Y 3 X -1 Y 4 X -1 Y 2 X s 1275 879 m 1 X -1 Y 4 X -1 Y 3 X -1 Y s 1283 876 m 9 X s 1292
 876 m 3 X 1 -1 d 2 X -2 Y 3 X s 1301 873 m 2 X 1 -1 d 1 X 1 -1 d -1 Y 2 X -1 Y 2 X s 1310 869 m 3 X -1 Y 6 X s 1319 868 m 3 X -1 Y 3 X -1 Y 2 X -34 Y s 1327 832 m 6 X -1 Y 3 X s 1336 831 m 1 X -1 Y 1 X -1 Y 4 X -1 Y 3 X s 1345 828 m -1 Y 5 X -1 Y 3
 X -1 Y 1 X s 1354 825 m 2 X -2 Y 2 X 1 -1 d 2 X -2 Y 2 X s 1363 820 m 5 X -1 Y 3 X -1 Y s 1371 818 m 4 X -1 Y 2 X -1 Y 3 X s 1380 816 m 2 X -1 Y 3 X -1 Y 3 X -1 Y 1 X s 1389 813 m 8 X -1 Y 1 X s 1398 812 m 2 X 1 -1 d 1 X -1 Y 3 X -1 Y 2 X s 1407 809
 m 1 X 1 -1 d 1 X 1 -1 d 4 X -1 Y s 1415 806 m 8 X 1 -1 d s 1424 805 m 9 X -1 Y s 1433 804 m 5 X -1 Y 2 X -1 Y 2 X s 1442 802 m 3 X -1 Y 6 X s 1451 801 m 7 X -1 Y 1 X s 1459 800 m 3 X -20 Y 1 X -1 Y 5 X -1 Y s 1468 778 m 5 X -1 Y 4 X s 1477 777 m -1
 Y 3 X -1 Y 6 X s 1486 775 m 1 X -1 Y 3 X -1 Y 1 X -12 Y 4 X s 1495 761 m -1 Y 8 X s 1503 760 m 1 X -1 Y 1 X -1 Y 4 X -1 Y 1 -1 d 2 X s 1512 756 m 3 X -1 Y 4 X -4 Y 2 X s 1521 751 m 1 X -2 Y 6 X 1 -1 d 1 X s 1530 748 m 3 X -2 Y 3 X 1 -2 d 1 X -1 Y 1
 X -1 Y s 1539 742 m 6 X -1 Y 2 X s 1547 741 m 3 X -1 Y 1 X -1 Y 2 X -1 Y 3 X s 1556 738 m 7 X 1 -1 d 1 X s 1565 737 m 1 X -1 Y 1 X -1 Y 3 X -1 Y 4 X s 1574 734 m 5 X -1 Y 1 X -1 Y 3 X s 1583 732 m -1 Y 6 X -1 Y 2 X s 1591 730 m 4 X 1 -1 d 3 X -1 Y 1
 X s 1600 728 m 1 -1 d 6 X -1 Y 2 X s 1609 726 m 1 X -1 Y 8 X s 1618 725 m 3 X -1 Y 3 X -5 Y 2 X -1 Y 1 X s 1627 718 m -3 Y 4 X -1 Y 4 X s 1635 714 m 2 X -1 Y 4 X 1 -1 d 2 X s 1644 712 m 2 X -1 Y 6 X -1 Y 1 X -15 Y s 1653 695 m 1 X 1 -1 d 3 X -1 Y 4
 X s 1662 693 m 1 -1 d 3 X 1 -1 d 4 X s 1671 691 m -2 Y 3 X 1 -1 d 3 X -1 Y 1 X s 1679 687 m 1 X 1 -48 d 4 X -1 Y 3 X s 1688 638 m 2 X -1 Y 6 X -1 Y 1 X s 1697 636 m 1 X -2 Y 1 -9 d 1 X -2 Y 5 X 1 -1 d s 1706 622 m 2 X 1 -1 d 2 X -7 Y 1 -1 d 2 X -1 Y
 1 X s 1715 612 m 2 X 1 -1 d 5 X s 1723 611 m 1 X -1 Y 3 X 1 -1 d -17 Y 1 X -5 Y 3 X s 1732 587 m 3 X -1 Y 6 X -6 Y s 1741 580 m 2 X 1 -1 d 6 X s 1750 579 m 1 X -1 Y 7 X 1 -1 d s 1759 577 m -12 Y 4 X -1 Y 4 X s 1767 564 m 2 X -1 Y 3 X -1 Y 4 X s 1776
 562 m 6 X -1 Y 1 X -2 Y 2 X s 1785 559 m 3 X 1 -10 d 3 X -1 Y 2 X s 1794 548 m 6 X -1 Y 3 X s 1803 547 m 4 X -1 Y 4 X 1 -1 d s 1812 545 m -1 Y 6 X -1 Y 2 X s 1820 543 m 5 X 1 -1 d -1 Y 3 X s 1829 541 m 7 X -3 Y 2 X s 1838 538 m 1 X -6 Y 2 X 1 -1 d 5
 X s 1847 531 m 4 X 1 -1 d 1 X 1 -2 d 1 X -1 Y 1 X s 1856 527 m 1 -1 d 3 X -1 Y 3 X -1 Y 1 X s 1864 524 m 6 X -2 Y 3 X s 1873 522 m 2 X -1 Y 4 X -4 Y 3 X s 1882 517 m 3 X -1 Y 5 X -1 Y 1 X s 1891 515 m 2 X -10 Y 1 X -1 Y 6 X s 1900 504 m 2 X -1 Y 1 X
 -1 Y 1 X 1 -1 d 3 X -2 Y s 1908 499 m 2 X -5 Y 2 X -1 Y 3 X -1 Y 2 X s 1917 492 m 3 X -1 Y 3 X 1 -19 d -2 Y 2 X s 1926 470 m 5 X 1 -1 d 1 X -4 Y 2 X s 1935 465 m -1 Y 3 X -1 Y 5 X -2 Y 1 X s 1944 461 m 5 X -1 Y 3 X s 1952 460 m -1 Y 1 X -28 Y 3 X -1
 Y 5 X s 1961 430 m 2 X -1 Y 1 -28 d 2 X -1 Y 4 X s 1970 400 m 2 X -23 Y 1 X -2 Y 5 X 1 -1 d s 1979 374 m -1 Y 1 -4 d 5 X -1 Y 1 X -1 Y 2 X s 1988 367 m 3 X -1 Y 2 X -32 Y 3 X s 1996 334 m 1 X -2 Y 1 X -1 Y 3 X -21 Y 4 X s 2005 310 m 6 X 1 -3 d 2 X s
 2014 307 m -19 Y 5 X -2 Y 2 X -15 Y 2 X s 2023 271 m 3 X -4 Y 6 X s 2032 267 m 8 X s 2040 267 m 1 X s 1 0 0 c black 1 0 0 c 245 1226 m 8 X -1 Y 1 X s 254 1225 m 9 X s 263 1225 m 6 X -1 Y 1 X -1 Y 1 X s 271 1223 m 9 X s 280 1223 m 1 X -1 Y 8 X s 289
 1222 m -1 Y 9 X s 298 1221 m 4 X -1 Y 5 X s 307 1220 m 2 X -1 Y 6 X -1 Y s 315 1218 m 9 X s 324 1218 m 2 X -1 Y 7 X -1 Y s 333 1216 m 7 X -1 Y 2 X s 342 1215 m 4 X -2 Y 1 X -1 Y 4 X s 351 1212 m 2 X -1 Y 1 X -1 Y 1 X -1 Y 1 X -1 Y 3 X s 359 1208 m 4
 X -1 Y 1 X -1 Y 2 X -1 Y 2 X s 368 1205 m 3 X -1 Y 1 X -1 Y 1 -1 d 4 X -1 Y s 377 1201 m 2 X -1 Y 2 X -1 Y 3 X -4 Y 2 X s 386 1195 m -1 Y 3 X -1 Y 1 X -1 Y 2 X -1 Y 3 X s 395 1191 m -3 Y 1 X -2 Y 4 X -1 Y 2 X -2 Y 1 X s 403 1183 m 1 X -2 Y 3 X -1 Y
 3 X -1 Y 1 X -1 Y 1 X -1 Y s 412 1177 m 1 X -2 Y 1 X -1 Y 1 X -1 Y 4 X -2 Y 1 X 1 -1 d s 421 1170 m 1 X -1 Y 4 X -1 Y 3 X -1 Y 1 X s 430 1167 m 1 X -1 Y 1 X 1 -1 d -1 Y 4 X -1 Y 2 X s 439 1163 m -3 Y 2 X -1 Y 1 X -1 Y 1 X -1 Y 2 X 1 -1 d 1 X -4 Y s
 447 1152 m 2 X -1 Y 1 X -1 Y 1 X 1 -1 d 2 X -11 Y 2 X s 456 1138 m -1 Y 1 X -2 Y 1 X -3 Y 3 X -1 Y 1 X -3 Y 1 -1 d -1 Y 2 X s 465 1126 m -2 Y 5 X -3 Y 1 X -1 Y 1 X -3 Y 2 X s 474 1117 m 1 X -1 Y 1 X -1 Y 2 X -1 Y 1 X 1 -1 d -7 Y 2 X -1 Y 1 X s 483
 1105 m 1 X -1 Y 1 X -1 Y 2 X -4 Y 1 -1 d -1 Y 1 X -1 Y 2 X -1 Y s 491 1095 m 2 X -1 Y 1 X -1 Y 2 X -2 Y 1 X 1 -1 d -1 Y 1 X -1 Y 1 X -2 Y s 500 1086 m 1 X -1 Y 2 X -5 Y 1 -1 d 1 X -1 Y 2 X -1 Y 1 X -1 Y 1 X s 509 1076 m 1 -1 d 1 X -1 Y 1 X -1 Y 1 X
 -1 Y 1 X -1 Y 2 X -1 Y 1 X -2 Y 1 -1 d s 518 1067 m -1 Y 1 X 1 -1 d -4 Y 1 X -2 Y 1 X -1 Y 2 X -2 Y 1 X -1 Y 1 X -1 Y 1 X s 527 1054 m -1 Y 1 -2 d 1 -1 d 2 X -1 Y 2 X -2 Y 1 -1 d -1 Y 1 X s 535 1045 m 1 X -1 Y 1 X -2 Y 1 X -1 Y 1 X -1 Y 1 X -1 Y 1 X
 1 -3 d 1 -2 d 1 X -1 Y s 544 1033 m 1 X -1 Y 1 X -2 Y 1 X -1 Y 1 X -1 Y 1 -1 d -1 Y 1 -1 d -3 Y 1 X -1 Y 1 -2 d -1 Y 1 X s 553 1018 m 1 X -1 Y 2 X -1 Y 2 X -2 Y 1 X -1 Y 1 -1 d -1 Y 2 X s 562 1011 m -1 Y 1 X -1 Y 1 X -1 Y 1 X -1 Y 1 X -4 Y 1 X -1 Y
 1 X -1 Y 1 X 1 -1 d 1 X s 571 1000 m -1 Y 1 X -1 Y 1 X 1 -1 d 1 X -2 Y 1 X -1 Y 1 X -1 Y 2 X -1 Y s 579 992 m 2 X -2 Y 1 X -1 Y 1 X -1 Y 1 X -1 Y 1 -1 d 1 X -1 Y 1 X -4 Y 1 -1 d -4 Y s 588 976 m 1 X -3 Y 1 X -1 Y 1 X -3 Y 1 X -1 Y 1 -2 d -1 Y 1 X -1
 Y 1 X -6 Y 2 X -1 Y s 597 957 m 1 X -1 Y 1 -1 d -1 Y 1 X -1 Y 1 X -1 Y 1 X 1 -1 d -1 Y 1 X 1 -1 d -5 Y 1 X s 606 944 m -1 Y 1 X -1 Y 1 X -1 Y 1 -1 d 1 X -1 Y 1 X -1 Y 1 X -4 Y 1 -1 d -2 Y 1 X -1 Y 1 X s 615 930 m -5 Y 1 X -1 Y 1 X -2 Y 1 -1 d 1 X -1
 Y 1 X -1 Y 1 X -1 Y 1 X -1 Y 1 -1 d -2 Y s 623 914 m 1 X -1 Y 1 X -1 Y 1 X -1 Y 1 X -1 Y 1 X -2 Y 1 X 1 -1 d -1 Y 1 X -1 Y 1 X s 632 905 m -1 Y 1 X -3 Y 1 -1 d -1 Y 1 X -1 Y 1 X -1 Y 2 X -3 Y 1 X -1 Y 1 -1 d 1 X s 641 892 m -2 Y 1 X -2 Y 2 X -2 Y 1
 X -1 Y 1 X -1 Y 1 X -1 Y 1 -2 d -1 Y 1 X -4 Y 1 X s 650 876 m 1 -1 d -1 Y 1 X -1 Y 1 X -2 Y 1 X -2 Y 1 -1 d -3 Y 1 X -3 Y 1 X -1 Y 1 X -1 Y 1 X s 659 860 m -2 Y 1 X -2 Y 1 X -2 Y 1 X -1 Y 1 X -2 Y 2 X -2 Y 1 -1 d -1 Y 1 X -4 Y s 667 843 m 1 -1 d 1
 -1 d 1 X -2 Y 1 X -1 Y 1 X 1 -1 d -2 Y 1 X -2 Y 1 X -2 Y 1 X -18 Y s 676 813 m 1 X -2 Y 1 X -1 Y 1 X -1 Y 2 X -1 Y 1 X -1 Y 1 X -1 Y 1 X -1 Y 1 X s 685 805 m -1 Y 1 -1 d 1 -1 d -2 Y 1 X -1 Y 1 X -1 Y 2 X 1 -1 d -2 Y 1 -1 d -1 Y 1 X s 694 793 m -15 Y
 1 X -2 Y 2 X -1 Y 1 -1 d 1 -1 d 1 -2 d -1 Y 1 X -1 Y 1 X -1 Y 1 X s 703 768 m -1 Y 1 X -1 Y 1 X -1 Y 1 X -2 Y 1 X -2 Y 1 -1 d -1 Y 2 X -1 Y 1 X -1 Y s 711 757 m 1 X -2 Y 1 X 1 -1 d -1 Y 1 X -1 Y 1 X -1 Y 2 X -2 Y 1 X -4 Y 1 X s 720 745 m -1 Y 1 X 1
 -1 d 1 X -2 Y 1 -3 d -1 Y 1 X -1 Y 1 -1 d 1 X -4 Y 1 X -2 Y 1 X -1 Y s 729 728 m 2 X -4 Y 1 X -1 Y 2 X -1 Y 1 X -1 Y 1 X -1 Y 1 X -1 Y 1 X s 738 719 m -1 Y 1 X 1 -1 d -3 Y 1 X -1 Y 1 -1 d 1 X -1 Y 1 X -1 Y 1 X -1 Y 1 X -2 Y 1 -3 d s 747 704 m -1 Y 1
 X -2 Y 1 -1 d 1 X -1 Y 2 X -1 Y 3 X -2 Y s 755 696 m 1 X -2 Y 1 X 1 -1 d -3 Y 2 X -2 Y 2 X -1 Y 1 X -3 Y 1 X -2 Y s 764 682 m 1 -1 d -2 Y 1 X -1 Y 1 X -2 Y 1 X -2 Y 1 -2 d -3 Y 1 X -2 Y 1 -1 d 1 X 1 -1 d -1 Y s 773 664 m 1 X 1 -1 d 1 X -1 Y 1 X -1 Y
 2 X -1 Y 1 X -2 Y 1 X -1 Y 1 X s 782 657 m -1 Y 1 X -1 Y 1 X -29 Y 1 X -2 Y 1 X -1 Y 1 -1 d 1 -1 d -10 Y 1 X -1 Y 2 X s 791 610 m -1 Y 1 -2 d -1 Y 2 X 1 -2 d 1 -1 d -1 Y 1 X -1 Y 2 X -1 Y s 799 600 m 1 X -1 Y 1 X -1 Y 1 X -8 Y 1 -3 d 1 X -1 Y 1 X -1
 Y 1 X -9 Y 1 X 1 -2 d -1 Y s 808 573 m 1 X -4 Y 2 X -1 Y 1 X -1 Y 1 X 1 -1 d 1 X -1 Y 2 X -1 Y s 817 564 m 1 X -1 Y 1 X -1 Y 1 X -2 Y 2 X -3 Y 1 -1 d 1 -1 d -1 Y 1 X -1 Y 1 X s 826 553 m -1 Y 2 X -3 Y 1 X -8 Y 1 -2 d 1 X 1 -1 d -1 Y 1 X -1 Y 2 X s
 835 536 m -3 Y 1 X -1 Y 1 -1 d -1 Y 3 X -1 Y 1 X -1 Y 2 X s 843 528 m 1 X 1 -1 d 2 X -4 Y 2 X -1 Y 1 X -12 Y 2 X s 852 510 m -1 Y 1 X -1 Y 2 X -1 Y 2 X -1 Y 2 X -1 Y 2 X s 861 505 m -1 Y 2 X -1 Y 1 X -3 Y 1 X -2 Y 3 X -2 Y 2 X s 870 496 m -1 Y 2 X
 -3 Y 1 X -1 Y 2 X -3 Y 1 -1 d -1 Y 1 X -1 Y 2 X s 879 485 m -1 Y 3 X -1 Y 2 X -1 Y 1 X -2 Y 2 X -2 Y s 887 478 m 1 -1 d 2 X -1 Y 3 X -1 Y 3 X -19 Y s 896 456 m 1 X -1 Y 2 X -1 Y 2 X -1 Y 2 X -1 Y 2 X s 905 452 m 2 X -1 Y 3 X -2 Y 3 X -1 Y 1 X s 914
 448 m -5 Y 1 X -1 Y 2 X -1 Y 2 X -1 Y 1 -1 d -1 Y 2 X 1 -2 d s 923 436 m 1 -1 d 1 X -4 Y 1 X -1 Y 2 X -1 Y 2 X -3 Y 1 X s 931 426 m 1 X -1 Y 4 X 1 -2 d 1 -1 d -2 Y 1 -4 d 1 X s 940 416 m 1 X -7 Y 1 X -1 Y 1 X -2 Y 4 X -1 Y 2 X s 949 405 m 1 X -1 Y 1
 X -2 Y 4 X -1 Y 2 X -1 Y 1 X s 958 400 m 1 X -2 Y 3 X -18 Y 1 X -1 Y 4 X s 967 379 m 1 X -2 Y 3 X -1 Y 3 X 1 -1 d s 975 375 m 1 X -3 Y 1 X -1 Y 3 X -3 Y 1 X -1 Y 2 X -1 Y 1 X s 984 366 m -2 Y 2 X -1 Y 1 X -1 Y 3 X -1 Y 1 X -1 Y 2 X s 993 360 m 1 X
 -1 Y 2 X -1 Y 1 X -1 Y 2 X -1 Y 3 X s 1002 356 m 2 X -11 Y 4 X -1 Y 2 X -1 Y 1 X s 1011 343 m -1 Y 3 X -1 Y 4 X -1 Y 1 X s 1019 340 m 3 X 1 -1 d 1 X -1 Y 4 X s 1028 338 m 1 X -1 Y 3 X -1 Y 3 X -1 Y 1 X -3 Y 1 X s 1037 332 m 2 X 1 -2 d 6 X s 1046 330
 m -1 Y 3 X -2 Y 1 X -7 Y 2 X 1 -1 d 2 X s 1055 319 m -1 Y 2 X 1 -1 d -1 Y 5 X s 1063 316 m 2 X -1 Y 2 X -1 Y 1 X -1 Y 2 X -1 Y 2 X s 1072 312 m 5 X -2 Y 1 X -1 Y 3 X s 1081 309 m 1 X -1 Y 1 X -1 Y 7 X s 1090 307 m -1 Y 3 X -1 Y 2 X -2 Y 1 X 1 -1 d 2
 X s 1099 302 m 4 X 1 -1 d 3 X s 1107 301 m 4 X -1 Y 3 X -1 Y 2 X -28 Y s 1116 271 m 1 X 1 -1 d 1 X -1 Y 6 X -1 Y s 1125 268 m 6 X -1 Y 3 X s 1134 267 m -3 Y 2 X -1 Y 5 X -1 Y 2 X s 1143 262 m -1 Y 2 X -1 Y 3 X -1 Y 2 X -1 Y 1 X s 1151 258 m 5 X -1 Y
 4 X s 1160 257 m -1 Y 2 X -1 Y 2 X -1 Y 5 X s 1169 254 m 1 X -1 Y 4 X -1 Y 2 X 1 -1 d 1 X s 1178 251 m 1 X -1 Y 8 X s 1187 250 m -2 Y 2 X -2 Y 4 X -1 Y 2 X s 1195 245 m 8 X -1 Y 1 X s 1204 244 m 3 X -1 Y 3 X -1 Y 3 X s 1213 242 m 3 X -1 Y 2 X -1 Y 4
 X s 1222 240 m 7 X 1 -1 d 1 X s 1231 239 m 8 X -1 Y s 1239 238 m 8 X -1 Y 1 X s 1248 237 m 2 X 1 -1 d 4 X 1 -1 d 1 X s 1257 235 m 9 X s 1266 235 m 1 X -1 Y 2 X -1 Y 5 X -1 Y 1 X s 1275 232 m 5 X -1 Y 1 X -1 Y 2 X s 1283 230 m 8 X 1 -1 d s 1292 229 m
 5 X 1 -1 d 1 X -1 Y 2 X s 1301 227 m 4 X -1 Y 1 X -1 Y 4 X -1 Y s 1310 224 m 9 X s 1319 224 m 3 X -1 Y 3 X -1 Y 2 X -20 Y s 1327 202 m 8 X -1 Y 1 X s 1336 201 m 2 X s 0 0.666667 0 c 1 1 1 c black 0 0.666667 0 c 245 1111 m 1 Y 9 X s 254 1112 m 9 X s
 263 1112 m 8 X s 271 1112 m 9 X s 280 1112 m 9 X s 289 1112 m 4 X 1 Y 5 X s 298 1113 m 9 X s 307 1113 m 8 X s 315 1113 m 9 X s 324 1113 m 9 X s 333 1113 m 3 X 1 Y 6 X s 342 1114 m 9 X s 351 1114 m 2 X 1 Y 6 X s 359 1115 m 5 X 1 Y 4 X s 368 1116 m 9
 X s 377 1116 m 1 X 1 1 d 5 X 1 Y 2 X s 386 1118 m 7 X 1 Y 2 X s 395 1119 m 1 X 1 Y 7 X s 403 1120 m 3 X 1 Y 6 X s 412 1121 m 1 X 1 Y 8 X s 421 1122 m 1 Y 9 X s 430 1123 m 3 X 1 Y 6 X s 439 1124 m 2 X 1 Y 6 X 1 Y s 447 1126 m 6 X 1 1 d 2 Y 2 X s 456
 1129 m 2 X 1 Y 4 X 1 Y 3 X s 465 1131 m 5 X 1 Y 2 X 1 1 d 1 X s 474 1133 m 6 X 1 Y 1 X 1 1 d 1 X s 483 1135 m 4 X 1 Y 4 X s 491 1136 m 1 X 1 Y 6 X 1 Y 2 X s 500 1138 m 3 X 1 Y 2 X 1 1 d 3 X s 509 1140 m 4 X 1 Y 5 X s 518 1141 m 1 Y 2 X 1 1 d 4 X 1 Y
 2 X s 527 1144 m 3 X 1 1 d 4 X s 535 1145 m 2 X 1 Y 4 X 1 1 d 2 X s 544 1147 m 2 X 1 Y 3 X 1 Y 2 X 1 1 d 1 X s 553 1150 m 5 X 1 1 d 3 X s 562 1151 m 2 X 1 Y 4 X 1 1 d 2 X s 571 1153 m 4 X 1 Y 4 X s 579 1154 m 4 X 1 Y 4 X 1 Y 1 X 1 Y s 588 1157 m 3 X
 1 Y 3 X 1 Y 1 X 1 Y 2 X s 597 1160 m 2 X 1 Y 6 X 1 Y 1 X s 606 1162 m 1 X 1 Y 5 X 1 Y 1 X 1 Y 2 X s 615 1165 m 1 Y 4 X 1 Y 4 X s 623 1167 m 1 X 1 Y 5 X 1 1 d 2 X s 632 1169 m 1 X 1 Y 5 X 1 Y 3 X s 641 1171 m 2 X 1 1 d 3 X 1 1 d 2 X s 650 1173 m 1 Y
 4 X 1 Y 2 X 1 Y 3 X s 659 1176 m 1 X 1 Y 5 X 1 Y 2 X 1 Y s 667 1179 m 6 X 1 1 d 2 X 3 Y s 676 1183 m 1 X 1 Y 6 X 1 Y 2 X s 685 1185 m 4 X 1 Y 5 X s 694 1186 m 3 Y 4 X 1 1 d 3 X 1 1 d s 703 1191 m 4 X 1 Y 4 X s 711 1192 m 6 X 1 1 d 1 X 1 Y 1 X s 720
 1194 m 3 X 1 1 d 3 X 1 Y -1 Y 1 Y 2 X s 729 1196 m 2 X 1 Y 7 X s 738 1197 m 2 X 1 Y 4 X 1 Y 3 X s 747 1199 m 1 X 1 Y 7 X s 755 1200 m 3 X 1 Y 5 X 1 Y 1 X s 764 1202 m 2 X 1 Y 3 X 1 Y 4 X s 773 1204 m 9 X s 782 1204 m 1 Y 2 X 4 Y 4 X 3 Y -1 Y 1 Y 3 X
 s 791 1212 m 8 X s 799 1212 m 2 X 1 Y 1 X 1 Y 4 X 2 Y 2 X s 808 1216 m 3 X 1 Y 6 X s 817 1217 m 8 X 1 Y 1 X s 826 1218 m -1 Y 2 X 1 Y 1 X 1 Y 6 X s 835 1219 m 1 X 1 1 d -1 Y 1 X 1 Y 5 X s 843 1220 m 4 X -1 Y 3 X 1 Y 2 X s 852 1220 m 3 X 1 Y 6 X s
 861 1221 m 7 X -1 Y 2 X s 870 1220 m 5 X 1 Y 4 X s 879 1221 m 5 X 1 1 d 2 X -1 Y s 887 1221 m 9 X 3 Y s 896 1224 m 9 X s 905 1224 m 9 X s 914 1224 m 1 Y 8 X 1 1 d s 923 1226 m 2 X -1 Y 6 X s 931 1225 m 6 X 1 Y 3 X s 940 1226 m 9 X s 949 1226 m 9 X s
 958 1226 m 9 X s 967 1226 m 8 X s 975 1226 m 6 X -1 Y 3 X s 984 1225 m 1 Y 1 X -1 Y 1 Y 1 X -1 Y 1 Y 7 X s 993 1226 m 1 X -1 Y 1 Y -1 Y 3 X 1 Y 2 X -1 Y 3 X s 1002 1225 m 2 X -1 Y 7 X s 1011 1224 m 8 X s 1019 1224 m 9 X s 1028 1224 m 5 X -1 Y 4 X s
 1037 1223 m 9 X s 1046 1223 m 2 X -1 Y 5 X -1 Y 2 X s 1055 1221 m 8 X s 1063 1221 m 9 X s 1072 1221 m 5 X -1 Y 4 X s 1081 1220 m 9 X s 1090 1220 m 2 X -1 Y 1 Y 1 X -1 Y 6 X s 1099 1219 m 8 X s 1107 1219 m 7 X -1 Y 2 X -8 Y s 1116 1210 m 9 X s 1125
 1210 m 6 X -1 Y 1 X 1 Y -1 Y 1 Y -1 Y 1 1 d -1 Y 1 X s 1134 1209 m -1 Y 9 X s 1143 1208 m 2 X -1 Y 6 X s 1151 1207 m 9 X s 1160 1207 m -1 Y 1 X 1 Y 1 -1 d 1 Y -1 Y 6 X -1 Y 1 X s 1169 1205 m 7 X 1 -1 d 1 X s 1178 1204 m 9 X s 1187 1204 m 1 X -1 Y 1
 X -1 Y 6 X s 1195 1202 m 8 X -1 Y 1 X s 1204 1201 m 6 X -1 Y 3 X s 1213 1200 m 8 X -1 Y 1 X s 1222 1199 m 9 X s 1231 1199 m 8 X s 1239 1199 m 8 X -1 Y 1 X s 1248 1198 m 2 X 1 -1 d 6 X s 1257 1197 m 9 X s 1266 1197 m 5 X -1 Y 4 X s 1275 1196 m 5 X -1
 Y 3 X 1 Y s 1283 1196 m 1 X -1 Y 8 X s 1292 1195 m 6 X -1 Y 3 X s 1301 1194 m 5 X -1 Y 4 X s 1310 1193 m 5 X -1 Y 4 X s 1319 1192 m 8 X -16 Y s 1327 1176 m 7 X -1 Y 2 X s 1336 1175 m 6 X 1 -1 d 2 X s 1345 1174 m 5 X -1 Y 4 X s 1354 1173 m 2 X -1 Y 5
 X -1 Y 2 X s 1363 1171 m 3 X -1 Y 5 X s 1371 1170 m 3 X 1 -1 d 5 X s 1380 1169 m 3 X -1 Y 6 X s 1389 1168 m 3 X -1 Y 6 X s 1398 1167 m 2 X 1 -1 d 6 X s 1407 1166 m 1 X 1 -1 d 2 X -1 Y 4 X s 1415 1164 m 9 X s 1424 1164 m 4 X 1 -1 d 4 X s 1433 1163 m
 5 X -1 Y 4 X s 1442 1162 m 6 X -1 Y 3 X s 1451 1161 m 8 X s 1459 1161 m 3 X -12 Y 6 X -1 Y s 1468 1148 m 7 X -1 Y 2 X s 1477 1147 m 4 X -1 Y 5 X s 1486 1146 m 4 X -1 Y 1 X -7 Y 4 X s 1495 1138 m 1 X -1 Y 7 X s 1503 1137 m 2 X -1 Y 4 X -1 Y 3 X s
 1512 1135 m 5 X -1 Y 2 X -2 Y 2 X s 1521 1132 m 1 X -2 Y 8 X s 1530 1130 m 3 X -1 Y 3 X 1 -1 d -1 Y 2 X -1 Y s 1539 1126 m 8 X s 1547 1126 m 2 X 1 -1 d 1 X -1 Y 5 X s 1556 1124 m 3 X -1 Y 6 X s 1565 1123 m 1 X -1 Y 3 X -1 Y 5 X s 1574 1121 m 5 X -1
 Y 2 X -1 Y 2 X s 1583 1119 m 6 X -1 Y 2 X s 1591 1118 m 7 X -1 Y 2 X -1 Y s 1600 1116 m 7 X -1 Y 2 X s 1609 1115 m 7 X -1 Y 2 X s 1618 1114 m 6 X -4 Y 3 X s 1627 1110 m -2 Y 3 X -1 Y 5 X s 1635 1107 m 3 X -1 Y 6 X s 1644 1106 m 1 X -1 Y 7 X -1 Y 1 X
 -11 Y s 1653 1093 m 5 X -1 Y 4 X s 1662 1092 m 3 X -1 Y 6 X s 1671 1091 m -1 Y 3 X 1 -1 d 2 X 1 -1 d 1 X s 1679 1088 m 1 X 1 -38 d -1 Y 7 X s 1688 1049 m 1 X -1 Y 8 X s 1697 1048 m -1 Y 1 X -1 Y 1 -7 d 1 X -2 Y 5 X 1 -1 d s 1706 1036 m 5 X -7 Y 3 X
 -1 Y 1 X s 1715 1028 m 2 X 1 -1 d 5 X s 1723 1027 m 4 X 1 -1 d -15 Y 1 X -4 Y 3 X s 1732 1007 m 3 X -1 Y 6 X -6 Y s 1741 1000 m 9 X -1 Y s 1750 999 m 8 X 1 -1 d s 1759 998 m -11 Y 2 X 1 -1 d 5 X s 1767 986 m 2 X -1 Y 7 X s 1776 985 m 3 X -1 Y 4 X -2
 Y 2 X s 1785 982 m 3 X 1 -10 d 3 X -1 Y 2 X s 1794 971 m 6 X -1 Y 3 X s 1803 970 m 8 X 1 -1 d s 1812 969 m -1 Y 8 X -1 Y s 1820 967 m 6 X -1 Y 3 X s 1829 966 m 3 X -1 Y 4 X -2 Y 2 X -1 Y s 1838 962 m 1 X -5 Y 8 X s 1847 957 m 4 X -1 Y 2 X 1 -2 d 1 X
 -1 Y 1 X s 1856 953 m 1 -1 d 3 X -1 Y 4 X s 1864 951 m 3 X -1 Y 3 X -1 Y 2 X -1 Y 1 X s 1873 948 m 6 X -3 Y 1 X 1 -1 d 1 X s 1882 944 m 3 X -1 Y 6 X s 1891 943 m 2 X -9 Y 1 X -2 Y 6 X s 1900 932 m 3 X -2 Y 1 X 1 -1 d 3 X -1 Y s 1908 928 m 2 X -5 Y 1
 X -1 Y 4 X -1 Y 2 X s 1917 921 m 3 X -1 Y 3 X 1 -20 d -1 Y 2 X s 1926 899 m 5 X 1 -1 d 1 X -4 Y 2 X s 1935 894 m -1 Y 3 X -1 Y 5 X -2 Y 1 X s 1944 890 m 5 X -1 Y 3 X s 1952 889 m -1 Y 1 X -31 Y 6 X -1 Y 2 X s 1961 856 m 2 X -1 Y 1 -29 d 2 X -1 Y 4 X
 s 1970 825 m 1 X 1 -1 d -27 Y 1 X -2 Y 5 X 1 -1 d s 1979 794 m -1 Y 1 -6 d 6 X -2 Y 2 X s 1988 785 m 3 X -1 Y 2 X -39 Y 3 X s 1996 745 m 1 X -3 Y 3 X -1 Y 1 X -29 Y 4 X s 2005 712 m 6 X 1 -3 d 1 -1 d 1 X s 2014 708 m -26 Y 5 X -4 Y 2 X -21 Y 2 X s
 2023 657 m 3 X -7 Y 6 X s 2032 650 m 8 X s 2040 650 m 1 X s black 3 lw 245 201 m 1796 X s 245 241 m -40 Y s 291 221 m -20 Y s 337 221 m -20 Y s 383 221 m -20 Y s 429 241 m -40 Y s 475 221 m -20 Y s 521 221 m -20 Y s 567 221 m -20 Y s 613 241 m -40 Y
 s 659 221 m -20 Y s 705 221 m -20 Y s 751 221 m -20 Y s 797 241 m -40 Y s 843 221 m -20 Y s 889 221 m -20 Y s 936 221 m -20 Y s 982 241 m -40 Y s 1028 221 m -20 Y s 1074 221 m -20 Y s 1120 221 m -20 Y s 1166 241 m -40 Y s 1212 221 m -20 Y s 1258 221
 m -20 Y s 1304 221 m -20 Y s 1350 241 m -40 Y s 1396 221 m -20 Y s 1442 221 m -20 Y s 1488 221 m -20 Y s 1534 241 m -40 Y s 1580 221 m -20 Y s 1626 221 m -20 Y s 1672 221 m -20 Y s 1718 241 m -40 Y s 1764 221 m -20 Y s 1810 221 m -20 Y s 1856 221 m
 -20 Y s 1902 241 m -40 Y s 245 241 m -40 Y s 1902 241 m -40 Y s 1948 221 m -20 Y s 1994 221 m -20 Y s 2040 221 m -20 Y s 245 201 m 1140 Y s 291 310 m -46 X s 268 333 m -23 X s 268 356 m -23 X s 268 379 m -23 X s 268 402 m -23 X s 291 425 m -46 X s
 268 447 m -23 X s 268 470 m -23 X s 268 493 m -23 X s 268 516 m -23 X s 291 539 m -46 X s 268 562 m -23 X s 268 585 m -23 X s 268 608 m -23 X s 268 631 m -23 X s 291 654 m -46 X s 268 677 m -23 X s 268 699 m -23 X s 268 722 m -23 X s 268 745 m -23 X
 s 291 768 m -46 X s 268 791 m -23 X s 268 814 m -23 X s 268 837 m -23 X s 268 860 m -23 X s 291 883 m -46 X s 268 906 m -23 X s 268 929 m -23 X s 268 951 m -23 X s 268 974 m -23 X s 291 997 m -46 X s 268 1020 m -23 X s 268 1043 m -23 X s 268 1066 m
 -23 X s 268 1089 m -23 X s 291 1112 m -46 X s 268 1135 m -23 X s 268 1158 m -23 X s 268 1181 m -23 X s 268 1203 m -23 X s 291 1226 m -46 X s 268 1249 m -23 X s 268 1272 m -23 X s 268 1295 m -23 X s 268 1318 m -23 X s 291 1341 m -46 X s 291 310 m -46
 X s 268 287 m -23 X s 268 264 m -23 X s 268 241 m -23 X s 268 218 m -23 X s 0.490196 0.545098 0.615686 c 1 1 1 c 0.490196 0.545098 0.615686 c 907 201 245 1341 bl 245 1341 m 907 X s 1152 1341 m 201 Y s 1152 1542 m -907 X s 245 1542 m -201 Y s black
 gsave  2268 1676 0 0 C 515.735 1471.36 t 0 r /Helvetica-Bold findfont 56.8825 sf 0 0 m (Signal efficiency) show NC gr  0 0 0.933333 c 9 lw 286 1492 m 190 X s black
 gsave  2268 1676 0 0 C 515.735 1368.97 t 0 r /Helvetica-Bold findfont 56.8825 sf 0 0 m (Background efficiency) show NC gr  1 0 0 c 286 1391 m 190 X s 0.490196 0.545098 0.615686 c 3 lw 1 1 1 c 0.490196 0.545098 0.615686 c 889 201 1152 1341 bl 1152
 1341 m 889 X s 2041 1341 m 201 Y s 2041 1542 m -889 X s 1152 1542 m -201 Y s black
 gsave  2268 1676 0 0 C 1418.27 1494.11 t 0 r /Helvetica-Bold findfont 56.8825 sf 0 0 m (Signal purity) show NC gr  0 0 0.933333 c[  52 12 ] 0 sd 6 lw 1192 1509 m 187 X s black
 gsave  2268 1676 0 0 C 1418.27 1429.65 t 0 r /Helvetica-Bold findfont 56.8825 sf 0 0 m (Signal efficiency*purity) show NC gr  0 0 0.933333 c[  22 12 ] 0 sd 1192 1441 m 187 X s black
 gsave  2268 1676 0 0 C 1501.7 1361.39 t 0 r /Helvetica-Bold findfont 56.8825 sf 0 0 m (S+B) show NC gr [  ] 0 sd 1483 1407 m 7 -49 d s 3 lw 1490 1358 m 8 64 d s 1498 1422 m 114 X s
 gsave  2268 1676 0 0 C 1418.27 1361.39 t 0 r /Helvetica-Bold findfont 56.8825 sf 0 0 m (S/) show NC gr  0 0.666667 0 c 9 lw 1192 1374 m 187 X s black 3 lw 245 1226 m 1796 X s
 gsave  2268 1676 0 0 C 337.503 386.801 t 0 r /Helvetica-Bold findfont 53.0904 sf 0 0 m (For 1000 signal and 1000 background) show NC gr 
 gsave  2268 1676 0 0 C 1058.01 318.542 t 0 r /Helvetica-Bold findfont 53.0904 sf 0 0 m ( is) show NC gr 
 gsave  2268 1676 0 0 C 955.626 318.542 t 0 r /Helvetica-Bold findfont 53.0904 sf 0 0 m (S+B) show NC gr  6 lw 933 360 m 7 -45 d s 3 lw 940 315 m 8 60 d s 948 375 m 110 X s
 gsave  2268 1676 0 0 C 337.503 318.542 t 0 r /Helvetica-Bold findfont 53.0904 sf 0 0 m (events the maximum S/) show NC gr 
 gsave  2268 1676 0 0 C 337.503 254.075 t 0 r /Helvetica-Bold findfont 53.0904 sf 0 0 m (24.85 when cutting at \2550.23) show NC gr  0.490196 0.545098 0.615686 c 0.364706 0.419608 0.490196 c 1471 96 23 1572 bf 0.490196 0.545098 0.615686 c 23 1572 m
 1471 X s 1494 1572 m 96 Y s 1494 1668 m -1471 X s 23 1668 m -96 Y s 1 1 1 c black 1 1 1 c
 gsave  2268 1676 0 0 C 75.8434 1600.29 t 0 r /Helvetica-Bold findfont 75.8434 sf 0 0 m (Cut efficiencies and optimal cut value) show NC gr  0 0.666667 0 c 2041 201 m 1140 Y s 1995 201 m 46 X s 2018 243 m 23 X s 2018 285 m 23 X s 2018 326 m 23 X s
 2018 368 m 23 X s 1995 410 m 46 X s 2018 451 m 23 X s 2018 493 m 23 X s 2018 535 m 23 X s 2018 576 m 23 X s 1995 618 m 46 X s 2018 660 m 23 X s 2018 701 m 23 X s 2018 743 m 23 X s 2018 785 m 23 X s 1995 826 m 46 X s 2018 868 m 23 X s 2018 910 m 23 X
 s 2018 952 m 23 X s 2018 993 m 23 X s 1995 1035 m 46 X s 2018 1077 m 23 X s 2018 1118 m 23 X s 2018 1160 m 23 X s 2018 1202 m 23 X s 1995 1243 m 46 X s 1995 1243 m 46 X s 2018 1285 m 23 X s 2018 1327 m 23 X s black 0 0.666667 0 c
 gsave  2268 1676 0 0 C 2051.56 178.232 t 0 r /Helvetica-Bold findfont 64.4669 sf 0 0 m (0) show NC gr  black 0 0.666667 0 c
 gsave  2268 1676 0 0 C 2051.56 386.801 t 0 r /Helvetica-Bold findfont 64.4669 sf 0 0 m (5) show NC gr  black 0 0.666667 0 c
 gsave  2268 1676 0 0 C 2051.56 591.578 t 0 r /Helvetica-Bold findfont 64.4669 sf 0 0 m (10) show NC gr  black 0 0.666667 0 c
 gsave  2268 1676 0 0 C 2051.56 800.147 t 0 r /Helvetica-Bold findfont 64.4669 sf 0 0 m (15) show NC gr  black 0 0.666667 0 c
 gsave  2268 1676 0 0 C 2051.56 1008.72 t 0 r /Helvetica-Bold findfont 64.4669 sf 0 0 m (20) show NC gr  black 0 0.666667 0 c
 gsave  2268 1676 0 0 C 2051.56 1217.29 t 0 r /Helvetica-Bold findfont 64.4669 sf 0 0 m (25) show NC gr  black 0 0.666667 0 c
 gsave  2268 1676 0 0 C 2203.25 963.211 t 90 r /Helvetica-Bold findfont 64.4669 sf 0 0 m (Significance) show NC gr 
 gr  gr showpage
end
%%EOF
