%!PS-Adobe-2.0 EPSF-2.0
%%BoundingBox:  0 0 567 419
%%Title: dataset/plots/overtrain_BDT.eps: TMVA comparison BDT
%%Creator: ROOT Version 6.14/04
%%CreationDate: Tue Mar  3 11:17:39 2020
%%DocumentNeededResources: ProcSet (FontSetInit)
%%EndComments
%%BeginProlog
80 dict begin
/s {stroke} def /l {lineto} def /m {moveto} def /t {translate} def
/r {rotate} def /rl {roll}  def /R {repeat} def
/d {rlineto} def /rm {rmoveto} def /gr {grestore} def /f {eofill} def
/c {setrgbcolor} def /black {0 setgray} def /sd {setdash} def
/cl {closepath} def /sf {scalefont setfont} def /lw {setlinewidth} def
/box {m dup 0 exch d exch 0 d 0 exch neg d cl} def
/NC{systemdict begin initclip end}def/C{NC box clip newpath}def
/bl {box s} def /bf {gsave box gsave f grestore 1 lw [] 0 sd s grestore} def /Y { 0 exch d} def /X { 0 d} def 
/K {{pop pop 0 moveto} exch kshow} bind def
/ita {/ang 15 def gsave [1 0 ang dup sin exch cos div 1 0 0] concat} def 
/mp {newpath /y exch def /x exch def} def
/side {[w .77 mul w .23 mul] .385 w mul sd w 0 l currentpoint t -144 r} def
/mr {mp x y w2 0 360 arc} def /m24 {mr s} def /m20 {mr f} def
/mb {mp x y w2 add m w2 neg 0 d 0 w neg d w 0 d 0 w d cl} def
/mt {mp x y w2 add m w2 neg w neg d w 0 d cl} def
/w4 {w 4 div} def
/w6 {w 6 div} def
/w8 {w 8 div} def
/m21 {mb f} def /m25 {mb s} def /m22 {mt f} def /m26{mt s} def
/m23 {mp x y w2 sub m w2 w d w neg 0 d cl f} def
/m27 {mp x y w2 add m w3 neg w2 neg d w3 w2 neg d w3 w2 d cl s} def
/m28 {mp x w2 sub y w2 sub w3 add m w3 0 d  0 w3 neg d w3 0 d 0 w3 d w3 0 d  0 w3 d w3 neg 0 d 0 w3 d w3 neg 0 d 0 w3 neg d w3 neg 0 d cl s } def
/m29 {mp gsave x w2 sub y w2 add w3 sub m currentpoint t 4 {side} repeat cl fill gr} def
/m30 {mp gsave x w2 sub y w2 add w3 sub m currentpoint t 4 {side} repeat cl s gr} def
/m31 {mp x y w2 sub m 0 w d x w2 sub y m w 0 d x w2 sub y w2 add m w w neg d x w2 sub y w2 sub m w w d s} def
/m32 {mp x y w2 sub m w2 w d w neg 0 d cl s} def
/m33 {mp x y w2 add m w3 neg w2 neg d w3 w2 neg d w3 w2 d cl f} def
/m34 {mp x w2 sub y w2 sub w3 add m w3 0 d  0 w3 neg d w3 0 d 0 w3 d w3 0 d  0 w3 d w3 neg 0 d 0 w3 d w3 neg 0 d 0 w3 neg d w3 neg 0 d cl f } def
/m35 {mp x y w2 add m w2 neg w2 neg d w2 w2 neg d w2 w2 d w2 neg w2 d x y w2 sub m 0 w d x w2 sub y m w 0 d s} def
/m36 {mb x w2 sub y w2 add m w w neg d x w2 sub y w2 sub m w w d s} def
/m37 {mp x y m w4 neg w2 d w4 neg w2 neg d w2 0 d  w4 neg w2 neg d w2 0 d w4 neg w2 d w2 0 d w4 neg w2 d w4 neg w2 neg d cl s} def
/m38 {mp x w4 sub y w2 add m w4 neg w4 neg d 0 w2 neg d w4 w4 neg d w2 0 d w4 w4 d 0 w2 d w4 neg w4 d w2 neg 0 d x y w2 sub m 0 w d x w2 sub y m w 0 d cl s} def
/m39 {mp x y m w4 neg w2 d w4 neg w2 neg d w2 0 d  w4 neg w2 neg d w2 0 d w4 neg w2 d w2 0 d w4 neg w2 d w4 neg w2 neg d cl f} def
/m40 {mp x y m w4 w2 d w4 w4 neg d w2 neg w4 neg d w2 w4 neg d w4 neg w4 neg d w4 neg w2 d w4 neg w2 neg d w4 neg w4 d w2 w4 d w2 neg w4 d w4 w4 d w4 w2 neg d cl s} def
/m41 {mp x y m w4 w2 d w4 w4 neg d w2 neg w4 neg d w2 w4 neg d w4 neg w4 neg d w4 neg w2 d w4 neg w2 neg d w4 neg w4 d w2 w4 d w2 neg w4 d w4 w4 d w4 w2 neg d cl f} def
/m42 {mp x y w2 add m w8 neg w2 -3 4 div mul d w2 -3 4 div mul w8 neg d w2 3 4 div mul w8 neg d w8 w2 -3 4 div mul d w8 w2 3 4 div mul d w2 3 4 div mul w8 d w2 -3 4 div mul w8 d w8 neg w2 3 4 div mul d cl s} def
/m43 {mp x y w2 add m w8 neg w2 -3 4 div mul d w2 -3 4 div mul w8 neg d w2 3 4 div mul w8 neg d w8 w2 -3 4 div mul d w8 w2 3 4 div mul d w2 3 4 div mul w8 d w2 -3 4 div mul w8 d w8 neg w2 3 4 div mul d cl f} def
/m44 {mp x y m w6 neg w2 d w2 2 3 div mul 0 d w6 neg w2 neg d w2 w6 d 0 w2 -2 3 div mul d w2 neg w6 d w6 w2 neg d w2 -2 3 div mul 0 d w6 w2 d w2 neg w6 neg d 0 w2 2 3 div mul d w2 w6 neg d cl s} def
/m45 {mp x y m w6 neg w2 d w2 2 3 div mul 0 d w6 neg w2 neg d w2 w6 d 0 w2 -2 3 div mul d w2 neg w6 d w6 w2 neg d w2 -2 3 div mul 0 d w6 w2 d w2 neg w6 neg d 0 w2 2 3 div mul d w2 w6 neg d cl f} def
/m46 {mp x y w4 add m w4 neg w4 d w4 neg w4 neg d  w4 w4 neg d w4 neg w4 neg d w4 w4 neg d w4 w4 d w4 w4 neg d w4 w4 d w4 neg w4 d w4 w4 d w4 neg w4 d w4 neg w4 neg d cl s} def
/m47 {mp x y w4 add m w4 neg w4 d w4 neg w4 neg d w4 w4 neg d w4 neg w4 neg d  w4 w4 neg d w4 w4 d w4 w4 neg d w4 w4 d w4 neg w4 d w4 w4 d w4 neg w4 d w4 neg w4 neg d cl f} def
/m48 {mp x y w4 add m w4 neg w4 d w4 neg w4 neg d w4 w4 neg d  w4 neg w4 neg d w4 w4 neg d w4 w4 d w4 w4 neg d w4 w4 d w4 neg w4 d w4 w4 d w4 neg w4 d w4 neg w4 neg d  w4 w4 neg d w4 neg w4 neg d w4 neg w4 d w4 w4 d cl f} def
/m49 {mp x w2 sub w3 add y w2 sub w3 add m  0 w3 neg d w3 0 d 0 w3 d w3 0 d 0 w3 d w3 neg 0 d 0 w3 d w3 neg 0 d 0 w3 neg d w3 neg 0 d 0 w3 neg d w3 0 d 0 w3 d w3 0 d 0 w3 neg d w3 neg 0 d cl f } def
/m2 {mp x y w2 sub m 0 w d x w2 sub y m w 0 d s} def
/m5 {mp x w2 sub y w2 sub m w w d x w2 sub y w2 add m w w neg d s} def
%%IncludeResource: ProcSet (FontSetInit)
%%IncludeResource: font Times-Roman
%%IncludeResource: font Times-Italic
%%IncludeResource: font Times-Bold
%%IncludeResource: font Times-BoldItalic
%%IncludeResource: font Helvetica
%%IncludeResource: font Helvetica-Oblique
%%IncludeResource: font Helvetica-Bold
%%IncludeResource: font Helvetica-BoldOblique
%%IncludeResource: font Courier
%%IncludeResource: font Courier-Oblique
%%IncludeResource: font Courier-Bold
%%IncludeResource: font Courier-BoldOblique
%%IncludeResource: font Symbol
%%IncludeResource: font ZapfDingbats
/reEncode {exch findfont dup length dict begin {1 index /FID eq  {pop pop} {def} ifelse } forall /Encoding exch def currentdict end dup /FontName get exch definefont pop } def [/Times-Bold /Times-Italic /Times-BoldItalic /Helvetica /Helvetica-Oblique
 /Helvetica-Bold /Helvetica-BoldOblique /Courier /Courier-Oblique /Courier-Bold /Courier-BoldOblique /Times-Roman /AvantGarde-Book /AvantGarde-BookOblique /AvantGarde-Demi /AvantGarde-DemiOblique /Bookman-Demi /Bookman-DemiItalic /Bookman-Light
 /Bookman-LightItalic /Helvetica-Narrow /Helvetica-Narrow-Bold /Helvetica-Narrow-BoldOblique /Helvetica-Narrow-Oblique /NewCenturySchlbk-Roman /NewCenturySchlbk-Bold /NewCenturySchlbk-BoldItalic /NewCenturySchlbk-Italic /Palatino-Bold
 /Palatino-BoldItalic /Palatino-Italic /Palatino-Roman ] {ISOLatin1Encoding reEncode } forall
%%EndProlog
%%BeginSetup
%%EndSetup
newpath  gsave  .25 .25 scale  gsave  0 0 t 0.490196 0.545098 0.615686 c[  ] 0 sd 3 lw 0.941176 0.941176 0.941176 c 2268 1676 0 0 bf black 1 1 0.992157 c 1916 1308 238 201 bf black 1916 1308 238 201 bl 1 1 0.992157 c 1916 1308 238 201 bf black 1916
 1308 238 201 bl 238 201 m 1916 X s 238 244 m -43 Y s 287 222 m -21 Y s 336 222 m -21 Y s 385 222 m -21 Y s 435 244 m -43 Y s 484 222 m -21 Y s 533 222 m -21 Y s 582 222 m -21 Y s 631 244 m -43 Y s 680 222 m -21 Y s 729 222 m -21 Y s 778 222 m -21 Y
 s 828 244 m -43 Y s 877 222 m -21 Y s 926 222 m -21 Y s 975 222 m -21 Y s 1024 244 m -43 Y s 1073 222 m -21 Y s 1122 222 m -21 Y s 1171 222 m -21 Y s 1221 244 m -43 Y s 1270 222 m -21 Y s 1319 222 m -21 Y s 1368 222 m -21 Y s 1417 244 m -43 Y s 1466
 222 m -21 Y s 1515 222 m -21 Y s 1564 222 m -21 Y s 1614 244 m -43 Y s 1663 222 m -21 Y s 1712 222 m -21 Y s 1761 222 m -21 Y s 1810 244 m -43 Y s 1859 222 m -21 Y s 1908 222 m -21 Y s 1957 222 m -21 Y s 2006 244 m -43 Y s 238 244 m -43 Y s 2006 244
 m -43 Y s 2056 222 m -21 Y s 2105 222 m -21 Y s 2154 222 m -21 Y s
 gsave  2268 1676 0 0 C 235.114 128.934 t 0 r /Helvetica-Bold findfont 64.4669 sf 0 0 m (1) show NC gr 
 gsave  2268 1676 0 0 C 204.777 128.934 t 0 r /Symbol findfont 64.4669 sf 0 0 m (-) show NC gr 
 gsave  2268 1676 0 0 C 401.97 128.934 t 0 r /Helvetica-Bold findfont 64.4669 sf 0 0 m (0.8) show NC gr 
 gsave  2268 1676 0 0 C 367.84 128.934 t 0 r /Symbol findfont 64.4669 sf 0 0 m (-) show NC gr 
 gsave  2268 1676 0 0 C 599.163 128.934 t 0 r /Helvetica-Bold findfont 64.4669 sf 0 0 m (0.6) show NC gr 
 gsave  2268 1676 0 0 C 568.825 128.934 t 0 r /Symbol findfont 64.4669 sf 0 0 m (-) show NC gr 
 gsave  2268 1676 0 0 C 796.355 128.934 t 0 r /Helvetica-Bold findfont 64.4669 sf 0 0 m (0.4) show NC gr 
 gsave  2268 1676 0 0 C 762.226 128.934 t 0 r /Symbol findfont 64.4669 sf 0 0 m (-) show NC gr 
 gsave  2268 1676 0 0 C 993.548 128.934 t 0 r /Helvetica-Bold findfont 64.4669 sf 0 0 m (0.2) show NC gr 
 gsave  2268 1676 0 0 C 963.211 128.934 t 0 r /Symbol findfont 64.4669 sf 0 0 m (-) show NC gr 
 gsave  2268 1676 0 0 C 1198.33 128.934 t 0 r /Helvetica-Bold findfont 64.4669 sf 0 0 m (0) show NC gr 
 gsave  2268 1676 0 0 C 1368.97 128.934 t 0 r /Helvetica-Bold findfont 64.4669 sf 0 0 m (0.2) show NC gr 
 gsave  2268 1676 0 0 C 1566.17 128.934 t 0 r /Helvetica-Bold findfont 64.4669 sf 0 0 m (0.4) show NC gr 
 gsave  2268 1676 0 0 C 1763.36 128.934 t 0 r /Helvetica-Bold findfont 64.4669 sf 0 0 m (0.6) show NC gr 
 gsave  2268 1676 0 0 C 1960.55 128.934 t 0 r /Helvetica-Bold findfont 64.4669 sf 0 0 m (0.8) show NC gr 
 gsave  2268 1676 0 0 C 1664.76 34.1295 t 0 r /Helvetica-Bold findfont 72.0512 sf 0 0 m (BDT response) show NC gr  238 1509 m 1916 X s 238 1466 m 43 Y s 287 1487 m 22 Y s 336 1487 m 22 Y s 385 1487 m 22 Y s 435 1466 m 43 Y s 484 1487 m 22 Y s 533
 1487 m 22 Y s 582 1487 m 22 Y s 631 1466 m 43 Y s 680 1487 m 22 Y s 729 1487 m 22 Y s 778 1487 m 22 Y s 828 1466 m 43 Y s 877 1487 m 22 Y s 926 1487 m 22 Y s 975 1487 m 22 Y s 1024 1466 m 43 Y s 1073 1487 m 22 Y s 1122 1487 m 22 Y s 1171 1487 m 22 Y
 s 1221 1466 m 43 Y s 1270 1487 m 22 Y s 1319 1487 m 22 Y s 1368 1487 m 22 Y s 1417 1466 m 43 Y s 1466 1487 m 22 Y s 1515 1487 m 22 Y s 1564 1487 m 22 Y s 1614 1466 m 43 Y s 1663 1487 m 22 Y s 1712 1487 m 22 Y s 1761 1487 m 22 Y s 1810 1466 m 43 Y s
 1859 1487 m 22 Y s 1908 1487 m 22 Y s 1957 1487 m 22 Y s 2006 1466 m 43 Y s 238 1466 m 43 Y s 2006 1466 m 43 Y s 2056 1487 m 22 Y s 2105 1487 m 22 Y s 2154 1487 m 22 Y s 238 201 m 1308 Y s 291 201 m -53 X s 265 245 m -27 X s 265 290 m -27 X s 265
 334 m -27 X s 265 379 m -27 X s 291 423 m -53 X s 265 467 m -27 X s 265 512 m -27 X s 265 556 m -27 X s 265 600 m -27 X s 291 645 m -53 X s 265 689 m -27 X s 265 733 m -27 X s 265 778 m -27 X s 265 822 m -27 X s 291 867 m -53 X s 265 911 m -27 X s
 265 955 m -27 X s 265 1000 m -27 X s 265 1044 m -27 X s 291 1088 m -53 X s 265 1133 m -27 X s 265 1177 m -27 X s 265 1221 m -27 X s 265 1266 m -27 X s 291 1310 m -53 X s 291 1310 m -53 X s 265 1355 m -27 X s 265 1399 m -27 X s 265 1443 m -27 X s 265
 1488 m -27 X s
 gsave  2268 1676 0 0 C 174.44 178.232 t 0 r /Helvetica-Bold findfont 64.4669 sf 0 0 m (0) show NC gr 
 gsave  2268 1676 0 0 C 182.024 398.178 t 0 r /Helvetica-Bold findfont 64.4669 sf 0 0 m (1) show NC gr 
 gsave  2268 1676 0 0 C 174.44 621.916 t 0 r /Helvetica-Bold findfont 64.4669 sf 0 0 m (2) show NC gr 
 gsave  2268 1676 0 0 C 174.44 841.861 t 0 r /Helvetica-Bold findfont 64.4669 sf 0 0 m (3) show NC gr 
 gsave  2268 1676 0 0 C 174.44 1065.6 t 0 r /Helvetica-Bold findfont 64.4669 sf 0 0 m (4) show NC gr 
 gsave  2268 1676 0 0 C 174.44 1285.55 t 0 r /Helvetica-Bold findfont 64.4669 sf 0 0 m (5) show NC gr 
 gsave  2268 1676 0 0 C 64.4669 1425.86 t 90 r /Helvetica-Bold findfont 72.0512 sf 0 0 m (dx) show NC gr 
 gsave  2268 1676 0 0 C 30.3373 1406.89 t 90 r /Helvetica-Bold findfont 45.506 sf 0 0 m ( ) show NC gr 
 gsave  2268 1676 0 0 C 64.4669 1384.14 t 90 r /Helvetica-Bold findfont 72.0512 sf 0 0 m (/) show NC gr 
 gsave  2268 1676 0 0 C 30.3373 1365.18 t 90 r /Helvetica-Bold findfont 45.506 sf 0 0 m ( ) show NC gr 
 gsave  2268 1676 0 0 C 60.6747 1092.14 t 90 r /Helvetica-Bold findfont 72.0512 sf 0 0 m (\(1/N\) dN) show NC gr  2154 201 m 1308 Y s 2101 201 m 53 X s 2128 245 m 26 X s 2128 290 m 26 X s 2128 334 m 26 X s 2128 379 m 26 X s 2101 423 m 53 X s 2128 467
 m 26 X s 2128 512 m 26 X s 2128 556 m 26 X s 2128 600 m 26 X s 2101 645 m 53 X s 2128 689 m 26 X s 2128 733 m 26 X s 2128 778 m 26 X s 2128 822 m 26 X s 2101 867 m 53 X s 2128 911 m 26 X s 2128 955 m 26 X s 2128 1000 m 26 X s 2128 1044 m 26 X s 2101
 1088 m 53 X s 2128 1133 m 26 X s 2128 1177 m 26 X s 2128 1221 m 26 X s 2128 1266 m 26 X s 2101 1310 m 53 X s 2101 1310 m 53 X s 2128 1355 m 26 X s 2128 1399 m 26 X s 2128 1443 m 26 X s 2128 1488 m 26 X s 0.490196 0.545098 0.615686 c 1 1 1 c 0.490196
 0.545098 0.615686 c 907 202 238 1307 bl 238 1307 m 907 X s 1145 1307 m 202 Y s 1145 1509 m -907 X s 238 1509 m -202 Y s black
 gsave  2268 1676 0 0 C 417.138 1437.23 t 0 r /Helvetica-Bold findfont 56.8825 sf 0 0 m (Signal \(test sample\)) show NC gr  0.49 0.6 0.82 c 265 1423 m 127 X 70 Y -127 X f 0 0 0.933333 c 265 1493 m 127 X s 265 1423 m 127 X s 392 1423 m 70 Y s 265
 1423 m 70 Y s black
 gsave  2268 1676 0 0 C 417.138 1338.64 t 0 r /Helvetica-Bold findfont 56.8825 sf 0 0 m (Background \(test sample\)) show NC gr  1 0 0 c 392 1354 m -32 -32 d s 383 1393 m -71 -71 d s 335 1393 m -70 -69 d s 286 1393 m -21 -21 d s 0 0 0.933333 c 1 0 0
 c 265 1393 m 127 X s 265 1322 m 127 X s 392 1322 m 71 Y s 265 1322 m 71 Y s 0 0 0.933333 c 0.49 0.6 0.82 c black 0.49 0.6 0.82 c 238 201 m 1 Y 96 X 2 Y 48 X 4 Y 48 X 6 Y 48 X 7 Y 48 X 8 Y 47 X 8 Y 48 X 10 Y 48 X 23 Y 48 X 2 Y 48 X 6 Y 48 X 62 Y 48 X
 -30 Y 48 X -24 Y 48 X 53 Y 48 X -38 Y 48 X -24 Y 47 X -20 Y 48 X 113 Y 48 X -114 Y 48 X -7 Y 48 X -10 Y 48 X 5 Y 48 X 147 Y 48 X -139 Y 48 X -27 Y 48 X 139 Y 47 X -89 Y 48 X -30 Y 48 X 21 Y 48 X 233 Y 48 X -184 Y 48 X 75 Y 48 X -113 Y 48 X -2 Y 48 X
 23 Y 48 X 65 Y 48 X 338 Y 47 X 505 Y 48 X -1005 Y f 0 0 0.933333 c 0.49 0.6 0.82 c 0 0 0.933333 c 238 202 m 96 X 2 Y 48 X 4 Y 48 X 6 Y 48 X 7 Y 48 X 8 Y 47 X 8 Y 48 X 10 Y 48 X 23 Y 48 X 2 Y 48 X 6 Y 48 X 62 Y 48 X -30 Y 48 X -24 Y 48 X 53 Y 48 X
 -38 Y 48 X -24 Y 47 X -20 Y 48 X 113 Y 48 X -114 Y 48 X -7 Y 48 X -10 Y 48 X 5 Y 48 X 147 Y 48 X -139 Y 48 X -27 Y 48 X 139 Y 47 X -89 Y 48 X -30 Y 48 X 21 Y 48 X 233 Y 48 X -184 Y 48 X 75 Y 48 X -113 Y 48 X -2 Y 48 X 23 Y 48 X 65 Y 48 X 338 Y 47 X
 505 Y 48 X -1005 Y s 1 0 0 c black 1 0 0 c 2154 230 m -29 -29 d s 2141 265 m -64 -64 d s 2080 252 m -21 -21 d s 2051 223 m -22 -22 d s 1997 217 m -16 -16 d s 1947 216 m -14 -15 d s 1895 212 m -10 -11 d s 1864 228 m -27 -27 d s 1811 224 m -22 -23 d s
 1771 232 m -30 -31 d s 1754 263 m -31 -31 d s 1710 218 m -18 -17 d s 1657 214 m -13 -13 d s 1622 227 m -26 -26 d s 1579 233 m -31 -32 d s 1565 266 m -33 -33 d s 1512 214 m -12 -13 d s 1480 229 m -28 -28 d s 1436 233 m -32 -32 d s 1436 281 m -80 -80
 d s 1421 315 m -33 -34 d s 1342 236 m -2 -2 d s 1337 230 m -29 -29 d s 1292 234 m -33 -33 d s 1248 238 m -37 -37 d s 1214 252 m -51 -51 d s 1196 282 m -81 -81 d s 1196 330 m -48 -48 d s 1134 268 m -67 -67 d s 1182 364 m -34 -33 d s 1100 283 m -81
 -82 d s 1071 301 m -100 -100 d s 1053 331 m -130 -130 d s 1014 341 m -139 -140 d s 1005 379 m -178 -178 d s 1005 427 m -227 -226 d s 974 445 m -17 -17 d s 930 401 m -200 -200 d s 909 428 m -227 -227 d s 862 429 m -228 -228 d s 861 476 m -275 -275 d
 s 861 524 m -48 -48 d s 787 450 m -249 -249 d s 861 572 m -48 -48 d s 765 476 m -275 -275 d s 861 620 m -48 -48 d s 738 498 m -296 -297 d s 817 624 m -4 -3 d s 717 525 m -323 -324 d s 693 548 m -24 -23 d s 623 479 m -2 -2 d s 599 454 m -254 -253 d s
 527 431 m -1 -2 d s 505 409 m -27 -28 d s 477 380 m -47 -46 d s 423 327 m -41 -41 d s 361 265 m -27 -27 d s 317 221 m -20 -20 d s 269 221 m -20 -20 d s 238 221 m 96 X 44 Y 48 X 62 Y 48 X 53 Y 48 X 29 Y 48 X 22 Y 47 X 23 Y 48 X 25 Y 48 X 69 Y 48 X
 -50 Y 48 X -48 Y 48 X 174 Y 48 X -195 Y 48 X -28 Y 48 X 44 Y 48 X -104 Y 48 X -40 Y 47 X -33 Y 48 X 96 Y 48 X -112 Y 48 X -14 Y 48 X -8 Y 48 X 6 Y 48 X 79 Y 48 X -86 Y 48 X -15 Y 48 X 52 Y 47 X -39 Y 48 X -13 Y 48 X 4 Y 48 X 45 Y 48 X -39 Y 48 X 4 Y
 48 X -16 Y 48 X 4 Y 48 X 1 Y 48 X 6 Y 48 X 29 Y 47 X 13 Y 48 X -64 Y s 0.490196 0.545098 0.615686 c 1 1 1 c 0.490196 0.545098 0.615686 c 952 202 1202 1307 bl 1202 1307 m 952 X s 2154 1307 m 202 Y s 2154 1509 m -952 X s 1202 1509 m -202 Y s black
 gsave  2268 1676 0 0 C 1296.92 1437.23 t 0 r /Helvetica-Bold findfont 56.8825 sf 0 0 m (Signal \(training sample\)) show NC gr  0 0 0.933333 c /w 21 def /w2 {w 2 div} def /w3 {w 3 div} def 1250 1458 m20 black
 gsave  2268 1676 0 0 C 1296.92 1338.64 t 0 r /Helvetica-Bold findfont 56.8825 sf 0 0 m (Background \(training sample\)) show NC gr  1 0 0 c 1250 1358 m20 0 0 0.933333 c 1 1 1 c 0 0 0.933333 c 238 202 m 16 X s 270 202 m 16 X s 238 194 m 16 Y s 286
 194 m 16 Y s 262 202 m20 286 202 m 16 X s 318 202 m 16 X s 286 194 m 15 Y s 334 194 m 15 Y s 310 202 m20 334 204 m 16 X s 365 204 m 17 X s 334 196 m 15 Y s 382 196 m 15 Y s 358 204 m20 382 207 m 16 X s 413 207 m 17 X s 382 199 m 16 Y s 430 199 m 16
 Y s 406 207 m20 430 214 m 16 X s 461 214 m 17 X s 430 207 m 15 Y s 478 207 m 15 Y s 454 214 m20 478 219 m 16 X s 509 219 m 17 X s 478 211 m 16 Y s 526 211 m 16 Y s 502 219 m20 526 225 m 16 X s 557 225 m 16 X s 526 218 m 15 Y s 573 218 m 15 Y s 549
 225 m20 573 236 m 17 X s 605 236 m 16 X s 573 229 m 15 Y s 621 229 m 15 Y s 597 236 m20 621 246 m 17 X s 653 246 m 16 X s 621 238 m 16 Y s 669 238 m 16 Y s 645 246 m20 669 270 m 17 X s 701 270 m 16 X s 669 262 m 15 Y s 717 262 m 15 Y s 693 270 m20
 717 273 m 17 X s 749 273 m 16 X s 717 265 m 15 Y s 765 265 m 15 Y s 741 273 m20 765 277 m 16 X s 797 277 m 16 X s 765 270 m 15 Y s 813 270 m 15 Y s 789 277 m20 813 342 m 16 X s 845 342 m 16 X s 813 335 m 15 Y s 861 335 m 15 Y s 837 342 m20 861 306 m
 16 X s 892 306 m 17 X s 861 298 m 15 Y s 909 298 m 15 Y s 885 306 m20 909 290 m 16 X s 940 290 m 17 X s 909 282 m 16 Y s 957 282 m 16 Y s 933 290 m20 957 341 m 16 X s 988 341 m 17 X s 957 333 m 15 Y s 1005 333 m 15 Y s 981 341 m20 1005 299 m 16 X s
 1036 299 m 17 X s 1005 291 m 15 Y s 1053 291 m 15 Y s 1029 299 m20 1053 277 m 16 X s 1084 277 m 16 X s 1053 269 m 16 Y s 1100 269 m 16 Y s 1076 277 m20 1100 258 m 17 X s 1132 258 m 16 X s 1100 250 m 15 Y s 1148 250 m 15 Y s 1124 258 m20 1148 371 m
 17 X s 1180 371 m 16 X s 1148 363 m 16 Y s 1196 363 m 16 Y s 1172 371 m20 1196 259 m 17 X s 1228 259 m 16 X s 1196 252 m 15 Y s 1244 252 m 15 Y s 1220 259 m20 1244 251 m 16 X s 1276 251 m 16 X s 1244 243 m 15 Y s 1292 243 m 15 Y s 1268 251 m20 1292
 242 m 16 X s 1324 242 m 16 X s 1292 234 m 15 Y s 1340 234 m 15 Y s 1316 242 m20 1340 243 m 16 X s 1371 243 m 17 X s 1340 235 m 15 Y s 1388 235 m 15 Y s 1364 243 m20 1388 389 m 16 X s 1419 389 m 17 X s 1388 382 m 15 Y s 1436 382 m 15 Y s 1412 389 m20
 1436 252 m 16 X s 1467 252 m 17 X s 1436 245 m 15 Y s 1484 245 m 15 Y s 1460 252 m20 1484 225 m 16 X s 1515 225 m 17 X s 1484 217 m 15 Y s 1532 217 m 15 Y s 1508 225 m20 1532 361 m 16 X s 1563 361 m 16 X s 1532 353 m 15 Y s 1579 353 m 15 Y s 1556
 361 m20 1579 272 m 17 X s 1611 272 m 16 X s 1579 265 m 15 Y s 1627 265 m 15 Y s 1603 272 m20 1627 247 m 17 X s 1659 247 m 16 X s 1627 239 m 15 Y s 1675 239 m 15 Y s 1651 247 m20 1675 269 m 17 X s 1707 269 m 16 X s 1675 261 m 16 Y s 1723 261 m 16 Y s
 1699 269 m20 1723 503 m 17 X s 1755 503 m 16 X s 1723 495 m 15 Y s 1771 495 m 15 Y s 1747 503 m20 1771 312 m 16 X s 1803 312 m 16 X s 1771 305 m 15 Y s 1819 305 m 15 Y s 1795 312 m20 1819 386 m 16 X s 1851 386 m 16 X s 1819 379 m 15 Y s 1867 379 m
 15 Y s 1843 386 m20 1867 283 m 16 X s 1898 283 m 17 X s 1867 275 m 15 Y s 1915 275 m 15 Y s 1891 283 m20 1915 275 m 16 X s 1946 275 m 17 X s 1915 268 m 15 Y s 1963 268 m 15 Y s 1939 275 m20 1963 295 m 16 X s 1994 295 m 17 X s 1963 287 m 15 Y s 2011
 287 m 15 Y s 1987 295 m20 2011 363 m 16 X s 2042 363 m 17 X s 2011 356 m 15 Y s 2059 356 m 15 Y s 2035 363 m20 2059 704 m 16 X s 2090 704 m 16 X s 2059 696 m 15 Y s 2106 696 m 15 Y s 2082 704 m20 2106 1207 m 17 X s 2138 1207 m 16 X s 2106 1199 m 15
 Y s 2154 1199 m 15 Y s 2130 1207 m20 1 0 0 c 1 1 1 c 1 0 0 c 238 221 m 16 X s 270 221 m 16 X s 238 213 m 15 Y s 286 213 m 15 Y s 262 221 m20 286 221 m 16 X s 318 221 m 16 X s 286 213 m 15 Y s 334 213 m 15 Y s 310 221 m20 334 264 m 16 X s 365 264 m
 17 X s 334 257 m 15 Y s 382 257 m 15 Y s 358 264 m20 382 328 m 16 X s 413 328 m 17 X s 382 320 m 15 Y s 430 320 m 15 Y s 406 328 m20 430 379 m 16 X s 461 379 m 17 X s 430 372 m 15 Y s 478 372 m 15 Y s 454 379 m20 478 410 m 16 X s 509 410 m 17 X s
 478 403 m 15 Y s 526 403 m 15 Y s 502 410 m20 526 431 m 16 X s 557 431 m 16 X s 526 423 m 15 Y s 573 423 m 15 Y s 549 431 m20 573 453 m 17 X s 605 453 m 16 X s 573 446 m 15 Y s 621 446 m 15 Y s 597 453 m20 621 479 m 17 X s 653 479 m 16 X s 621 471 m
 16 Y s 669 471 m 16 Y s 645 479 m20 669 550 m 17 X s 701 550 m 16 X s 669 543 m 15 Y s 717 543 m 15 Y s 693 550 m20 717 502 m 17 X s 749 502 m 16 X s 717 494 m 15 Y s 765 494 m 15 Y s 741 502 m20 765 450 m 16 X s 797 450 m 16 X s 765 443 m 15 Y s
 813 443 m 15 Y s 789 450 m20 813 621 m 16 X s 845 621 m 16 X s 813 614 m 15 Y s 861 614 m 15 Y s 837 621 m20 861 426 m 16 X s 892 426 m 17 X s 861 419 m 15 Y s 909 419 m 15 Y s 885 426 m20 909 401 m 16 X s 940 401 m 17 X s 909 393 m 15 Y s 957 393 m
 15 Y s 933 401 m20 957 448 m 16 X s 988 448 m 17 X s 957 440 m 15 Y s 1005 440 m 15 Y s 981 448 m20 1005 342 m 16 X s 1036 342 m 17 X s 1005 334 m 15 Y s 1053 334 m 15 Y s 1029 342 m20 1053 302 m 16 X s 1084 302 m 16 X s 1053 294 m 15 Y s 1100 294 m
 15 Y s 1076 302 m20 1100 268 m 17 X s 1132 268 m 16 X s 1100 261 m 15 Y s 1148 261 m 15 Y s 1124 268 m20 1148 363 m 17 X s 1180 363 m 16 X s 1148 356 m 15 Y s 1196 356 m 15 Y s 1172 363 m20 1196 251 m 17 X s 1228 251 m 16 X s 1196 243 m 16 Y s 1244
 243 m 16 Y s 1220 251 m20 1244 239 m 16 X s 1276 239 m 16 X s 1244 232 m 15 Y s 1292 232 m 15 Y s 1268 239 m20 1292 230 m 16 X s 1324 230 m 16 X s 1292 223 m 15 Y s 1340 223 m 15 Y s 1316 230 m20 1340 236 m 16 X s 1371 236 m 17 X s 1340 228 m 15 Y s
 1388 228 m 15 Y s 1364 236 m20 1388 313 m 16 X s 1419 313 m 17 X s 1388 306 m 15 Y s 1436 306 m 15 Y s 1412 313 m20 1436 229 m 16 X s 1467 229 m 17 X s 1436 221 m 16 Y s 1484 221 m 16 Y s 1460 229 m20 1484 215 m 16 X s 1515 215 m 17 X s 1484 207 m
 15 Y s 1532 207 m 15 Y s 1508 215 m20 1532 267 m 16 X s 1563 267 m 16 X s 1532 259 m 15 Y s 1579 259 m 15 Y s 1556 267 m20 1579 226 m 17 X s 1611 226 m 16 X s 1579 218 m 16 Y s 1627 218 m 16 Y s 1603 226 m20 1627 214 m 17 X s 1659 214 m 16 X s 1627
 207 m 15 Y s 1675 207 m 15 Y s 1651 214 m20 1675 219 m 17 X s 1707 219 m 16 X s 1675 212 m 15 Y s 1723 212 m 15 Y s 1699 219 m20 1723 263 m 17 X s 1755 263 m 16 X s 1723 255 m 16 Y s 1771 255 m 16 Y s 1747 263 m20 1771 223 m 16 X s 1803 223 m 16 X s
 1771 215 m 15 Y s 1819 215 m 15 Y s 1795 223 m20 1819 228 m 16 X s 1851 228 m 16 X s 1819 221 m 15 Y s 1867 221 m 15 Y s 1843 228 m20 1867 211 m 16 X s 1898 211 m 17 X s 1867 203 m 16 Y s 1915 203 m 16 Y s 1891 211 m20 1915 215 m 16 X s 1946 215 m
 17 X s 1915 208 m 15 Y s 1963 208 m 15 Y s 1939 215 m20 1963 217 m 16 X s 1994 217 m 17 X s 1963 210 m 15 Y s 2011 210 m 15 Y s 1987 217 m20 2011 224 m 16 X s 2042 224 m 17 X s 2011 216 m 15 Y s 2059 216 m 15 Y s 2035 224 m20 2059 251 m 16 X s 2090
 251 m 16 X s 2059 243 m 15 Y s 2106 243 m 15 Y s 2082 251 m20 2106 264 m 17 X s 2138 264 m 16 X s 2106 257 m 15 Y s 2154 257 m 15 Y s 2130 264 m20 black
 gsave  2268 1676 0 0 C 272.126 1240.34 t 0 r /Helvetica-Bold findfont 49.2982 sf 0 0 m (Kolmogorov\255Smirnov test: signal \(background\) probability = 0.179 \(0.216\)) show NC gr  238 201 m 1916 X s 238 244 m -43 Y s 287 222 m -21 Y s 336 222 m -21
 Y s 385 222 m -21 Y s 435 244 m -43 Y s 484 222 m -21 Y s 533 222 m -21 Y s 582 222 m -21 Y s 631 244 m -43 Y s 680 222 m -21 Y s 729 222 m -21 Y s 778 222 m -21 Y s 828 244 m -43 Y s 877 222 m -21 Y s 926 222 m -21 Y s 975 222 m -21 Y s 1024 244 m
 -43 Y s 1073 222 m -21 Y s 1122 222 m -21 Y s 1171 222 m -21 Y s 1221 244 m -43 Y s 1270 222 m -21 Y s 1319 222 m -21 Y s 1368 222 m -21 Y s 1417 244 m -43 Y s 1466 222 m -21 Y s 1515 222 m -21 Y s 1564 222 m -21 Y s 1614 244 m -43 Y s 1663 222 m
 -21 Y s 1712 222 m -21 Y s 1761 222 m -21 Y s 1810 244 m -43 Y s 1859 222 m -21 Y s 1908 222 m -21 Y s 1957 222 m -21 Y s 2006 244 m -43 Y s 238 244 m -43 Y s 2006 244 m -43 Y s 2056 222 m -21 Y s 2105 222 m -21 Y s 2154 222 m -21 Y s 238 1509 m
 1916 X s 238 1466 m 43 Y s 287 1487 m 22 Y s 336 1487 m 22 Y s 385 1487 m 22 Y s 435 1466 m 43 Y s 484 1487 m 22 Y s 533 1487 m 22 Y s 582 1487 m 22 Y s 631 1466 m 43 Y s 680 1487 m 22 Y s 729 1487 m 22 Y s 778 1487 m 22 Y s 828 1466 m 43 Y s 877
 1487 m 22 Y s 926 1487 m 22 Y s 975 1487 m 22 Y s 1024 1466 m 43 Y s 1073 1487 m 22 Y s 1122 1487 m 22 Y s 1171 1487 m 22 Y s 1221 1466 m 43 Y s 1270 1487 m 22 Y s 1319 1487 m 22 Y s 1368 1487 m 22 Y s 1417 1466 m 43 Y s 1466 1487 m 22 Y s 1515 1487
 m 22 Y s 1564 1487 m 22 Y s 1614 1466 m 43 Y s 1663 1487 m 22 Y s 1712 1487 m 22 Y s 1761 1487 m 22 Y s 1810 1466 m 43 Y s 1859 1487 m 22 Y s 1908 1487 m 22 Y s 1957 1487 m 22 Y s 2006 1466 m 43 Y s 238 1466 m 43 Y s 2006 1466 m 43 Y s 2056 1487 m
 22 Y s 2105 1487 m 22 Y s 2154 1487 m 22 Y s 238 201 m 1308 Y s 291 201 m -53 X s 265 245 m -27 X s 265 290 m -27 X s 265 334 m -27 X s 265 379 m -27 X s 291 423 m -53 X s 265 467 m -27 X s 265 512 m -27 X s 265 556 m -27 X s 265 600 m -27 X s 291
 645 m -53 X s 265 689 m -27 X s 265 733 m -27 X s 265 778 m -27 X s 265 822 m -27 X s 291 867 m -53 X s 265 911 m -27 X s 265 955 m -27 X s 265 1000 m -27 X s 265 1044 m -27 X s 291 1088 m -53 X s 265 1133 m -27 X s 265 1177 m -27 X s 265 1221 m -27
 X s 265 1266 m -27 X s 291 1310 m -53 X s 291 1310 m -53 X s 265 1355 m -27 X s 265 1399 m -27 X s 265 1443 m -27 X s 265 1488 m -27 X s 2154 201 m 1308 Y s 2101 201 m 53 X s 2128 245 m 26 X s 2128 290 m 26 X s 2128 334 m 26 X s 2128 379 m 26 X s
 2101 423 m 53 X s 2128 467 m 26 X s 2128 512 m 26 X s 2128 556 m 26 X s 2128 600 m 26 X s 2101 645 m 53 X s 2128 689 m 26 X s 2128 733 m 26 X s 2128 778 m 26 X s 2128 822 m 26 X s 2101 867 m 53 X s 2128 911 m 26 X s 2128 955 m 26 X s 2128 1000 m 26
 X s 2128 1044 m 26 X s 2101 1088 m 53 X s 2128 1133 m 26 X s 2128 1177 m 26 X s 2128 1221 m 26 X s 2128 1266 m 26 X s 2101 1310 m 53 X s 2101 1310 m 53 X s 2128 1355 m 26 X s 2128 1399 m 26 X s 2128 1443 m 26 X s 2128 1488 m 26 X s
 gsave  2268 1676 0 0 C 2211.02 192.756 t 90 r /Helvetica-Bold findfont 45.506 sf 0 0 m (U/O\255flow \(S,B\): \(0.0, 0.0\)% / \(0.0, 0.0\)%) show NC gr  0.490196 0.545098 0.615686 c 0.364706 0.419608 0.490196 c 1587 96 23 1572 bf 0.490196 0.545098
 0.615686 c 23 1572 m 1587 X s 1610 1572 m 96 Y s 1610 1668 m -1587 X s 23 1668 m -96 Y s 1 1 1 c black 1 1 1 c
 gsave  2268 1676 0 0 C 102.389 1600.29 t 0 r /Helvetica-Bold findfont 68.259 sf 0 0 m (TMVA overtraining check for classifier: BDT) show NC gr 
 gr  gr showpage
end
%%EOF
