%!PS-Adobe-2.0 EPSF-2.0
%%BoundingBox:  0 0 567 327
%%Title: dataset/plots/BDT_1.eps: Reading weight file: /Users/aleopold/ATLAS/plottingpackage/scripts/ntupleReader/dataset/weights/TMVAClassification_BDT.weights.xml
%%Creator: ROOT Version 6.14/06
%%CreationDate: Sat Feb  1 11:04:40 2020
%%DocumentNeededResources: ProcSet (FontSetInit)
%%EndComments
%%BeginProlog
80 dict begin
/s {stroke} def /l {lineto} def /m {moveto} def /t {translate} def
/r {rotate} def /rl {roll}  def /R {repeat} def
/d {rlineto} def /rm {rmoveto} def /gr {grestore} def /f {eofill} def
/c {setrgbcolor} def /black {0 setgray} def /sd {setdash} def
/cl {closepath} def /sf {scalefont setfont} def /lw {setlinewidth} def
/box {m dup 0 exch d exch 0 d 0 exch neg d cl} def
/NC{systemdict begin initclip end}def/C{NC box clip newpath}def
/bl {box s} def /bf {gsave box gsave f grestore 1 lw [] 0 sd s grestore} def /Y { 0 exch d} def /X { 0 d} def 
/K {{pop pop 0 moveto} exch kshow} bind def
/ita {/ang 15 def gsave [1 0 ang dup sin exch cos div 1 0 0] concat} def 
/mp {newpath /y exch def /x exch def} def
/side {[w .77 mul w .23 mul] .385 w mul sd w 0 l currentpoint t -144 r} def
/mr {mp x y w2 0 360 arc} def /m24 {mr s} def /m20 {mr f} def
/mb {mp x y w2 add m w2 neg 0 d 0 w neg d w 0 d 0 w d cl} def
/mt {mp x y w2 add m w2 neg w neg d w 0 d cl} def
/w4 {w 4 div} def
/w6 {w 6 div} def
/w8 {w 8 div} def
/m21 {mb f} def /m25 {mb s} def /m22 {mt f} def /m26{mt s} def
/m23 {mp x y w2 sub m w2 w d w neg 0 d cl f} def
/m27 {mp x y w2 add m w3 neg w2 neg d w3 w2 neg d w3 w2 d cl s} def
/m28 {mp x w2 sub y w2 sub w3 add m w3 0 d  0 w3 neg d w3 0 d 0 w3 d w3 0 d  0 w3 d w3 neg 0 d 0 w3 d w3 neg 0 d 0 w3 neg d w3 neg 0 d cl s } def
/m29 {mp gsave x w2 sub y w2 add w3 sub m currentpoint t 4 {side} repeat cl fill gr} def
/m30 {mp gsave x w2 sub y w2 add w3 sub m currentpoint t 4 {side} repeat cl s gr} def
/m31 {mp x y w2 sub m 0 w d x w2 sub y m w 0 d x w2 sub y w2 add m w w neg d x w2 sub y w2 sub m w w d s} def
/m32 {mp x y w2 sub m w2 w d w neg 0 d cl s} def
/m33 {mp x y w2 add m w3 neg w2 neg d w3 w2 neg d w3 w2 d cl f} def
/m34 {mp x w2 sub y w2 sub w3 add m w3 0 d  0 w3 neg d w3 0 d 0 w3 d w3 0 d  0 w3 d w3 neg 0 d 0 w3 d w3 neg 0 d 0 w3 neg d w3 neg 0 d cl f } def
/m35 {mp x y w2 add m w2 neg w2 neg d w2 w2 neg d w2 w2 d w2 neg w2 d x y w2 sub m 0 w d x w2 sub y m w 0 d s} def
/m36 {mb x w2 sub y w2 add m w w neg d x w2 sub y w2 sub m w w d s} def
/m37 {mp x y m w4 neg w2 d w4 neg w2 neg d w2 0 d  w4 neg w2 neg d w2 0 d w4 neg w2 d w2 0 d w4 neg w2 d w4 neg w2 neg d cl s} def
/m38 {mp x w4 sub y w2 add m w4 neg w4 neg d 0 w2 neg d w4 w4 neg d w2 0 d w4 w4 d 0 w2 d w4 neg w4 d w2 neg 0 d x y w2 sub m 0 w d x w2 sub y m w 0 d cl s} def
/m39 {mp x y m w4 neg w2 d w4 neg w2 neg d w2 0 d  w4 neg w2 neg d w2 0 d w4 neg w2 d w2 0 d w4 neg w2 d w4 neg w2 neg d cl f} def
/m40 {mp x y m w4 w2 d w4 w4 neg d w2 neg w4 neg d w2 w4 neg d w4 neg w4 neg d w4 neg w2 d w4 neg w2 neg d w4 neg w4 d w2 w4 d w2 neg w4 d w4 w4 d w4 w2 neg d cl s} def
/m41 {mp x y m w4 w2 d w4 w4 neg d w2 neg w4 neg d w2 w4 neg d w4 neg w4 neg d w4 neg w2 d w4 neg w2 neg d w4 neg w4 d w2 w4 d w2 neg w4 d w4 w4 d w4 w2 neg d cl f} def
/m42 {mp x y w2 add m w8 neg w2 -3 4 div mul d w2 -3 4 div mul w8 neg d w2 3 4 div mul w8 neg d w8 w2 -3 4 div mul d w8 w2 3 4 div mul d w2 3 4 div mul w8 d w2 -3 4 div mul w8 d w8 neg w2 3 4 div mul d cl s} def
/m43 {mp x y w2 add m w8 neg w2 -3 4 div mul d w2 -3 4 div mul w8 neg d w2 3 4 div mul w8 neg d w8 w2 -3 4 div mul d w8 w2 3 4 div mul d w2 3 4 div mul w8 d w2 -3 4 div mul w8 d w8 neg w2 3 4 div mul d cl f} def
/m44 {mp x y m w6 neg w2 d w2 2 3 div mul 0 d w6 neg w2 neg d w2 w6 d 0 w2 -2 3 div mul d w2 neg w6 d w6 w2 neg d w2 -2 3 div mul 0 d w6 w2 d w2 neg w6 neg d 0 w2 2 3 div mul d w2 w6 neg d cl s} def
/m45 {mp x y m w6 neg w2 d w2 2 3 div mul 0 d w6 neg w2 neg d w2 w6 d 0 w2 -2 3 div mul d w2 neg w6 d w6 w2 neg d w2 -2 3 div mul 0 d w6 w2 d w2 neg w6 neg d 0 w2 2 3 div mul d w2 w6 neg d cl f} def
/m46 {mp x y w4 add m w4 neg w4 d w4 neg w4 neg d  w4 w4 neg d w4 neg w4 neg d w4 w4 neg d w4 w4 d w4 w4 neg d w4 w4 d w4 neg w4 d w4 w4 d w4 neg w4 d w4 neg w4 neg d cl s} def
/m47 {mp x y w4 add m w4 neg w4 d w4 neg w4 neg d w4 w4 neg d w4 neg w4 neg d  w4 w4 neg d w4 w4 d w4 w4 neg d w4 w4 d w4 neg w4 d w4 w4 d w4 neg w4 d w4 neg w4 neg d cl f} def
/m48 {mp x y w4 add m w4 neg w4 d w4 neg w4 neg d w4 w4 neg d  w4 neg w4 neg d w4 w4 neg d w4 w4 d w4 w4 neg d w4 w4 d w4 neg w4 d w4 w4 d w4 neg w4 d w4 neg w4 neg d  w4 w4 neg d w4 neg w4 neg d w4 neg w4 d w4 w4 d cl f} def
/m49 {mp x w2 sub w3 add y w2 sub w3 add m  0 w3 neg d w3 0 d 0 w3 d w3 0 d 0 w3 d w3 neg 0 d 0 w3 d w3 neg 0 d 0 w3 neg d w3 neg 0 d 0 w3 neg d w3 0 d 0 w3 d w3 0 d 0 w3 neg d w3 neg 0 d cl f } def
/m2 {mp x y w2 sub m 0 w d x w2 sub y m w 0 d s} def
/m5 {mp x w2 sub y w2 sub m w w d x w2 sub y w2 add m w w neg d s} def
%%IncludeResource: ProcSet (FontSetInit)
%%IncludeResource: font Times-Roman
%%IncludeResource: font Times-Italic
%%IncludeResource: font Times-Bold
%%IncludeResource: font Times-BoldItalic
%%IncludeResource: font Helvetica
%%IncludeResource: font Helvetica-Oblique
%%IncludeResource: font Helvetica-Bold
%%IncludeResource: font Helvetica-BoldOblique
%%IncludeResource: font Courier
%%IncludeResource: font Courier-Oblique
%%IncludeResource: font Courier-Bold
%%IncludeResource: font Courier-BoldOblique
%%IncludeResource: font Symbol
%%IncludeResource: font ZapfDingbats
/reEncode {exch findfont dup length dict begin {1 index /FID eq  {pop pop} {def} ifelse } forall /Encoding exch def currentdict end dup /FontName get exch definefont pop } def [/Times-Bold /Times-Italic /Times-BoldItalic /Helvetica /Helvetica-Oblique
 /Helvetica-Bold /Helvetica-BoldOblique /Courier /Courier-Oblique /Courier-Bold /Courier-BoldOblique /Times-Roman /AvantGarde-Book /AvantGarde-BookOblique /AvantGarde-Demi /AvantGarde-DemiOblique /Bookman-Demi /Bookman-DemiItalic /Bookman-Light
 /Bookman-LightItalic /Helvetica-Narrow /Helvetica-Narrow-Bold /Helvetica-Narrow-BoldOblique /Helvetica-Narrow-Oblique /NewCenturySchlbk-Roman /NewCenturySchlbk-Bold /NewCenturySchlbk-BoldItalic /NewCenturySchlbk-Italic /Palatino-Bold
 /Palatino-BoldItalic /Palatino-Italic /Palatino-Roman ] {ISOLatin1Encoding reEncode } forall
%%EndProlog
%%BeginSetup
%%EndSetup
newpath  gsave  .25 .25 scale  gsave  0 0 t 0.490196 0.545098 0.615686 c[  ] 0 sd 3 lw 0.941176 0.941176 0.941176 c 2268 1307 0 0 bf 0.490196 0.545098 0.615686 c 6 lw 992 1034 m -425 -109 d s 496 708 m -213 -109 d s 3 lw 0.14 0 0.86 c 425 218 71 381
 bf 0.490196 0.545098 0.615686 c 71 381 m 425 X s 496 381 m 218 Y s 496 599 m -425 X s 71 599 m -218 Y s 1 1 1 c black
 gsave  2268 1307 0 0 C 84.0737 472.63 t 0 r /Helvetica-Bold findfont 59.0788 sf 0 0 m (S/\(S+B\)=0.867) show NC gr  0.490196 0.545098 0.615686 c 6 lw 638 708 m 212 -109 d s 815 381 m -106 -109 d s 3 lw 0.46 0 0.54 c 213 218 602 54 bf 0.490196
 0.545098 0.615686 c 602 54 m 213 X s 815 54 m 218 Y s 815 272 m -213 X s 602 272 m -218 Y s 1 1 1 c black
 gsave  2268 1307 0 0 C 606.694 154.514 t 0 r /Helvetica-Bold findfont 29.5394 sf 0 0 m (S/\(S+B\)=0.550) show NC gr  0.490196 0.545098 0.615686 c 6 lw 886 381 m 106 -109 d s 3 lw 0.7 0 0.3 c 212 218 886 54 bf 0.490196 0.545098 0.615686 c 886 54 m
 212 X s 1098 54 m 218 Y s 1098 272 m -212 X s 886 272 m -218 Y s 1 1 1 c black
 gsave  2268 1307 0 0 C 890.726 154.514 t 0 r /Helvetica-Bold findfont 29.5394 sf 0 0 m (S/\(S+B\)=0.309) show NC gr  0.490196 0.545098 0.615686 c 0.48 0 0.52 c 425 218 638 381 bf 0.490196 0.545098 0.615686 c 638 381 m 425 X s 1063 381 m 218 Y s 1063
 599 m -425 X s 638 599 m -218 Y s 1 1 1 c black
 gsave  2268 1307 0 0 C 690.767 531.709 t 0 r /Helvetica-Bold findfont 47.7175 sf 0 0 m (S/\(S+B\)=0.520) show NC gr 
 gsave  2268 1307 0 0 C 652.139 422.641 t 0 r /Helvetica-Bold findfont 47.7175 sf 0 0 m (m_delta_z<\2550.589) show NC gr  0.490196 0.545098 0.615686 c 0.3 0 0.7 c 454 217 340 708 bf 0.490196 0.545098 0.615686 c 340 708 m 454 X s 794 708 m 217 Y s 794
 925 m -454 X s 340 925 m -217 Y s 1 1 1 c black
 gsave  2268 1307 0 0 C 420.368 858.915 t 0 r /Helvetica-Bold findfont 43.173 sf 0 0 m (S/\(S+B\)=0.706) show NC gr 
 gsave  2268 1307 0 0 C 356.745 752.118 t 0 r /Helvetica-Bold findfont 43.173 sf 0 0 m (m_d0_sigma>0.0337) show NC gr  0.490196 0.545098 0.615686 c 6 lw 1276 1034 m 425 -109 d s 3 lw 0.72 0 0.28 c 454 217 1474 708 bf 0.490196 0.545098 0.615686 c 1474
 708 m 454 X s 1928 708 m 217 Y s 1928 925 m -454 X s 1474 925 m -217 Y s 1 1 1 c black
 gsave  2268 1307 0 0 C 1492.88 799.836 t 0 r /Helvetica-Bold findfont 63.6233 sf 0 0 m (S/\(S+B\)=0.281) show NC gr  0.490196 0.545098 0.615686 c 0.5 0 0.5 c 454 218 907 1034 bf 0.490196 0.545098 0.615686 c 907 1034 m 454 X s 1361 1034 m 218 Y s
 1361 1252 m -454 X s 907 1252 m -218 Y s 1 1 1 c black
 gsave  2268 1307 0 0 C 967.983 1183.85 t 0 r /Helvetica-Bold findfont 49.9897 sf 0 0 m (S/\(S+B\)=0.510) show NC gr 
 gsave  2268 1307 0 0 C 922.538 1074.78 t 0 r /Helvetica-Bold findfont 49.9897 sf 0 0 m (m_z_sigma>0.606) show NC gr  0.490196 0.545098 0.615686 c 1 1 0.2 c 294 130 1928 1163 bf 0.490196 0.545098 0.615686 c 1928 1163 m 294 X s 2222 1163 m 130 Y s
 2222 1293 m -294 X s 1928 1293 m -130 Y s 1 1 1 c black
 gsave  2268 1307 0 0 C 1935.97 1217.93 t 0 r /Helvetica-Bold findfont 29.5394 sf 0 0 m (Decision Tree no.: 1) show NC gr  0.490196 0.545098 0.615686 c 0 0 1 c 295 130 45 1163 bf 0.490196 0.545098 0.615686 c 45 1163 m 295 X s 340 1163 m 130 Y s 340
 1293 m -295 X s 45 1293 m -130 Y s 1 1 1 c 0.999 0.999 0.999 c black 0.999 0.999 0.999 c
 gsave  2268 1307 0 0 C 49.9897 1220.2 t 0 r /Helvetica-Bold findfont 31.8117 sf 0 0 m (Pure Signal Nodes) show NC gr  0.490196 0.545098 0.615686 c 1 0 0 c 295 131 45 1006 bf 0.490196 0.545098 0.615686 c 45 1006 m 295 X s 340 1006 m 131 Y s 340 1137
 m -295 X s 45 1137 m -131 Y s 1 1 1 c 0.999 0.999 0.999 c black 0.999 0.999 0.999 c
 gsave  2268 1307 0 0 C 49.9897 1063.42 t 0 r /Helvetica-Bold findfont 29.5394 sf 0 0 m (Pure Backgr. Nodes) show NC gr 
 gr  gr showpage
end
%%EOF
