%!PS-Adobe-2.0 EPSF-2.0
%%BoundingBox:  0 0 567 363
%%Title: dataset/plots/BDT_ControlPlots.eps: BDT Control Plots
%%Creator: ROOT Version 6.14/06
%%CreationDate: Sat Feb  1 11:05:05 2020
%%DocumentNeededResources: ProcSet (FontSetInit)
%%EndComments
%%BeginProlog
80 dict begin
/s {stroke} def /l {lineto} def /m {moveto} def /t {translate} def
/r {rotate} def /rl {roll}  def /R {repeat} def
/d {rlineto} def /rm {rmoveto} def /gr {grestore} def /f {eofill} def
/c {setrgbcolor} def /black {0 setgray} def /sd {setdash} def
/cl {closepath} def /sf {scalefont setfont} def /lw {setlinewidth} def
/box {m dup 0 exch d exch 0 d 0 exch neg d cl} def
/NC{systemdict begin initclip end}def/C{NC box clip newpath}def
/bl {box s} def /bf {gsave box gsave f grestore 1 lw [] 0 sd s grestore} def /Y { 0 exch d} def /X { 0 d} def 
/K {{pop pop 0 moveto} exch kshow} bind def
/ita {/ang 15 def gsave [1 0 ang dup sin exch cos div 1 0 0] concat} def 
/mp {newpath /y exch def /x exch def} def
/side {[w .77 mul w .23 mul] .385 w mul sd w 0 l currentpoint t -144 r} def
/mr {mp x y w2 0 360 arc} def /m24 {mr s} def /m20 {mr f} def
/mb {mp x y w2 add m w2 neg 0 d 0 w neg d w 0 d 0 w d cl} def
/mt {mp x y w2 add m w2 neg w neg d w 0 d cl} def
/w4 {w 4 div} def
/w6 {w 6 div} def
/w8 {w 8 div} def
/m21 {mb f} def /m25 {mb s} def /m22 {mt f} def /m26{mt s} def
/m23 {mp x y w2 sub m w2 w d w neg 0 d cl f} def
/m27 {mp x y w2 add m w3 neg w2 neg d w3 w2 neg d w3 w2 d cl s} def
/m28 {mp x w2 sub y w2 sub w3 add m w3 0 d  0 w3 neg d w3 0 d 0 w3 d w3 0 d  0 w3 d w3 neg 0 d 0 w3 d w3 neg 0 d 0 w3 neg d w3 neg 0 d cl s } def
/m29 {mp gsave x w2 sub y w2 add w3 sub m currentpoint t 4 {side} repeat cl fill gr} def
/m30 {mp gsave x w2 sub y w2 add w3 sub m currentpoint t 4 {side} repeat cl s gr} def
/m31 {mp x y w2 sub m 0 w d x w2 sub y m w 0 d x w2 sub y w2 add m w w neg d x w2 sub y w2 sub m w w d s} def
/m32 {mp x y w2 sub m w2 w d w neg 0 d cl s} def
/m33 {mp x y w2 add m w3 neg w2 neg d w3 w2 neg d w3 w2 d cl f} def
/m34 {mp x w2 sub y w2 sub w3 add m w3 0 d  0 w3 neg d w3 0 d 0 w3 d w3 0 d  0 w3 d w3 neg 0 d 0 w3 d w3 neg 0 d 0 w3 neg d w3 neg 0 d cl f } def
/m35 {mp x y w2 add m w2 neg w2 neg d w2 w2 neg d w2 w2 d w2 neg w2 d x y w2 sub m 0 w d x w2 sub y m w 0 d s} def
/m36 {mb x w2 sub y w2 add m w w neg d x w2 sub y w2 sub m w w d s} def
/m37 {mp x y m w4 neg w2 d w4 neg w2 neg d w2 0 d  w4 neg w2 neg d w2 0 d w4 neg w2 d w2 0 d w4 neg w2 d w4 neg w2 neg d cl s} def
/m38 {mp x w4 sub y w2 add m w4 neg w4 neg d 0 w2 neg d w4 w4 neg d w2 0 d w4 w4 d 0 w2 d w4 neg w4 d w2 neg 0 d x y w2 sub m 0 w d x w2 sub y m w 0 d cl s} def
/m39 {mp x y m w4 neg w2 d w4 neg w2 neg d w2 0 d  w4 neg w2 neg d w2 0 d w4 neg w2 d w2 0 d w4 neg w2 d w4 neg w2 neg d cl f} def
/m40 {mp x y m w4 w2 d w4 w4 neg d w2 neg w4 neg d w2 w4 neg d w4 neg w4 neg d w4 neg w2 d w4 neg w2 neg d w4 neg w4 d w2 w4 d w2 neg w4 d w4 w4 d w4 w2 neg d cl s} def
/m41 {mp x y m w4 w2 d w4 w4 neg d w2 neg w4 neg d w2 w4 neg d w4 neg w4 neg d w4 neg w2 d w4 neg w2 neg d w4 neg w4 d w2 w4 d w2 neg w4 d w4 w4 d w4 w2 neg d cl f} def
/m42 {mp x y w2 add m w8 neg w2 -3 4 div mul d w2 -3 4 div mul w8 neg d w2 3 4 div mul w8 neg d w8 w2 -3 4 div mul d w8 w2 3 4 div mul d w2 3 4 div mul w8 d w2 -3 4 div mul w8 d w8 neg w2 3 4 div mul d cl s} def
/m43 {mp x y w2 add m w8 neg w2 -3 4 div mul d w2 -3 4 div mul w8 neg d w2 3 4 div mul w8 neg d w8 w2 -3 4 div mul d w8 w2 3 4 div mul d w2 3 4 div mul w8 d w2 -3 4 div mul w8 d w8 neg w2 3 4 div mul d cl f} def
/m44 {mp x y m w6 neg w2 d w2 2 3 div mul 0 d w6 neg w2 neg d w2 w6 d 0 w2 -2 3 div mul d w2 neg w6 d w6 w2 neg d w2 -2 3 div mul 0 d w6 w2 d w2 neg w6 neg d 0 w2 2 3 div mul d w2 w6 neg d cl s} def
/m45 {mp x y m w6 neg w2 d w2 2 3 div mul 0 d w6 neg w2 neg d w2 w6 d 0 w2 -2 3 div mul d w2 neg w6 d w6 w2 neg d w2 -2 3 div mul 0 d w6 w2 d w2 neg w6 neg d 0 w2 2 3 div mul d w2 w6 neg d cl f} def
/m46 {mp x y w4 add m w4 neg w4 d w4 neg w4 neg d  w4 w4 neg d w4 neg w4 neg d w4 w4 neg d w4 w4 d w4 w4 neg d w4 w4 d w4 neg w4 d w4 w4 d w4 neg w4 d w4 neg w4 neg d cl s} def
/m47 {mp x y w4 add m w4 neg w4 d w4 neg w4 neg d w4 w4 neg d w4 neg w4 neg d  w4 w4 neg d w4 w4 d w4 w4 neg d w4 w4 d w4 neg w4 d w4 w4 d w4 neg w4 d w4 neg w4 neg d cl f} def
/m48 {mp x y w4 add m w4 neg w4 d w4 neg w4 neg d w4 w4 neg d  w4 neg w4 neg d w4 w4 neg d w4 w4 d w4 w4 neg d w4 w4 d w4 neg w4 d w4 w4 d w4 neg w4 d w4 neg w4 neg d  w4 w4 neg d w4 neg w4 neg d w4 neg w4 d w4 w4 d cl f} def
/m49 {mp x w2 sub w3 add y w2 sub w3 add m  0 w3 neg d w3 0 d 0 w3 d w3 0 d 0 w3 d w3 neg 0 d 0 w3 d w3 neg 0 d 0 w3 neg d w3 neg 0 d 0 w3 neg d w3 0 d 0 w3 d w3 0 d 0 w3 neg d w3 neg 0 d cl f } def
/m2 {mp x y w2 sub m 0 w d x w2 sub y m w 0 d s} def
/m5 {mp x w2 sub y w2 sub m w w d x w2 sub y w2 add m w w neg d s} def
%%IncludeResource: ProcSet (FontSetInit)
%%IncludeResource: font Times-Roman
%%IncludeResource: font Times-Italic
%%IncludeResource: font Times-Bold
%%IncludeResource: font Times-BoldItalic
%%IncludeResource: font Helvetica
%%IncludeResource: font Helvetica-Oblique
%%IncludeResource: font Helvetica-Bold
%%IncludeResource: font Helvetica-BoldOblique
%%IncludeResource: font Courier
%%IncludeResource: font Courier-Oblique
%%IncludeResource: font Courier-Bold
%%IncludeResource: font Courier-BoldOblique
%%IncludeResource: font Symbol
%%IncludeResource: font ZapfDingbats
/reEncode {exch findfont dup length dict begin {1 index /FID eq  {pop pop} {def} ifelse } forall /Encoding exch def currentdict end dup /FontName get exch definefont pop } def [/Times-Bold /Times-Italic /Times-BoldItalic /Helvetica /Helvetica-Oblique
 /Helvetica-Bold /Helvetica-BoldOblique /Courier /Courier-Oblique /Courier-Bold /Courier-BoldOblique /Times-Roman /AvantGarde-Book /AvantGarde-BookOblique /AvantGarde-Demi /AvantGarde-DemiOblique /Bookman-Demi /Bookman-DemiItalic /Bookman-Light
 /Bookman-LightItalic /Helvetica-Narrow /Helvetica-Narrow-Bold /Helvetica-Narrow-BoldOblique /Helvetica-Narrow-Oblique /NewCenturySchlbk-Roman /NewCenturySchlbk-Bold /NewCenturySchlbk-BoldItalic /NewCenturySchlbk-Italic /Palatino-Bold
 /Palatino-BoldItalic /Palatino-Italic /Palatino-Roman ] {ISOLatin1Encoding reEncode } forall
%%EndProlog
%%BeginSetup
%%EndSetup
newpath  gsave  .25 .25 scale  gsave  0 0 t 0.490196 0.545098 0.615686 c[  ] 0 sd 3 lw 0.941176 0.941176 0.941176 c 2268 1452 0 0 bf 0.490196 0.545098 0.615686 c 0.941176 0.941176 0.941176 c 710 697 23 741 bf 0.490196 0.545098 0.615686 c 0.941176
 0.941176 0.941176 c 710 697 779 741 bf 0.490196 0.545098 0.615686 c 0.941176 0.941176 0.941176 c 711 697 1534 741 bf black 1 1 0.992157 c 590 551 1620 817 bf black 590 551 1620 817 bl 1 1 0.992157 c 590 551 1620 817 bf black 590 551 1620 817 bl 0 0
 1 c 1 1 1 c 0 0 1 c 1620 1241 m 12 X -85 Y 11 X -62 Y 12 X -48 Y 12 X -22 Y 12 X -64 Y 12 X -14 Y 11 X -26 Y 12 X 3 Y 12 X -32 Y 12 X 62 Y 12 X -60 Y 11 X -18 Y 12 X 13 Y 12 X 42 Y 12 X -29 Y 11 X -29 Y 12 X 27 Y 12 X -14 Y 12 X -1 Y 12 X -12 Y 11 X
 18 Y 12 X -23 Y 12 X 25 Y 12 X -9 Y 12 X -28 Y 11 X 4 Y 12 X 33 Y 12 X -20 Y 12 X -11 Y 12 X 8 Y 11 X -13 Y 12 X -9 Y 12 X 8 Y 12 X -17 Y 12 X 1 Y 11 X -2 Y 12 X 1 Y 12 X 29 Y 12 X -26 Y 12 X 3 Y 11 X -8 Y 12 X 1 Y 12 X 3 Y 24 X -5 Y 11 X -1 Y 12 X
 16 Y 12 X -8 Y 12 X -12 Y 12 X s black 1620 817 m 590 X s 1620 835 m -18 Y s 1632 826 m -9 Y s 1643 826 m -9 Y s 1655 826 m -9 Y s 1667 826 m -9 Y s 1679 835 m -18 Y s 1691 826 m -9 Y s 1702 826 m -9 Y s 1714 826 m -9 Y s 1726 826 m -9 Y s 1738 835
 m -18 Y s 1750 826 m -9 Y s 1761 826 m -9 Y s 1773 826 m -9 Y s 1785 826 m -9 Y s 1797 835 m -18 Y s 1808 826 m -9 Y s 1820 826 m -9 Y s 1832 826 m -9 Y s 1844 826 m -9 Y s 1856 835 m -18 Y s 1867 826 m -9 Y s 1879 826 m -9 Y s 1891 826 m -9 Y s
 1903 826 m -9 Y s 1915 835 m -18 Y s 1926 826 m -9 Y s 1938 826 m -9 Y s 1950 826 m -9 Y s 1962 826 m -9 Y s 1974 835 m -18 Y s 1985 826 m -9 Y s 1997 826 m -9 Y s 2009 826 m -9 Y s 2021 826 m -9 Y s 2033 835 m -18 Y s 2044 826 m -9 Y s 2056 826 m
 -9 Y s 2068 826 m -9 Y s 2080 826 m -9 Y s 2092 835 m -18 Y s 2103 826 m -9 Y s 2115 826 m -9 Y s 2127 826 m -9 Y s 2139 826 m -9 Y s 2151 835 m -18 Y s 2162 826 m -9 Y s 2174 826 m -9 Y s 2186 826 m -9 Y s 2198 826 m -9 Y s 2210 835 m -18 Y s
 gsave  711 697 1534 741 C 1611.14 795.469 t 0 r /Helvetica findfont 22.7277 sf 0 0 m (0) show NC gr 
 gsave  711 697 1534 741 C 1669.22 795.469 t 0 r /Helvetica findfont 22.7277 sf 0 0 m (5) show NC gr 
 gsave  711 697 1534 741 C 1724.78 795.469 t 0 r /Helvetica findfont 22.7277 sf 0 0 m (10) show NC gr 
 gsave  711 697 1534 741 C 1782.86 795.469 t 0 r /Helvetica findfont 22.7277 sf 0 0 m (15) show NC gr 
 gsave  711 697 1534 741 C 1840.94 795.469 t 0 r /Helvetica findfont 22.7277 sf 0 0 m (20) show NC gr 
 gsave  711 697 1534 741 C 1901.55 795.469 t 0 r /Helvetica findfont 22.7277 sf 0 0 m (25) show NC gr 
 gsave  711 697 1534 741 C 1959.63 795.469 t 0 r /Helvetica findfont 22.7277 sf 0 0 m (30) show NC gr 
 gsave  711 697 1534 741 C 2017.71 795.469 t 0 r /Helvetica findfont 22.7277 sf 0 0 m (35) show NC gr 
 gsave  711 697 1534 741 C 2078.32 795.469 t 0 r /Helvetica findfont 22.7277 sf 0 0 m (40) show NC gr 
 gsave  711 697 1534 741 C 2136.4 795.469 t 0 r /Helvetica findfont 22.7277 sf 0 0 m (45) show NC gr 
 gsave  711 697 1534 741 C 2194.48 795.469 t 0 r /Helvetica findfont 22.7277 sf 0 0 m (50) show NC gr 
 gsave  711 697 1534 741 C 2151.55 770.216 t 0 r /Helvetica findfont 22.7277 sf 0 0 m (#tree) show NC gr  1620 1368 m 590 X s 1620 1350 m 18 Y s 1632 1359 m 9 Y s 1643 1359 m 9 Y s 1655 1359 m 9 Y s 1667 1359 m 9 Y s 1679 1350 m 18 Y s 1691 1359 m 9
 Y s 1702 1359 m 9 Y s 1714 1359 m 9 Y s 1726 1359 m 9 Y s 1738 1350 m 18 Y s 1750 1359 m 9 Y s 1761 1359 m 9 Y s 1773 1359 m 9 Y s 1785 1359 m 9 Y s 1797 1350 m 18 Y s 1808 1359 m 9 Y s 1820 1359 m 9 Y s 1832 1359 m 9 Y s 1844 1359 m 9 Y s 1856 1350
 m 18 Y s 1867 1359 m 9 Y s 1879 1359 m 9 Y s 1891 1359 m 9 Y s 1903 1359 m 9 Y s 1915 1350 m 18 Y s 1926 1359 m 9 Y s 1938 1359 m 9 Y s 1950 1359 m 9 Y s 1962 1359 m 9 Y s 1974 1350 m 18 Y s 1985 1359 m 9 Y s 1997 1359 m 9 Y s 2009 1359 m 9 Y s 2021
 1359 m 9 Y s 2033 1350 m 18 Y s 2044 1359 m 9 Y s 2056 1359 m 9 Y s 2068 1359 m 9 Y s 2080 1359 m 9 Y s 2092 1350 m 18 Y s 2103 1359 m 9 Y s 2115 1359 m 9 Y s 2127 1359 m 9 Y s 2139 1359 m 9 Y s 2151 1350 m 18 Y s 2162 1359 m 9 Y s 2174 1359 m 9 Y s
 2186 1359 m 9 Y s 2198 1359 m 9 Y s 2210 1350 m 18 Y s 1620 817 m 551 Y s 1637 817 m -17 X s 1628 831 m -8 X s 1628 845 m -8 X s 1628 859 m -8 X s 1628 874 m -8 X s 1637 888 m -17 X s 1628 902 m -8 X s 1628 916 m -8 X s 1628 930 m -8 X s 1628 944 m
 -8 X s 1637 958 m -17 X s 1628 972 m -8 X s 1628 986 m -8 X s 1628 1000 m -8 X s 1628 1014 m -8 X s 1637 1028 m -17 X s 1628 1042 m -8 X s 1628 1056 m -8 X s 1628 1071 m -8 X s 1628 1085 m -8 X s 1637 1099 m -17 X s 1628 1113 m -8 X s 1628 1127 m -8
 X s 1628 1141 m -8 X s 1628 1155 m -8 X s 1637 1169 m -17 X s 1628 1183 m -8 X s 1628 1197 m -8 X s 1628 1211 m -8 X s 1628 1225 m -8 X s 1637 1239 m -17 X s 1628 1253 m -8 X s 1628 1268 m -8 X s 1628 1282 m -8 X s 1628 1296 m -8 X s 1637 1310 m -17
 X s 1637 1310 m -17 X s 1628 1324 m -8 X s 1628 1338 m -8 X s 1628 1352 m -8 X s 1628 1366 m -8 X s
 gsave  711 697 1534 741 C 1603.56 808.095 t 0 r /Helvetica findfont 22.7277 sf 0 0 m (0) show NC gr 
 gsave  711 697 1534 741 C 1588.41 878.803 t 0 r /Helvetica findfont 22.7277 sf 0 0 m (0.1) show NC gr 
 gsave  711 697 1534 741 C 1583.36 949.512 t 0 r /Helvetica findfont 22.7277 sf 0 0 m (0.2) show NC gr 
 gsave  711 697 1534 741 C 1583.36 1020.22 t 0 r /Helvetica findfont 22.7277 sf 0 0 m (0.3) show NC gr 
 gsave  711 697 1534 741 C 1583.36 1090.93 t 0 r /Helvetica findfont 22.7277 sf 0 0 m (0.4) show NC gr 
 gsave  711 697 1534 741 C 1583.36 1159.11 t 0 r /Helvetica findfont 22.7277 sf 0 0 m (0.5) show NC gr 
 gsave  711 697 1534 741 C 1583.36 1229.82 t 0 r /Helvetica findfont 22.7277 sf 0 0 m (0.6) show NC gr 
 gsave  711 697 1534 741 C 1583.36 1300.53 t 0 r /Helvetica findfont 22.7277 sf 0 0 m (0.7) show NC gr 
 gsave  711 697 1534 741 C 1570.73 1239.92 t 90 r /Helvetica findfont 22.7277 sf 0 0 m (boost weight) show NC gr  2210 817 m 551 Y s 2193 817 m 17 X s 2201 831 m 9 X s 2201 845 m 9 X s 2201 859 m 9 X s 2201 874 m 9 X s 2193 888 m 17 X s 2201 902 m 9
 X s 2201 916 m 9 X s 2201 930 m 9 X s 2201 944 m 9 X s 2193 958 m 17 X s 2201 972 m 9 X s 2201 986 m 9 X s 2201 1000 m 9 X s 2201 1014 m 9 X s 2193 1028 m 17 X s 2201 1042 m 9 X s 2201 1056 m 9 X s 2201 1071 m 9 X s 2201 1085 m 9 X s 2193 1099 m 17
 X s 2201 1113 m 9 X s 2201 1127 m 9 X s 2201 1141 m 9 X s 2201 1155 m 9 X s 2193 1169 m 17 X s 2201 1183 m 9 X s 2201 1197 m 9 X s 2201 1211 m 9 X s 2201 1225 m 9 X s 2193 1239 m 17 X s 2201 1253 m 9 X s 2201 1268 m 9 X s 2201 1282 m 9 X s 2201 1296
 m 9 X s 2193 1310 m 17 X s 2193 1310 m 17 X s 2201 1324 m 9 X s 2201 1338 m 9 X s 2201 1352 m 9 X s 2201 1366 m 9 X s 0.490196 0.545098 0.615686 c 0.364706 0.419608 0.490196 c 352 39 1542 1395 bf 0.490196 0.545098 0.615686 c 1542 1395 m 352 X s 1894
 1395 m 39 Y s 1894 1434 m -352 X s 1542 1434 m -39 Y s 1 1 1 c black 1 1 1 c
 gsave  711 697 1534 741 C 1560.63 1406.59 t 0 r /Helvetica-Bold findfont 30.3036 sf 0 0 m (Boost weights vs tree) show NC gr  0.490196 0.545098 0.615686 c 0.941176 0.941176 0.941176 c 710 697 23 15 bf black 1 1 0.992157 c 590 551 108 91 bf black 590
 551 108 91 bl 1 1 0.992157 c 590 551 108 91 bf black 590 551 108 91 bl 0 0 1 c 1 1 1 c 0 0 1 c 108 290 m 12 X 40 Y 12 X 31 Y 11 X 26 Y 12 X 12 Y 12 X 38 Y 12 X 7 Y 12 X 16 Y 11 X -1 Y 12 X 19 Y 12 X -37 Y 12 X 36 Y 11 X 10 Y 12 X -8 Y 12 X -25 Y 12
 X 17 Y 12 X 18 Y 11 X -16 Y 12 X 8 Y 12 X 1 Y 12 X 7 Y 12 X -11 Y 11 X 14 Y 12 X -15 Y 12 X 6 Y 12 X 17 Y 12 X -3 Y 11 X -20 Y 12 X 12 Y 12 X 7 Y 12 X -5 Y 12 X 8 Y 11 X 5 Y 12 X -4 Y 12 X 10 Y 12 X -1 Y 12 X 1 Y 23 X -18 Y 12 X 16 Y 12 X -2 Y 12 X
 5 Y 11 X -1 Y 12 X -1 Y 24 X 3 Y 23 X -9 Y 12 X 4 Y 12 X 8 Y 12 X s black 108 91 m 590 X s 108 109 m -18 Y s 120 100 m -9 Y s 132 100 m -9 Y s 143 100 m -9 Y s 155 100 m -9 Y s 167 109 m -18 Y s 179 100 m -9 Y s 191 100 m -9 Y s 202 100 m -9 Y s 214
 100 m -9 Y s 226 109 m -18 Y s 238 100 m -9 Y s 249 100 m -9 Y s 261 100 m -9 Y s 273 100 m -9 Y s 285 109 m -18 Y s 297 100 m -9 Y s 308 100 m -9 Y s 320 100 m -9 Y s 332 100 m -9 Y s 344 109 m -18 Y s 356 100 m -9 Y s 367 100 m -9 Y s 379 100 m -9
 Y s 391 100 m -9 Y s 403 109 m -18 Y s 415 100 m -9 Y s 426 100 m -9 Y s 438 100 m -9 Y s 450 100 m -9 Y s 462 109 m -18 Y s 474 100 m -9 Y s 485 100 m -9 Y s 497 100 m -9 Y s 509 100 m -9 Y s 521 109 m -18 Y s 533 100 m -9 Y s 544 100 m -9 Y s 556
 100 m -9 Y s 568 100 m -9 Y s 580 109 m -18 Y s 592 100 m -9 Y s 603 100 m -9 Y s 615 100 m -9 Y s 627 100 m -9 Y s 639 109 m -18 Y s 651 100 m -9 Y s 662 100 m -9 Y s 674 100 m -9 Y s 686 100 m -9 Y s 698 109 m -18 Y s
 gsave  710 697 23 15 C 98.4866 70.7083 t 0 r /Helvetica findfont 22.7277 sf 0 0 m (0) show NC gr 
 gsave  710 697 23 15 C 159.094 70.7083 t 0 r /Helvetica findfont 22.7277 sf 0 0 m (5) show NC gr 
 gsave  710 697 23 15 C 212.125 70.7083 t 0 r /Helvetica findfont 22.7277 sf 0 0 m (10) show NC gr 
 gsave  710 697 23 15 C 270.207 70.7083 t 0 r /Helvetica findfont 22.7277 sf 0 0 m (15) show NC gr 
 gsave  710 697 23 15 C 330.814 70.7083 t 0 r /Helvetica findfont 22.7277 sf 0 0 m (20) show NC gr 
 gsave  710 697 23 15 C 388.896 70.7083 t 0 r /Helvetica findfont 22.7277 sf 0 0 m (25) show NC gr 
 gsave  710 697 23 15 C 446.978 70.7083 t 0 r /Helvetica findfont 22.7277 sf 0 0 m (30) show NC gr 
 gsave  710 697 23 15 C 507.585 70.7083 t 0 r /Helvetica findfont 22.7277 sf 0 0 m (35) show NC gr 
 gsave  710 697 23 15 C 565.667 70.7083 t 0 r /Helvetica findfont 22.7277 sf 0 0 m (40) show NC gr 
 gsave  710 697 23 15 C 623.748 70.7083 t 0 r /Helvetica findfont 22.7277 sf 0 0 m (45) show NC gr 
 gsave  710 697 23 15 C 684.355 70.7083 t 0 r /Helvetica findfont 22.7277 sf 0 0 m (50) show NC gr 
 gsave  710 697 23 15 C 641.425 42.93 t 0 r /Helvetica findfont 22.7277 sf 0 0 m (#tree) show NC gr  108 642 m 590 X s 108 624 m 18 Y s 120 633 m 9 Y s 132 633 m 9 Y s 143 633 m 9 Y s 155 633 m 9 Y s 167 624 m 18 Y s 179 633 m 9 Y s 191 633 m 9 Y s
 202 633 m 9 Y s 214 633 m 9 Y s 226 624 m 18 Y s 238 633 m 9 Y s 249 633 m 9 Y s 261 633 m 9 Y s 273 633 m 9 Y s 285 624 m 18 Y s 297 633 m 9 Y s 308 633 m 9 Y s 320 633 m 9 Y s 332 633 m 9 Y s 344 624 m 18 Y s 356 633 m 9 Y s 367 633 m 9 Y s 379
 633 m 9 Y s 391 633 m 9 Y s 403 624 m 18 Y s 415 633 m 9 Y s 426 633 m 9 Y s 438 633 m 9 Y s 450 633 m 9 Y s 462 624 m 18 Y s 474 633 m 9 Y s 485 633 m 9 Y s 497 633 m 9 Y s 509 633 m 9 Y s 521 624 m 18 Y s 533 633 m 9 Y s 544 633 m 9 Y s 556 633 m
 9 Y s 568 633 m 9 Y s 580 624 m 18 Y s 592 633 m 9 Y s 603 633 m 9 Y s 615 633 m 9 Y s 627 633 m 9 Y s 639 624 m 18 Y s 651 633 m 9 Y s 662 633 m 9 Y s 674 633 m 9 Y s 686 633 m 9 Y s 698 624 m 18 Y s 108 91 m 551 Y s 125 91 m -17 X s 116 108 m -8 X
 s 116 126 m -8 X s 116 143 m -8 X s 116 160 m -8 X s 125 177 m -17 X s 116 195 m -8 X s 116 212 m -8 X s 116 229 m -8 X s 116 247 m -8 X s 125 264 m -17 X s 116 281 m -8 X s 116 298 m -8 X s 116 316 m -8 X s 116 333 m -8 X s 125 350 m -17 X s 116
 367 m -8 X s 116 385 m -8 X s 116 402 m -8 X s 116 419 m -8 X s 125 436 m -17 X s 116 454 m -8 X s 116 471 m -8 X s 116 488 m -8 X s 116 505 m -8 X s 125 523 m -17 X s 116 540 m -8 X s 116 557 m -8 X s 116 575 m -8 X s 116 592 m -8 X s 125 609 m -17
 X s 125 609 m -17 X s 116 626 m -8 X s
 gsave  710 697 23 15 C 90.9107 83.3348 t 0 r /Helvetica findfont 22.7277 sf 0 0 m (0) show NC gr 
 gsave  710 697 23 15 C 75.7589 169.195 t 0 r /Helvetica findfont 22.7277 sf 0 0 m (0.1) show NC gr 
 gsave  710 697 23 15 C 70.7083 255.055 t 0 r /Helvetica findfont 22.7277 sf 0 0 m (0.2) show NC gr 
 gsave  710 697 23 15 C 70.7083 340.915 t 0 r /Helvetica findfont 22.7277 sf 0 0 m (0.3) show NC gr 
 gsave  710 697 23 15 C 70.7083 426.775 t 0 r /Helvetica findfont 22.7277 sf 0 0 m (0.4) show NC gr 
 gsave  710 697 23 15 C 70.7083 515.161 t 0 r /Helvetica findfont 22.7277 sf 0 0 m (0.5) show NC gr 
 gsave  710 697 23 15 C 70.7083 601.021 t 0 r /Helvetica findfont 22.7277 sf 0 0 m (0.6) show NC gr 
 gsave  710 697 23 15 C 58.0818 515.161 t 90 r /Helvetica findfont 22.7277 sf 0 0 m (error fraction) show NC gr  698 91 m 551 Y s 681 91 m 17 X s 689 108 m 9 X s 689 126 m 9 X s 689 143 m 9 X s 689 160 m 9 X s 681 177 m 17 X s 689 195 m 9 X s 689 212
 m 9 X s 689 229 m 9 X s 689 247 m 9 X s 681 264 m 17 X s 689 281 m 9 X s 689 298 m 9 X s 689 316 m 9 X s 689 333 m 9 X s 681 350 m 17 X s 689 367 m 9 X s 689 385 m 9 X s 689 402 m 9 X s 689 419 m 9 X s 681 436 m 17 X s 689 454 m 9 X s 689 471 m 9 X
 s 689 488 m 9 X s 689 505 m 9 X s 681 523 m 17 X s 689 540 m 9 X s 689 557 m 9 X s 689 575 m 9 X s 689 592 m 9 X s 681 609 m 17 X s 681 609 m 17 X s 689 626 m 9 X s 0.490196 0.545098 0.615686 c 0.364706 0.419608 0.490196 c 463 36 30 672 bf 0.490196
 0.545098 0.615686 c 30 672 m 463 X s 493 672 m 36 Y s 493 708 m -463 X s 30 708 m -36 Y s 1 1 1 c black 1 1 1 c
 gsave  710 697 23 15 C 68.183 679.305 t 0 r /Helvetica-Bold findfont 27.7783 sf 0 0 m (error fraction vs tree number) show NC gr  0.490196 0.545098 0.615686 c 0.941176 0.941176 0.941176 c 710 697 779 15 bf 0.490196 0.545098 0.615686 c 0.941176
 0.941176 0.941176 c 711 697 1534 15 bf
 gr  gr showpage
end
%%EOF
