%!PS-Adobe-2.0 EPSF-2.0
%%BoundingBox:  0 0 567 544
%%Title: dataset/plots/CorrelationMatrixB.eps: Correlations between MVA input variables (background)
%%Creator: ROOT Version 6.14/04
%%CreationDate: Fri Feb  7 14:17:01 2020
%%DocumentNeededResources: ProcSet (FontSetInit)
%%EndComments
%%BeginProlog
80 dict begin
/s {stroke} def /l {lineto} def /m {moveto} def /t {translate} def
/r {rotate} def /rl {roll}  def /R {repeat} def
/d {rlineto} def /rm {rmoveto} def /gr {grestore} def /f {eofill} def
/c {setrgbcolor} def /black {0 setgray} def /sd {setdash} def
/cl {closepath} def /sf {scalefont setfont} def /lw {setlinewidth} def
/box {m dup 0 exch d exch 0 d 0 exch neg d cl} def
/NC{systemdict begin initclip end}def/C{NC box clip newpath}def
/bl {box s} def /bf {gsave box gsave f grestore 1 lw [] 0 sd s grestore} def /Y { 0 exch d} def /X { 0 d} def 
/K {{pop pop 0 moveto} exch kshow} bind def
/ita {/ang 15 def gsave [1 0 ang dup sin exch cos div 1 0 0] concat} def 
/mp {newpath /y exch def /x exch def} def
/side {[w .77 mul w .23 mul] .385 w mul sd w 0 l currentpoint t -144 r} def
/mr {mp x y w2 0 360 arc} def /m24 {mr s} def /m20 {mr f} def
/mb {mp x y w2 add m w2 neg 0 d 0 w neg d w 0 d 0 w d cl} def
/mt {mp x y w2 add m w2 neg w neg d w 0 d cl} def
/w4 {w 4 div} def
/w6 {w 6 div} def
/w8 {w 8 div} def
/m21 {mb f} def /m25 {mb s} def /m22 {mt f} def /m26{mt s} def
/m23 {mp x y w2 sub m w2 w d w neg 0 d cl f} def
/m27 {mp x y w2 add m w3 neg w2 neg d w3 w2 neg d w3 w2 d cl s} def
/m28 {mp x w2 sub y w2 sub w3 add m w3 0 d  0 w3 neg d w3 0 d 0 w3 d w3 0 d  0 w3 d w3 neg 0 d 0 w3 d w3 neg 0 d 0 w3 neg d w3 neg 0 d cl s } def
/m29 {mp gsave x w2 sub y w2 add w3 sub m currentpoint t 4 {side} repeat cl fill gr} def
/m30 {mp gsave x w2 sub y w2 add w3 sub m currentpoint t 4 {side} repeat cl s gr} def
/m31 {mp x y w2 sub m 0 w d x w2 sub y m w 0 d x w2 sub y w2 add m w w neg d x w2 sub y w2 sub m w w d s} def
/m32 {mp x y w2 sub m w2 w d w neg 0 d cl s} def
/m33 {mp x y w2 add m w3 neg w2 neg d w3 w2 neg d w3 w2 d cl f} def
/m34 {mp x w2 sub y w2 sub w3 add m w3 0 d  0 w3 neg d w3 0 d 0 w3 d w3 0 d  0 w3 d w3 neg 0 d 0 w3 d w3 neg 0 d 0 w3 neg d w3 neg 0 d cl f } def
/m35 {mp x y w2 add m w2 neg w2 neg d w2 w2 neg d w2 w2 d w2 neg w2 d x y w2 sub m 0 w d x w2 sub y m w 0 d s} def
/m36 {mb x w2 sub y w2 add m w w neg d x w2 sub y w2 sub m w w d s} def
/m37 {mp x y m w4 neg w2 d w4 neg w2 neg d w2 0 d  w4 neg w2 neg d w2 0 d w4 neg w2 d w2 0 d w4 neg w2 d w4 neg w2 neg d cl s} def
/m38 {mp x w4 sub y w2 add m w4 neg w4 neg d 0 w2 neg d w4 w4 neg d w2 0 d w4 w4 d 0 w2 d w4 neg w4 d w2 neg 0 d x y w2 sub m 0 w d x w2 sub y m w 0 d cl s} def
/m39 {mp x y m w4 neg w2 d w4 neg w2 neg d w2 0 d  w4 neg w2 neg d w2 0 d w4 neg w2 d w2 0 d w4 neg w2 d w4 neg w2 neg d cl f} def
/m40 {mp x y m w4 w2 d w4 w4 neg d w2 neg w4 neg d w2 w4 neg d w4 neg w4 neg d w4 neg w2 d w4 neg w2 neg d w4 neg w4 d w2 w4 d w2 neg w4 d w4 w4 d w4 w2 neg d cl s} def
/m41 {mp x y m w4 w2 d w4 w4 neg d w2 neg w4 neg d w2 w4 neg d w4 neg w4 neg d w4 neg w2 d w4 neg w2 neg d w4 neg w4 d w2 w4 d w2 neg w4 d w4 w4 d w4 w2 neg d cl f} def
/m42 {mp x y w2 add m w8 neg w2 -3 4 div mul d w2 -3 4 div mul w8 neg d w2 3 4 div mul w8 neg d w8 w2 -3 4 div mul d w8 w2 3 4 div mul d w2 3 4 div mul w8 d w2 -3 4 div mul w8 d w8 neg w2 3 4 div mul d cl s} def
/m43 {mp x y w2 add m w8 neg w2 -3 4 div mul d w2 -3 4 div mul w8 neg d w2 3 4 div mul w8 neg d w8 w2 -3 4 div mul d w8 w2 3 4 div mul d w2 3 4 div mul w8 d w2 -3 4 div mul w8 d w8 neg w2 3 4 div mul d cl f} def
/m44 {mp x y m w6 neg w2 d w2 2 3 div mul 0 d w6 neg w2 neg d w2 w6 d 0 w2 -2 3 div mul d w2 neg w6 d w6 w2 neg d w2 -2 3 div mul 0 d w6 w2 d w2 neg w6 neg d 0 w2 2 3 div mul d w2 w6 neg d cl s} def
/m45 {mp x y m w6 neg w2 d w2 2 3 div mul 0 d w6 neg w2 neg d w2 w6 d 0 w2 -2 3 div mul d w2 neg w6 d w6 w2 neg d w2 -2 3 div mul 0 d w6 w2 d w2 neg w6 neg d 0 w2 2 3 div mul d w2 w6 neg d cl f} def
/m46 {mp x y w4 add m w4 neg w4 d w4 neg w4 neg d  w4 w4 neg d w4 neg w4 neg d w4 w4 neg d w4 w4 d w4 w4 neg d w4 w4 d w4 neg w4 d w4 w4 d w4 neg w4 d w4 neg w4 neg d cl s} def
/m47 {mp x y w4 add m w4 neg w4 d w4 neg w4 neg d w4 w4 neg d w4 neg w4 neg d  w4 w4 neg d w4 w4 d w4 w4 neg d w4 w4 d w4 neg w4 d w4 w4 d w4 neg w4 d w4 neg w4 neg d cl f} def
/m48 {mp x y w4 add m w4 neg w4 d w4 neg w4 neg d w4 w4 neg d  w4 neg w4 neg d w4 w4 neg d w4 w4 d w4 w4 neg d w4 w4 d w4 neg w4 d w4 w4 d w4 neg w4 d w4 neg w4 neg d  w4 w4 neg d w4 neg w4 neg d w4 neg w4 d w4 w4 d cl f} def
/m49 {mp x w2 sub w3 add y w2 sub w3 add m  0 w3 neg d w3 0 d 0 w3 d w3 0 d 0 w3 d w3 neg 0 d 0 w3 d w3 neg 0 d 0 w3 neg d w3 neg 0 d 0 w3 neg d w3 0 d 0 w3 d w3 0 d 0 w3 neg d w3 neg 0 d cl f } def
/m2 {mp x y w2 sub m 0 w d x w2 sub y m w 0 d s} def
/m5 {mp x w2 sub y w2 sub m w w d x w2 sub y w2 add m w w neg d s} def
%%IncludeResource: ProcSet (FontSetInit)
%%IncludeResource: font Times-Roman
%%IncludeResource: font Times-Italic
%%IncludeResource: font Times-Bold
%%IncludeResource: font Times-BoldItalic
%%IncludeResource: font Helvetica
%%IncludeResource: font Helvetica-Oblique
%%IncludeResource: font Helvetica-Bold
%%IncludeResource: font Helvetica-BoldOblique
%%IncludeResource: font Courier
%%IncludeResource: font Courier-Oblique
%%IncludeResource: font Courier-Bold
%%IncludeResource: font Courier-BoldOblique
%%IncludeResource: font Symbol
%%IncludeResource: font ZapfDingbats
/reEncode {exch findfont dup length dict begin {1 index /FID eq  {pop pop} {def} ifelse } forall /Encoding exch def currentdict end dup /FontName get exch definefont pop } def [/Times-Bold /Times-Italic /Times-BoldItalic /Helvetica /Helvetica-Oblique
 /Helvetica-Bold /Helvetica-BoldOblique /Courier /Courier-Oblique /Courier-Bold /Courier-BoldOblique /Times-Roman /AvantGarde-Book /AvantGarde-BookOblique /AvantGarde-Demi /AvantGarde-DemiOblique /Bookman-Demi /Bookman-DemiItalic /Bookman-Light
 /Bookman-LightItalic /Helvetica-Narrow /Helvetica-Narrow-Bold /Helvetica-Narrow-BoldOblique /Helvetica-Narrow-Oblique /NewCenturySchlbk-Roman /NewCenturySchlbk-Bold /NewCenturySchlbk-BoldItalic /NewCenturySchlbk-Italic /Palatino-Bold
 /Palatino-BoldItalic /Palatino-Italic /Palatino-Roman ] {ISOLatin1Encoding reEncode } forall
%%EndProlog
%%BeginSetup
%%EndSetup
newpath  gsave  .25 .25 scale  gsave  0 0 t 0.490196 0.545098 0.615686 c[  ] 0 sd 3 lw 0.941176 0.941176 0.941176 c 2268 2177 0 0 bf black 1 1 0.992157 c 1633 1567 340 327 bf black 1633 1567 340 327 bl 1 1 0.992157 c 1633 1567 340 327 bf black 1633
 1567 340 327 bl 1 1 1 c 1 0 0 c 204 195 340 327 bf 0 1 0.0533333 c 204 195 544 327 bf 204 195 748 327 bf 205 195 952 327 bf 1 0.466667 0 c 204 195 1157 327 bf 0 1 0.0533333 c 204 195 1361 327 bf 204 195 1565 327 bf 204 195 1769 327 bf 204 196 340
 522 bf 1 0 0 c 204 196 544 522 bf 0 1 0.8 c 204 196 748 522 bf 1 0.466667 0 c 205 196 952 522 bf 0 1 0.0533333 c 204 196 1157 522 bf 204 196 1361 522 bf 204 196 1565 522 bf 1 0.466667 0 c 204 196 1769 522 bf 0 1 0.0533333 c 204 196 340 718 bf 0 1
 0.8 c 204 196 544 718 bf 1 0 0 c 204 196 748 718 bf 0.413333 1 0 c 205 196 952 718 bf 0 1 0.0533333 c 204 196 1157 718 bf 204 196 1361 718 bf 204 196 1565 718 bf 204 196 1769 718 bf 204 196 340 914 bf 1 0.466667 0 c 204 196 544 914 bf 0.413333 1 0 c
 204 196 748 914 bf 1 0 0 c 205 196 952 914 bf 0 1 0.0533333 c 204 196 1157 914 bf 204 196 1361 914 bf 0 1 0.333333 c 204 196 1565 914 bf 1 0.186667 0 c 204 196 1769 914 bf 1 0.466667 0 c 204 196 340 1110 bf 0 1 0.0533333 c 204 196 544 1110 bf 204
 196 748 1110 bf 205 196 952 1110 bf 1 0 0 c 204 196 1157 1110 bf 0 1 0.0533333 c 204 196 1361 1110 bf 204 196 1565 1110 bf 204 196 1769 1110 bf 204 196 340 1306 bf 204 196 544 1306 bf 204 196 748 1306 bf 205 196 952 1306 bf 204 196 1157 1306 bf 1 0
 0 c 204 196 1361 1306 bf 0 1 0.0533333 c 204 196 1565 1306 bf 204 196 1769 1306 bf 204 196 340 1502 bf 204 196 544 1502 bf 204 196 748 1502 bf 0 1 0.333333 c 205 196 952 1502 bf 0 1 0.0533333 c 204 196 1157 1502 bf 204 196 1361 1502 bf 1 0 0 c 204
 196 1565 1502 bf 0 1 0.333333 c 204 196 1769 1502 bf 0 1 0.0533333 c 204 196 340 1698 bf 1 0.466667 0 c 204 196 544 1698 bf 0 1 0.0533333 c 204 196 748 1698 bf 1 0.186667 0 c 205 196 952 1698 bf 0 1 0.0533333 c 204 196 1157 1698 bf 204 196 1361 1698
 bf 0 1 0.333333 c 204 196 1565 1698 bf 1 0 0 c 204 196 1769 1698 bf 0.386667 0 1 c 102 78 1984 327 bf 0.2 0 1 c 102 78 1984 405 bf 0 0.0800001 1 c 102 79 1984 483 bf 0 0.266667 1 c 102 78 1984 562 bf 0 0.546666 1 c 102 78 1984 640 bf 0 0.733333 1 c
 102 79 1984 718 bf 0 1 0.986667 c 102 78 1984 797 bf 0 1 0.8 c 102 78 1984 875 bf 0 1 0.52 c 102 79 1984 953 bf 0 1 0.333333 c 102 78 1984 1032 bf 0 1 0.0533333 c 102 78 1984 1110 bf 0.133333 1 0 c 102 79 1984 1188 bf 0.413333 1 0 c 102 78 1984 1267
 bf 0.6 1 0 c 102 79 1984 1345 bf 0.88 1 0 c 102 78 1984 1424 bf 1 0.933333 0 c 102 78 1984 1502 bf 1 0.653333 0 c 102 79 1984 1580 bf 1 0.466667 0 c 102 78 1984 1659 bf 1 0.186667 0 c 102 78 1984 1737 bf 1 0 0 c 102 79 1984 1815 bf black 2086 327 m
 1567 Y s 2037 327 m 49 X s 2037 483 m 49 X s 2037 640 m 49 X s 2037 797 m 49 X s 2037 953 m 49 X s 2037 1110 m 49 X s 2037 1267 m 49 X s 2037 1424 m 49 X s 2037 1580 m 49 X s 2037 1737 m 49 X s 2037 1894 m 49 X s
 gsave  2268 2177 0 0 C 2134.99 303.373 t 0 r /Helvetica findfont 72.0512 sf 0 0 m (100) show NC gr 
 gsave  2268 2177 0 0 C 2097.07 303.373 t 0 r /Symbol findfont 72.0512 sf 0 0 m (-) show NC gr 
 gsave  2268 2177 0 0 C 2134.99 458.852 t 0 r /Helvetica findfont 72.0512 sf 0 0 m (80) show NC gr 
 gsave  2268 2177 0 0 C 2097.07 458.852 t 0 r /Symbol findfont 72.0512 sf 0 0 m (-) show NC gr 
 gsave  2268 2177 0 0 C 2134.99 614.331 t 0 r /Helvetica findfont 72.0512 sf 0 0 m (60) show NC gr 
 gsave  2268 2177 0 0 C 2097.07 614.331 t 0 r /Symbol findfont 72.0512 sf 0 0 m (-) show NC gr 
 gsave  2268 2177 0 0 C 2134.99 773.602 t 0 r /Helvetica findfont 72.0512 sf 0 0 m (40) show NC gr 
 gsave  2268 2177 0 0 C 2097.07 773.602 t 0 r /Symbol findfont 72.0512 sf 0 0 m (-) show NC gr 
 gsave  2268 2177 0 0 C 2134.99 929.081 t 0 r /Helvetica findfont 72.0512 sf 0 0 m (20) show NC gr 
 gsave  2268 2177 0 0 C 2097.07 929.081 t 0 r /Symbol findfont 72.0512 sf 0 0 m (-) show NC gr 
 gsave  2268 2177 0 0 C 2097.07 1084.56 t 0 r /Helvetica findfont 72.0512 sf 0 0 m (0) show NC gr 
 gsave  2268 2177 0 0 C 2097.07 1243.83 t 0 r /Helvetica findfont 72.0512 sf 0 0 m (20) show NC gr 
 gsave  2268 2177 0 0 C 2097.07 1399.31 t 0 r /Helvetica findfont 72.0512 sf 0 0 m (40) show NC gr 
 gsave  2268 2177 0 0 C 2097.07 1554.79 t 0 r /Helvetica findfont 72.0512 sf 0 0 m (60) show NC gr 
 gsave  2268 2177 0 0 C 2097.07 1714.06 t 0 r /Helvetica findfont 72.0512 sf 0 0 m (80) show NC gr 
 gsave  2268 2177 0 0 C 2097.07 1869.54 t 0 r /Helvetica findfont 72.0512 sf 0 0 m (100) show NC gr  1 1 1 c black 340 327 m 1633 X s
 gsave  2268 2177 0 0 C 432.307 261.66 t -19 r /Helvetica findfont 53.0904 sf 0 0 m (m_delta_z) show NC gr 
 gsave  2268 2177 0 0 C 637.084 261.66 t -19 r /Helvetica findfont 53.0904 sf 0 0 m (m_z_sigma) show NC gr 
 gsave  2268 2177 0 0 C 841.861 269.244 t -19 r /Helvetica findfont 53.0904 sf 0 0 m (m_q_over_p) show NC gr 
 gsave  2268 2177 0 0 C 1046.64 261.66 t -19 r /Helvetica findfont 53.0904 sf 0 0 m (m_q_over_p_sigma) show NC gr 
 gsave  2268 2177 0 0 C 1247.62 261.66 t -19 r /Helvetica findfont 53.0904 sf 0 0 m (m_delta_z_resunits) show NC gr 
 gsave  2268 2177 0 0 C 1452.4 261.66 t -19 r /Helvetica findfont 53.0904 sf 0 0 m (m_cluster_sumpt2) show NC gr 
 gsave  2268 2177 0 0 C 1657.18 261.66 t -19 r /Helvetica findfont 53.0904 sf 0 0 m (m_d0) show NC gr 
 gsave  2268 2177 0 0 C 1861.95 261.66 t -19 r /Helvetica findfont 53.0904 sf 0 0 m (m_d0_sigma) show NC gr  340 374 m -47 Y s[ 4 8] 0 sd 340 1894 m -1567 Y s[  ] 0 sd 544 374 m -47 Y s[ 4 8] 0 sd 544 1894 m -1567 Y s[  ] 0 sd 748 374 m -47 Y s[ 4 8]
 0 sd 748 1894 m -1567 Y s[  ] 0 sd 952 374 m -47 Y s[ 4 8] 0 sd 952 1894 m -1567 Y s[  ] 0 sd 1157 374 m -47 Y s[ 4 8] 0 sd 1157 1894 m -1567 Y s[  ] 0 sd 1361 374 m -47 Y s[ 4 8] 0 sd 1361 1894 m -1567 Y s[  ] 0 sd 1565 374 m -47 Y s[ 4 8] 0 sd
 1565 1894 m -1567 Y s[  ] 0 sd 1769 374 m -47 Y s[ 4 8] 0 sd 1769 1894 m -1567 Y s[  ] 0 sd 1973 374 m -47 Y s[ 4 8] 0 sd 1973 1894 m -1567 Y s[  ] 0 sd 340 1894 m 1633 X s 340 1847 m 47 Y s 544 1847 m 47 Y s 748 1847 m 47 Y s 952 1847 m 47 Y s 1157
 1847 m 47 Y s 1361 1847 m 47 Y s 1565 1847 m 47 Y s 1769 1847 m 47 Y s 1973 1847 m 47 Y s 340 327 m 1567 Y s
 gsave  2268 2177 0 0 C 68.259 405.762 t 0 r /Helvetica findfont 53.0904 sf 0 0 m (m_delta_z) show NC gr 
 gsave  2268 2177 0 0 C 41.7138 606.747 t 0 r /Helvetica findfont 53.0904 sf 0 0 m (m_z_sigma) show NC gr 
 gsave  2268 2177 0 0 C 18.9608 807.732 t 0 r /Helvetica findfont 53.0904 sf 0 0 m (m_q_over_p) show NC gr 
 gsave  2268 2177 0 0 C -151.687 997.34 t 0 r /Helvetica findfont 53.0904 sf 0 0 m (m_q_over_p_sigma) show NC gr 
 gsave  2268 2177 0 0 C -144.102 1190.74 t 0 r /Helvetica findfont 53.0904 sf 0 0 m (m_delta_z_resunits) show NC gr 
 gsave  2268 2177 0 0 C -117.557 1391.73 t 0 r /Helvetica findfont 53.0904 sf 0 0 m (m_cluster_sumpt2) show NC gr 
 gsave  2268 2177 0 0 C 182.024 1581.33 t 0 r /Helvetica findfont 53.0904 sf 0 0 m (m_d0) show NC gr 
 gsave  2268 2177 0 0 C 11.3765 1782.32 t 0 r /Helvetica findfont 53.0904 sf 0 0 m (m_d0_sigma) show NC gr  389 327 m -49 X s[ 4 8] 0 sd 1973 327 m -1633 X s[  ] 0 sd 389 522 m -49 X s[ 4 8] 0 sd 1973 522 m -1633 X s[  ] 0 sd 389 718 m -49 X s[ 4 8]
 0 sd 1973 718 m -1633 X s[  ] 0 sd 389 914 m -49 X s[ 4 8] 0 sd 1973 914 m -1633 X s[  ] 0 sd 389 1110 m -49 X s[ 4 8] 0 sd 1973 1110 m -1633 X s[  ] 0 sd 389 1306 m -49 X s[ 4 8] 0 sd 1973 1306 m -1633 X s[  ] 0 sd 389 1502 m -49 X s[ 4 8] 0 sd
 1973 1502 m -1633 X s[  ] 0 sd 389 1698 m -49 X s[ 4 8] 0 sd 1973 1698 m -1633 X s[  ] 0 sd 389 1894 m -49 X s[ 4 8] 0 sd 1973 1894 m -1633 X s[  ] 0 sd 1973 327 m 1567 Y s 1924 327 m 49 X s 1924 522 m 49 X s 1924 718 m 49 X s 1924 914 m 49 X s 1924
 1110 m 49 X s 1924 1306 m 49 X s 1924 1502 m 49 X s 1924 1698 m 49 X s 1924 1894 m 49 X s 0.490196 0.545098 0.615686 c 0.364706 0.419608 0.490196 c 1587 128 23 2038 bf 0.490196 0.545098 0.615686 c 23 2038 m 1587 X s 1610 2038 m 128 Y s 1610 2166 m
 -1587 X s 23 2166 m -128 Y s 1 1 1 c black 1 1 1 c
 gsave  2268 2177 0 0 C 94.8042 2078.11 t 0 r /Helvetica-Bold findfont 94.8042 sf 0 0 m (Correlation Matrix \(background\)) show NC gr  black 1 1 1 c
 gsave  2268 2177 0 0 C 386.801 401.97 t 0 r /Helvetica-Bold findfont 60.6747 sf 0 0 m (100) show NC gr  black 1 1 1 c
 gsave  2268 2177 0 0 C 1213.49 398.178 t 0 r /Helvetica-Bold findfont 60.6747 sf 0 0 m ( 74) show NC gr  black 1 1 1 c
 gsave  2268 2177 0 0 C 591.578 599.163 t 0 r /Helvetica-Bold findfont 60.6747 sf 0 0 m (100) show NC gr  black 1 1 1 c
 gsave  2268 2177 0 0 C 807.732 595.37 t 0 r /Helvetica-Bold findfont 60.6747 sf 0 0 m (\25521) show NC gr  black 1 1 1 c
 gsave  2268 2177 0 0 C 1012.51 599.163 t 0 r /Helvetica-Bold findfont 60.6747 sf 0 0 m ( 78) show NC gr  black 1 1 1 c
 gsave  2268 2177 0 0 C 1827.83 599.163 t 0 r /Helvetica-Bold findfont 60.6747 sf 0 0 m ( 75) show NC gr  black 1 1 1 c
 gsave  2268 2177 0 0 C 602.955 792.563 t 0 r /Helvetica-Bold findfont 60.6747 sf 0 0 m (\25521) show NC gr  black 1 1 1 c
 gsave  2268 2177 0 0 C 796.355 796.355 t 0 r /Helvetica-Bold findfont 60.6747 sf 0 0 m (100) show NC gr  black 1 1 1 c
 gsave  2268 2177 0 0 C 1016.3 792.563 t 0 r /Helvetica-Bold findfont 60.6747 sf 0 0 m ( 21) show NC gr  black 1 1 1 c
 gsave  2268 2177 0 0 C 1835.41 796.355 t 0 r /Helvetica-Bold findfont 60.6747 sf 0 0 m (  5) show NC gr  black 1 1 1 c
 gsave  2268 2177 0 0 C 602.955 989.756 t 0 r /Helvetica-Bold findfont 60.6747 sf 0 0 m ( 78) show NC gr  black 1 1 1 c
 gsave  2268 2177 0 0 C 811.524 985.964 t 0 r /Helvetica-Bold findfont 60.6747 sf 0 0 m ( 21) show NC gr  black 1 1 1 c
 gsave  2268 2177 0 0 C 1001.13 989.756 t 0 r /Helvetica-Bold findfont 60.6747 sf 0 0 m (100) show NC gr  black 1 1 1 c
 gsave  2268 2177 0 0 C 1634.42 985.964 t 0 r /Helvetica-Bold findfont 60.6747 sf 0 0 m ( \2551) show NC gr  black 1 1 1 c
 gsave  2268 2177 0 0 C 1827.83 989.756 t 0 r /Helvetica-Bold findfont 60.6747 sf 0 0 m ( 84) show NC gr  black 1 1 1 c
 gsave  2268 2177 0 0 C 398.178 1183.16 t 0 r /Helvetica-Bold findfont 60.6747 sf 0 0 m ( 74) show NC gr  black 1 1 1 c
 gsave  2268 2177 0 0 C 1202.12 1186.95 t 0 r /Helvetica-Bold findfont 60.6747 sf 0 0 m (100) show NC gr  black 1 1 1 c
 gsave  2268 2177 0 0 C 1406.89 1384.14 t 0 r /Helvetica-Bold findfont 60.6747 sf 0 0 m (100) show NC gr  black 1 1 1 c
 gsave  2268 2177 0 0 C 1023.89 1573.75 t 0 r /Helvetica-Bold findfont 60.6747 sf 0 0 m ( \2551) show NC gr  black 1 1 1 c
 gsave  2268 2177 0 0 C 1611.67 1577.54 t 0 r /Helvetica-Bold findfont 60.6747 sf 0 0 m (100) show NC gr  black 1 1 1 c
 gsave  2268 2177 0 0 C 1831.62 1573.75 t 0 r /Helvetica-Bold findfont 60.6747 sf 0 0 m ( \2552) show NC gr  black 1 1 1 c
 gsave  2268 2177 0 0 C 602.955 1774.73 t 0 r /Helvetica-Bold findfont 60.6747 sf 0 0 m ( 75) show NC gr  black 1 1 1 c
 gsave  2268 2177 0 0 C 815.316 1774.73 t 0 r /Helvetica-Bold findfont 60.6747 sf 0 0 m (  5) show NC gr  black 1 1 1 c
 gsave  2268 2177 0 0 C 1012.51 1774.73 t 0 r /Helvetica-Bold findfont 60.6747 sf 0 0 m ( 84) show NC gr  black 1 1 1 c
 gsave  2268 2177 0 0 C 1626.84 1770.94 t 0 r /Helvetica-Bold findfont 60.6747 sf 0 0 m ( \2552) show NC gr  black 1 1 1 c
 gsave  2268 2177 0 0 C 1816.45 1774.73 t 0 r /Helvetica-Bold findfont 60.6747 sf 0 0 m (100) show NC gr  black
 gsave  2268 2177 0 0 C 1201.89 1915.5 t 0 r /Helvetica-Bold findfont 53.0904 sf 0 0 m (Linear correlation coefficients in %) show NC gr 
 gr  gr showpage
end
%%EOF
