%!PS-Adobe-2.0 EPSF-2.0
%%BoundingBox:  0 0 567 544
%%Title: dataset/plots/CorrelationMatrixS.eps: Correlations between MVA input variables (signal)
%%Creator: ROOT Version 6.14/04
%%CreationDate: Mon Mar  2 12:44:13 2020
%%DocumentNeededResources: ProcSet (FontSetInit)
%%EndComments
%%BeginProlog
80 dict begin
/s {stroke} def /l {lineto} def /m {moveto} def /t {translate} def
/r {rotate} def /rl {roll}  def /R {repeat} def
/d {rlineto} def /rm {rmoveto} def /gr {grestore} def /f {eofill} def
/c {setrgbcolor} def /black {0 setgray} def /sd {setdash} def
/cl {closepath} def /sf {scalefont setfont} def /lw {setlinewidth} def
/box {m dup 0 exch d exch 0 d 0 exch neg d cl} def
/NC{systemdict begin initclip end}def/C{NC box clip newpath}def
/bl {box s} def /bf {gsave box gsave f grestore 1 lw [] 0 sd s grestore} def /Y { 0 exch d} def /X { 0 d} def 
/K {{pop pop 0 moveto} exch kshow} bind def
/ita {/ang 15 def gsave [1 0 ang dup sin exch cos div 1 0 0] concat} def 
/mp {newpath /y exch def /x exch def} def
/side {[w .77 mul w .23 mul] .385 w mul sd w 0 l currentpoint t -144 r} def
/mr {mp x y w2 0 360 arc} def /m24 {mr s} def /m20 {mr f} def
/mb {mp x y w2 add m w2 neg 0 d 0 w neg d w 0 d 0 w d cl} def
/mt {mp x y w2 add m w2 neg w neg d w 0 d cl} def
/w4 {w 4 div} def
/w6 {w 6 div} def
/w8 {w 8 div} def
/m21 {mb f} def /m25 {mb s} def /m22 {mt f} def /m26{mt s} def
/m23 {mp x y w2 sub m w2 w d w neg 0 d cl f} def
/m27 {mp x y w2 add m w3 neg w2 neg d w3 w2 neg d w3 w2 d cl s} def
/m28 {mp x w2 sub y w2 sub w3 add m w3 0 d  0 w3 neg d w3 0 d 0 w3 d w3 0 d  0 w3 d w3 neg 0 d 0 w3 d w3 neg 0 d 0 w3 neg d w3 neg 0 d cl s } def
/m29 {mp gsave x w2 sub y w2 add w3 sub m currentpoint t 4 {side} repeat cl fill gr} def
/m30 {mp gsave x w2 sub y w2 add w3 sub m currentpoint t 4 {side} repeat cl s gr} def
/m31 {mp x y w2 sub m 0 w d x w2 sub y m w 0 d x w2 sub y w2 add m w w neg d x w2 sub y w2 sub m w w d s} def
/m32 {mp x y w2 sub m w2 w d w neg 0 d cl s} def
/m33 {mp x y w2 add m w3 neg w2 neg d w3 w2 neg d w3 w2 d cl f} def
/m34 {mp x w2 sub y w2 sub w3 add m w3 0 d  0 w3 neg d w3 0 d 0 w3 d w3 0 d  0 w3 d w3 neg 0 d 0 w3 d w3 neg 0 d 0 w3 neg d w3 neg 0 d cl f } def
/m35 {mp x y w2 add m w2 neg w2 neg d w2 w2 neg d w2 w2 d w2 neg w2 d x y w2 sub m 0 w d x w2 sub y m w 0 d s} def
/m36 {mb x w2 sub y w2 add m w w neg d x w2 sub y w2 sub m w w d s} def
/m37 {mp x y m w4 neg w2 d w4 neg w2 neg d w2 0 d  w4 neg w2 neg d w2 0 d w4 neg w2 d w2 0 d w4 neg w2 d w4 neg w2 neg d cl s} def
/m38 {mp x w4 sub y w2 add m w4 neg w4 neg d 0 w2 neg d w4 w4 neg d w2 0 d w4 w4 d 0 w2 d w4 neg w4 d w2 neg 0 d x y w2 sub m 0 w d x w2 sub y m w 0 d cl s} def
/m39 {mp x y m w4 neg w2 d w4 neg w2 neg d w2 0 d  w4 neg w2 neg d w2 0 d w4 neg w2 d w2 0 d w4 neg w2 d w4 neg w2 neg d cl f} def
/m40 {mp x y m w4 w2 d w4 w4 neg d w2 neg w4 neg d w2 w4 neg d w4 neg w4 neg d w4 neg w2 d w4 neg w2 neg d w4 neg w4 d w2 w4 d w2 neg w4 d w4 w4 d w4 w2 neg d cl s} def
/m41 {mp x y m w4 w2 d w4 w4 neg d w2 neg w4 neg d w2 w4 neg d w4 neg w4 neg d w4 neg w2 d w4 neg w2 neg d w4 neg w4 d w2 w4 d w2 neg w4 d w4 w4 d w4 w2 neg d cl f} def
/m42 {mp x y w2 add m w8 neg w2 -3 4 div mul d w2 -3 4 div mul w8 neg d w2 3 4 div mul w8 neg d w8 w2 -3 4 div mul d w8 w2 3 4 div mul d w2 3 4 div mul w8 d w2 -3 4 div mul w8 d w8 neg w2 3 4 div mul d cl s} def
/m43 {mp x y w2 add m w8 neg w2 -3 4 div mul d w2 -3 4 div mul w8 neg d w2 3 4 div mul w8 neg d w8 w2 -3 4 div mul d w8 w2 3 4 div mul d w2 3 4 div mul w8 d w2 -3 4 div mul w8 d w8 neg w2 3 4 div mul d cl f} def
/m44 {mp x y m w6 neg w2 d w2 2 3 div mul 0 d w6 neg w2 neg d w2 w6 d 0 w2 -2 3 div mul d w2 neg w6 d w6 w2 neg d w2 -2 3 div mul 0 d w6 w2 d w2 neg w6 neg d 0 w2 2 3 div mul d w2 w6 neg d cl s} def
/m45 {mp x y m w6 neg w2 d w2 2 3 div mul 0 d w6 neg w2 neg d w2 w6 d 0 w2 -2 3 div mul d w2 neg w6 d w6 w2 neg d w2 -2 3 div mul 0 d w6 w2 d w2 neg w6 neg d 0 w2 2 3 div mul d w2 w6 neg d cl f} def
/m46 {mp x y w4 add m w4 neg w4 d w4 neg w4 neg d  w4 w4 neg d w4 neg w4 neg d w4 w4 neg d w4 w4 d w4 w4 neg d w4 w4 d w4 neg w4 d w4 w4 d w4 neg w4 d w4 neg w4 neg d cl s} def
/m47 {mp x y w4 add m w4 neg w4 d w4 neg w4 neg d w4 w4 neg d w4 neg w4 neg d  w4 w4 neg d w4 w4 d w4 w4 neg d w4 w4 d w4 neg w4 d w4 w4 d w4 neg w4 d w4 neg w4 neg d cl f} def
/m48 {mp x y w4 add m w4 neg w4 d w4 neg w4 neg d w4 w4 neg d  w4 neg w4 neg d w4 w4 neg d w4 w4 d w4 w4 neg d w4 w4 d w4 neg w4 d w4 w4 d w4 neg w4 d w4 neg w4 neg d  w4 w4 neg d w4 neg w4 neg d w4 neg w4 d w4 w4 d cl f} def
/m49 {mp x w2 sub w3 add y w2 sub w3 add m  0 w3 neg d w3 0 d 0 w3 d w3 0 d 0 w3 d w3 neg 0 d 0 w3 d w3 neg 0 d 0 w3 neg d w3 neg 0 d 0 w3 neg d w3 0 d 0 w3 d w3 0 d 0 w3 neg d w3 neg 0 d cl f } def
/m2 {mp x y w2 sub m 0 w d x w2 sub y m w 0 d s} def
/m5 {mp x w2 sub y w2 sub m w w d x w2 sub y w2 add m w w neg d s} def
%%IncludeResource: ProcSet (FontSetInit)
%%IncludeResource: font Times-Roman
%%IncludeResource: font Times-Italic
%%IncludeResource: font Times-Bold
%%IncludeResource: font Times-BoldItalic
%%IncludeResource: font Helvetica
%%IncludeResource: font Helvetica-Oblique
%%IncludeResource: font Helvetica-Bold
%%IncludeResource: font Helvetica-BoldOblique
%%IncludeResource: font Courier
%%IncludeResource: font Courier-Oblique
%%IncludeResource: font Courier-Bold
%%IncludeResource: font Courier-BoldOblique
%%IncludeResource: font Symbol
%%IncludeResource: font ZapfDingbats
/reEncode {exch findfont dup length dict begin {1 index /FID eq  {pop pop} {def} ifelse } forall /Encoding exch def currentdict end dup /FontName get exch definefont pop } def [/Times-Bold /Times-Italic /Times-BoldItalic /Helvetica /Helvetica-Oblique
 /Helvetica-Bold /Helvetica-BoldOblique /Courier /Courier-Oblique /Courier-Bold /Courier-BoldOblique /Times-Roman /AvantGarde-Book /AvantGarde-BookOblique /AvantGarde-Demi /AvantGarde-DemiOblique /Bookman-Demi /Bookman-DemiItalic /Bookman-Light
 /Bookman-LightItalic /Helvetica-Narrow /Helvetica-Narrow-Bold /Helvetica-Narrow-BoldOblique /Helvetica-Narrow-Oblique /NewCenturySchlbk-Roman /NewCenturySchlbk-Bold /NewCenturySchlbk-BoldItalic /NewCenturySchlbk-Italic /Palatino-Bold
 /Palatino-BoldItalic /Palatino-Italic /Palatino-Roman ] {ISOLatin1Encoding reEncode } forall
%%EndProlog
%%BeginSetup
%%EndSetup
newpath  gsave  .25 .25 scale  gsave  0 0 t 0.490196 0.545098 0.615686 c[  ] 0 sd 3 lw 0.941176 0.941176 0.941176 c 2268 2177 0 0 bf black 1 1 0.992157 c 1633 1567 340 327 bf black 1633 1567 340 327 bl 1 1 0.992157 c 1633 1567 340 327 bf black 1633
 1567 340 327 bl 1 1 1 c 1 0 0 c 109 104 340 327 bf 0 1 0.0533333 c 109 104 449 327 bf 109 104 558 327 bf 109 104 667 327 bf 1 0.933333 0 c 108 104 776 327 bf 0 1 0.0533333 c 109 104 884 327 bf 109 104 993 327 bf 109 104 1102 327 bf 109 104 1211 327
 bf 109 104 1320 327 bf 109 104 1429 327 bf 0 1 0.333333 c 108 104 1538 327 bf 0 1 0.0533333 c 109 104 1646 327 bf 109 104 1755 327 bf 109 104 1864 327 bf 109 104 340 431 bf 1 0 0 c 109 104 449 431 bf 0.413333 1 0 c 109 104 558 431 bf 1 0.186667 0 c
 109 104 667 431 bf 0 1 0.0533333 c 108 104 776 431 bf 109 104 884 431 bf 109 104 993 431 bf 1 0 0 c 109 104 1102 431 bf 0 0.546666 1 c 109 104 1211 431 bf 0 0.733333 1 c 109 104 1320 431 bf 1 0.653333 0 c 109 104 1429 431 bf 0 1 0.986667 c 108 104
 1538 431 bf 1 0.933333 0 c 109 104 1646 431 bf 0 1 0.8 c 109 104 1755 431 bf 0 1 0.333333 c 109 104 1864 431 bf 0 1 0.0533333 c 109 105 340 535 bf 0.413333 1 0 c 109 105 449 535 bf 1 0 0 c 109 105 558 535 bf 1 0.653333 0 c 109 105 667 535 bf 0 1
 0.0533333 c 108 105 776 535 bf 109 105 884 535 bf 109 105 993 535 bf 1 0.933333 0 c 109 105 1102 535 bf 0 1 0.986667 c 109 105 1211 535 bf 0 1 0.8 c 109 105 1320 535 bf 0.133333 1 0 c 109 105 1429 535 bf 0 1 0.8 c 108 105 1538 535 bf 0.413333 1 0 c
 109 105 1646 535 bf 0 1 0.333333 c 109 105 1755 535 bf 109 105 1864 535 bf 0 1 0.0533333 c 109 104 340 640 bf 1 0.186667 0 c 109 104 449 640 bf 1 0.653333 0 c 109 104 558 640 bf 1 0 0 c 109 104 667 640 bf 0 1 0.0533333 c 108 104 776 640 bf 109 104
 884 640 bf 109 104 993 640 bf 1 0 0 c 109 104 1102 640 bf 0 0.266667 1 c 109 104 1211 640 bf 0 0.733333 1 c 109 104 1320 640 bf 0.88 1 0 c 109 104 1429 640 bf 0 1 0.986667 c 108 104 1538 640 bf 0.88 1 0 c 109 104 1646 640 bf 0 1 0.52 c 109 104 1755
 640 bf 0 1 0.333333 c 109 104 1864 640 bf 1 0.933333 0 c 109 105 340 744 bf 0 1 0.0533333 c 109 105 449 744 bf 109 105 558 744 bf 109 105 667 744 bf 1 0 0 c 108 105 776 744 bf 0 1 0.0533333 c 109 105 884 744 bf 109 105 993 744 bf 109 105 1102 744 bf
 109 105 1211 744 bf 109 105 1320 744 bf 109 105 1429 744 bf 0 1 0.333333 c 108 105 1538 744 bf 0 1 0.0533333 c 109 105 1646 744 bf 109 105 1755 744 bf 109 105 1864 744 bf 109 104 340 849 bf 109 104 449 849 bf 109 104 558 849 bf 109 104 667 849 bf
 108 104 776 849 bf 1 0 0 c 109 104 884 849 bf 0 1 0.0533333 c 109 104 993 849 bf 109 104 1102 849 bf 109 104 1211 849 bf 109 104 1320 849 bf 109 104 1429 849 bf 108 104 1538 849 bf 109 104 1646 849 bf 109 104 1755 849 bf 1 0 0 c 109 104 1864 849 bf
 0 1 0.0533333 c 109 105 340 953 bf 109 105 449 953 bf 109 105 558 953 bf 109 105 667 953 bf 108 105 776 953 bf 109 105 884 953 bf 1 0 0 c 109 105 993 953 bf 0 1 0.0533333 c 109 105 1102 953 bf 109 105 1211 953 bf 109 105 1320 953 bf 109 105 1429 953
 bf 108 105 1538 953 bf 109 105 1646 953 bf 109 105 1755 953 bf 109 105 1864 953 bf 109 104 340 1058 bf 1 0 0 c 109 104 449 1058 bf 1 0.933333 0 c 109 104 558 1058 bf 1 0 0 c 109 104 667 1058 bf 0 1 0.0533333 c 108 104 776 1058 bf 109 104 884 1058 bf
 109 104 993 1058 bf 1 0 0 c 109 104 1102 1058 bf 0 0.266667 1 c 109 104 1211 1058 bf 0 0.733333 1 c 109 104 1320 1058 bf 1 0.933333 0 c 109 104 1429 1058 bf 0 1 0.986667 c 108 104 1538 1058 bf 0.88 1 0 c 109 104 1646 1058 bf 0 1 0.8 c 109 104 1755
 1058 bf 0 1 0.333333 c 109 104 1864 1058 bf 0 1 0.0533333 c 109 105 340 1162 bf 0 0.546666 1 c 109 105 449 1162 bf 0 1 0.986667 c 109 105 558 1162 bf 0 0.266667 1 c 109 105 667 1162 bf 0 1 0.0533333 c 108 105 776 1162 bf 109 105 884 1162 bf 109 105
 993 1162 bf 0 0.266667 1 c 109 105 1102 1162 bf 1 0 0 c 109 105 1211 1162 bf 0.6 1 0 c 109 105 1320 1162 bf 0 1 0.52 c 109 105 1429 1162 bf 0.413333 1 0 c 108 105 1538 1162 bf 0 1 0.986667 c 109 105 1646 1162 bf 0.413333 1 0 c 109 105 1755 1162 bf 0
 1 0.0533333 c 109 105 1864 1162 bf 109 104 340 1267 bf 0 0.733333 1 c 109 104 449 1267 bf 0 1 0.8 c 109 104 558 1267 bf 0 0.733333 1 c 109 104 667 1267 bf 0 1 0.0533333 c 108 104 776 1267 bf 109 104 884 1267 bf 109 104 993 1267 bf 0 0.733333 1 c 109
 104 1102 1267 bf 0.6 1 0 c 109 104 1211 1267 bf 1 0 0 c 109 104 1320 1267 bf 0.6 1 0 c 109 104 1429 1267 bf 0.133333 1 0 c 108 104 1538 1267 bf 0 1 0.8 c 109 104 1646 1267 bf 0.133333 1 0 c 109 104 1755 1267 bf 0 1 0.0533333 c 109 104 1864 1267 bf
 109 105 340 1371 bf 1 0.653333 0 c 109 105 449 1371 bf 0.133333 1 0 c 109 105 558 1371 bf 0.88 1 0 c 109 105 667 1371 bf 0 1 0.0533333 c 108 105 776 1371 bf 109 105 884 1371 bf 109 105 993 1371 bf 1 0.933333 0 c 109 105 1102 1371 bf 0 1 0.52 c 109
 105 1211 1371 bf 0.6 1 0 c 109 105 1320 1371 bf 1 0 0 c 109 105 1429 1371 bf 0 1 0.8 c 108 105 1538 1371 bf 0.6 1 0 c 109 105 1646 1371 bf 0 1 0.333333 c 109 105 1755 1371 bf 0 1 0.0533333 c 109 105 1864 1371 bf 0 1 0.333333 c 109 104 340 1476 bf 0
 1 0.986667 c 109 104 449 1476 bf 0 1 0.8 c 109 104 558 1476 bf 0 1 0.986667 c 109 104 667 1476 bf 0 1 0.333333 c 108 104 776 1476 bf 0 1 0.0533333 c 109 104 884 1476 bf 109 104 993 1476 bf 0 1 0.986667 c 109 104 1102 1476 bf 0.413333 1 0 c 109 104
 1211 1476 bf 0.133333 1 0 c 109 104 1320 1476 bf 0 1 0.8 c 109 104 1429 1476 bf 1 0 0 c 108 104 1538 1476 bf 0 1 0.52 c 109 104 1646 1476 bf 109 104 1755 1476 bf 0 1 0.0533333 c 109 104 1864 1476 bf 109 105 340 1580 bf 1 0.933333 0 c 109 105 449
 1580 bf 0.413333 1 0 c 109 105 558 1580 bf 0.88 1 0 c 109 105 667 1580 bf 0 1 0.0533333 c 108 105 776 1580 bf 109 105 884 1580 bf 109 105 993 1580 bf 0.88 1 0 c 109 105 1102 1580 bf 0 1 0.986667 c 109 105 1211 1580 bf 0 1 0.8 c 109 105 1320 1580 bf
 0.6 1 0 c 109 105 1429 1580 bf 0 1 0.52 c 108 105 1538 1580 bf 1 0 0 c 109 105 1646 1580 bf 0 1 0.986667 c 109 105 1755 1580 bf 0 1 0.0533333 c 109 105 1864 1580 bf 109 104 340 1685 bf 0 1 0.8 c 109 104 449 1685 bf 0 1 0.333333 c 109 104 558 1685 bf
 0 1 0.52 c 109 104 667 1685 bf 0 1 0.0533333 c 108 104 776 1685 bf 109 104 884 1685 bf 109 104 993 1685 bf 0 1 0.8 c 109 104 1102 1685 bf 0.413333 1 0 c 109 104 1211 1685 bf 0.133333 1 0 c 109 104 1320 1685 bf 0 1 0.333333 c 109 104 1429 1685 bf 0 1
 0.52 c 108 104 1538 1685 bf 0 1 0.986667 c 109 104 1646 1685 bf 1 0 0 c 109 104 1755 1685 bf 0 1 0.0533333 c 109 104 1864 1685 bf 109 105 340 1789 bf 0 1 0.333333 c 109 105 449 1789 bf 109 105 558 1789 bf 109 105 667 1789 bf 0 1 0.0533333 c 108 105
 776 1789 bf 1 0 0 c 109 105 884 1789 bf 0 1 0.0533333 c 109 105 993 1789 bf 0 1 0.333333 c 109 105 1102 1789 bf 0 1 0.0533333 c 109 105 1211 1789 bf 109 105 1320 1789 bf 109 105 1429 1789 bf 108 105 1538 1789 bf 109 105 1646 1789 bf 109 105 1755
 1789 bf 1 0 0 c 109 105 1864 1789 bf 0.386667 0 1 c 102 78 1984 327 bf 0.2 0 1 c 102 78 1984 405 bf 0 0.0800001 1 c 102 79 1984 483 bf 0 0.266667 1 c 102 78 1984 562 bf 0 0.546666 1 c 102 78 1984 640 bf 0 0.733333 1 c 102 79 1984 718 bf 0 1 0.986667
 c 102 78 1984 797 bf 0 1 0.8 c 102 78 1984 875 bf 0 1 0.52 c 102 79 1984 953 bf 0 1 0.333333 c 102 78 1984 1032 bf 0 1 0.0533333 c 102 78 1984 1110 bf 0.133333 1 0 c 102 79 1984 1188 bf 0.413333 1 0 c 102 78 1984 1267 bf 0.6 1 0 c 102 79 1984 1345
 bf 0.88 1 0 c 102 78 1984 1424 bf 1 0.933333 0 c 102 78 1984 1502 bf 1 0.653333 0 c 102 79 1984 1580 bf 1 0.466667 0 c 102 78 1984 1659 bf 1 0.186667 0 c 102 78 1984 1737 bf 1 0 0 c 102 79 1984 1815 bf black 2086 327 m 1567 Y s 2037 327 m 49 X s
 2037 483 m 49 X s 2037 640 m 49 X s 2037 797 m 49 X s 2037 953 m 49 X s 2037 1110 m 49 X s 2037 1267 m 49 X s 2037 1424 m 49 X s 2037 1580 m 49 X s 2037 1737 m 49 X s 2037 1894 m 49 X s
 gsave  2268 2177 0 0 C 2134.99 303.373 t 0 r /Helvetica findfont 72.0512 sf 0 0 m (100) show NC gr 
 gsave  2268 2177 0 0 C 2097.07 303.373 t 0 r /Symbol findfont 72.0512 sf 0 0 m (-) show NC gr 
 gsave  2268 2177 0 0 C 2134.99 458.852 t 0 r /Helvetica findfont 72.0512 sf 0 0 m (80) show NC gr 
 gsave  2268 2177 0 0 C 2097.07 458.852 t 0 r /Symbol findfont 72.0512 sf 0 0 m (-) show NC gr 
 gsave  2268 2177 0 0 C 2134.99 614.331 t 0 r /Helvetica findfont 72.0512 sf 0 0 m (60) show NC gr 
 gsave  2268 2177 0 0 C 2097.07 614.331 t 0 r /Symbol findfont 72.0512 sf 0 0 m (-) show NC gr 
 gsave  2268 2177 0 0 C 2134.99 773.602 t 0 r /Helvetica findfont 72.0512 sf 0 0 m (40) show NC gr 
 gsave  2268 2177 0 0 C 2097.07 773.602 t 0 r /Symbol findfont 72.0512 sf 0 0 m (-) show NC gr 
 gsave  2268 2177 0 0 C 2134.99 929.081 t 0 r /Helvetica findfont 72.0512 sf 0 0 m (20) show NC gr 
 gsave  2268 2177 0 0 C 2097.07 929.081 t 0 r /Symbol findfont 72.0512 sf 0 0 m (-) show NC gr 
 gsave  2268 2177 0 0 C 2097.07 1084.56 t 0 r /Helvetica findfont 72.0512 sf 0 0 m (0) show NC gr 
 gsave  2268 2177 0 0 C 2097.07 1243.83 t 0 r /Helvetica findfont 72.0512 sf 0 0 m (20) show NC gr 
 gsave  2268 2177 0 0 C 2097.07 1399.31 t 0 r /Helvetica findfont 72.0512 sf 0 0 m (40) show NC gr 
 gsave  2268 2177 0 0 C 2097.07 1554.79 t 0 r /Helvetica findfont 72.0512 sf 0 0 m (60) show NC gr 
 gsave  2268 2177 0 0 C 2097.07 1714.06 t 0 r /Helvetica findfont 72.0512 sf 0 0 m (80) show NC gr 
 gsave  2268 2177 0 0 C 2097.07 1869.54 t 0 r /Helvetica findfont 72.0512 sf 0 0 m (100) show NC gr  1 1 1 c black 340 327 m 1633 X s
 gsave  2268 2177 0 0 C 386.801 261.66 t -19 r /Helvetica findfont 53.0904 sf 0 0 m (m_delta_z) show NC gr 
 gsave  2268 2177 0 0 C 492.982 261.66 t -19 r /Helvetica findfont 53.0904 sf 0 0 m (m_z_sigma) show NC gr 
 gsave  2268 2177 0 0 C 602.955 269.244 t -19 r /Helvetica findfont 53.0904 sf 0 0 m (m_q_over_p) show NC gr 
 gsave  2268 2177 0 0 C 712.928 261.66 t -19 r /Helvetica findfont 53.0904 sf 0 0 m (m_q_over_p_sigma) show NC gr 
 gsave  2268 2177 0 0 C 819.108 261.66 t -19 r /Helvetica findfont 53.0904 sf 0 0 m (m_delta_z_resunits) show NC gr 
 gsave  2268 2177 0 0 C 929.081 261.66 t -19 r /Helvetica findfont 53.0904 sf 0 0 m (m_cluster_sumpt2) show NC gr 
 gsave  2268 2177 0 0 C 1039.05 261.66 t -19 r /Helvetica findfont 53.0904 sf 0 0 m (m_d0) show NC gr 
 gsave  2268 2177 0 0 C 1145.23 261.66 t -19 r /Helvetica findfont 53.0904 sf 0 0 m (m_d0_sigma) show NC gr 
 gsave  2268 2177 0 0 C 1255.21 261.66 t -19 r /Helvetica findfont 53.0904 sf 0 0 m (m_number_of_tracks) show NC gr 
 gsave  2268 2177 0 0 C 1365.18 261.66 t -19 r /Helvetica findfont 53.0904 sf 0 0 m (m_z0_stddev) show NC gr 
 gsave  2268 2177 0 0 C 1475.15 261.66 t -19 r /Helvetica findfont 53.0904 sf 0 0 m (m_z0_mean) show NC gr 
 gsave  2268 2177 0 0 C 1581.33 261.66 t -19 r /Helvetica findfont 53.0904 sf 0 0 m (m_closest_vx_is_pvx) show NC gr 
 gsave  2268 2177 0 0 C 1691.31 261.66 t -19 r /Helvetica findfont 53.0904 sf 0 0 m (m_distance_pu_vx) show NC gr 
 gsave  2268 2177 0 0 C 1801.28 261.66 t -19 r /Helvetica findfont 53.0904 sf 0 0 m (m_n_pu_vertices) show NC gr 
 gsave  2268 2177 0 0 C 1907.46 261.66 t -19 r /Helvetica findfont 53.0904 sf 0 0 m (m_pt_mod) show NC gr  340 374 m -47 Y s[ 4 8] 0 sd 340 1894 m -1567 Y s[  ] 0 sd 449 374 m -47 Y s[ 4 8] 0 sd 449 1894 m -1567 Y s[  ] 0 sd 558 374 m -47 Y s[ 4 8] 0
 sd 558 1894 m -1567 Y s[  ] 0 sd 667 374 m -47 Y s[ 4 8] 0 sd 667 1894 m -1567 Y s[  ] 0 sd 776 374 m -47 Y s[ 4 8] 0 sd 776 1894 m -1567 Y s[  ] 0 sd 884 374 m -47 Y s[ 4 8] 0 sd 884 1894 m -1567 Y s[  ] 0 sd 993 374 m -47 Y s[ 4 8] 0 sd 993 1894 m
 -1567 Y s[  ] 0 sd 1102 374 m -47 Y s[ 4 8] 0 sd 1102 1894 m -1567 Y s[  ] 0 sd 1211 374 m -47 Y s[ 4 8] 0 sd 1211 1894 m -1567 Y s[  ] 0 sd 1320 374 m -47 Y s[ 4 8] 0 sd 1320 1894 m -1567 Y s[  ] 0 sd 1429 374 m -47 Y s[ 4 8] 0 sd 1429 1894 m -1567
 Y s[  ] 0 sd 1538 374 m -47 Y s[ 4 8] 0 sd 1538 1894 m -1567 Y s[  ] 0 sd 1646 374 m -47 Y s[ 4 8] 0 sd 1646 1894 m -1567 Y s[  ] 0 sd 1755 374 m -47 Y s[ 4 8] 0 sd 1755 1894 m -1567 Y s[  ] 0 sd 1864 374 m -47 Y s[ 4 8] 0 sd 1864 1894 m -1567 Y s[ 
 ] 0 sd 1973 374 m -47 Y s[ 4 8] 0 sd 1973 1894 m -1567 Y s[  ] 0 sd 340 1894 m 1633 X s 340 1847 m 47 Y s 449 1847 m 47 Y s 558 1847 m 47 Y s 667 1847 m 47 Y s 776 1847 m 47 Y s 884 1847 m 47 Y s 993 1847 m 47 Y s 1102 1847 m 47 Y s 1211 1847 m 47 Y
 s 1320 1847 m 47 Y s 1429 1847 m 47 Y s 1538 1847 m 47 Y s 1646 1847 m 47 Y s 1755 1847 m 47 Y s 1864 1847 m 47 Y s 1973 1847 m 47 Y s 340 327 m 1567 Y s
 gsave  2268 2177 0 0 C 68.259 360.256 t 0 r /Helvetica findfont 53.0904 sf 0 0 m (m_delta_z) show NC gr 
 gsave  2268 2177 0 0 C 41.7138 470.229 t 0 r /Helvetica findfont 53.0904 sf 0 0 m (m_z_sigma) show NC gr 
 gsave  2268 2177 0 0 C 18.9608 576.41 t 0 r /Helvetica findfont 53.0904 sf 0 0 m (m_q_over_p) show NC gr 
 gsave  2268 2177 0 0 C -151.687 678.798 t 0 r /Helvetica findfont 53.0904 sf 0 0 m (m_q_over_p_sigma) show NC gr 
 gsave  2268 2177 0 0 C -144.102 781.187 t 0 r /Helvetica findfont 53.0904 sf 0 0 m (m_delta_z_resunits) show NC gr 
 gsave  2268 2177 0 0 C -117.557 887.367 t 0 r /Helvetica findfont 53.0904 sf 0 0 m (m_cluster_sumpt2) show NC gr 
 gsave  2268 2177 0 0 C 182.024 989.756 t 0 r /Helvetica findfont 53.0904 sf 0 0 m (m_d0) show NC gr 
 gsave  2268 2177 0 0 C 11.3765 1095.94 t 0 r /Helvetica findfont 53.0904 sf 0 0 m (m_d0_sigma) show NC gr 
 gsave  2268 2177 0 0 C -182.024 1198.33 t 0 r /Helvetica findfont 53.0904 sf 0 0 m (m_number_of_tracks) show NC gr 
 gsave  2268 2177 0 0 C -3.79217 1300.71 t 0 r /Helvetica findfont 53.0904 sf 0 0 m (m_z0_stddev) show NC gr 
 gsave  2268 2177 0 0 C 22.753 1410.69 t 0 r /Helvetica findfont 53.0904 sf 0 0 m (m_z0_mean) show NC gr 
 gsave  2268 2177 0 0 C -185.816 1513.08 t 0 r /Helvetica findfont 53.0904 sf 0 0 m (m_closest_vx_is_pvx) show NC gr 
 gsave  2268 2177 0 0 C -128.934 1619.26 t 0 r /Helvetica findfont 53.0904 sf 0 0 m (m_distance_pu_vx) show NC gr 
 gsave  2268 2177 0 0 C -91.012 1725.44 t 0 r /Helvetica findfont 53.0904 sf 0 0 m (m_n_pu_vertices) show NC gr 
 gsave  2268 2177 0 0 C 64.4669 1827.83 t 0 r /Helvetica findfont 53.0904 sf 0 0 m (m_pt_mod) show NC gr  389 327 m -49 X s[ 4 8] 0 sd 1973 327 m -1633 X s[  ] 0 sd 389 431 m -49 X s[ 4 8] 0 sd 1973 431 m -1633 X s[  ] 0 sd 389 535 m -49 X s[ 4 8] 0
 sd 1973 535 m -1633 X s[  ] 0 sd 389 640 m -49 X s[ 4 8] 0 sd 1973 640 m -1633 X s[  ] 0 sd 389 744 m -49 X s[ 4 8] 0 sd 1973 744 m -1633 X s[  ] 0 sd 389 849 m -49 X s[ 4 8] 0 sd 1973 849 m -1633 X s[  ] 0 sd 389 953 m -49 X s[ 4 8] 0 sd 1973 953 m
 -1633 X s[  ] 0 sd 389 1058 m -49 X s[ 4 8] 0 sd 1973 1058 m -1633 X s[  ] 0 sd 389 1162 m -49 X s[ 4 8] 0 sd 1973 1162 m -1633 X s[  ] 0 sd 389 1267 m -49 X s[ 4 8] 0 sd 1973 1267 m -1633 X s[  ] 0 sd 389 1371 m -49 X s[ 4 8] 0 sd 1973 1371 m -1633
 X s[  ] 0 sd 389 1476 m -49 X s[ 4 8] 0 sd 1973 1476 m -1633 X s[  ] 0 sd 389 1580 m -49 X s[ 4 8] 0 sd 1973 1580 m -1633 X s[  ] 0 sd 389 1685 m -49 X s[ 4 8] 0 sd 1973 1685 m -1633 X s[  ] 0 sd 389 1789 m -49 X s[ 4 8] 0 sd 1973 1789 m -1633 X s[ 
 ] 0 sd 389 1894 m -49 X s[ 4 8] 0 sd 1973 1894 m -1633 X s[  ] 0 sd 1973 327 m 1567 Y s 1924 327 m 49 X s 1924 431 m 49 X s 1924 535 m 49 X s 1924 640 m 49 X s 1924 744 m 49 X s 1924 849 m 49 X s 1924 953 m 49 X s 1924 1058 m 49 X s 1924 1162 m 49 X
 s 1924 1267 m 49 X s 1924 1371 m 49 X s 1924 1476 m 49 X s 1924 1580 m 49 X s 1924 1685 m 49 X s 1924 1789 m 49 X s 1924 1894 m 49 X s 0.490196 0.545098 0.615686 c 0.364706 0.419608 0.490196 c 1357 128 23 2038 bf 0.490196 0.545098 0.615686 c 23 2038
 m 1357 X s 1380 2038 m 128 Y s 1380 2166 m -1357 X s 23 2166 m -128 Y s 1 1 1 c black 1 1 1 c
 gsave  2268 2177 0 0 C 87.2199 2074.32 t 0 r /Helvetica-Bold findfont 98.5964 sf 0 0 m (Correlation Matrix \(signal\)) show NC gr  black 1 1 1 c
 gsave  2268 2177 0 0 C 341.295 356.464 t 0 r /Helvetica-Bold findfont 60.6747 sf 0 0 m (100) show NC gr  black 1 1 1 c
 gsave  2268 2177 0 0 C 784.979 356.464 t 0 r /Helvetica-Bold findfont 60.6747 sf 0 0 m ( 53) show NC gr  black 1 1 1 c
 gsave  2268 2177 0 0 C 1016.3 352.672 t 0 r /Helvetica-Bold findfont 60.6747 sf 0 0 m (  1) show NC gr  black 1 1 1 c
 gsave  2268 2177 0 0 C 1558.58 352.672 t 0 r /Helvetica-Bold findfont 60.6747 sf 0 0 m ( \2551) show NC gr  black 1 1 1 c
 gsave  2268 2177 0 0 C 447.476 462.645 t 0 r /Helvetica-Bold findfont 60.6747 sf 0 0 m (100) show NC gr  black 1 1 1 c
 gsave  2268 2177 0 0 C 568.825 462.645 t 0 r /Helvetica-Bold findfont 60.6747 sf 0 0 m ( 28) show NC gr  black 1 1 1 c
 gsave  2268 2177 0 0 C 678.798 462.645 t 0 r /Helvetica-Bold findfont 60.6747 sf 0 0 m ( 82) show NC gr  black 1 1 1 c
 gsave  2268 2177 0 0 C 1114.9 462.645 t 0 r /Helvetica-Bold findfont 60.6747 sf 0 0 m ( 91) show NC gr  black 1 1 1 c
 gsave  2268 2177 0 0 C 1221.08 462.645 t 0 r /Helvetica-Bold findfont 60.6747 sf 0 0 m (\25551) show NC gr  black 1 1 1 c
 gsave  2268 2177 0 0 C 1331.05 458.852 t 0 r /Helvetica-Bold findfont 60.6747 sf 0 0 m (\25541) show NC gr  black 1 1 1 c
 gsave  2268 2177 0 0 C 1441.02 462.645 t 0 r /Helvetica-Bold findfont 60.6747 sf 0 0 m ( 63) show NC gr  black 1 1 1 c
 gsave  2268 2177 0 0 C 1543.41 462.645 t 0 r /Helvetica-Bold findfont 60.6747 sf 0 0 m (\25537) show NC gr  black 1 1 1 c
 gsave  2268 2177 0 0 C 1657.18 462.645 t 0 r /Helvetica-Bold findfont 60.6747 sf 0 0 m ( 50) show NC gr  black 1 1 1 c
 gsave  2268 2177 0 0 C 1763.36 458.852 t 0 r /Helvetica-Bold findfont 60.6747 sf 0 0 m (\25522) show NC gr  black 1 1 1 c
 gsave  2268 2177 0 0 C 1884.71 458.852 t 0 r /Helvetica-Bold findfont 60.6747 sf 0 0 m ( \2551) show NC gr  black 1 1 1 c
 gsave  2268 2177 0 0 C 458.852 565.033 t 0 r /Helvetica-Bold findfont 60.6747 sf 0 0 m ( 28) show NC gr  black 1 1 1 c
 gsave  2268 2177 0 0 C 557.449 565.033 t 0 r /Helvetica-Bold findfont 60.6747 sf 0 0 m (100) show NC gr  black 1 1 1 c
 gsave  2268 2177 0 0 C 678.798 565.033 t 0 r /Helvetica-Bold findfont 60.6747 sf 0 0 m ( 66) show NC gr  black 1 1 1 c
 gsave  2268 2177 0 0 C 1111.11 565.033 t 0 r /Helvetica-Bold findfont 60.6747 sf 0 0 m ( 57) show NC gr  black 1 1 1 c
 gsave  2268 2177 0 0 C 1217.29 565.033 t 0 r /Helvetica-Bold findfont 60.6747 sf 0 0 m (\25534) show NC gr  black 1 1 1 c
 gsave  2268 2177 0 0 C 1327.26 561.241 t 0 r /Helvetica-Bold findfont 60.6747 sf 0 0 m (\25522) show NC gr  black 1 1 1 c
 gsave  2268 2177 0 0 C 1441.02 565.033 t 0 r /Helvetica-Bold findfont 60.6747 sf 0 0 m ( 10) show NC gr  black 1 1 1 c
 gsave  2268 2177 0 0 C 1543.41 565.033 t 0 r /Helvetica-Bold findfont 60.6747 sf 0 0 m (\25523) show NC gr  black 1 1 1 c
 gsave  2268 2177 0 0 C 1657.18 565.033 t 0 r /Helvetica-Bold findfont 60.6747 sf 0 0 m ( 20) show NC gr  black 1 1 1 c
 gsave  2268 2177 0 0 C 1770.94 561.241 t 0 r /Helvetica-Bold findfont 60.6747 sf 0 0 m ( \2552) show NC gr  black 1 1 1 c
 gsave  2268 2177 0 0 C 1884.71 561.241 t 0 r /Helvetica-Bold findfont 60.6747 sf 0 0 m ( \2551) show NC gr  black 1 1 1 c
 gsave  2268 2177 0 0 C 458.852 671.214 t 0 r /Helvetica-Bold findfont 60.6747 sf 0 0 m ( 82) show NC gr  black 1 1 1 c
 gsave  2268 2177 0 0 C 568.825 671.214 t 0 r /Helvetica-Bold findfont 60.6747 sf 0 0 m ( 66) show NC gr  black 1 1 1 c
 gsave  2268 2177 0 0 C 667.422 671.214 t 0 r /Helvetica-Bold findfont 60.6747 sf 0 0 m (100) show NC gr  black 1 1 1 c
 gsave  2268 2177 0 0 C 1111.11 671.214 t 0 r /Helvetica-Bold findfont 60.6747 sf 0 0 m ( 95) show NC gr  black 1 1 1 c
 gsave  2268 2177 0 0 C 1221.08 671.214 t 0 r /Helvetica-Bold findfont 60.6747 sf 0 0 m (\25561) show NC gr  black 1 1 1 c
 gsave  2268 2177 0 0 C 1327.26 667.422 t 0 r /Helvetica-Bold findfont 60.6747 sf 0 0 m (\25544) show NC gr  black 1 1 1 c
 gsave  2268 2177 0 0 C 1441.02 667.422 t 0 r /Helvetica-Bold findfont 60.6747 sf 0 0 m ( 42) show NC gr  black 1 1 1 c
 gsave  2268 2177 0 0 C 1543.41 671.214 t 0 r /Helvetica-Bold findfont 60.6747 sf 0 0 m (\25537) show NC gr  black 1 1 1 c
 gsave  2268 2177 0 0 C 1657.18 671.214 t 0 r /Helvetica-Bold findfont 60.6747 sf 0 0 m ( 45) show NC gr  black 1 1 1 c
 gsave  2268 2177 0 0 C 1763.36 671.214 t 0 r /Helvetica-Bold findfont 60.6747 sf 0 0 m (\25519) show NC gr  black 1 1 1 c
 gsave  2268 2177 0 0 C 1884.71 667.422 t 0 r /Helvetica-Bold findfont 60.6747 sf 0 0 m ( \2551) show NC gr  black 1 1 1 c
 gsave  2268 2177 0 0 C 352.672 777.394 t 0 r /Helvetica-Bold findfont 60.6747 sf 0 0 m ( 53) show NC gr  black 1 1 1 c
 gsave  2268 2177 0 0 C 773.602 777.394 t 0 r /Helvetica-Bold findfont 60.6747 sf 0 0 m (100) show NC gr  black 1 1 1 c
 gsave  2268 2177 0 0 C 1551 773.602 t 0 r /Helvetica-Bold findfont 60.6747 sf 0 0 m ( \2552) show NC gr  black 1 1 1 c
 gsave  2268 2177 0 0 C 883.575 879.783 t 0 r /Helvetica-Bold findfont 60.6747 sf 0 0 m (100) show NC gr  black 1 1 1 c
 gsave  2268 2177 0 0 C 1873.33 879.783 t 0 r /Helvetica-Bold findfont 60.6747 sf 0 0 m ( 95) show NC gr  black 1 1 1 c
 gsave  2268 2177 0 0 C 364.048 982.172 t 0 r /Helvetica-Bold findfont 60.6747 sf 0 0 m (  1) show NC gr  black 1 1 1 c
 gsave  2268 2177 0 0 C 993.548 985.964 t 0 r /Helvetica-Bold findfont 60.6747 sf 0 0 m (100) show NC gr  black 1 1 1 c
 gsave  2268 2177 0 0 C 462.645 1088.35 t 0 r /Helvetica-Bold findfont 60.6747 sf 0 0 m ( 91) show NC gr  black 1 1 1 c
 gsave  2268 2177 0 0 C 568.825 1088.35 t 0 r /Helvetica-Bold findfont 60.6747 sf 0 0 m ( 57) show NC gr  black 1 1 1 c
 gsave  2268 2177 0 0 C 678.798 1088.35 t 0 r /Helvetica-Bold findfont 60.6747 sf 0 0 m ( 95) show NC gr  black 1 1 1 c
 gsave  2268 2177 0 0 C 1099.73 1088.35 t 0 r /Helvetica-Bold findfont 60.6747 sf 0 0 m (100) show NC gr  black 1 1 1 c
 gsave  2268 2177 0 0 C 1221.08 1088.35 t 0 r /Helvetica-Bold findfont 60.6747 sf 0 0 m (\25561) show NC gr  black 1 1 1 c
 gsave  2268 2177 0 0 C 1327.26 1084.56 t 0 r /Helvetica-Bold findfont 60.6747 sf 0 0 m (\25544) show NC gr  black 1 1 1 c
 gsave  2268 2177 0 0 C 1441.02 1088.35 t 0 r /Helvetica-Bold findfont 60.6747 sf 0 0 m ( 52) show NC gr  black 1 1 1 c
 gsave  2268 2177 0 0 C 1543.41 1088.35 t 0 r /Helvetica-Bold findfont 60.6747 sf 0 0 m (\25538) show NC gr  black 1 1 1 c
 gsave  2268 2177 0 0 C 1657.18 1088.35 t 0 r /Helvetica-Bold findfont 60.6747 sf 0 0 m ( 49) show NC gr  black 1 1 1 c
 gsave  2268 2177 0 0 C 1767.15 1084.56 t 0 r /Helvetica-Bold findfont 60.6747 sf 0 0 m (\25521) show NC gr  black 1 1 1 c
 gsave  2268 2177 0 0 C 1884.71 1084.56 t 0 r /Helvetica-Bold findfont 60.6747 sf 0 0 m ( \2551) show NC gr  black 1 1 1 c
 gsave  2268 2177 0 0 C 458.852 1194.53 t 0 r /Helvetica-Bold findfont 60.6747 sf 0 0 m (\25551) show NC gr  black 1 1 1 c
 gsave  2268 2177 0 0 C 565.033 1194.53 t 0 r /Helvetica-Bold findfont 60.6747 sf 0 0 m (\25534) show NC gr  black 1 1 1 c
 gsave  2268 2177 0 0 C 678.798 1194.53 t 0 r /Helvetica-Bold findfont 60.6747 sf 0 0 m (\25561) show NC gr  black 1 1 1 c
 gsave  2268 2177 0 0 C 1111.11 1194.53 t 0 r /Helvetica-Bold findfont 60.6747 sf 0 0 m (\25561) show NC gr  black 1 1 1 c
 gsave  2268 2177 0 0 C 1209.7 1194.53 t 0 r /Helvetica-Bold findfont 60.6747 sf 0 0 m (100) show NC gr  black 1 1 1 c
 gsave  2268 2177 0 0 C 1331.05 1194.53 t 0 r /Helvetica-Bold findfont 60.6747 sf 0 0 m ( 35) show NC gr  black 1 1 1 c
 gsave  2268 2177 0 0 C 1437.23 1190.74 t 0 r /Helvetica-Bold findfont 60.6747 sf 0 0 m (\25512) show NC gr  black 1 1 1 c
 gsave  2268 2177 0 0 C 1547.2 1190.74 t 0 r /Helvetica-Bold findfont 60.6747 sf 0 0 m ( 24) show NC gr  black 1 1 1 c
 gsave  2268 2177 0 0 C 1657.18 1194.53 t 0 r /Helvetica-Bold findfont 60.6747 sf 0 0 m (\25531) show NC gr  black 1 1 1 c
 gsave  2268 2177 0 0 C 1767.15 1194.53 t 0 r /Helvetica-Bold findfont 60.6747 sf 0 0 m ( 20) show NC gr  black 1 1 1 c
 gsave  2268 2177 0 0 C 458.852 1293.13 t 0 r /Helvetica-Bold findfont 60.6747 sf 0 0 m (\25541) show NC gr  black 1 1 1 c
 gsave  2268 2177 0 0 C 565.033 1293.13 t 0 r /Helvetica-Bold findfont 60.6747 sf 0 0 m (\25522) show NC gr  black 1 1 1 c
 gsave  2268 2177 0 0 C 675.006 1293.13 t 0 r /Helvetica-Bold findfont 60.6747 sf 0 0 m (\25544) show NC gr  black 1 1 1 c
 gsave  2268 2177 0 0 C 1107.31 1293.13 t 0 r /Helvetica-Bold findfont 60.6747 sf 0 0 m (\25544) show NC gr  black 1 1 1 c
 gsave  2268 2177 0 0 C 1221.08 1296.92 t 0 r /Helvetica-Bold findfont 60.6747 sf 0 0 m ( 35) show NC gr  black 1 1 1 c
 gsave  2268 2177 0 0 C 1319.67 1296.92 t 0 r /Helvetica-Bold findfont 60.6747 sf 0 0 m (100) show NC gr  black 1 1 1 c
 gsave  2268 2177 0 0 C 1441.02 1296.92 t 0 r /Helvetica-Bold findfont 60.6747 sf 0 0 m ( 34) show NC gr  black 1 1 1 c
 gsave  2268 2177 0 0 C 1547.2 1296.92 t 0 r /Helvetica-Bold findfont 60.6747 sf 0 0 m ( 15) show NC gr  black 1 1 1 c
 gsave  2268 2177 0 0 C 1657.18 1293.13 t 0 r /Helvetica-Bold findfont 60.6747 sf 0 0 m (\25521) show NC gr  black 1 1 1 c
 gsave  2268 2177 0 0 C 1767.15 1293.13 t 0 r /Helvetica-Bold findfont 60.6747 sf 0 0 m ( 12) show NC gr  black 1 1 1 c
 gsave  2268 2177 0 0 C 458.852 1403.1 t 0 r /Helvetica-Bold findfont 60.6747 sf 0 0 m ( 63) show NC gr  black 1 1 1 c
 gsave  2268 2177 0 0 C 568.825 1403.1 t 0 r /Helvetica-Bold findfont 60.6747 sf 0 0 m ( 10) show NC gr  black 1 1 1 c
 gsave  2268 2177 0 0 C 678.798 1399.31 t 0 r /Helvetica-Bold findfont 60.6747 sf 0 0 m ( 42) show NC gr  black 1 1 1 c
 gsave  2268 2177 0 0 C 1111.11 1403.1 t 0 r /Helvetica-Bold findfont 60.6747 sf 0 0 m ( 52) show NC gr  black 1 1 1 c
 gsave  2268 2177 0 0 C 1217.29 1399.31 t 0 r /Helvetica-Bold findfont 60.6747 sf 0 0 m (\25512) show NC gr  black 1 1 1 c
 gsave  2268 2177 0 0 C 1331.05 1403.1 t 0 r /Helvetica-Bold findfont 60.6747 sf 0 0 m ( 34) show NC gr  black 1 1 1 c
 gsave  2268 2177 0 0 C 1429.65 1403.1 t 0 r /Helvetica-Bold findfont 60.6747 sf 0 0 m (100) show NC gr  black 1 1 1 c
 gsave  2268 2177 0 0 C 1543.41 1403.1 t 0 r /Helvetica-Bold findfont 60.6747 sf 0 0 m (\25526) show NC gr  black 1 1 1 c
 gsave  2268 2177 0 0 C 1657.18 1403.1 t 0 r /Helvetica-Bold findfont 60.6747 sf 0 0 m ( 32) show NC gr  black 1 1 1 c
 gsave  2268 2177 0 0 C 1770.94 1403.1 t 0 r /Helvetica-Bold findfont 60.6747 sf 0 0 m ( \2559) show NC gr  black 1 1 1 c
 gsave  2268 2177 0 0 C 364.048 1501.7 t 0 r /Helvetica-Bold findfont 60.6747 sf 0 0 m ( \2551) show NC gr  black 1 1 1 c
 gsave  2268 2177 0 0 C 455.06 1505.49 t 0 r /Helvetica-Bold findfont 60.6747 sf 0 0 m (\25537) show NC gr  black 1 1 1 c
 gsave  2268 2177 0 0 C 565.033 1505.49 t 0 r /Helvetica-Bold findfont 60.6747 sf 0 0 m (\25523) show NC gr  black 1 1 1 c
 gsave  2268 2177 0 0 C 675.006 1505.49 t 0 r /Helvetica-Bold findfont 60.6747 sf 0 0 m (\25537) show NC gr  black 1 1 1 c
 gsave  2268 2177 0 0 C 788.771 1501.7 t 0 r /Helvetica-Bold findfont 60.6747 sf 0 0 m ( \2552) show NC gr  black 1 1 1 c
 gsave  2268 2177 0 0 C 1107.31 1505.49 t 0 r /Helvetica-Bold findfont 60.6747 sf 0 0 m (\25538) show NC gr  black 1 1 1 c
 gsave  2268 2177 0 0 C 1221.08 1501.7 t 0 r /Helvetica-Bold findfont 60.6747 sf 0 0 m ( 24) show NC gr  black 1 1 1 c
 gsave  2268 2177 0 0 C 1331.05 1505.49 t 0 r /Helvetica-Bold findfont 60.6747 sf 0 0 m ( 15) show NC gr  black 1 1 1 c
 gsave  2268 2177 0 0 C 1437.23 1505.49 t 0 r /Helvetica-Bold findfont 60.6747 sf 0 0 m (\25526) show NC gr  black 1 1 1 c
 gsave  2268 2177 0 0 C 1535.83 1505.49 t 0 r /Helvetica-Bold findfont 60.6747 sf 0 0 m (100) show NC gr  black 1 1 1 c
 gsave  2268 2177 0 0 C 1653.39 1501.7 t 0 r /Helvetica-Bold findfont 60.6747 sf 0 0 m (\25514) show NC gr  black 1 1 1 c
 gsave  2268 2177 0 0 C 1763.36 1501.7 t 0 r /Helvetica-Bold findfont 60.6747 sf 0 0 m (\25514) show NC gr  black 1 1 1 c
 gsave  2268 2177 0 0 C 458.852 1611.67 t 0 r /Helvetica-Bold findfont 60.6747 sf 0 0 m ( 50) show NC gr  black 1 1 1 c
 gsave  2268 2177 0 0 C 568.825 1611.67 t 0 r /Helvetica-Bold findfont 60.6747 sf 0 0 m ( 20) show NC gr  black 1 1 1 c
 gsave  2268 2177 0 0 C 678.798 1611.67 t 0 r /Helvetica-Bold findfont 60.6747 sf 0 0 m ( 45) show NC gr  black 1 1 1 c
 gsave  2268 2177 0 0 C 1111.11 1611.67 t 0 r /Helvetica-Bold findfont 60.6747 sf 0 0 m ( 49) show NC gr  black 1 1 1 c
 gsave  2268 2177 0 0 C 1221.08 1611.67 t 0 r /Helvetica-Bold findfont 60.6747 sf 0 0 m (\25531) show NC gr  black 1 1 1 c
 gsave  2268 2177 0 0 C 1331.05 1607.88 t 0 r /Helvetica-Bold findfont 60.6747 sf 0 0 m (\25521) show NC gr  black 1 1 1 c
 gsave  2268 2177 0 0 C 1441.02 1611.67 t 0 r /Helvetica-Bold findfont 60.6747 sf 0 0 m ( 32) show NC gr  black 1 1 1 c
 gsave  2268 2177 0 0 C 1543.41 1607.88 t 0 r /Helvetica-Bold findfont 60.6747 sf 0 0 m (\25514) show NC gr  black 1 1 1 c
 gsave  2268 2177 0 0 C 1645.8 1611.67 t 0 r /Helvetica-Bold findfont 60.6747 sf 0 0 m (100) show NC gr  black 1 1 1 c
 gsave  2268 2177 0 0 C 1763.36 1611.67 t 0 r /Helvetica-Bold findfont 60.6747 sf 0 0 m (\25535) show NC gr  black 1 1 1 c
 gsave  2268 2177 0 0 C 455.06 1714.06 t 0 r /Helvetica-Bold findfont 60.6747 sf 0 0 m (\25522) show NC gr  black 1 1 1 c
 gsave  2268 2177 0 0 C 572.617 1714.06 t 0 r /Helvetica-Bold findfont 60.6747 sf 0 0 m ( \2552) show NC gr  black 1 1 1 c
 gsave  2268 2177 0 0 C 675.006 1717.85 t 0 r /Helvetica-Bold findfont 60.6747 sf 0 0 m (\25519) show NC gr  black 1 1 1 c
 gsave  2268 2177 0 0 C 1111.11 1714.06 t 0 r /Helvetica-Bold findfont 60.6747 sf 0 0 m (\25521) show NC gr  black 1 1 1 c
 gsave  2268 2177 0 0 C 1221.08 1717.85 t 0 r /Helvetica-Bold findfont 60.6747 sf 0 0 m ( 20) show NC gr  black 1 1 1 c
 gsave  2268 2177 0 0 C 1331.05 1714.06 t 0 r /Helvetica-Bold findfont 60.6747 sf 0 0 m ( 12) show NC gr  black 1 1 1 c
 gsave  2268 2177 0 0 C 1444.82 1717.85 t 0 r /Helvetica-Bold findfont 60.6747 sf 0 0 m ( \2559) show NC gr  black 1 1 1 c
 gsave  2268 2177 0 0 C 1543.41 1714.06 t 0 r /Helvetica-Bold findfont 60.6747 sf 0 0 m (\25514) show NC gr  black 1 1 1 c
 gsave  2268 2177 0 0 C 1653.39 1717.85 t 0 r /Helvetica-Bold findfont 60.6747 sf 0 0 m (\25535) show NC gr  black 1 1 1 c
 gsave  2268 2177 0 0 C 1755.77 1717.85 t 0 r /Helvetica-Bold findfont 60.6747 sf 0 0 m (100) show NC gr  black 1 1 1 c
 gsave  2268 2177 0 0 C 470.229 1816.45 t 0 r /Helvetica-Bold findfont 60.6747 sf 0 0 m ( \2551) show NC gr  black 1 1 1 c
 gsave  2268 2177 0 0 C 580.202 1816.45 t 0 r /Helvetica-Bold findfont 60.6747 sf 0 0 m ( \2551) show NC gr  black 1 1 1 c
 gsave  2268 2177 0 0 C 690.175 1816.45 t 0 r /Helvetica-Bold findfont 60.6747 sf 0 0 m ( \2551) show NC gr  black 1 1 1 c
 gsave  2268 2177 0 0 C 894.952 1820.24 t 0 r /Helvetica-Bold findfont 60.6747 sf 0 0 m ( 95) show NC gr  black 1 1 1 c
 gsave  2268 2177 0 0 C 1122.48 1816.45 t 0 r /Helvetica-Bold findfont 60.6747 sf 0 0 m ( \2551) show NC gr  black 1 1 1 c
 gsave  2268 2177 0 0 C 1861.95 1820.24 t 0 r /Helvetica-Bold findfont 60.6747 sf 0 0 m (100) show NC gr  black
 gsave  2268 2177 0 0 C 1201.89 1915.5 t 0 r /Helvetica-Bold findfont 53.0904 sf 0 0 m (Linear correlation coefficients in %) show NC gr 
 gr  gr showpage
end
%%EOF
