%!PS-Adobe-2.0 EPSF-2.0
%%BoundingBox:  0 0 567 420
%%Title: dataset/plots/mva_BDT.eps: TMVA response BDT
%%Creator: ROOT Version 6.14/06
%%CreationDate: Sat Feb  1 10:49:21 2020
%%DocumentNeededResources: ProcSet (FontSetInit)
%%EndComments
%%BeginProlog
80 dict begin
/s {stroke} def /l {lineto} def /m {moveto} def /t {translate} def
/r {rotate} def /rl {roll}  def /R {repeat} def
/d {rlineto} def /rm {rmoveto} def /gr {grestore} def /f {eofill} def
/c {setrgbcolor} def /black {0 setgray} def /sd {setdash} def
/cl {closepath} def /sf {scalefont setfont} def /lw {setlinewidth} def
/box {m dup 0 exch d exch 0 d 0 exch neg d cl} def
/NC{systemdict begin initclip end}def/C{NC box clip newpath}def
/bl {box s} def /bf {gsave box gsave f grestore 1 lw [] 0 sd s grestore} def /Y { 0 exch d} def /X { 0 d} def 
/K {{pop pop 0 moveto} exch kshow} bind def
/ita {/ang 15 def gsave [1 0 ang dup sin exch cos div 1 0 0] concat} def 
/mp {newpath /y exch def /x exch def} def
/side {[w .77 mul w .23 mul] .385 w mul sd w 0 l currentpoint t -144 r} def
/mr {mp x y w2 0 360 arc} def /m24 {mr s} def /m20 {mr f} def
/mb {mp x y w2 add m w2 neg 0 d 0 w neg d w 0 d 0 w d cl} def
/mt {mp x y w2 add m w2 neg w neg d w 0 d cl} def
/w4 {w 4 div} def
/w6 {w 6 div} def
/w8 {w 8 div} def
/m21 {mb f} def /m25 {mb s} def /m22 {mt f} def /m26{mt s} def
/m23 {mp x y w2 sub m w2 w d w neg 0 d cl f} def
/m27 {mp x y w2 add m w3 neg w2 neg d w3 w2 neg d w3 w2 d cl s} def
/m28 {mp x w2 sub y w2 sub w3 add m w3 0 d  0 w3 neg d w3 0 d 0 w3 d w3 0 d  0 w3 d w3 neg 0 d 0 w3 d w3 neg 0 d 0 w3 neg d w3 neg 0 d cl s } def
/m29 {mp gsave x w2 sub y w2 add w3 sub m currentpoint t 4 {side} repeat cl fill gr} def
/m30 {mp gsave x w2 sub y w2 add w3 sub m currentpoint t 4 {side} repeat cl s gr} def
/m31 {mp x y w2 sub m 0 w d x w2 sub y m w 0 d x w2 sub y w2 add m w w neg d x w2 sub y w2 sub m w w d s} def
/m32 {mp x y w2 sub m w2 w d w neg 0 d cl s} def
/m33 {mp x y w2 add m w3 neg w2 neg d w3 w2 neg d w3 w2 d cl f} def
/m34 {mp x w2 sub y w2 sub w3 add m w3 0 d  0 w3 neg d w3 0 d 0 w3 d w3 0 d  0 w3 d w3 neg 0 d 0 w3 d w3 neg 0 d 0 w3 neg d w3 neg 0 d cl f } def
/m35 {mp x y w2 add m w2 neg w2 neg d w2 w2 neg d w2 w2 d w2 neg w2 d x y w2 sub m 0 w d x w2 sub y m w 0 d s} def
/m36 {mb x w2 sub y w2 add m w w neg d x w2 sub y w2 sub m w w d s} def
/m37 {mp x y m w4 neg w2 d w4 neg w2 neg d w2 0 d  w4 neg w2 neg d w2 0 d w4 neg w2 d w2 0 d w4 neg w2 d w4 neg w2 neg d cl s} def
/m38 {mp x w4 sub y w2 add m w4 neg w4 neg d 0 w2 neg d w4 w4 neg d w2 0 d w4 w4 d 0 w2 d w4 neg w4 d w2 neg 0 d x y w2 sub m 0 w d x w2 sub y m w 0 d cl s} def
/m39 {mp x y m w4 neg w2 d w4 neg w2 neg d w2 0 d  w4 neg w2 neg d w2 0 d w4 neg w2 d w2 0 d w4 neg w2 d w4 neg w2 neg d cl f} def
/m40 {mp x y m w4 w2 d w4 w4 neg d w2 neg w4 neg d w2 w4 neg d w4 neg w4 neg d w4 neg w2 d w4 neg w2 neg d w4 neg w4 d w2 w4 d w2 neg w4 d w4 w4 d w4 w2 neg d cl s} def
/m41 {mp x y m w4 w2 d w4 w4 neg d w2 neg w4 neg d w2 w4 neg d w4 neg w4 neg d w4 neg w2 d w4 neg w2 neg d w4 neg w4 d w2 w4 d w2 neg w4 d w4 w4 d w4 w2 neg d cl f} def
/m42 {mp x y w2 add m w8 neg w2 -3 4 div mul d w2 -3 4 div mul w8 neg d w2 3 4 div mul w8 neg d w8 w2 -3 4 div mul d w8 w2 3 4 div mul d w2 3 4 div mul w8 d w2 -3 4 div mul w8 d w8 neg w2 3 4 div mul d cl s} def
/m43 {mp x y w2 add m w8 neg w2 -3 4 div mul d w2 -3 4 div mul w8 neg d w2 3 4 div mul w8 neg d w8 w2 -3 4 div mul d w8 w2 3 4 div mul d w2 3 4 div mul w8 d w2 -3 4 div mul w8 d w8 neg w2 3 4 div mul d cl f} def
/m44 {mp x y m w6 neg w2 d w2 2 3 div mul 0 d w6 neg w2 neg d w2 w6 d 0 w2 -2 3 div mul d w2 neg w6 d w6 w2 neg d w2 -2 3 div mul 0 d w6 w2 d w2 neg w6 neg d 0 w2 2 3 div mul d w2 w6 neg d cl s} def
/m45 {mp x y m w6 neg w2 d w2 2 3 div mul 0 d w6 neg w2 neg d w2 w6 d 0 w2 -2 3 div mul d w2 neg w6 d w6 w2 neg d w2 -2 3 div mul 0 d w6 w2 d w2 neg w6 neg d 0 w2 2 3 div mul d w2 w6 neg d cl f} def
/m46 {mp x y w4 add m w4 neg w4 d w4 neg w4 neg d  w4 w4 neg d w4 neg w4 neg d w4 w4 neg d w4 w4 d w4 w4 neg d w4 w4 d w4 neg w4 d w4 w4 d w4 neg w4 d w4 neg w4 neg d cl s} def
/m47 {mp x y w4 add m w4 neg w4 d w4 neg w4 neg d w4 w4 neg d w4 neg w4 neg d  w4 w4 neg d w4 w4 d w4 w4 neg d w4 w4 d w4 neg w4 d w4 w4 d w4 neg w4 d w4 neg w4 neg d cl f} def
/m48 {mp x y w4 add m w4 neg w4 d w4 neg w4 neg d w4 w4 neg d  w4 neg w4 neg d w4 w4 neg d w4 w4 d w4 w4 neg d w4 w4 d w4 neg w4 d w4 w4 d w4 neg w4 d w4 neg w4 neg d  w4 w4 neg d w4 neg w4 neg d w4 neg w4 d w4 w4 d cl f} def
/m49 {mp x w2 sub w3 add y w2 sub w3 add m  0 w3 neg d w3 0 d 0 w3 d w3 0 d 0 w3 d w3 neg 0 d 0 w3 d w3 neg 0 d 0 w3 neg d w3 neg 0 d 0 w3 neg d w3 0 d 0 w3 d w3 0 d 0 w3 neg d w3 neg 0 d cl f } def
/m2 {mp x y w2 sub m 0 w d x w2 sub y m w 0 d s} def
/m5 {mp x w2 sub y w2 sub m w w d x w2 sub y w2 add m w w neg d s} def
%%IncludeResource: ProcSet (FontSetInit)
%%IncludeResource: font Times-Roman
%%IncludeResource: font Times-Italic
%%IncludeResource: font Times-Bold
%%IncludeResource: font Times-BoldItalic
%%IncludeResource: font Helvetica
%%IncludeResource: font Helvetica-Oblique
%%IncludeResource: font Helvetica-Bold
%%IncludeResource: font Helvetica-BoldOblique
%%IncludeResource: font Courier
%%IncludeResource: font Courier-Oblique
%%IncludeResource: font Courier-Bold
%%IncludeResource: font Courier-BoldOblique
%%IncludeResource: font Symbol
%%IncludeResource: font ZapfDingbats
/reEncode {exch findfont dup length dict begin {1 index /FID eq  {pop pop} {def} ifelse } forall /Encoding exch def currentdict end dup /FontName get exch definefont pop } def [/Times-Bold /Times-Italic /Times-BoldItalic /Helvetica /Helvetica-Oblique
 /Helvetica-Bold /Helvetica-BoldOblique /Courier /Courier-Oblique /Courier-Bold /Courier-BoldOblique /Times-Roman /AvantGarde-Book /AvantGarde-BookOblique /AvantGarde-Demi /AvantGarde-DemiOblique /Bookman-Demi /Bookman-DemiItalic /Bookman-Light
 /Bookman-LightItalic /Helvetica-Narrow /Helvetica-Narrow-Bold /Helvetica-Narrow-BoldOblique /Helvetica-Narrow-Oblique /NewCenturySchlbk-Roman /NewCenturySchlbk-Bold /NewCenturySchlbk-BoldItalic /NewCenturySchlbk-Italic /Palatino-Bold
 /Palatino-BoldItalic /Palatino-Italic /Palatino-Roman ] {ISOLatin1Encoding reEncode } forall
%%EndProlog
%%BeginSetup
%%EndSetup
newpath  gsave  .25 .25 scale  gsave  0 0 t 0.490196 0.545098 0.615686 c[  ] 0 sd 3 lw 0.941176 0.941176 0.941176 c 2268 1680 0 0 bf black 1 1 0.992157 c 1916 1310 238 202 bf black 1916 1310 238 202 bl 1 1 0.992157 c 1916 1310 238 202 bf black 1916
 1310 238 202 bl 238 202 m 1916 X s 238 244 m -42 Y s 290 223 m -21 Y s 342 223 m -21 Y s 393 223 m -21 Y s 445 244 m -42 Y s 497 223 m -21 Y s 548 223 m -21 Y s 600 223 m -21 Y s 652 244 m -42 Y s 703 223 m -21 Y s 755 223 m -21 Y s 807 223 m -21 Y
 s 858 244 m -42 Y s 910 223 m -21 Y s 962 223 m -21 Y s 1014 223 m -21 Y s 1065 244 m -42 Y s 1117 223 m -21 Y s 1169 223 m -21 Y s 1220 223 m -21 Y s 1272 244 m -42 Y s 1324 223 m -21 Y s 1375 223 m -21 Y s 1427 223 m -21 Y s 1479 244 m -42 Y s
 1531 223 m -21 Y s 1582 223 m -21 Y s 1634 223 m -21 Y s 1686 244 m -42 Y s 1737 223 m -21 Y s 1789 223 m -21 Y s 1841 223 m -21 Y s 1892 244 m -42 Y s 1944 223 m -21 Y s 1996 223 m -21 Y s 2048 223 m -21 Y s 2099 244 m -42 Y s 238 244 m -42 Y s
 2099 244 m -42 Y s 2151 223 m -21 Y s
 gsave  2268 1680 0 0 C 235.114 128.934 t 0 r /Helvetica-Bold findfont 64.4669 sf 0 0 m (1) show NC gr 
 gsave  2268 1680 0 0 C 204.777 128.934 t 0 r /Symbol findfont 64.4669 sf 0 0 m (-) show NC gr 
 gsave  2268 1680 0 0 C 413.346 128.934 t 0 r /Helvetica-Bold findfont 64.4669 sf 0 0 m (0.8) show NC gr 
 gsave  2268 1680 0 0 C 379.217 128.934 t 0 r /Symbol findfont 64.4669 sf 0 0 m (-) show NC gr 
 gsave  2268 1680 0 0 C 618.123 128.934 t 0 r /Helvetica-Bold findfont 64.4669 sf 0 0 m (0.6) show NC gr 
 gsave  2268 1680 0 0 C 587.786 128.934 t 0 r /Symbol findfont 64.4669 sf 0 0 m (-) show NC gr 
 gsave  2268 1680 0 0 C 826.693 128.934 t 0 r /Helvetica-Bold findfont 64.4669 sf 0 0 m (0.4) show NC gr 
 gsave  2268 1680 0 0 C 792.563 128.934 t 0 r /Symbol findfont 64.4669 sf 0 0 m (-) show NC gr 
 gsave  2268 1680 0 0 C 1031.47 128.934 t 0 r /Helvetica-Bold findfont 64.4669 sf 0 0 m (0.2) show NC gr 
 gsave  2268 1680 0 0 C 1001.13 128.934 t 0 r /Symbol findfont 64.4669 sf 0 0 m (-) show NC gr 
 gsave  2268 1680 0 0 C 1251.42 128.934 t 0 r /Helvetica-Bold findfont 64.4669 sf 0 0 m (0) show NC gr 
 gsave  2268 1680 0 0 C 1429.65 128.934 t 0 r /Helvetica-Bold findfont 64.4669 sf 0 0 m (0.2) show NC gr 
 gsave  2268 1680 0 0 C 1638.22 128.934 t 0 r /Helvetica-Bold findfont 64.4669 sf 0 0 m (0.4) show NC gr 
 gsave  2268 1680 0 0 C 1846.79 128.934 t 0 r /Helvetica-Bold findfont 64.4669 sf 0 0 m (0.6) show NC gr 
 gsave  2268 1680 0 0 C 2051.56 128.934 t 0 r /Helvetica-Bold findfont 64.4669 sf 0 0 m (0.8) show NC gr 
 gsave  2268 1680 0 0 C 1664.76 34.1295 t 0 r /Helvetica-Bold findfont 72.0512 sf 0 0 m (BDT response) show NC gr  238 1512 m 1916 X s 238 1469 m 43 Y s 290 1491 m 21 Y s 342 1491 m 21 Y s 393 1491 m 21 Y s 445 1469 m 43 Y s 497 1491 m 21 Y s 548
 1491 m 21 Y s 600 1491 m 21 Y s 652 1469 m 43 Y s 703 1491 m 21 Y s 755 1491 m 21 Y s 807 1491 m 21 Y s 858 1469 m 43 Y s 910 1491 m 21 Y s 962 1491 m 21 Y s 1014 1491 m 21 Y s 1065 1469 m 43 Y s 1117 1491 m 21 Y s 1169 1491 m 21 Y s 1220 1491 m 21
 Y s 1272 1469 m 43 Y s 1324 1491 m 21 Y s 1375 1491 m 21 Y s 1427 1491 m 21 Y s 1479 1469 m 43 Y s 1531 1491 m 21 Y s 1582 1491 m 21 Y s 1634 1491 m 21 Y s 1686 1469 m 43 Y s 1737 1491 m 21 Y s 1789 1491 m 21 Y s 1841 1491 m 21 Y s 1892 1469 m 43 Y
 s 1944 1491 m 21 Y s 1996 1491 m 21 Y s 2048 1491 m 21 Y s 2099 1469 m 43 Y s 238 1469 m 43 Y s 2099 1469 m 43 Y s 2151 1491 m 21 Y s 238 202 m 1310 Y s 291 202 m -53 X s 265 231 m -27 X s 265 261 m -27 X s 265 291 m -27 X s 265 321 m -27 X s 291
 350 m -53 X s 265 380 m -27 X s 265 410 m -27 X s 265 440 m -27 X s 265 470 m -27 X s 291 499 m -53 X s 265 529 m -27 X s 265 559 m -27 X s 265 589 m -27 X s 265 619 m -27 X s 291 648 m -53 X s 265 678 m -27 X s 265 708 m -27 X s 265 738 m -27 X s
 265 767 m -27 X s 291 797 m -53 X s 265 827 m -27 X s 265 857 m -27 X s 265 887 m -27 X s 265 916 m -27 X s 291 946 m -53 X s 265 976 m -27 X s 265 1006 m -27 X s 265 1035 m -27 X s 265 1065 m -27 X s 291 1095 m -53 X s 265 1125 m -27 X s 265 1155 m
 -27 X s 265 1184 m -27 X s 265 1214 m -27 X s 291 1244 m -53 X s 265 1274 m -27 X s 265 1303 m -27 X s 265 1333 m -27 X s 265 1363 m -27 X s 291 1393 m -53 X s 291 1393 m -53 X s 265 1423 m -27 X s 265 1452 m -27 X s 265 1482 m -27 X s 265 1512 m
 -27 X s
 gsave  2268 1680 0 0 C 174.44 178.232 t 0 r /Helvetica-Bold findfont 64.4669 sf 0 0 m (0) show NC gr 
 gsave  2268 1680 0 0 C 121.349 326.126 t 0 r /Helvetica-Bold findfont 64.4669 sf 0 0 m (0.5) show NC gr 
 gsave  2268 1680 0 0 C 182.024 474.021 t 0 r /Helvetica-Bold findfont 64.4669 sf 0 0 m (1) show NC gr 
 gsave  2268 1680 0 0 C 121.349 621.916 t 0 r /Helvetica-Bold findfont 64.4669 sf 0 0 m (1.5) show NC gr 
 gsave  2268 1680 0 0 C 174.44 773.602 t 0 r /Helvetica-Bold findfont 64.4669 sf 0 0 m (2) show NC gr 
 gsave  2268 1680 0 0 C 121.349 921.497 t 0 r /Helvetica-Bold findfont 64.4669 sf 0 0 m (2.5) show NC gr 
 gsave  2268 1680 0 0 C 174.44 1069.39 t 0 r /Helvetica-Bold findfont 64.4669 sf 0 0 m (3) show NC gr 
 gsave  2268 1680 0 0 C 121.349 1221.08 t 0 r /Helvetica-Bold findfont 64.4669 sf 0 0 m (3.5) show NC gr 
 gsave  2268 1680 0 0 C 174.44 1368.97 t 0 r /Helvetica-Bold findfont 64.4669 sf 0 0 m (4) show NC gr 
 gsave  2268 1680 0 0 C 64.4669 1429.65 t 90 r /Helvetica-Bold findfont 72.0512 sf 0 0 m (dx) show NC gr 
 gsave  2268 1680 0 0 C 30.3373 1410.69 t 90 r /Helvetica-Bold findfont 45.506 sf 0 0 m ( ) show NC gr 
 gsave  2268 1680 0 0 C 64.4669 1387.93 t 90 r /Helvetica-Bold findfont 72.0512 sf 0 0 m (/) show NC gr 
 gsave  2268 1680 0 0 C 30.3373 1368.97 t 90 r /Helvetica-Bold findfont 45.506 sf 0 0 m ( ) show NC gr 
 gsave  2268 1680 0 0 C 60.6747 1095.94 t 90 r /Helvetica-Bold findfont 72.0512 sf 0 0 m (\(1/N\) dN) show NC gr  2154 202 m 1310 Y s 2101 202 m 53 X s 2128 231 m 26 X s 2128 261 m 26 X s 2128 291 m 26 X s 2128 321 m 26 X s 2101 350 m 53 X s 2128 380
 m 26 X s 2128 410 m 26 X s 2128 440 m 26 X s 2128 470 m 26 X s 2101 499 m 53 X s 2128 529 m 26 X s 2128 559 m 26 X s 2128 589 m 26 X s 2128 619 m 26 X s 2101 648 m 53 X s 2128 678 m 26 X s 2128 708 m 26 X s 2128 738 m 26 X s 2128 767 m 26 X s 2101
 797 m 53 X s 2128 827 m 26 X s 2128 857 m 26 X s 2128 887 m 26 X s 2128 916 m 26 X s 2101 946 m 53 X s 2128 976 m 26 X s 2128 1006 m 26 X s 2128 1035 m 26 X s 2128 1065 m 26 X s 2101 1095 m 53 X s 2128 1125 m 26 X s 2128 1155 m 26 X s 2128 1184 m 26
 X s 2128 1214 m 26 X s 2101 1244 m 53 X s 2128 1274 m 26 X s 2128 1303 m 26 X s 2128 1333 m 26 X s 2128 1363 m 26 X s 2101 1393 m 53 X s 2101 1393 m 53 X s 2128 1423 m 26 X s 2128 1452 m 26 X s 2128 1482 m 26 X s 2128 1512 m 26 X s 0.490196 0.545098
 0.615686 c 1 1 1 c 0.490196 0.545098 0.615686 c 680 202 238 1310 bl 238 1310 m 680 X s 918 1310 m 202 Y s 918 1512 m -680 X s 238 1512 m -202 Y s black
 gsave  2268 1680 0 0 C 439.892 1441.02 t 0 r /Helvetica-Bold findfont 75.8434 sf 0 0 m (Signal) show NC gr  0.49 0.6 0.82 c 269 1426 m 143 X 71 Y -143 X f 0 0 0.933333 c 6 lw 269 1497 m 143 X s 269 1426 m 143 X s 412 1426 m 71 Y s 269 1426 m 71 Y s
 black
 gsave  2268 1680 0 0 C 439.892 1338.64 t 0 r /Helvetica-Bold findfont 75.8434 sf 0 0 m (Background) show NC gr  1 0 0 c 3 lw 412 1326 m -1 -1 d s 412 1374 m -49 -49 d s 386 1396 m -71 -71 d s 338 1396 m -69 -69 d s 290 1396 m -21 -21 d s 6 lw 0 0
 0.933333 c 1 0 0 c 269 1396 m 143 X s 269 1325 m 143 X s 412 1325 m 71 Y s 269 1325 m 71 Y s 0 0 0.933333 c 0.49 0.6 0.82 c black 3 lw 0.49 0.6 0.82 c 238 202 m 96 X 1 Y 48 X 1 Y 48 X 5 Y 48 X 5 Y 48 X 6 Y 47 X 8 Y 48 X 8 Y 48 X 9 Y 48 X 15 Y 48 X
 25 Y 48 X 33 Y 48 X 10 Y 48 X 19 Y 48 X -1 Y 48 X 35 Y 48 X -46 Y 47 X -14 Y 48 X 13 Y 48 X -21 Y 48 X 73 Y 48 X -24 Y 48 X -66 Y 96 X 90 Y 48 X -11 Y 48 X -82 Y 47 X 36 Y 48 X 128 Y 48 X -60 Y 48 X -9 Y 48 X 73 Y 48 X -67 Y 48 X 33 Y 48 X 137 Y 48
 X -149 Y 48 X 130 Y 48 X 151 Y 47 X 598 Y 48 X -1092 Y f 6 lw 0 0 0.933333 c 0.49 0.6 0.82 c 0 0 0.933333 c 238 202 m 96 X 1 Y 48 X 1 Y 48 X 5 Y 48 X 5 Y 48 X 6 Y 47 X 8 Y 48 X 8 Y 48 X 9 Y 48 X 15 Y 48 X 25 Y 48 X 33 Y 48 X 10 Y 48 X 19 Y 48 X -1 Y
 48 X 35 Y 48 X -46 Y 47 X -14 Y 48 X 13 Y 48 X -21 Y 48 X 73 Y 48 X -24 Y 48 X -66 Y 96 X 90 Y 48 X -11 Y 48 X -82 Y 47 X 36 Y 48 X 128 Y 48 X -60 Y 48 X -9 Y 48 X 73 Y 48 X -67 Y 48 X 33 Y 48 X 137 Y 48 X -149 Y 48 X 130 Y 48 X 151 Y 47 X 598 Y 48
 X -1092 Y s 1 0 0 c black 3 lw 1 0 0 c 2154 230 m -28 -28 d s 2142 266 m -64 -64 d s 2074 246 m -44 -44 d s 2016 236 m -5 -5 d s 2002 222 m -21 -20 d s 1963 231 m -30 -29 d s 1927 244 m -12 -13 d s 1914 230 m -29 -28 d s 1867 231 m -30 -29 d s 1820
 232 m -31 -30 d s 1792 253 m -51 -51 d s 1734 242 m -41 -40 d s 1697 254 m -52 -52 d s 1675 280 m -78 -78 d s 1636 289 m -9 -9 d s 1598 251 m -49 -49 d s 1540 242 m -40 -40 d s 1532 281 m -80 -79 d s 1495 292 m -91 -90 d s 1469 315 m -33 -34 d s
 1423 269 m -67 -67 d s 1384 277 m -76 -75 d s 1340 282 m -80 -80 d s 1340 330 m -128 -128 d s 1295 333 m -131 -131 d s 1292 378 m -176 -176 d s 1248 382 m -4 -4 d s 1198 332 m -131 -130 d s 1196 378 m -177 -176 d s 1150 380 m -179 -178 d s 1105 384
 m -182 -182 d s 1100 427 m -225 -225 d s 1062 436 m -235 -234 d s 1053 475 m -274 -273 d s 1053 523 m -322 -321 d s 1050 569 m -367 -367 d s 1005 572 m -370 -370 d s 971 586 m -385 -384 d s 933 596 m -395 -394 d s 909 620 m -419 -418 d s 884 643 m
 -442 -441 d s 861 668 m -48 -47 d s 785 593 m -20 -20 d s 763 571 m -369 -369 d s 831 687 m -18 -18 d s 679 535 m -10 -10 d s 650 505 m -29 -28 d s 600 456 m -170 -171 d s 409 265 m -27 -27 d s 379 234 m -33 -32 d s 545 449 m -19 -20 d s 519 423 m
 -41 -42 d s 436 340 m -6 -6 d s 320 224 m -22 -22 d s 257 209 m -7 -7 d s 6 lw 238 209 m 48 X 15 Y 48 X 10 Y 48 X 31 Y 48 X 75 Y 48 X 83 Y 48 X 26 Y 47 X 7 Y 48 X 49 Y 48 X 30 Y 48 X 36 Y 48 X 22 Y 48 X 94 Y 48 X -44 Y 48 X -47 Y 48 X -10 Y 48 X -17
 Y 48 X -133 Y 47 X -52 Y 48 X -4 Y 48 X -48 Y 48 X 50 Y 48 X -49 Y 48 X -56 Y 48 X -8 Y 48 X 46 Y 48 X -23 Y 48 X -50 Y 47 X 9 Y 48 X 38 Y 48 X -35 Y 48 X -12 Y 48 X 11 Y 48 X -21 Y 48 X -2 Y 48 X 14 Y 48 X -22 Y 48 X 14 Y 48 X 10 Y 47 X 20 Y 48 X
 -64 Y s black 3 lw 238 202 m 1916 X s 238 244 m -42 Y s 290 223 m -21 Y s 342 223 m -21 Y s 393 223 m -21 Y s 445 244 m -42 Y s 497 223 m -21 Y s 548 223 m -21 Y s 600 223 m -21 Y s 652 244 m -42 Y s 703 223 m -21 Y s 755 223 m -21 Y s 807 223 m -21
 Y s 858 244 m -42 Y s 910 223 m -21 Y s 962 223 m -21 Y s 1014 223 m -21 Y s 1065 244 m -42 Y s 1117 223 m -21 Y s 1169 223 m -21 Y s 1220 223 m -21 Y s 1272 244 m -42 Y s 1324 223 m -21 Y s 1375 223 m -21 Y s 1427 223 m -21 Y s 1479 244 m -42 Y s
 1531 223 m -21 Y s 1582 223 m -21 Y s 1634 223 m -21 Y s 1686 244 m -42 Y s 1737 223 m -21 Y s 1789 223 m -21 Y s 1841 223 m -21 Y s 1892 244 m -42 Y s 1944 223 m -21 Y s 1996 223 m -21 Y s 2048 223 m -21 Y s 2099 244 m -42 Y s 238 244 m -42 Y s
 2099 244 m -42 Y s 2151 223 m -21 Y s 238 1512 m 1916 X s 238 1469 m 43 Y s 290 1491 m 21 Y s 342 1491 m 21 Y s 393 1491 m 21 Y s 445 1469 m 43 Y s 497 1491 m 21 Y s 548 1491 m 21 Y s 600 1491 m 21 Y s 652 1469 m 43 Y s 703 1491 m 21 Y s 755 1491 m
 21 Y s 807 1491 m 21 Y s 858 1469 m 43 Y s 910 1491 m 21 Y s 962 1491 m 21 Y s 1014 1491 m 21 Y s 1065 1469 m 43 Y s 1117 1491 m 21 Y s 1169 1491 m 21 Y s 1220 1491 m 21 Y s 1272 1469 m 43 Y s 1324 1491 m 21 Y s 1375 1491 m 21 Y s 1427 1491 m 21 Y s
 1479 1469 m 43 Y s 1531 1491 m 21 Y s 1582 1491 m 21 Y s 1634 1491 m 21 Y s 1686 1469 m 43 Y s 1737 1491 m 21 Y s 1789 1491 m 21 Y s 1841 1491 m 21 Y s 1892 1469 m 43 Y s 1944 1491 m 21 Y s 1996 1491 m 21 Y s 2048 1491 m 21 Y s 2099 1469 m 43 Y s
 238 1469 m 43 Y s 2099 1469 m 43 Y s 2151 1491 m 21 Y s 238 202 m 1310 Y s 291 202 m -53 X s 265 231 m -27 X s 265 261 m -27 X s 265 291 m -27 X s 265 321 m -27 X s 291 350 m -53 X s 265 380 m -27 X s 265 410 m -27 X s 265 440 m -27 X s 265 470 m
 -27 X s 291 499 m -53 X s 265 529 m -27 X s 265 559 m -27 X s 265 589 m -27 X s 265 619 m -27 X s 291 648 m -53 X s 265 678 m -27 X s 265 708 m -27 X s 265 738 m -27 X s 265 767 m -27 X s 291 797 m -53 X s 265 827 m -27 X s 265 857 m -27 X s 265 887
 m -27 X s 265 916 m -27 X s 291 946 m -53 X s 265 976 m -27 X s 265 1006 m -27 X s 265 1035 m -27 X s 265 1065 m -27 X s 291 1095 m -53 X s 265 1125 m -27 X s 265 1155 m -27 X s 265 1184 m -27 X s 265 1214 m -27 X s 291 1244 m -53 X s 265 1274 m -27
 X s 265 1303 m -27 X s 265 1333 m -27 X s 265 1363 m -27 X s 291 1393 m -53 X s 291 1393 m -53 X s 265 1423 m -27 X s 265 1452 m -27 X s 265 1482 m -27 X s 265 1512 m -27 X s 2154 202 m 1310 Y s 2101 202 m 53 X s 2128 231 m 26 X s 2128 261 m 26 X s
 2128 291 m 26 X s 2128 321 m 26 X s 2101 350 m 53 X s 2128 380 m 26 X s 2128 410 m 26 X s 2128 440 m 26 X s 2128 470 m 26 X s 2101 499 m 53 X s 2128 529 m 26 X s 2128 559 m 26 X s 2128 589 m 26 X s 2128 619 m 26 X s 2101 648 m 53 X s 2128 678 m 26 X
 s 2128 708 m 26 X s 2128 738 m 26 X s 2128 767 m 26 X s 2101 797 m 53 X s 2128 827 m 26 X s 2128 857 m 26 X s 2128 887 m 26 X s 2128 916 m 26 X s 2101 946 m 53 X s 2128 976 m 26 X s 2128 1006 m 26 X s 2128 1035 m 26 X s 2128 1065 m 26 X s 2101 1095
 m 53 X s 2128 1125 m 26 X s 2128 1155 m 26 X s 2128 1184 m 26 X s 2128 1214 m 26 X s 2101 1244 m 53 X s 2128 1274 m 26 X s 2128 1303 m 26 X s 2128 1333 m 26 X s 2128 1363 m 26 X s 2101 1393 m 53 X s 2101 1393 m 53 X s 2128 1423 m 26 X s 2128 1452 m
 26 X s 2128 1482 m 26 X s 2128 1512 m 26 X s
 gsave  2268 1680 0 0 C 2211.02 193.192 t 90 r /Helvetica-Bold findfont 45.506 sf 0 0 m (U/O\255flow \(S,B\): \(0.0, 0.0\)% / \(0.0, 0.0\)%) show NC gr  0.490196 0.545098 0.615686 c 0.364706 0.419608 0.490196 c 1346 91 23 1581 bf 0.490196 0.545098
 0.615686 c 23 1581 m 1346 X s 1369 1581 m 91 Y s 1369 1672 m -1346 X s 23 1672 m -91 Y s 1 1 1 c black 1 1 1 c
 gsave  2268 1680 0 0 C 98.5964 1607.88 t 0 r /Helvetica-Bold findfont 72.0512 sf 0 0 m (TMVA response for classifier: BDT) show NC gr 
 gr  gr showpage
end
%%EOF
