%!PS-Adobe-2.0 EPSF-2.0
%%BoundingBox:  0 0 567 419
%%Title: dataset/plots/mvaeffs_BDT.eps: Cut efficiencies for BDT classifier
%%Creator: ROOT Version 6.14/04
%%CreationDate: Mon Mar  2 12:47:41 2020
%%DocumentNeededResources: ProcSet (FontSetInit)
%%EndComments
%%BeginProlog
80 dict begin
/s {stroke} def /l {lineto} def /m {moveto} def /t {translate} def
/r {rotate} def /rl {roll}  def /R {repeat} def
/d {rlineto} def /rm {rmoveto} def /gr {grestore} def /f {eofill} def
/c {setrgbcolor} def /black {0 setgray} def /sd {setdash} def
/cl {closepath} def /sf {scalefont setfont} def /lw {setlinewidth} def
/box {m dup 0 exch d exch 0 d 0 exch neg d cl} def
/NC{systemdict begin initclip end}def/C{NC box clip newpath}def
/bl {box s} def /bf {gsave box gsave f grestore 1 lw [] 0 sd s grestore} def /Y { 0 exch d} def /X { 0 d} def 
/K {{pop pop 0 moveto} exch kshow} bind def
/ita {/ang 15 def gsave [1 0 ang dup sin exch cos div 1 0 0] concat} def 
/mp {newpath /y exch def /x exch def} def
/side {[w .77 mul w .23 mul] .385 w mul sd w 0 l currentpoint t -144 r} def
/mr {mp x y w2 0 360 arc} def /m24 {mr s} def /m20 {mr f} def
/mb {mp x y w2 add m w2 neg 0 d 0 w neg d w 0 d 0 w d cl} def
/mt {mp x y w2 add m w2 neg w neg d w 0 d cl} def
/w4 {w 4 div} def
/w6 {w 6 div} def
/w8 {w 8 div} def
/m21 {mb f} def /m25 {mb s} def /m22 {mt f} def /m26{mt s} def
/m23 {mp x y w2 sub m w2 w d w neg 0 d cl f} def
/m27 {mp x y w2 add m w3 neg w2 neg d w3 w2 neg d w3 w2 d cl s} def
/m28 {mp x w2 sub y w2 sub w3 add m w3 0 d  0 w3 neg d w3 0 d 0 w3 d w3 0 d  0 w3 d w3 neg 0 d 0 w3 d w3 neg 0 d 0 w3 neg d w3 neg 0 d cl s } def
/m29 {mp gsave x w2 sub y w2 add w3 sub m currentpoint t 4 {side} repeat cl fill gr} def
/m30 {mp gsave x w2 sub y w2 add w3 sub m currentpoint t 4 {side} repeat cl s gr} def
/m31 {mp x y w2 sub m 0 w d x w2 sub y m w 0 d x w2 sub y w2 add m w w neg d x w2 sub y w2 sub m w w d s} def
/m32 {mp x y w2 sub m w2 w d w neg 0 d cl s} def
/m33 {mp x y w2 add m w3 neg w2 neg d w3 w2 neg d w3 w2 d cl f} def
/m34 {mp x w2 sub y w2 sub w3 add m w3 0 d  0 w3 neg d w3 0 d 0 w3 d w3 0 d  0 w3 d w3 neg 0 d 0 w3 d w3 neg 0 d 0 w3 neg d w3 neg 0 d cl f } def
/m35 {mp x y w2 add m w2 neg w2 neg d w2 w2 neg d w2 w2 d w2 neg w2 d x y w2 sub m 0 w d x w2 sub y m w 0 d s} def
/m36 {mb x w2 sub y w2 add m w w neg d x w2 sub y w2 sub m w w d s} def
/m37 {mp x y m w4 neg w2 d w4 neg w2 neg d w2 0 d  w4 neg w2 neg d w2 0 d w4 neg w2 d w2 0 d w4 neg w2 d w4 neg w2 neg d cl s} def
/m38 {mp x w4 sub y w2 add m w4 neg w4 neg d 0 w2 neg d w4 w4 neg d w2 0 d w4 w4 d 0 w2 d w4 neg w4 d w2 neg 0 d x y w2 sub m 0 w d x w2 sub y m w 0 d cl s} def
/m39 {mp x y m w4 neg w2 d w4 neg w2 neg d w2 0 d  w4 neg w2 neg d w2 0 d w4 neg w2 d w2 0 d w4 neg w2 d w4 neg w2 neg d cl f} def
/m40 {mp x y m w4 w2 d w4 w4 neg d w2 neg w4 neg d w2 w4 neg d w4 neg w4 neg d w4 neg w2 d w4 neg w2 neg d w4 neg w4 d w2 w4 d w2 neg w4 d w4 w4 d w4 w2 neg d cl s} def
/m41 {mp x y m w4 w2 d w4 w4 neg d w2 neg w4 neg d w2 w4 neg d w4 neg w4 neg d w4 neg w2 d w4 neg w2 neg d w4 neg w4 d w2 w4 d w2 neg w4 d w4 w4 d w4 w2 neg d cl f} def
/m42 {mp x y w2 add m w8 neg w2 -3 4 div mul d w2 -3 4 div mul w8 neg d w2 3 4 div mul w8 neg d w8 w2 -3 4 div mul d w8 w2 3 4 div mul d w2 3 4 div mul w8 d w2 -3 4 div mul w8 d w8 neg w2 3 4 div mul d cl s} def
/m43 {mp x y w2 add m w8 neg w2 -3 4 div mul d w2 -3 4 div mul w8 neg d w2 3 4 div mul w8 neg d w8 w2 -3 4 div mul d w8 w2 3 4 div mul d w2 3 4 div mul w8 d w2 -3 4 div mul w8 d w8 neg w2 3 4 div mul d cl f} def
/m44 {mp x y m w6 neg w2 d w2 2 3 div mul 0 d w6 neg w2 neg d w2 w6 d 0 w2 -2 3 div mul d w2 neg w6 d w6 w2 neg d w2 -2 3 div mul 0 d w6 w2 d w2 neg w6 neg d 0 w2 2 3 div mul d w2 w6 neg d cl s} def
/m45 {mp x y m w6 neg w2 d w2 2 3 div mul 0 d w6 neg w2 neg d w2 w6 d 0 w2 -2 3 div mul d w2 neg w6 d w6 w2 neg d w2 -2 3 div mul 0 d w6 w2 d w2 neg w6 neg d 0 w2 2 3 div mul d w2 w6 neg d cl f} def
/m46 {mp x y w4 add m w4 neg w4 d w4 neg w4 neg d  w4 w4 neg d w4 neg w4 neg d w4 w4 neg d w4 w4 d w4 w4 neg d w4 w4 d w4 neg w4 d w4 w4 d w4 neg w4 d w4 neg w4 neg d cl s} def
/m47 {mp x y w4 add m w4 neg w4 d w4 neg w4 neg d w4 w4 neg d w4 neg w4 neg d  w4 w4 neg d w4 w4 d w4 w4 neg d w4 w4 d w4 neg w4 d w4 w4 d w4 neg w4 d w4 neg w4 neg d cl f} def
/m48 {mp x y w4 add m w4 neg w4 d w4 neg w4 neg d w4 w4 neg d  w4 neg w4 neg d w4 w4 neg d w4 w4 d w4 w4 neg d w4 w4 d w4 neg w4 d w4 w4 d w4 neg w4 d w4 neg w4 neg d  w4 w4 neg d w4 neg w4 neg d w4 neg w4 d w4 w4 d cl f} def
/m49 {mp x w2 sub w3 add y w2 sub w3 add m  0 w3 neg d w3 0 d 0 w3 d w3 0 d 0 w3 d w3 neg 0 d 0 w3 d w3 neg 0 d 0 w3 neg d w3 neg 0 d 0 w3 neg d w3 0 d 0 w3 d w3 0 d 0 w3 neg d w3 neg 0 d cl f } def
/m2 {mp x y w2 sub m 0 w d x w2 sub y m w 0 d s} def
/m5 {mp x w2 sub y w2 sub m w w d x w2 sub y w2 add m w w neg d s} def
%%IncludeResource: ProcSet (FontSetInit)
%%IncludeResource: font Times-Roman
%%IncludeResource: font Times-Italic
%%IncludeResource: font Times-Bold
%%IncludeResource: font Times-BoldItalic
%%IncludeResource: font Helvetica
%%IncludeResource: font Helvetica-Oblique
%%IncludeResource: font Helvetica-Bold
%%IncludeResource: font Helvetica-BoldOblique
%%IncludeResource: font Courier
%%IncludeResource: font Courier-Oblique
%%IncludeResource: font Courier-Bold
%%IncludeResource: font Courier-BoldOblique
%%IncludeResource: font Symbol
%%IncludeResource: font ZapfDingbats
/reEncode {exch findfont dup length dict begin {1 index /FID eq  {pop pop} {def} ifelse } forall /Encoding exch def currentdict end dup /FontName get exch definefont pop } def [/Times-Bold /Times-Italic /Times-BoldItalic /Helvetica /Helvetica-Oblique
 /Helvetica-Bold /Helvetica-BoldOblique /Courier /Courier-Oblique /Courier-Bold /Courier-BoldOblique /Times-Roman /AvantGarde-Book /AvantGarde-BookOblique /AvantGarde-Demi /AvantGarde-DemiOblique /Bookman-Demi /Bookman-DemiItalic /Bookman-Light
 /Bookman-LightItalic /Helvetica-Narrow /Helvetica-Narrow-Bold /Helvetica-Narrow-BoldOblique /Helvetica-Narrow-Oblique /NewCenturySchlbk-Roman /NewCenturySchlbk-Bold /NewCenturySchlbk-BoldItalic /NewCenturySchlbk-Italic /Palatino-Bold
 /Palatino-BoldItalic /Palatino-Italic /Palatino-Roman ] {ISOLatin1Encoding reEncode } forall
%%EndProlog
%%BeginSetup
%%EndSetup
newpath  gsave  .25 .25 scale  gsave  0 0 t 0.490196 0.545098 0.615686 c[  ] 0 sd 3 lw 0.941176 0.941176 0.941176 c 2268 1676 0 0 bf black 1 1 0.992157 c 1796 1140 245 201 bf black 1796 1140 245 201 bl 1 1 0.992157 c 1796 1140 245 201 bf black 1796
 1140 245 201 bl 245 201 m 1796 X s[ 4 8] 0 sd 429 1341 m -1140 Y s 669 1341 m -1140 Y s 910 1341 m -1140 Y s 1150 1341 m -1140 Y s 1390 1341 m -1140 Y s 1630 1341 m -1140 Y s 1871 1341 m -1140 Y s 429 1341 m -1140 Y s 1871 1341 m -1140 Y s[  ] 0 sd
 245 201 m 1140 Y s[ 4 8] 0 sd 2041 201 m -1796 X s 2041 408 m -1796 X s 2041 616 m -1796 X s 2041 823 m -1796 X s 2041 1030 m -1796 X s 2041 1237 m -1796 X s 2041 1237 m -1796 X s 0 0 0.933333 c[  22 12 ] 0 sd 6 lw 0.49 0.6 0.82 c black 0 0 0.933333
 c 245 719 m 9 X s 254 719 m 9 X s 263 719 m 8 X s 271 719 m 9 X s 280 719 m 9 X s 289 719 m 9 X s 298 719 m 9 X s 307 719 m 8 X s 315 719 m 9 X s 324 719 m 7 X 1 1 d 1 X s 333 720 m 9 X s 342 720 m 9 X s 351 720 m 8 X s 359 720 m 9 X s 368 720 m 9 X
 s 377 720 m 1 X 1 Y 8 X s 386 721 m 9 X s 395 721 m 6 X 1 Y 2 X s 403 722 m 9 X s 412 722 m 7 X 1 Y 2 X s 421 723 m 9 X s 430 723 m 3 X 1 Y 6 X s 439 724 m 6 X 1 Y 2 X s 447 725 m 9 X 1 Y s 456 726 m 9 X s 465 726 m 1 X 1 Y 8 X s 474 727 m 1 X 1 Y 7
 X 1 1 d s 483 729 m 7 X 1 1 d s 491 730 m 7 X 1 Y 2 X s 500 731 m 4 X 1 Y 5 X s 509 732 m 2 X 1 Y 6 X 1 Y 1 X s 518 734 m 5 X 1 Y 4 X s 527 735 m 2 X 1 Y 6 X 1 Y s 535 737 m 5 X 1 Y 4 X s 544 738 m 2 X 1 Y 5 X 1 Y 2 X s 553 740 m 3 X 1 1 d 4 X 1 Y 1
 X s 562 742 m 4 X 1 Y 5 X s 571 743 m 1 Y 4 X 1 Y 4 X s 579 745 m 1 X 1 Y 4 X 1 Y 4 X s 588 747 m 1 Y 4 X 1 1 d 3 X 1 Y 1 X s 597 750 m 3 X 1 1 d 4 X 1 Y 1 X s 606 752 m 3 X 1 Y 4 X 1 Y 2 X s 615 754 m 1 X 1 1 d 3 X 1 Y 3 X s 623 756 m 1 X 1 Y 4 X 1
 Y 3 X 1 Y 1 X s 632 759 m 2 X 1 Y 4 X 1 Y 3 X s 641 761 m 1 Y 4 X 1 Y 3 X 1 Y 2 X s 650 764 m 2 X 1 Y 3 X 1 Y 3 X 1 Y 1 X s 659 767 m 3 X 1 Y 3 X 1 Y 2 X s 667 769 m 1 X 1 Y 3 X 1 1 d 3 X 1 Y 1 X s 676 772 m 2 X 1 Y 3 X 1 Y 3 X 1 Y 1 X s 685 775 m 2
 X 1 Y 3 X 1 Y 3 X 1 Y 1 X s 694 778 m 2 X 1 Y 3 X 1 Y 3 X 1 Y 1 X s 703 781 m 2 X 1 Y 3 X 1 Y 3 X 1 Y s 711 784 m 3 X 1 Y 3 X 1 Y 3 X 1 Y s 720 787 m 3 X 1 Y 2 X 1 Y 3 X 1 Y 1 X s 729 790 m 2 X 1 Y 3 X 1 Y 2 X 1 Y 2 X s 738 793 m 1 X 1 Y 2 X 1 1 d 2
 X 1 Y 3 X s 747 796 m 1 Y 3 X 1 Y 2 X 1 Y 3 X 1 Y s 755 800 m 2 X 1 1 d 2 X 1 Y 3 X 1 Y 1 X s 764 803 m 1 X 1 1 d 2 X 1 Y 3 X 1 Y 2 X s 773 806 m 1 1 d 2 X 1 Y 2 X 1 Y 3 X 1 Y 1 X s 782 810 m 2 X 1 Y 2 X 1 Y 2 X 1 1 d 2 X s 791 813 m 1 1 d 2 X 1 Y 2
 X 1 1 d 2 X 1 Y s 799 817 m 2 X 1 1 d 2 X 1 Y 2 X 1 1 d 1 X s 808 820 m 1 X 1 Y 2 X 1 Y 3 X 1 Y 2 X 1 1 d s 817 824 m 2 X 1 Y 2 X 1 1 d 2 X 1 Y 2 X s 826 827 m 1 Y 3 X 1 Y 2 X 1 Y 3 X 1 Y 1 X s 835 831 m 1 X 1 Y 2 X 1 1 d 2 X 1 Y 2 X 1 Y s 843 835 m
 3 X 1 Y 2 X 1 Y 2 X 1 Y 2 X s 852 838 m 1 X 1 Y 2 X 1 1 d 2 X 1 Y 2 X 1 Y 1 X s 861 842 m 2 X 1 Y 2 X 1 Y 3 X 1 Y 2 X s 870 845 m 1 Y 2 X 1 1 d 2 X 1 Y 2 X 1 Y 2 X s 879 849 m 1 1 d 2 X 1 Y 2 X 1 1 d 2 X 1 Y s 887 853 m 2 X 1 Y 2 X 1 1 d 2 X 1 1 d 1
 X s 896 856 m 1 X 1 Y 3 X 1 Y 3 X 1 Y 2 X s 905 859 m 1 1 d 2 X 1 Y 3 X 1 Y 2 X 1 Y 1 X s 914 863 m 2 X 1 Y 2 X 1 1 d 2 X 1 Y 2 X s 923 866 m 1 X 1 Y 3 X 1 Y 2 X 1 Y 2 X s 931 869 m 1 X 1 1 d 2 X 1 Y 3 X 1 Y 2 X s 940 872 m 1 X 1 1 d 2 X 1 Y 3 X 1 Y
 2 X s 949 875 m 1 X 1 Y 3 X 1 Y 4 X 1 Y 1 X s 958 878 m 2 X 1 1 d 3 X 1 1 d 2 X s 967 880 m 1 X 1 Y 3 X 1 Y 3 X 1 Y 1 X s 975 883 m 2 X 1 Y 5 X 1 Y 2 X s 984 885 m 2 X 1 Y 4 X 1 1 d 2 X s 993 887 m 2 X 1 Y 4 X 1 Y 3 X s 1002 889 m 2 X 1 Y 4 X 1 Y 3
 X s 1011 891 m 4 X 1 Y 4 X s 1019 892 m 3 X 1 Y 5 X 1 1 d s 1028 894 m 9 X s 1037 894 m 1 X 1 Y -1 Y 1 Y 8 X s 1046 895 m 9 X s 1055 895 m 3 X 1 Y -1 Y 1 1 d 2 X -1 Y 1 Y 2 X -1 Y 1 Y s 1063 896 m 1 -1 d 1 Y -1 Y 1 X 1 Y 5 X 1 -1 d 1 Y 1 X s 1072
 896 m 7 X -1 Y 1 Y -1 Y 1 1 d 1 X s 1081 896 m 4 X 1 -1 d 1 Y -1 Y 4 X s 1090 895 m 9 X s 1099 895 m 3 X -1 Y 5 X s 1107 894 m 6 X -1 Y 3 X s 1116 893 m 3 X -1 Y 6 X s 1125 892 m 2 X -1 Y 5 X -1 Y 2 X s 1134 890 m 2 X -1 Y 2 X 1 -1 d 4 X s 1143 888
 m -1 Y 3 X -1 Y 4 X -1 Y 1 X s 1151 885 m 2 X 1 -1 d 2 X -1 Y 3 X 1 -1 d s 1160 882 m 3 X -1 Y 4 X -1 Y 2 X s 1169 880 m -1 Y 3 X -1 Y 3 X -1 Y 2 X 1 -1 d s 1178 876 m 2 X -1 Y 2 X -1 Y 3 X -1 Y 2 X s 1187 873 m 1 -1 d 1 X 1 -1 d 2 X -1 Y 2 X -1 Y 1
 X s 1195 869 m 2 X -1 Y 3 X -1 Y 2 X -1 Y 2 X -1 Y s 1204 865 m 2 X -1 Y 2 X 1 -1 d 1 X 1 -1 d 2 X -1 Y s 1213 861 m 2 X -1 Y 2 X -1 Y 2 X -1 Y 2 X -1 Y 1 X s 1222 857 m 2 X -1 Y 1 X -1 Y 2 X -1 Y 2 X -1 Y 2 X s 1231 853 m -1 Y 2 X -1 Y 2 X -1 Y 2 X
 -1 Y 1 X 1 -1 d s 1239 848 m 1 X 1 -1 d 1 X -1 Y 2 X -1 Y 1 X 1 -1 d 1 X -1 Y 1 X s 1248 843 m -1 Y 2 X -1 Y 2 X -1 Y 1 X -1 Y 1 X 1 -1 d 1 X 1 -1 d s 1257 837 m 1 X -1 Y 2 X -1 Y 1 X -1 Y 2 X -1 Y 1 X -1 Y 2 X -1 Y s 1266 831 m 1 X -1 Y 1 X 1 -1 d
 1 X -1 Y 1 X -1 Y 2 X -1 Y 1 X 1 -1 d s 1275 825 m 1 X -1 Y 1 X 1 -1 d 1 X -1 Y 1 X -1 Y 2 X -1 Y 1 X -1 Y s 1283 819 m 1 X -1 Y 1 X 1 -1 d 1 X -1 Y 1 X -1 Y 2 X -1 Y 1 X -1 Y 1 X -1 Y s 1292 812 m 1 X 1 -1 d 1 X -1 Y 1 X -1 Y 2 X -1 Y 1 X -1 Y 1 X
 -1 Y 1 X s 1301 806 m -1 Y 1 X 1 -1 d 1 X -1 Y 1 X -1 Y 1 X -1 Y 1 X -1 Y 1 X -1 Y 2 X -1 Y s 1310 798 m 1 X -1 Y 1 X -1 Y 1 X -1 Y 1 X 1 -1 d 1 -1 d 1 X -1 Y 1 X -1 Y 1 X s 1319 791 m -1 Y 1 X -1 Y 1 X 1 -1 d 1 -1 d 1 X -1 Y 1 X -1 Y 1 X -1 Y 1 X
 -1 Y s 1327 783 m 1 X -1 Y 1 X -1 Y 1 X 1 -1 d 1 -1 d 1 X -1 Y 1 X -1 Y 1 X -1 Y 1 X -1 Y s 1336 775 m 1 X -1 Y 1 X -1 Y 1 X 1 -1 d 1 -1 d 1 -1 d 1 X -1 Y 1 -1 d 1 X -1 Y s 1345 767 m 1 X -1 Y 1 X -1 Y 1 X -1 Y 1 X -1 Y 1 X -1 Y 1 X -1 Y 1 X -1 Y 1
 X -1 Y 1 X s 1354 759 m -1 Y 1 X -1 Y 1 X -1 Y 1 X -1 Y 2 X -1 Y 1 X -1 Y 1 X -1 Y 1 X -1 Y 1 X s 1363 751 m -1 Y 1 X -1 Y 1 X -1 Y 1 X -1 Y 1 X -1 Y 1 X -1 Y 1 X -1 Y 1 X -1 Y 1 X -1 Y s 1371 742 m 1 X -1 Y 1 X -1 Y 1 X 1 -1 d 1 -1 d 1 X -1 Y 1 -1
 d 1 -1 d 1 X -1 Y s 1380 734 m 1 -1 d 1 X -1 Y 1 X -1 Y 1 X -1 Y 1 X -1 Y 1 X -1 Y 1 X -1 Y 1 X -1 Y 1 X -1 Y s 1389 725 m 1 X -1 Y 1 X -1 Y 1 -1 d -1 Y 1 X -1 Y 1 X -1 Y 1 X -1 Y 1 X -1 Y 1 X -1 Y 1 X s 1398 716 m -1 Y 1 X -1 Y 1 X -1 Y 1 X -1 Y 1
 X -1 Y 1 X -1 Y 1 X -1 Y 1 X -1 Y 1 X -1 Y 1 -1 d s 1407 706 m 1 -1 d -1 Y 1 X -1 Y 1 X -1 Y 1 X -1 Y 1 X -1 Y 1 X -1 Y 1 X -1 Y 1 -1 d -1 Y s 1415 696 m 1 X -1 Y 1 X -1 Y 1 X -1 Y 1 X -1 Y 1 X -1 Y 1 X -1 Y 1 X -1 Y 1 -1 d 1 -1 d s 1424 687 m -1 Y
 1 X 1 -1 d -1 Y 1 X -1 Y 1 X -1 Y 1 X -1 Y 1 X -1 Y 1 X -1 Y 1 -1 d 1 -1 d s 1433 677 m -1 Y 1 X -1 Y 1 X -1 Y 1 X -2 Y 1 X -1 Y 1 X -1 Y 1 X -1 Y 1 X -1 Y 1 X -1 Y 1 -1 d s 1442 666 m 1 -1 d -1 Y 1 X -1 Y 1 X -1 Y 1 X -1 Y 1 -1 d -1 Y 1 X -1 Y 1 X
 -1 Y 1 X -1 Y 1 -1 d s 1451 655 m -1 Y 1 X -1 Y 1 X -1 Y 1 X -1 Y 1 X -1 Y 1 -1 d -1 Y 1 X -1 Y 1 X -1 Y 1 X -1 Y s 1459 645 m 1 X -2 Y 1 X -1 Y 1 X -1 Y 1 X -1 Y 1 X -1 Y 1 X -2 Y 1 X -1 Y 1 X -1 Y 1 X -1 Y s 1468 634 m 1 X -1 Y 1 X -2 Y 1 X -1 Y 1
 X -1 Y 1 X -1 Y 1 -1 d 1 -1 d -1 Y 1 X -1 Y 1 X -1 Y s 1477 623 m 1 X -2 Y 1 X -1 Y 1 X -1 Y 1 X -1 Y 1 -1 d -1 Y 1 X -1 Y 1 X -1 Y 1 X -2 Y 1 X s 1486 612 m -1 Y 1 X -1 Y 1 -1 d 1 -1 d -1 Y 1 X -1 Y 1 X -2 Y 1 X -1 Y 1 X -1 Y 1 X -1 Y 1 X -1 Y s
 1495 600 m -1 Y 1 X -1 Y 1 X -1 Y 1 X -1 Y 1 X -1 Y 1 -1 d -1 Y 1 X -1 Y 1 X -1 Y 1 X -2 Y s 1503 589 m 1 X -1 Y 1 X -1 Y 1 X -1 Y 1 -1 d -1 Y 1 X -1 Y 1 X -1 Y 1 -1 d -1 Y 1 X -1 Y 1 X -1 Y s 1512 578 m 1 X -1 Y 1 X -1 Y 1 -1 d -1 Y 1 X -1 Y 1 X -1
 Y 1 -1 d 1 -1 d -1 Y 1 X -1 Y 1 X -1 Y s 1521 567 m -1 Y 1 X -1 Y 1 X -1 Y 1 X -1 Y 1 -1 d -1 Y 1 X -1 Y 1 X -1 Y 1 X -1 Y 1 -1 d 1 -1 d s 1530 556 m -1 Y 1 X -1 Y 1 X -1 Y 1 X -2 Y 1 X -1 Y 1 X -1 Y 1 X -1 Y 1 X -2 Y 1 X 1 -1 d s 1539 545 m -1 Y 1
 X -1 Y 1 X -1 Y 1 -1 d -1 Y 1 X -1 Y 1 X -1 Y 1 -1 d -1 Y 1 X -1 Y 1 X -1 Y s 1547 534 m 1 -1 d 1 -1 d -1 Y 1 X -1 Y 1 X -1 Y 1 X -1 Y 1 X -1 Y 1 -1 d -1 Y 1 X -1 Y 1 X -1 Y s 1556 523 m 1 X -1 Y 1 -1 d -1 Y 1 X -1 Y 1 X -1 Y 1 X -2 Y 1 X 1 -1 d -1
 Y 1 X -1 Y 1 X -1 Y s 1565 512 m 1 -1 d 1 -1 d -1 Y 1 X -1 Y 1 X -1 Y 1 X -1 Y 1 -1 d 1 -1 d -1 Y 1 X -1 Y 1 X s 1574 502 m -1 Y 1 X -1 Y 1 X -2 Y 1 X -1 Y 1 X -1 Y 1 X -1 Y 1 X -1 Y 1 X -2 Y 1 X -1 Y 1 X s 1583 491 m -1 Y 1 X -1 Y 1 -1 d -1 Y 1 X
 -1 Y 1 X -1 Y 1 X -1 Y 1 X -1 Y 1 X -1 Y 1 X -1 Y s 1591 481 m 1 -1 d -1 Y 1 X -1 Y 1 X -1 Y 1 X -1 Y 1 -1 d 1 -1 d -1 Y 1 X -1 Y 1 X -1 Y 1 X -1 Y s 1600 470 m 1 -1 d -1 Y 1 X -1 Y 1 X -1 Y 1 X -1 Y 1 X -1 Y 1 -1 d 1 -1 d 1 -1 d 1 -1 d s 1609 460 m
 -1 Y 1 X -1 Y 1 X -1 Y 1 X -1 Y 1 X -1 Y 1 -1 d -1 Y 1 X -1 Y 1 X -1 Y 1 -1 d 1 -1 d s 1618 449 m -1 Y 1 X -1 Y 1 X -1 Y 1 X -1 Y 1 X -1 Y 1 -1 d 1 -1 d -1 Y 1 X -1 Y 1 X -1 Y 1 X s 1627 439 m -1 Y 1 X -2 Y 1 X -1 Y 1 X -1 Y 1 X -1 Y 1 X -1 Y 1 -1 d
 1 -1 d -1 Y 1 X -1 Y s 1635 428 m 1 X -1 Y 1 X -1 Y 1 X -1 Y 1 -1 d -1 Y 1 X -1 Y 1 X -1 Y 1 X -1 Y 1 X -1 Y 1 X -1 Y s 1644 418 m 1 -1 d -1 Y 1 X -1 Y 1 X -1 Y 1 X -1 Y 1 X -1 Y 1 -1 d -1 Y 1 X -1 Y 1 X -1 Y 1 X -1 Y s 1653 407 m 1 X -1 Y 1 X -2 Y
 1 X -1 Y 1 X -1 Y 1 X -1 Y 1 X -1 Y 1 X -1 Y 1 X -1 Y 1 X -1 Y s 1662 397 m 1 X -1 Y 1 X -2 Y 1 X -1 Y 1 X -1 Y 1 X -1 Y 1 X -1 Y 1 X -1 Y 1 X -1 Y 1 X s 1671 388 m -1 Y 1 X -1 Y 1 -1 d 1 -1 d 1 -1 d 1 -1 d -1 Y 1 X -1 Y 1 X -1 Y 1 X -1 Y s 1679 378
 m 1 X -1 Y 1 X -1 Y 1 X -1 Y 1 X -1 Y 1 X -1 Y 1 X -1 Y 1 -1 d 1 -1 d 1 X -1 Y s 1688 369 m 1 X -1 Y 1 X -1 Y 1 -1 d 1 -1 d -1 Y 1 X 1 -1 d -1 Y 1 X -1 Y 1 X -1 Y 1 X -1 Y s 1697 359 m 1 X -1 Y 1 X -1 Y 1 X -1 Y 1 X -1 Y 1 -1 d -1 Y 1 X -1 Y 1 X -1
 Y 1 X -1 Y 1 X s 1706 350 m -1 Y 1 X -1 Y 1 X -1 Y 1 X -1 Y 1 X -1 Y 1 X -1 Y 1 X -1 Y 1 X -1 Y 1 X -1 Y 1 X s 1715 341 m -1 Y 1 X -1 Y 1 X -1 Y 1 X -1 Y 1 X -1 Y 1 X -1 Y 1 X -1 Y 1 X -1 Y 1 X -1 Y s 1723 332 m 1 X 1 -1 d 1 -1 d 1 X -1 Y 1 X -1 Y 1
 X -1 Y 1 X -1 Y 1 X -1 Y 1 X -1 Y s 1732 324 m 1 X -1 Y 1 X -1 Y 1 X -1 Y 1 X -1 Y 1 X -1 Y 1 X 1 -1 d 1 -1 d 1 X -1 Y s 1741 316 m 1 X -1 Y 1 X -1 Y 1 X 1 -1 d 1 X -1 Y 1 X -1 Y 1 X -1 Y 1 X -1 Y 1 X s 1750 309 m -1 Y 1 X -1 Y 1 X 1 -1 d 1 X -1 Y 1
 X -1 Y 1 X -1 Y 1 X 1 -1 d 1 X -1 Y s 1759 301 m 1 X -1 Y 1 X -1 Y 1 X -1 Y 1 X 1 -1 d 1 -1 d 1 X -1 Y 1 X -1 Y s 1767 294 m 1 X -1 Y 1 X -1 Y 1 X -1 Y 1 X -1 Y 1 X -1 Y 1 X 1 -1 d 1 -1 d 1 -1 d s 1776 286 m -1 Y 1 X 1 -1 d 1 -1 d 1 X -1 Y 1 X -1 Y
 1 X -1 Y 1 X -1 Y 1 X -1 Y 1 X s 1785 278 m 1 -1 d 1 X -1 Y 1 X -1 Y 1 X -1 Y 1 X -1 Y 2 X -1 Y 1 X -1 Y 1 X s 1794 271 m -1 Y 2 X -1 Y 1 X -1 Y 1 X -1 Y 1 X -1 Y 2 X -1 Y 1 X -1 Y 1 X s 1803 264 m 1 X -1 Y 1 X -1 Y 1 X -1 Y 2 X -1 Y 1 X 1 -1 d 1 X
 -1 Y 1 X s 1812 258 m 1 -1 d 1 X -1 Y 2 X -1 Y 1 X 1 -1 d 1 X -1 Y 1 X s 1820 253 m 1 X -1 Y 1 X -1 Y 2 X -1 Y 2 X -1 Y 2 X -1 Y 1 X s 1829 248 m 1 -1 d 2 X -1 Y 2 X -1 Y 2 X -1 Y 2 X -1 Y s 1838 243 m 2 X -1 Y 2 X -1 Y 1 X -1 Y 2 X -1 Y 2 X s 1847
 239 m -1 Y 2 X -1 Y 2 X -1 Y 2 X -1 Y 2 X -1 Y 1 X s 1856 234 m 1 X -1 Y 2 X -1 Y 2 X -1 Y 2 X -1 Y 1 X s 1864 230 m 1 X -1 Y 2 X -1 Y 2 X -1 Y 2 X 1 -1 d 1 X s 1873 226 m 1 X -1 Y 2 X 1 -1 d 1 X 1 -1 d 2 X 1 -1 d s 1882 222 m 2 X -1 Y 2 X -1 Y 3 X
 -1 Y 2 X s 1891 219 m 1 X -1 Y 3 X -1 Y 3 X -1 Y 2 X s 1900 216 m 1 X -1 Y 4 X -1 Y 3 X -1 Y s 1908 213 m 4 X -1 Y 3 X 1 -1 d 1 X s 1917 211 m 2 X 1 -1 d 3 X -1 Y 3 X s 1926 209 m 2 X -1 Y 5 X -1 Y 2 X s 1935 207 m 4 X -1 Y 5 X s 1944 206 m 2 X -1 Y
 6 X s 1952 205 m 3 X -1 Y 6 X s 1961 204 m 7 X -1 Y 2 X s 1970 203 m 9 X s 1979 203 m 5 X -1 Y 4 X s 1988 202 m 8 X s 1996 202 m 8 X -1 Y 1 X s 2005 201 m 9 X s 2014 201 m 9 X s 2023 201 m 9 X s 2032 201 m 8 X s 2040 201 m 1 X s black[  ] 0 sd 3 lw
 245 201 m 1796 X s 429 241 m -40 Y s 489 221 m -20 Y s 549 221 m -20 Y s 609 221 m -20 Y s 669 241 m -40 Y s 729 221 m -20 Y s 789 221 m -20 Y s 850 221 m -20 Y s 910 241 m -40 Y s 970 221 m -20 Y s 1030 221 m -20 Y s 1090 221 m -20 Y s 1150 241 m
 -40 Y s 1210 221 m -20 Y s 1270 221 m -20 Y s 1330 221 m -20 Y s 1390 241 m -40 Y s 1450 221 m -20 Y s 1510 221 m -20 Y s 1570 221 m -20 Y s 1630 241 m -40 Y s 1691 221 m -20 Y s 1751 221 m -20 Y s 1811 221 m -20 Y s 1871 241 m -40 Y s 429 241 m -40
 Y s 369 221 m -20 Y s 309 221 m -20 Y s 249 221 m -20 Y s 1871 241 m -40 Y s 1931 221 m -20 Y s 1991 221 m -20 Y s
 gsave  2268 1676 0 0 C 398.178 128.934 t 0 r /Helvetica-Bold findfont 64.4669 sf 0 0 m (0.6) show NC gr 
 gsave  2268 1676 0 0 C 367.84 128.934 t 0 r /Symbol findfont 64.4669 sf 0 0 m (-) show NC gr 
 gsave  2268 1676 0 0 C 637.084 128.934 t 0 r /Helvetica-Bold findfont 64.4669 sf 0 0 m (0.4) show NC gr 
 gsave  2268 1676 0 0 C 602.955 128.934 t 0 r /Symbol findfont 64.4669 sf 0 0 m (-) show NC gr 
 gsave  2268 1676 0 0 C 875.991 128.934 t 0 r /Helvetica-Bold findfont 64.4669 sf 0 0 m (0.2) show NC gr 
 gsave  2268 1676 0 0 C 845.654 128.934 t 0 r /Symbol findfont 64.4669 sf 0 0 m (-) show NC gr 
 gsave  2268 1676 0 0 C 1130.07 128.934 t 0 r /Helvetica-Bold findfont 64.4669 sf 0 0 m (0) show NC gr 
 gsave  2268 1676 0 0 C 1342.43 128.934 t 0 r /Helvetica-Bold findfont 64.4669 sf 0 0 m (0.2) show NC gr 
 gsave  2268 1676 0 0 C 1581.33 128.934 t 0 r /Helvetica-Bold findfont 64.4669 sf 0 0 m (0.4) show NC gr 
 gsave  2268 1676 0 0 C 1824.03 128.934 t 0 r /Helvetica-Bold findfont 64.4669 sf 0 0 m (0.6) show NC gr 
 gsave  2268 1676 0 0 C 925.289 30.3373 t 0 r /Helvetica-Bold findfont 72.0512 sf 0 0 m (Cut value applied on BDT output) show NC gr  245 201 m 1140 Y s 291 201 m -46 X s 268 253 m -23 X s 268 305 m -23 X s 268 357 m -23 X s 291 408 m -46 X s 268 460
 m -23 X s 268 512 m -23 X s 268 564 m -23 X s 291 616 m -46 X s 268 667 m -23 X s 268 719 m -23 X s 268 771 m -23 X s 291 823 m -46 X s 268 875 m -23 X s 268 926 m -23 X s 268 978 m -23 X s 291 1030 m -46 X s 268 1082 m -23 X s 268 1134 m -23 X s
 268 1185 m -23 X s 291 1237 m -46 X s 291 1237 m -46 X s 268 1289 m -23 X s 268 1341 m -23 X s
 gsave  2268 1676 0 0 C 182.024 178.232 t 0 r /Helvetica-Bold findfont 64.4669 sf 0 0 m (0) show NC gr 
 gsave  2268 1676 0 0 C 128.934 383.009 t 0 r /Helvetica-Bold findfont 64.4669 sf 0 0 m (0.2) show NC gr 
 gsave  2268 1676 0 0 C 125.142 591.578 t 0 r /Helvetica-Bold findfont 64.4669 sf 0 0 m (0.4) show NC gr 
 gsave  2268 1676 0 0 C 128.934 796.355 t 0 r /Helvetica-Bold findfont 64.4669 sf 0 0 m (0.6) show NC gr 
 gsave  2268 1676 0 0 C 125.142 1004.92 t 0 r /Helvetica-Bold findfont 64.4669 sf 0 0 m (0.8) show NC gr 
 gsave  2268 1676 0 0 C 189.608 1213.49 t 0 r /Helvetica-Bold findfont 64.4669 sf 0 0 m (1) show NC gr 
 gsave  2268 1676 0 0 C 64.4669 731.888 t 90 r /Helvetica-Bold findfont 72.0512 sf 0 0 m (Efficiency \(Purity\)) show NC gr  0 0 0.933333 c[  52 12 ] 0 sd 6 lw 0.49 0.6 0.82 c black 0 0 0.933333 c 245 719 m 9 X s 254 719 m 9 X s 263 719 m 8 X s 271
 719 m 9 X s 280 719 m 9 X s 289 719 m 9 X s 298 719 m 9 X s 307 719 m 8 X s 315 719 m 9 X s 324 719 m 7 X 1 Y 2 X s 333 720 m 9 X s 342 720 m 9 X s 351 720 m 8 X s 359 720 m 9 X s 368 720 m 9 X s 377 720 m 1 X 1 Y 8 X s 386 721 m 9 X s 395 721 m 6 X
 1 Y 2 X s 403 722 m 9 X s 412 722 m 6 X 1 Y 3 X s 421 723 m 9 X s 430 723 m 2 X 1 Y 7 X s 439 724 m 5 X 1 Y 3 X s 447 725 m 8 X 1 Y 1 X s 456 726 m 9 X 1 Y s 465 727 m 8 X 1 Y 1 X s 474 728 m 7 X 1 Y 2 X s 483 729 m 6 X 1 Y 2 X s 491 730 m 5 X 1 Y 4
 X s 500 731 m 2 X 1 1 d 6 X 1 Y s 509 733 m 6 X 1 Y 3 X s 518 734 m 3 X 1 Y 6 X s 527 735 m 1 Y 6 X 1 Y 2 X s 535 737 m 3 X 1 Y 5 X 1 Y 1 X s 544 739 m 4 X 1 Y 5 X s 553 740 m 1 Y 5 X 1 Y 4 X s 562 742 m 1 X 1 Y 4 X 1 Y 4 X s 571 744 m 1 1 d 4 X 1 Y
 3 X s 579 746 m 1 X 1 Y 4 X 1 Y 4 X 1 Y s 588 749 m 4 X 1 Y 4 X 1 Y 1 X s 597 751 m 3 X 1 Y 3 X 1 1 d 2 X s 606 753 m 1 X 1 Y 4 X 1 Y 4 X s 615 755 m 1 Y 3 X 1 Y 4 X 1 Y 1 X s 623 758 m 2 X 1 Y 3 X 1 Y 4 X 1 Y s 632 761 m 3 X 1 Y 3 X 1 Y 3 X s 641
 763 m 1 Y 3 X 1 Y 3 X 1 1 d 2 X s 650 766 m 1 X 1 Y 3 X 1 Y 3 X 1 Y 2 X s 659 769 m 1 X 1 Y 3 X 1 Y 3 X 1 Y 1 X s 667 772 m 2 X 1 Y 3 X 1 Y 2 X 1 1 d 1 X s 676 775 m 1 X 1 Y 3 X 1 Y 3 X 1 Y 2 X s 685 778 m 1 X 1 Y 2 X 1 Y 3 X 1 Y 2 X 1 1 d s 694 782
 m 2 X 1 Y 3 X 1 Y 2 X 1 1 d 1 X s 703 785 m 1 X 1 Y 3 X 1 Y 2 X 1 Y 2 X s 711 788 m 1 X 1 Y 2 X 1 Y 3 X 1 Y 2 X 1 1 d s 720 792 m 2 X 1 Y 2 X 1 1 d 2 X 1 Y 2 X s 729 795 m 1 Y 2 X 1 1 d 2 X 1 Y 2 X 1 Y 2 X s 738 799 m 1 Y 3 X 1 Y 2 X 1 Y 2 X 1 1 d 1
 X s 747 803 m 1 X 1 Y 2 X 1 Y 2 X 1 Y 2 X 1 Y 1 X s 755 807 m 1 X 1 Y 2 X 1 1 d 2 X 1 Y 2 X 1 Y 1 X s 764 811 m 1 X 1 Y 2 X 1 Y 2 X 1 Y 2 X 1 1 d 1 X s 773 815 m 1 X 1 Y 2 X 1 Y 2 X 1 Y 2 X 1 Y 2 X s 782 819 m 1 Y 2 X 1 Y 2 X 1 Y 2 X 1 Y 2 X 1 Y 1 X
 s 791 824 m 1 X 1 Y 2 X 1 Y 2 X 1 Y 2 X 1 Y 1 X s 799 828 m 1 X 1 Y 2 X 1 Y 2 X 1 Y 2 X 1 Y 2 X 1 Y s 808 833 m 1 X 1 1 d 1 X 1 Y 2 X 1 1 d 1 X 1 Y 2 X s 817 837 m 1 Y 2 X 1 Y 2 X 1 Y 2 X 1 Y 1 X 1 1 d 1 X s 826 842 m 1 Y 2 X 1 Y 2 X 1 Y 2 X 1 Y 1 X
 1 1 d 1 X s 835 847 m 1 1 d 1 X 1 Y 2 X 1 Y 2 X 1 Y 1 X 1 1 d s 843 852 m 1 X 1 Y 2 X 1 Y 2 X 1 Y 1 X 1 1 d 1 X 1 Y 1 X s 852 857 m 1 X 1 Y 2 X 1 Y 1 X 1 1 d 1 X 1 Y 2 X 1 Y 1 X s 861 862 m 1 Y 2 X 1 Y 2 X 1 Y 1 X 1 Y 2 X 1 Y 2 X 1 Y s 870 868 m 1 X
 1 Y 2 X 1 Y 2 X 1 Y 1 X 1 Y 2 X 1 Y 1 X s 879 873 m 1 Y 2 X 1 Y 2 X 1 Y 1 X 1 Y 2 X 1 Y 1 X 1 Y s 887 879 m 2 X 1 Y 1 X 1 1 d 1 X 1 Y 2 X 1 Y 1 X 1 1 d s 896 884 m 1 X 1 Y 2 X 1 Y 1 X 1 1 d 1 X 1 Y 1 X 1 1 d 1 X 1 Y s 905 890 m 1 X 1 1 d 1 X 1 Y 2 X
 1 Y 1 X 1 1 d 1 X 1 Y 1 X s 914 895 m 1 1 d 1 X 1 Y 1 X 1 1 d 1 X 1 Y 1 X 1 1 d 1 X 1 Y 1 X s 923 901 m 1 X 1 Y 1 X 1 Y 1 X 1 1 d 1 X 1 Y 1 X 1 1 d 1 X 1 Y s 931 907 m 2 X 1 Y 1 X 1 Y 2 X 1 Y 1 X 1 Y 2 X 1 Y 1 X 1 Y s 940 913 m 2 X 1 Y 1 X 1 Y 2 X 1
 Y 1 X 1 Y 2 X 1 Y 1 X s 949 918 m 1 Y 2 X 1 Y 1 X 1 Y 2 X 1 Y 1 X 1 Y 2 X 1 Y 1 X s 958 924 m 1 Y 2 X 1 Y 1 X 1 1 d 1 X 1 Y 1 X 1 1 d 1 X 1 Y 1 X s 967 930 m 1 1 d 1 X 1 Y 1 X 1 Y 2 X 1 Y 1 X 1 Y 2 X 1 Y s 975 936 m 1 X 1 Y 1 X 1 Y 2 X 1 Y 1 X 1 Y 2
 X 1 Y 1 X 1 Y 1 X s 984 942 m 1 X 1 Y 1 X 1 Y 1 X 1 1 d 1 X 1 Y 1 X 1 1 d 1 X 1 Y 1 X s 993 948 m 1 Y 2 X 1 Y 1 X 1 Y 2 X 1 Y 1 X 1 Y 2 X 1 Y 1 X s 1002 954 m 1 Y 1 X 1 1 d 1 X 1 Y 1 X 1 1 d 1 X 1 Y 1 X 1 1 d 1 X s 1011 960 m 1 Y 1 X 1 1 d 1 X 1 Y 1
 X 1 1 d 1 X 1 Y 1 X 1 Y 1 X s 1019 966 m 1 1 d 1 X 1 Y 1 X 1 1 d 1 X 1 Y 1 X 1 Y 2 X 1 Y 1 X 1 Y s 1028 973 m 2 X 1 Y 1 X 1 Y 1 X 1 1 d 1 X 1 Y 1 X 1 Y 2 X 1 Y s 1037 979 m 1 X 1 Y 2 X 1 Y 1 X 1 Y 2 X 1 Y 1 X 1 Y 2 X 1 Y s 1046 985 m 1 X 1 Y 2 X 1 Y
 1 X 1 Y 1 X 1 Y 2 X 1 Y 1 X 1 Y 1 X s 1055 991 m 1 X 1 Y 1 X 1 Y 2 X 1 Y 1 X 1 Y 2 X 1 Y 1 X 1 Y s 1063 997 m 2 X 1 Y 1 X 1 Y 1 X 1 1 d 1 X 1 Y 1 X 1 Y 2 X 1 Y s 1072 1003 m 1 X 1 Y 2 X 1 Y 1 X 1 Y 2 X 1 Y 1 X 1 Y 1 X 1 1 d s 1081 1009 m 1 X 1 Y 1 X
 1 1 d 1 X 1 Y 1 X 1 Y 2 X 1 Y 1 X 1 Y 1 X s 1090 1015 m 1 X 1 Y 1 X 1 Y 2 X 1 Y 1 X 1 Y 2 X 1 Y 1 X 1 Y 1 X s 1099 1021 m 1 X 1 Y 1 X 1 Y 1 X 1 1 d 1 X 1 Y 1 X 1 1 d 1 X 1 Y s 1107 1027 m 2 X 1 Y 1 X 1 Y 2 X 1 Y 1 X 1 Y 2 X 1 Y 1 X s 1116 1032 m 1 Y
 2 X 1 Y 1 X 1 Y 2 X 1 Y 1 X 1 1 d 1 X 1 Y 1 X s 1125 1038 m 1 Y 2 X 1 Y 1 X 1 1 d 1 X 1 Y 1 X 1 1 d 1 X 1 Y 1 X s 1134 1044 m 1 X 1 Y 1 X 1 1 d 1 X 1 Y 2 X 1 Y 1 X 1 Y 2 X s 1143 1049 m 1 Y 1 X 1 1 d 1 X 1 Y 2 X 1 Y 1 X 1 Y 2 X 1 Y s 1151 1055 m 1 X
 1 Y 2 X 1 Y 2 X 1 Y 1 X 1 Y 2 X 1 Y 1 X s 1160 1060 m 1 1 d 1 X 1 Y 2 X 1 Y 1 X 1 Y 2 X 1 Y 2 X 1 Y s 1169 1066 m 1 X 1 Y 2 X 1 Y 1 X 1 1 d 1 X 1 1 d 1 X 1 Y 1 X s 1178 1071 m 1 X 1 Y 1 X 1 Y 2 X 1 Y 2 X 1 Y 1 X 1 Y 2 X s 1187 1076 m 1 Y 2 X 1 Y 1 X
 1 1 d 1 X 1 Y 2 X 1 Y 1 X s 1195 1081 m 1 X 1 Y 1 X 1 1 d 1 X 1 Y 2 X 1 Y 2 X 1 Y 1 X s 1204 1086 m 1 X 1 Y 2 X 1 Y 2 X 1 Y 1 X 1 1 d 1 X 1 1 d s 1213 1091 m 1 X 1 Y 2 X 1 Y 2 X 1 Y 2 X 1 Y 2 X 1 Y s 1222 1096 m 1 X 1 Y 3 X 1 Y 1 X 1 1 d 1 X 1 1 d 1
 X s 1231 1100 m 1 1 d 1 X 1 1 d 1 X 1 1 d 1 X 1 Y 2 X 1 Y s 1239 1105 m 2 X 1 Y 2 X 1 Y 2 X 1 Y 2 X 1 Y 1 X s 1248 1109 m 1 X 1 1 d 1 X 1 Y 2 X 1 Y 2 X 1 1 d 1 X s 1257 1113 m 1 Y 2 X 1 Y 2 X 1 Y 2 X 1 Y 2 X 1 Y 1 X s 1266 1118 m 1 X 1 Y 2 X 1 Y 2 X
 1 Y 2 X 1 Y 2 X s 1275 1122 m 1 X 1 Y 2 X 1 Y 2 X 1 Y 2 X 1 Y 1 X s 1283 1126 m 1 X 1 Y 2 X 1 Y 2 X 1 1 d 1 X 1 1 d 1 X s 1292 1130 m 1 X 1 Y 2 X 1 Y 2 X 1 Y 2 X 1 1 d 1 X s 1301 1134 m 1 X 1 Y 2 X 1 1 d 2 X 1 Y 2 X 1 Y 1 X s 1310 1138 m 2 X 1 Y 2 X
 1 Y 3 X 1 Y 2 X s 1319 1141 m 1 1 d 2 X 1 Y 2 X 1 Y 3 X 1 Y s 1327 1145 m 2 X 1 Y 2 X 1 1 d 2 X 1 Y 2 X s 1336 1148 m 1 X 1 Y 2 X 1 1 d 2 X 1 Y 3 X 1 Y s 1345 1152 m 2 X 1 Y 3 X 1 Y 3 X 1 Y 1 X s 1354 1155 m 2 X 1 Y 3 X 1 Y 2 X 1 Y 2 X s 1363 1158 m
 1 X 1 Y 3 X 1 Y 3 X 1 Y 1 X s 1371 1161 m 2 X 1 Y 3 X 1 Y 3 X 1 1 d s 1380 1164 m 2 X 1 Y 3 X 1 Y 3 X 1 Y 1 X s 1389 1167 m 2 X 1 Y 3 X 1 Y 3 X 1 Y 1 X s 1398 1170 m 2 X 1 Y 4 X 1 Y 3 X s 1407 1172 m 1 Y 3 X 1 Y 4 X 1 Y 1 X s 1415 1175 m 2 X 1 Y 4 X
 1 Y 3 X 1 Y s 1424 1178 m 3 X 1 Y 4 X 1 Y 2 X s 1433 1180 m 2 X 1 Y 4 X 1 1 d 2 X s 1442 1182 m 1 X 1 Y 4 X 1 Y 4 X s 1451 1184 m 1 Y 5 X 1 Y 3 X 1 Y s 1459 1187 m 4 X 1 Y 4 X 1 Y 1 X s 1468 1189 m 3 X 1 Y 4 X 1 Y 2 X s 1477 1191 m 2 X 1 1 d 4 X 1 Y
 2 X s 1486 1193 m 2 X 1 Y 5 X 1 Y 2 X s 1495 1195 m 4 X 1 Y 4 X s 1503 1196 m 1 1 d 5 X 1 1 d 2 X s 1512 1198 m 3 X 1 Y 5 X 1 Y 1 X s 1521 1200 m 5 X 1 Y 4 X s 1530 1201 m 2 X 1 Y 5 X 1 1 d 1 X s 1539 1203 m 3 X 1 Y 5 X s 1547 1204 m 1 X 1 Y 6 X 1 Y
 2 X s 1556 1206 m 5 X 1 Y 4 X s 1565 1207 m 1 X 1 1 d 5 X 1 1 d 1 X s 1574 1209 m 6 X 1 Y 3 X s 1583 1210 m 5 X 1 Y 3 X s 1591 1211 m 4 X 1 Y 5 X s 1600 1212 m 3 X 1 Y 6 X s 1609 1213 m 2 X 1 Y 7 X s 1618 1214 m 2 X 1 Y 7 X s 1627 1215 m 3 X 1 Y 5 X
 s 1635 1216 m 4 X 1 Y 5 X s 1644 1217 m 7 X 1 Y 2 X s 1653 1218 m 5 X 1 Y 4 X s 1662 1219 m 3 X 1 Y 6 X s 1671 1220 m 3 X 1 Y -1 Y 1 1 d 4 X s 1679 1221 m 4 X 1 Y 5 X s 1688 1222 m 9 X s 1697 1222 m 1 Y 9 X s 1706 1223 m 1 X 1 Y 1 -1 d 1 Y 7 X s
 1715 1224 m 7 X 1 Y 1 X s 1723 1225 m 9 X 1 Y s 1732 1226 m 9 X s 1741 1226 m 4 X 1 Y 5 X s 1750 1227 m 9 X s 1759 1227 m 3 X 1 Y -1 Y 1 1 d 4 X s 1767 1228 m 9 X s 1776 1228 m 4 X 1 Y 5 X s 1785 1229 m 9 X s 1794 1229 m 1 X 1 1 d 3 X -1 Y 1 Y 4 X s
 1803 1230 m 9 X s 1812 1230 m 6 X 1 Y 2 X s 1820 1231 m 1 X -1 Y 1 X 1 Y 7 X s 1829 1231 m 4 X 1 Y 5 X s 1838 1232 m 9 X s 1847 1232 m 5 X 1 Y 2 X 1 -1 d 1 Y 1 X s 1856 1233 m -1 Y 1 1 d 7 X s 1864 1233 m 9 X s 1873 1233 m 9 X s 1882 1233 m 1 X 1 Y
 1 X -1 Y 1 Y 1 X -1 Y 1 X 1 Y 2 X -1 Y 1 Y 1 X 1 -1 d 1 1 d s 1891 1234 m 2 X -1 Y 1 Y 7 X s 1900 1234 m 8 X s 1908 1234 m 4 X 1 Y 5 X s 1917 1235 m 9 X s 1926 1235 m 7 X 1 Y 2 X -1 Y s 1935 1235 m 3 X 1 Y 6 X s 1944 1236 m 8 X s 1952 1236 m 9 X s
 1961 1236 m 6 X -1 Y 3 X s 1970 1235 m 1 Y 9 X s 1979 1236 m 7 X 1 -1 d 1 X s 1988 1235 m 7 X -1 Y 1 X s 1996 1234 m 2 X -1 Y 3 X -1 Y 3 X -1 Y 1 X s 2005 1231 m 2 X -1 Y 2 X -1 Y 1 X 1 -1 d -2 Y 1 X -1 Y 1 -1 d -3 Y 1 X -2 Y s 2014 1219 m -1 Y 1 X
 -1 Y 1 X -5 Y 2 X -3 Y 1 -2 d 1 X -3 Y 1 -5 d 38 Y 2 X s 2023 1237 m 9 X s 2032 1237 m 8 X s 2040 1237 m 1 X s[  ] 0 sd 9 lw 0.49 0.6 0.82 c black 0 0 0.933333 c 245 1237 m 9 X s 254 1237 m 9 X s 263 1237 m 8 X s 271 1237 m 9 X s 280 1237 m 9 X s
 289 1237 m 9 X s 298 1237 m 9 X s 307 1237 m 8 X s 315 1237 m 9 X s 324 1237 m 9 X s 333 1237 m 9 X s 342 1237 m 9 X s 351 1237 m 8 X s 359 1237 m 9 X s 368 1237 m 9 X s 377 1237 m 9 X s 386 1237 m 9 X s 395 1237 m 8 X s 403 1237 m 9 X s 412 1237 m
 9 X s 421 1237 m 9 X s 430 1237 m 9 X s 439 1237 m 8 X s 447 1237 m 9 X s 456 1237 m 9 X s 465 1237 m 9 X s 474 1237 m 9 X s 483 1237 m 8 X s 491 1237 m 9 X s 500 1237 m 9 X s 509 1237 m 9 X s 518 1237 m 9 X s 527 1237 m 4 X -1 Y 4 X s 535 1236 m 9
 X s 544 1236 m 9 X s 553 1236 m 9 X s 562 1236 m 9 X s 571 1236 m 8 X s 579 1236 m 3 X -1 Y 6 X s 588 1235 m 9 X s 597 1235 m 9 X s 606 1235 m 9 X s 615 1235 m 1 X -1 Y 7 X s 623 1234 m 9 X s 632 1234 m 9 X s 641 1234 m 3 X -1 Y 6 X s 650 1233 m 9 X
 s 659 1233 m 4 X -1 Y 4 X s 667 1232 m 9 X s 676 1232 m 3 X 1 -1 d 5 X s 685 1231 m 9 X s 694 1231 m 1 X -1 Y 8 X s 703 1230 m 4 X -1 Y 4 X s 711 1229 m 7 X -1 Y 2 X s 720 1228 m 8 X 1 -1 d s 729 1227 m 9 X s 738 1227 m 1 -1 d 8 X s 747 1226 m 1 X
 -1 Y 7 X s 755 1225 m 2 X -1 Y 7 X s 764 1224 m 1 X -1 Y 6 X -1 Y 2 X s 773 1222 m 6 X -1 Y 3 X s 782 1221 m 4 X 1 -1 d 4 X s 791 1220 m 1 X -1 Y 6 X -1 Y 1 X s 799 1218 m 5 X -1 Y 4 X s 808 1217 m 1 X -1 Y 6 X -1 Y 2 X s 817 1215 m 3 X -1 Y 4 X -1
 Y 2 X s 826 1213 m 3 X -1 Y 5 X -1 Y 1 X s 835 1211 m 4 X -1 Y 4 X s 843 1210 m 1 -1 d 4 X -1 Y 4 X -1 Y s 852 1207 m 4 X -1 Y 4 X -1 Y 1 X s 861 1205 m 3 X -1 Y 3 X -1 Y 3 X s 870 1203 m 1 X -1 Y 4 X -1 Y 3 X -1 Y 1 X s 879 1200 m 3 X -1 Y 3 X 1 -1
 d 1 X s 887 1198 m 2 X -1 Y 3 X -1 Y 3 X -1 Y 1 X s 896 1195 m 2 X -1 Y 3 X -1 Y 2 X -1 Y 2 X s 905 1192 m 1 X -1 Y 3 X -1 Y 3 X -1 Y 2 X s 914 1189 m 1 X -1 Y 3 X -1 Y 3 X -1 Y 2 X s 923 1186 m -1 Y 3 X -1 Y 2 X -1 Y 3 X -1 Y s 931 1182 m 2 X -1 Y
 3 X -1 Y 2 X -1 Y 2 X -1 Y s 940 1178 m 2 X -1 Y 3 X -1 Y 2 X 1 -1 d 1 X s 949 1175 m 1 X -1 Y 2 X -1 Y 2 X -1 Y 3 X -1 Y 1 X s 958 1171 m 1 X -1 Y 1 X 1 -1 d 1 X 1 -1 d 1 X -1 Y 2 X 1 -1 d s 967 1166 m 1 X 1 -1 d 2 X -1 Y 2 X -1 Y 2 X -1 Y s 975
 1162 m 2 X -1 Y 2 X -1 Y 1 X 1 -1 d 2 X -1 Y 1 X s 984 1158 m -1 Y 2 X -1 Y 2 X -1 Y 1 X 1 -1 d 1 X -1 Y 2 X s 993 1153 m -1 Y 2 X -1 Y 2 X -1 Y 1 X 1 -1 d 1 X -1 Y 2 X s 1002 1148 m -1 Y 2 X -1 Y 1 X 1 -1 d 1 X -1 Y 2 X -1 Y 1 X -1 Y 1 X s 1011
 1142 m 1 X -1 Y 2 X -1 Y 1 X 1 -1 d 1 X -1 Y 1 X 1 -1 d s 1019 1137 m 1 X -1 Y 1 X 1 -1 d 1 X -1 Y 2 X -1 Y 1 X -1 Y 2 X -1 Y s 1028 1131 m 1 X -1 Y 2 X -1 Y 1 X -1 Y 1 X 1 -1 d 1 X -1 Y 1 X 1 -1 d s 1037 1125 m 1 X -1 Y 1 X -1 Y 1 X 1 -1 d 1 X -1 Y
 1 X -1 Y 2 X -1 Y 1 X s 1046 1119 m -1 Y 1 X -1 Y 1 X 1 -1 d 1 X -1 Y 1 X -1 Y 1 X 1 -1 d 1 X -1 Y 1 X s 1055 1112 m -1 Y 2 X -1 Y 1 X -1 Y 2 X -1 Y 1 X -1 Y 1 X 1 -1 d s 1063 1106 m 1 -1 d 1 X -1 Y 1 X -1 Y 1 X 1 -1 d 1 X -1 Y 1 X -1 Y 1 X -1 Y 1 X
 s 1072 1099 m 1 X -1 Y 1 X -1 Y 1 X -1 Y 1 X 1 -1 d 1 X -1 Y 1 X -1 Y 1 X -1 Y 1 X s 1081 1092 m 1 X -1 Y 1 X -1 Y 1 X -1 Y 1 X 1 -1 d 1 -1 d 1 X -1 Y 1 X -1 Y 1 X s 1090 1085 m -1 Y 1 X 1 -1 d 1 X -1 Y 1 X -1 Y 1 X 1 -1 d 1 X -1 Y 1 X -1 Y 1 X s
 1099 1078 m 1 -1 d 1 -1 d 1 X -1 Y 1 X -1 Y 1 X -1 Y 1 X -1 Y 2 X -1 Y s 1107 1071 m 1 X -1 Y 1 X -1 Y 1 X -1 Y 1 X 1 -1 d 1 X -1 Y 1 X -1 Y 1 X -1 Y 1 X -1 Y s 1116 1063 m 1 X -1 Y 1 X -1 Y 1 X 1 -1 d 1 X -1 Y 1 X -1 Y 1 X -1 Y 1 X 1 -1 d s 1125
 1056 m 1 X -1 Y 1 X -1 Y 1 X -1 Y 1 X -1 Y 1 X -1 Y 1 X -1 Y 1 X -1 Y 1 X -1 Y 1 X s 1134 1048 m -1 Y 1 X 1 -1 d 1 -1 d -1 Y 1 X 1 -1 d -1 Y 2 X -1 Y 1 X -1 Y 1 X s 1143 1040 m -1 Y 1 X -1 Y 1 X -1 Y 1 X -1 Y 1 X -1 Y 1 X -1 Y 1 X -1 Y 1 X -1 Y 1 X
 -1 Y s 1151 1031 m 1 X -1 Y 1 X -1 Y 1 X -1 Y 1 X -1 Y 1 X -1 Y 1 X -1 Y 1 X -1 Y 1 X -1 Y 1 X s 1160 1023 m -1 Y 2 X -1 Y 1 -1 d 1 -1 d 1 X -1 Y 1 X -1 Y 1 X -1 Y 1 X -1 Y 1 X -1 Y s 1169 1014 m 1 X -1 Y 1 X -1 Y 1 X -1 Y 1 X -1 Y 1 X -1 Y 1 X -1 Y
 1 X -1 Y 1 X -1 Y 1 X -1 Y s 1178 1005 m 1 X -1 Y 1 X -1 Y 1 X -1 Y 1 -1 d 1 -1 d 1 -1 d 1 X -1 Y 1 -1 d 1 -1 d s 1187 996 m 1 X -1 Y 1 -1 d 1 -1 d -1 Y 1 X 1 -1 d -1 Y 1 X -1 Y 1 X -1 Y 1 X -1 Y s 1195 987 m 1 X 1 -1 d -1 Y 2 X -1 Y 1 X -1 Y 1 -1 d
 1 -1 d 1 -1 d 1 -1 d s 1204 979 m -1 Y 1 X -1 Y 1 X 1 -1 d 1 -1 d 1 X -1 Y 1 X -1 Y 1 -1 d 1 -1 d 1 -1 d s 1213 970 m 1 -1 d 1 X -1 Y 1 -1 d -1 Y 1 X 1 -1 d -1 Y 2 X -1 Y 1 -1 d 1 -1 d s 1222 961 m 1 X -1 Y 1 -1 d 1 -1 d -1 Y 1 X 1 -1 d -1 Y 1 X 1
 -1 d -1 Y 1 X -1 Y 1 X s 1231 952 m -1 Y 1 X 1 -1 d 1 -1 d -1 Y 1 X -1 Y 1 X -1 Y 1 X -1 Y 1 X -1 Y 1 X -1 Y s 1239 943 m 1 X -1 Y 1 X -1 Y 1 X -1 Y 1 X -1 Y 1 X -1 Y 1 -1 d 1 -1 d -1 Y 1 X -1 Y 1 X -1 Y s 1248 933 m 1 X -1 Y 1 X -1 Y 1 X -1 Y 1 X
 -1 Y 1 -1 d -1 Y 1 X -1 Y 1 X -1 Y 1 X -1 Y 1 X s 1257 924 m -1 Y 1 X -1 Y 1 X -1 Y 1 X -1 Y 1 -1 d 1 -1 d -1 Y 1 X -1 Y 1 X -1 Y 1 X -1 Y 1 X -1 Y s 1266 913 m 1 X -1 Y 1 -1 d -1 Y 1 X -1 Y 1 X -1 Y 1 X -1 Y 1 X -1 Y 1 X -1 Y 1 X -1 Y 1 X s 1275
 904 m -1 Y 1 X -1 Y 1 -1 d -1 Y 1 X -1 Y 1 X -1 Y 1 X -1 Y 1 X -1 Y 1 X -1 Y 1 -1 d -1 Y s 1283 893 m 1 X -1 Y 1 X -1 Y 1 X -1 Y 1 -1 d -1 Y 1 X -1 Y 1 X -1 Y 1 X -1 Y 1 X -1 Y 1 X -1 Y s 1292 883 m 1 -1 d 1 -1 d -1 Y 1 X -1 Y 1 X -1 Y 1 X -1 Y 1 X
 -1 Y 1 X -1 Y 1 -1 d -1 Y 1 X s 1301 873 m -1 Y 1 X -1 Y 1 X -1 Y 1 -1 d -1 Y 1 X -1 Y 1 X -1 Y 1 X -1 Y 1 -1 d -1 Y 1 X -1 Y 1 X s 1310 862 m -1 Y 1 X -1 Y 1 X -1 Y 1 -1 d -1 Y 1 X -1 Y 1 X -1 Y 1 X -1 Y 1 X -1 Y 1 -1 d -1 Y 1 X s 1319 851 m -1 Y 1
 X -1 Y 1 X -1 Y 1 X -2 Y 1 X -1 Y 1 X -1 Y 1 X -1 Y 1 -1 d -1 Y 1 X -1 Y s 1327 840 m 1 X -1 Y 1 X -1 Y 1 -1 d 1 -1 d -1 Y 1 X -1 Y 1 X -1 Y 1 X -2 Y 1 X -1 Y 1 X -1 Y s 1336 829 m 1 X -1 Y 1 X -1 Y 1 -1 d -1 Y 1 X -1 Y 1 X -1 Y 1 X -1 Y 1 -1 d -1 Y
 1 X -1 Y 1 X -1 Y s 1345 818 m 1 X -1 Y 1 -1 d -1 Y 1 X -1 Y 1 X -1 Y 1 X -1 Y 1 -1 d -1 Y 1 X -1 Y 1 X -1 Y 1 X -1 Y s 1354 807 m -1 Y 1 X -1 Y 1 X -1 Y 1 X -1 Y 1 -1 d 1 -1 d -1 Y 1 X -1 Y 1 X -1 Y 1 X -1 Y 1 -1 d s 1363 796 m -1 Y 1 X -1 Y 1 X -1
 Y 1 X -1 Y 1 -1 d -1 Y 1 X -1 Y 1 X -1 Y 1 X -1 Y 1 -1 d -1 Y s 1371 785 m 1 X -1 Y 1 X -1 Y 1 X -1 Y 1 X -1 Y 1 -1 d -1 Y 1 X -1 Y 1 X -1 Y 1 -1 d 1 -1 d s 1380 775 m -1 Y 1 X -1 Y 1 X -1 Y 1 X -1 Y 1 X -2 Y 1 X -1 Y 1 X -1 Y 1 X -1 Y 1 -1 d -1 Y 1
 X -1 Y s 1389 763 m 1 X -1 Y 1 X -2 Y 1 X -1 Y 1 -1 d -1 Y 1 X -1 Y 1 X -1 Y 1 X -1 Y 1 -1 d -1 Y 1 X s 1398 752 m -1 Y 1 X -1 Y 1 -1 d -1 Y 1 X -1 Y 1 X -1 Y 1 X -2 Y 1 X -1 Y 1 X -1 Y 1 X -2 Y 1 X s 1407 740 m -1 Y 1 X -1 Y 1 -1 d 1 -1 d -1 Y 1 X
 -1 Y 1 X -1 Y 1 -1 d -1 Y 1 X -1 Y 1 -1 d -1 Y s 1415 728 m 1 X -1 Y 1 X -1 Y 1 -1 d -1 Y 1 X -1 Y 1 X -1 Y 1 X -2 Y 1 X -1 Y 1 -1 d 1 -1 d -1 Y s 1424 716 m 1 X -1 Y 1 X -1 Y 1 -1 d -1 Y 1 X -1 Y 1 X -1 Y 1 -1 d -1 Y 1 X -1 Y 1 -1 d 1 -1 d -1 Y s
 1433 704 m 1 X -2 Y 1 X -1 Y 1 X -1 Y 1 -1 d -1 Y 1 X -1 Y 1 X -1 Y 1 -1 d -1 Y 1 X -1 Y 1 X -1 Y s 1442 692 m 1 -1 d -1 Y 1 X -1 Y 1 -1 d -1 Y 1 X -1 Y 1 X -2 Y 1 X -1 Y 1 X -2 Y 1 X -1 Y 1 X s 1451 680 m -1 Y 1 X -2 Y 1 X -1 Y 1 X -1 Y 1 -1 d -1 Y
 1 X -1 Y 1 -1 d -1 Y 1 X -1 Y 1 X -1 Y s 1459 668 m 1 -1 d -1 Y 1 X -1 Y 1 X -1 Y 1 -1 d -1 Y 1 X -1 Y 1 X -2 Y 1 X -1 Y 1 -1 d -1 Y 1 X -1 Y s 1468 655 m 1 X -1 Y 1 X -2 Y 1 X -1 Y 1 X -1 Y 1 -1 d -1 Y 1 X -1 Y 1 -1 d -1 Y 1 X -1 Y 1 X -1 Y s 1477
 643 m -1 Y 1 X -1 Y 1 X -2 Y 1 X -1 Y 1 X -1 Y 1 -1 d -1 Y 1 X -1 Y 1 X -2 Y 1 X -1 Y 1 X -1 Y s 1486 630 m -1 Y 1 X -1 Y 1 -1 d 1 -1 d -1 Y 1 X -1 Y 1 -1 d -1 Y 1 X -1 Y 1 X -2 Y 1 X -1 Y 1 X s 1495 618 m -2 Y 1 X -1 Y 1 X -1 Y 1 X -2 Y 1 X -1 Y 1
 X -1 Y 1 X -2 Y 1 X -1 Y 1 X -2 Y s 1503 605 m 1 X -1 Y 1 X -2 Y 1 X -1 Y 1 X -1 Y 1 -1 d -1 Y 1 X -1 Y 1 X -2 Y 1 X -1 Y 1 X -1 Y s 1512 593 m 1 -1 d 1 -1 d -1 Y 1 X -1 Y 1 -1 d -1 Y 1 X -1 Y 1 X -1 Y 1 -1 d -1 Y 1 X -1 Y 1 X -1 Y s 1521 581 m -1 Y
 1 X -1 Y 1 X -1 Y 1 -1 d -1 Y 1 X -1 Y 1 -1 d -1 Y 1 X -1 Y 1 X -1 Y 1 -1 d -1 Y 1 X s 1530 569 m -1 Y 1 X -1 Y 1 X -2 Y 1 X -1 Y 1 X -1 Y 1 -1 d -1 Y 1 X -1 Y 1 X -2 Y 1 X -1 Y 1 X s 1539 557 m -1 Y 1 X -2 Y 1 X -1 Y 1 X -1 Y 1 -1 d -1 Y 1 X -1 Y 1
 X -1 Y 1 -1 d -1 Y 1 X -1 Y s 1547 545 m 1 -1 d -1 Y 1 X -1 Y 1 X -1 Y 1 X -2 Y 1 X -1 Y 1 X -1 Y 1 X -1 Y 1 X -2 Y 1 X -1 Y s 1556 533 m 1 X -1 Y 1 -1 d -1 Y 1 X -1 Y 1 X -1 Y 1 -1 d -1 Y 1 X -1 Y 1 X -1 Y 1 -1 d -1 Y 1 X -1 Y s 1565 521 m 1 X -1 Y
 1 -1 d -1 Y 1 X -1 Y 1 X -1 Y 1 X -2 Y 1 X -1 Y 1 X -1 Y 1 X -1 Y 1 X -1 Y s 1574 510 m -1 Y 1 X -1 Y 1 X -1 Y 1 X -2 Y 1 X -1 Y 1 X -1 Y 1 X -1 Y 1 X -2 Y 1 X -1 Y 1 X s 1583 499 m -1 Y 1 -1 d -1 Y 1 X -1 Y 1 X -1 Y 1 X -1 Y 1 X -1 Y 1 -1 d -1 Y 1
 X -1 Y 1 X -1 Y s 1591 488 m 1 X -1 Y 1 -1 d -1 Y 1 X -1 Y 1 X -1 Y 1 -1 d 1 -1 d -1 Y 1 X -1 Y 1 X -1 Y 1 -1 d s 1600 477 m -1 Y 1 X -1 Y 1 X -1 Y 1 X -1 Y 1 -1 d -1 Y 1 X -1 Y 1 X -1 Y 1 X -1 Y 1 X -1 Y 1 X -1 Y s 1609 466 m -1 Y 1 X -1 Y 1 X -1 Y
 1 X -1 Y 1 X -1 Y 1 -1 d -1 Y 1 X -1 Y 1 X -2 Y 1 X -1 Y 1 X s 1618 455 m -1 Y 1 X -1 Y 1 X -1 Y 1 -1 d -1 Y 1 X -1 Y 1 X -1 Y 1 X -1 Y 1 X -2 Y 1 X -1 Y 1 X s 1627 444 m -1 Y 1 X -2 Y 1 X -1 Y 1 X -1 Y 1 X -1 Y 1 X -1 Y 1 -1 d -1 Y 1 X -1 Y 1 X -1
 Y s 1635 433 m 1 X -1 Y 1 -1 d -1 Y 1 X -1 Y 1 X -1 Y 1 X -1 Y 1 X -2 Y 1 X -1 Y 1 X -1 Y 1 X -1 Y s 1644 422 m 1 X -1 Y 1 -1 d -1 Y 1 X -1 Y 1 X -1 Y 1 X -1 Y 1 -1 d -1 Y 1 X -1 Y 1 X -1 Y 1 X -1 Y s 1653 411 m 1 X -1 Y 1 -1 d -1 Y 1 X -1 Y 1 X -1
 Y 1 X -1 Y 1 -1 d 1 -1 d -1 Y 1 X -1 Y 1 X s 1662 401 m -1 Y 1 X -1 Y 1 X -1 Y 1 X -1 Y 1 -1 d 1 -1 d 1 -1 d 1 -1 d -1 Y 1 X -1 Y 1 X s 1671 391 m -1 Y 1 X -1 Y 1 X -1 Y 1 X -1 Y 1 -1 d 1 -1 d -1 Y 1 X -1 Y 1 X -1 Y 1 X -1 Y s 1679 381 m 1 X -1 Y 1
 X -1 Y 1 X -1 Y 1 X -1 Y 1 -1 d 1 -1 d -1 Y 1 X -1 Y 1 X -1 Y 1 X -1 Y s 1688 371 m 1 X -1 Y 1 X -1 Y 1 X -1 Y 1 X -1 Y 1 X -1 Y 1 X -1 Y 1 X -1 Y 1 -1 d -1 Y 1 X s 1697 362 m -1 Y 1 X -1 Y 1 X -1 Y 1 X -1 Y 1 X -1 Y 1 X -1 Y 1 -1 d 1 -1 d -1 Y 1 X
 -1 Y 1 X s 1706 352 m -1 Y 1 X -1 Y 1 X -1 Y 1 X -1 Y 1 X -1 Y 1 X -1 Y 1 X -1 Y 1 X -1 Y 1 X -1 Y 1 X s 1715 343 m -1 Y 1 X -1 Y 1 X -1 Y 1 X -1 Y 1 X -1 Y 1 X -1 Y 1 X -1 Y 1 X -1 Y 1 X -1 Y s 1723 334 m 1 X -1 Y 1 X -1 Y 1 X -1 Y 1 X -1 Y 1 X 1
 -1 d 1 -1 d 1 X -2 Y 1 X s 1732 326 m 1 -1 d 1 -1 d -1 Y 1 X 1 -1 d 1 X -1 Y 1 X -1 Y 1 X -1 Y 1 X -1 Y 1 X s 1741 318 m -1 Y 1 X -1 Y 1 X 1 -1 d 1 X -1 Y 1 X -1 Y 1 X -1 Y 1 X -1 Y 1 X -1 Y 1 X s 1750 310 m -1 Y 1 X 1 -1 d 1 X -1 Y 1 X -1 Y 1 X -1
 Y 1 X -1 Y 1 X 1 -1 d 1 X -1 Y s 1759 302 m 1 X -1 Y 1 X -1 Y 1 X -1 Y 1 X -1 Y 1 X 1 -1 d 1 X -1 Y 1 X -1 Y s 1767 295 m 1 X -1 Y 1 X -1 Y 1 X -1 Y 1 X -1 Y 1 X -1 Y 1 X -1 Y 1 X -1 Y 1 X -1 Y 1 X -1 Y s 1776 286 m 1 X -1 Y 1 X -1 Y 1 X 1 -1 d 1 X
 -1 Y 1 X -1 Y 1 X -1 Y 1 X -1 Y 1 X s 1785 279 m -1 Y 1 X -1 Y 1 X -1 Y 2 X -1 Y 1 X -1 Y 1 X -1 Y 1 X -1 Y 2 X -1 Y s 1794 271 m 1 X -1 Y 1 X -1 Y 1 X -1 Y 2 X -1 Y 1 X -1 Y 1 X -1 Y 2 X s 1803 265 m -1 Y 1 X -1 Y 1 X 1 -1 d 1 X -1 Y 1 X 1 -1 d 1 X
 -1 Y 2 X s 1812 259 m -1 Y 1 X -1 Y 2 X -1 Y 1 X -1 Y 2 X -1 Y 2 X -1 Y s 1820 253 m 1 X -1 Y 2 X -1 Y 2 X -1 Y 2 X -1 Y 1 X 1 -1 d s 1829 248 m 1 X -1 Y 2 X -1 Y 2 X -1 Y 2 X -1 Y 2 X s 1838 244 m -1 Y 2 X -1 Y 2 X -1 Y 2 X -1 Y 1 X -1 Y 2 X s 1847
 239 m -1 Y 2 X -1 Y 2 X -1 Y 2 X -1 Y 2 X -1 Y 1 X s 1856 234 m 1 X -1 Y 2 X -1 Y 2 X -1 Y 2 X -1 Y 1 X s 1864 230 m 1 X -1 Y 2 X -1 Y 2 X 1 -1 d 2 X -1 Y 1 X s 1873 226 m 1 X -1 Y 3 X -1 Y 2 X -1 Y 3 X -1 Y s 1882 222 m 2 X -1 Y 2 X -1 Y 3 X -1 Y 2
 X s 1891 219 m 1 X -1 Y 3 X -1 Y 3 X 1 -1 d 1 X s 1900 216 m 1 X 1 -1 d 3 X -1 Y 3 X -1 Y s 1908 213 m 4 X -1 Y 3 X 1 -1 d 1 X s 1917 211 m 2 X 1 -1 d 3 X 1 -1 d 2 X s 1926 209 m 2 X -1 Y 5 X -1 Y 2 X s 1935 207 m 4 X -1 Y 5 X s 1944 206 m 2 X -1 Y
 6 X s 1952 205 m 3 X -1 Y 6 X s 1961 204 m 7 X -1 Y 2 X s 1970 203 m 9 X s 1979 203 m 5 X -1 Y 4 X s 1988 202 m 8 X s 1996 202 m 9 X -1 Y s 2005 201 m 9 X s 2014 201 m 9 X s 2023 201 m 9 X s 2032 201 m 8 X s 2040 201 m 1 X s 1 0 0 c black 1 0 0 c
 245 1237 m 9 X s 254 1237 m 9 X s 263 1237 m 8 X s 271 1237 m 9 X s 280 1237 m 9 X s 289 1237 m 9 X s 298 1237 m 9 X s 307 1237 m 8 X s 315 1237 m 7 X -1 Y 2 X s 324 1236 m 9 X s 333 1236 m 9 X s 342 1236 m 1 X 1 -1 d 7 X s 351 1235 m 6 X -1 Y 2 X s
 359 1234 m 8 X -1 Y 1 X s 368 1233 m 7 X -1 Y 2 X s 377 1232 m 5 X -1 Y 4 X s 386 1231 m 3 X -1 Y 5 X -1 Y 1 X s 395 1229 m 4 X -1 Y 4 X s 403 1228 m 1 X -1 Y 4 X -1 Y 4 X s 412 1226 m 1 X -1 Y 4 X -1 Y 4 X -1 Y s 421 1223 m 3 X -1 Y 4 X -1 Y 2 X s
 430 1221 m 1 X -1 Y 3 X 1 -1 d 3 X -1 Y 1 X s 439 1218 m 1 X -1 Y 3 X -1 Y 3 X -1 Y 1 X s 447 1215 m 2 X -1 Y 3 X -1 Y 2 X -1 Y 2 X s 456 1212 m 1 X -1 Y 2 X 1 -1 d 2 X -1 Y 2 X -1 Y 1 X s 465 1208 m 2 X -1 Y 2 X -1 Y 2 X -1 Y 2 X -1 Y 1 X s 474
 1204 m 1 X -1 Y 2 X -1 Y 2 X -1 Y 2 X -1 Y 2 X s 483 1200 m -1 Y 2 X -1 Y 2 X -1 Y 2 X -1 Y 2 X -1 Y s 491 1195 m 2 X -1 Y 1 X 1 -1 d 1 X -1 Y 2 X -1 Y 2 X -1 Y s 500 1190 m 1 X -1 Y 2 X -1 Y 2 X -1 Y 1 X -1 Y 2 X -1 Y 1 X s 509 1185 m 1 X -1 Y 1 X
 -1 Y 2 X -1 Y 1 X 1 -1 d 1 X -1 Y 2 X -1 Y s 518 1179 m 1 X -1 Y 2 X -1 Y 1 X -1 Y 2 X -1 Y 1 X 1 -1 d 1 X s 527 1174 m -1 Y 1 X -1 Y 2 X -1 Y 1 X -1 Y 2 X -1 Y 1 X -1 Y 1 X s 535 1168 m 1 -1 d 1 X -1 Y 1 X -1 Y 2 X -1 Y 1 X -1 Y 1 X -1 Y 2 X -1 Y s
 544 1161 m 1 X -1 Y 1 X 1 -1 d 1 X -1 Y 1 X -1 Y 2 X -1 Y 1 X -1 Y 1 X s 553 1155 m -1 Y 1 X -1 Y 2 X -1 Y 1 X -1 Y 1 X -1 Y 1 X -1 Y 2 X -1 Y 1 X s 562 1148 m -1 Y 1 X -1 Y 1 X -1 Y 1 X 1 -1 d 1 X -1 Y 1 X -1 Y 1 X -1 Y 1 X -1 Y 1 X s 571 1140 m 1
 -1 d 1 -1 d 1 X -1 Y 1 X -1 Y 1 X -1 Y 1 X -1 Y 1 X -1 Y 1 X s 579 1133 m 1 -1 d 1 X -1 Y 1 X -1 Y 1 X -1 Y 1 X -1 Y 1 X -1 Y 1 X -1 Y 1 X -1 Y 1 X s 588 1125 m -1 Y 1 X -1 Y 2 X -1 Y 1 -1 d 1 X -1 Y 1 X -1 Y 1 X -1 Y 1 X -1 Y 1 X -1 Y s 597 1116 m
 1 X -1 Y 1 X -1 Y 1 X -1 Y 1 X -1 Y 1 X -1 Y 1 X -1 Y 1 X -1 Y 1 X -1 Y 1 X s 606 1108 m 1 -1 d -1 Y 1 X 1 -1 d 1 -1 d 1 -1 d 1 -1 d 1 -1 d 1 -1 d 1 X s 615 1100 m -1 Y 1 X -1 Y 1 -1 d 1 X -1 Y 1 -1 d -1 Y 1 X 1 -1 d -1 Y 1 X 1 -1 d -1 Y s 623 1090
 m 1 X 1 -1 d -1 Y 1 X -1 Y 1 X -1 Y 1 X -1 Y 1 X -1 Y 1 X -1 Y 1 X -1 Y 1 X -1 Y s 632 1081 m 1 X -1 Y 1 -1 d 1 -1 d -1 Y 1 X -1 Y 1 X -1 Y 1 X -1 Y 1 X -1 Y 1 X -1 Y 1 X -1 Y s 641 1071 m 1 X -1 Y 1 -1 d 1 -1 d -1 Y 1 X 1 -1 d -1 Y 1 X -1 Y 1 X -1
 Y 1 X -1 Y 1 X s 650 1062 m -1 Y 1 X -1 Y 1 X -1 Y 1 X -1 Y 1 -1 d -1 Y 1 X -1 Y 1 X -1 Y 1 X -1 Y 1 X -1 Y 1 X s 659 1052 m -1 Y 1 X -1 Y 1 -1 d -1 Y 1 X -1 Y 1 X -1 Y 1 X -1 Y 1 X -1 Y 1 -1 d 1 -1 d -1 Y s 667 1041 m 1 X -1 Y 1 X -1 Y 1 X -1 Y 1
 -1 d 1 -1 d -1 Y 1 X -1 Y 1 X -1 Y 1 X -1 Y 1 X -1 Y s 676 1031 m 1 X -1 Y 1 -1 d 1 -1 d -1 Y 1 X -1 Y 1 X -1 Y 1 X -1 Y 1 -1 d -1 Y 1 X -1 Y 1 X -1 Y s 685 1020 m 1 X -1 Y 1 -1 d -1 Y 1 X -1 Y 1 X -1 Y 1 X -1 Y 1 -1 d -1 Y 1 X -1 Y 1 X -1 Y 1 -1 d
 s 694 1009 m -1 Y 1 X -1 Y 1 X -1 Y 1 X -1 Y 1 -1 d 1 -1 d -1 Y 1 X -1 Y 1 X -1 Y 1 X -2 Y 1 X s 703 998 m -1 Y 1 X -1 Y 1 X -1 Y 1 X -2 Y 1 X -1 Y 1 X -1 Y 1 X -1 Y 1 -1 d -1 Y 1 X -1 Y s 711 987 m 1 X -1 Y 1 X -2 Y 1 X -1 Y 1 X -1 Y 1 X -1 Y 1 -1
 d 1 -1 d -1 Y 1 X -1 Y 1 X -1 Y s 720 976 m -1 Y 1 X -1 Y 1 X -1 Y 1 X -1 Y 1 -1 d -1 Y 1 X -1 Y 1 X -1 Y 1 -1 d -1 Y 1 X -1 Y 1 X -1 Y s 729 964 m 1 -1 d -1 Y 1 X -1 Y 1 X -2 Y 1 X -1 Y 1 X -1 Y 1 X -2 Y 1 X -1 Y 1 X -1 Y 1 -1 d s 738 952 m -1 Y 1
 X -1 Y 1 X -1 Y 1 -1 d -1 Y 1 X -1 Y 1 X -1 Y 1 -1 d -1 Y 1 X -1 Y 1 X -2 Y 1 X s 747 940 m -1 Y 1 X -1 Y 1 X -1 Y 1 -1 d -1 Y 1 X -1 Y 1 -1 d -1 Y 1 X -1 Y 1 -1 d -1 Y 1 X -1 Y s 755 928 m 1 X -1 Y 1 -1 d -1 Y 1 X -1 Y 1 -1 d -1 Y 1 X -1 Y 1 X -1 Y
 1 -1 d -1 Y 1 X -1 Y 1 X -1 Y s 764 916 m -1 Y 1 X -1 Y 1 X -1 Y 1 -1 d -1 Y 1 X -1 Y 1 X -2 Y 1 X -1 Y 1 X -2 Y 1 X -1 Y 1 -1 d s 773 903 m -1 Y 1 X -1 Y 1 X -1 Y 1 -1 d -1 Y 1 X -1 Y 1 X -2 Y 1 X -1 Y 1 X -2 Y 1 X -1 Y 1 X -1 Y s 782 890 m 1 -1 d
 -1 Y 1 X -1 Y 1 X -2 Y 1 X -1 Y 1 X -1 Y 1 -1 d -1 Y 1 X -1 Y 1 -1 d -1 Y 1 X s 791 878 m -1 Y 1 -1 d -1 Y 1 X -1 Y 1 X -2 Y 1 X -1 Y 1 -1 d -1 Y 1 X -1 Y 1 X -2 Y 1 X -1 Y s 799 865 m 1 X -2 Y 1 X -1 Y 1 X -2 Y 1 X -1 Y 1 X -2 Y 1 X -1 Y 1 X -2 Y 1
 X -1 Y 1 X -2 Y s 808 851 m 1 X -1 Y 1 -1 d -1 Y 1 X -1 Y 1 -1 d -1 Y 1 X -1 Y 1 X -2 Y 1 X -1 Y 1 X -2 Y 1 X -1 Y s 817 838 m 1 X -2 Y 1 X -1 Y 1 -1 d -1 Y 1 X -1 Y 1 -1 d -1 Y 1 X -1 Y 1 -1 d -1 Y 1 X -2 Y 1 X s 826 825 m -1 Y 1 X -2 Y 1 X -1 Y 1
 X -2 Y 1 X -1 Y 1 X -2 Y 1 X -1 Y 1 -1 d -1 Y 1 X -1 Y 1 -1 d s 835 811 m -1 Y 1 X -1 Y 1 -1 d -1 Y 1 X -1 Y 1 -1 d -1 Y 1 X -1 Y 1 -1 d -1 Y 1 X -2 Y 1 X -1 Y s 843 798 m 1 X -2 Y 1 X -1 Y 1 X -2 Y 1 X -1 Y 1 X -2 Y 1 X -1 Y 1 X -2 Y 1 X -1 Y 1 -1
 d -1 Y s 852 784 m 1 X -1 Y 1 -1 d -1 Y 1 X -2 Y 1 X -1 Y 1 X -2 Y 1 X -1 Y 1 X -2 Y 1 X -1 Y 1 X -1 Y s 861 771 m -1 Y 1 X -2 Y 1 X -1 Y 1 X -2 Y 1 X -1 Y 1 X -2 Y 1 X -1 Y 1 X -2 Y 1 X -2 Y 1 X s 870 757 m -1 Y 1 X -2 Y 1 X -1 Y 1 X -2 Y 1 X -1 Y
 1 -1 d -1 Y 1 X -2 Y 1 X -1 Y 1 X -2 Y 1 X s 879 743 m -1 Y 1 -1 d -1 Y 1 X -2 Y 1 X -1 Y 1 X -2 Y 1 X -1 Y 1 X -2 Y 1 X -1 Y 1 X -2 Y s 887 729 m 1 X -1 Y 1 -1 d -1 Y 1 X -2 Y 1 X -1 Y 1 X -2 Y 1 X -1 Y 1 X -2 Y 1 X -1 Y 1 X -2 Y s 896 715 m 1 X -1
 Y 1 -1 d -1 Y 1 X -1 Y 1 -1 d -1 Y 1 X -2 Y 1 X -1 Y 1 X -2 Y 1 X -1 Y 1 X -1 Y s 905 702 m -1 Y 1 X -1 Y 1 -1 d -1 Y 1 X -1 Y 1 -1 d -1 Y 1 X -2 Y 1 X -1 Y 1 X -2 Y 1 X -1 Y 1 -1 d s 914 688 m -1 Y 1 X -1 Y 1 X -2 Y 1 X -1 Y 1 -1 d -1 Y 1 X -1 Y 1
 -1 d -1 Y 1 X -2 Y 1 X -1 Y 1 -1 d s 923 674 m -1 Y 1 X -1 Y 1 -1 d -1 Y 1 X -2 Y 1 X -1 Y 1 X -2 Y 1 X -1 Y 1 -1 d -1 Y 1 X -1 Y s 931 661 m 1 X -1 Y 1 -1 d -1 Y 1 -1 d -1 Y 1 X -1 Y 1 X -2 Y 1 X -1 Y 1 -1 d -1 Y 1 X -1 Y 1 -1 d -1 Y s 940 647 m 1
 X -1 Y 1 -1 d -1 Y 1 X -2 Y 1 X -1 Y 1 X -2 Y 1 X -1 Y 1 X -2 Y 1 X -1 Y 1 X -1 Y s 949 634 m 1 -1 d -1 Y 1 X -1 Y 1 -1 d -1 Y 1 X -1 Y 1 -1 d -1 Y 1 X -1 Y 1 X -2 Y 1 X -1 Y 1 -1 d s 958 621 m -1 Y 1 X -1 Y 1 -1 d -1 Y 1 X -1 Y 1 X -1 Y 1 -1 d -1 Y
 1 X -2 Y 1 X -1 Y 1 X -2 Y 1 X s 967 608 m -1 Y 1 X -1 Y 1 -1 d -1 Y 1 X -1 Y 1 -1 d -1 Y 1 X -1 Y 1 -1 d -1 Y 1 X -1 Y 1 -1 d -1 Y s 975 595 m 1 X -1 Y 1 -1 d -1 Y 1 X -1 Y 1 -1 d -1 Y 1 X -1 Y 1 -1 d -1 Y 1 X -1 Y 1 -1 d -1 Y 1 X -1 Y s 984 582 m
 1 -1 d -1 Y 1 X -1 Y 1 -1 d -1 Y 1 X -1 Y 1 X -2 Y 1 X -1 Y 1 X -2 Y 1 X -1 Y 1 X -1 Y s 993 569 m 1 -1 d -1 Y 1 X -1 Y 1 X -2 Y 1 X -1 Y 1 X -1 Y 1 -1 d -1 Y 1 X -1 Y 1 -1 d -1 Y 1 X s 1002 557 m -1 Y 1 X -2 Y 1 X -1 Y 1 X -1 Y 1 -1 d -1 Y 1 X -1 Y
 1 X -2 Y 1 X -1 Y 1 X -1 Y 1 X s 1011 545 m -1 Y 1 -1 d -1 Y 1 X -1 Y 1 X -1 Y 1 -1 d -1 Y 1 X -1 Y 1 -1 d -1 Y 1 X -1 Y 1 X -2 Y s 1019 532 m 1 X -1 Y 1 X -1 Y 1 -1 d -1 Y 1 X -1 Y 1 X -2 Y 1 X -1 Y 1 X -1 Y 1 X -1 Y 1 -1 d -1 Y s 1028 520 m 1 X -1
 Y 1 X -2 Y 1 X -1 Y 1 X -1 Y 1 X -2 Y 1 X -1 Y 1 X -1 Y 1 -1 d -1 Y 1 X -1 Y s 1037 508 m 1 X -2 Y 1 X -1 Y 1 X -1 Y 1 X -1 Y 1 X -1 Y 1 -1 d -1 Y 1 X -1 Y 1 X -1 Y 1 -1 d s 1046 497 m -1 Y 1 X -1 Y 1 X -1 Y 1 X -2 Y 1 X -1 Y 1 X -1 Y 1 -1 d -1 Y 1
 X -1 Y 1 X -1 Y 1 X s 1055 486 m -1 Y 1 -1 d -1 Y 1 X -1 Y 1 X -1 Y 1 X -1 Y 1 X -2 Y 1 X -1 Y 1 X -1 Y 1 X -1 Y s 1063 475 m 1 X -1 Y 1 -1 d -1 Y 1 X -1 Y 1 X -1 Y 1 -1 d -1 Y 1 X -1 Y 1 X -1 Y 1 X -1 Y 1 X -1 Y s 1072 464 m 1 -1 d -1 Y 1 X -1 Y 1
 X -1 Y 1 X -1 Y 1 X -2 Y 1 X -1 Y 1 X -1 Y 1 X -1 Y 1 X -1 Y s 1081 453 m 1 -1 d -1 Y 1 X -1 Y 1 X -1 Y 1 X -1 Y 1 X -1 Y 1 -1 d 1 -1 d -1 Y 1 X -1 Y 1 X s 1090 443 m -1 Y 1 X -1 Y 1 X -1 Y 1 X -1 Y 1 -1 d 1 -1 d -1 Y 1 X -1 Y 1 X -1 Y 1 X -1 Y 1 X
 s 1099 433 m -1 Y 1 X -1 Y 1 X -1 Y 1 X -2 Y 1 X -1 Y 1 X -1 Y 1 X -1 Y 1 X -1 Y 1 X -1 Y s 1107 423 m 1 X -1 Y 1 X -1 Y 1 X -1 Y 1 X -1 Y 1 X -1 Y 1 -1 d 1 -1 d -1 Y 1 X 1 -1 d s 1116 414 m -1 Y 1 X -1 Y 1 X -1 Y 1 X -1 Y 1 X -1 Y 1 X -1 Y 1 X -1 Y
 1 X -1 Y 1 X -1 Y 1 X -1 Y s 1125 404 m 1 X -1 Y 1 X -1 Y 1 X -1 Y 1 X -1 Y 1 X -1 Y 1 X -1 Y 1 X -1 Y 1 X -1 Y 1 X -1 Y s 1134 395 m 1 X -1 Y 1 X -1 Y 1 X -1 Y 1 X -1 Y 1 X -1 Y 1 X -1 Y 1 X -1 Y 1 X -1 Y 1 X s 1143 387 m -1 Y 1 X -1 Y 1 X -1 Y 1 X
 -1 Y 1 X -1 Y 1 X -1 Y 1 X -1 Y 1 X -1 Y 1 X -1 Y s 1151 378 m 1 X -1 Y 1 X 1 -1 d 1 X -1 Y 1 X -1 Y 1 X -1 Y 1 X -1 Y 1 X -1 Y 1 X -1 Y s 1160 370 m 1 X -1 Y 1 X -1 Y 1 X -1 Y 1 X 1 -1 d 1 -1 d 1 X -1 Y 1 X -1 Y 1 X -1 Y s 1169 362 m 1 X -1 Y 1 X
 -1 Y 1 X -1 Y 1 X 1 -1 d 1 X -1 Y 1 X -1 Y 1 X -1 Y 1 X s 1178 355 m -1 Y 1 X -1 Y 2 X -1 Y 1 X -1 Y 1 X -1 Y 1 X -1 Y 1 X -1 Y 1 X 1 -1 d s 1187 347 m 1 X -1 Y 1 X -1 Y 1 X -1 Y 2 X -1 Y 1 X -1 Y 1 X -1 Y 1 X -1 Y s 1195 340 m 2 X -1 Y 1 X -1 Y 1 X
 -1 Y 2 X -1 Y 1 X -1 Y 2 X -1 Y s 1204 334 m 1 X -1 Y 1 X 1 -1 d 1 X -1 Y 1 X -1 Y 1 X 1 -1 d 1 X -1 Y 1 X s 1213 328 m -1 Y 2 X -1 Y 1 X -1 Y 1 X 1 -1 d 1 X -1 Y 1 X 1 -1 d 1 X -1 Y s 1222 321 m 1 X -1 Y 2 X -1 Y 1 X 1 -1 d 1 X -1 Y 1 X 1 -1 d 1 X
 s 1231 316 m -1 Y 1 X 1 -1 d 1 X -1 Y 2 X -1 Y 1 X -1 Y 2 X -1 Y s 1239 310 m 1 X 1 -1 d 1 X -1 Y 2 X -1 Y 1 X -1 Y 2 X -1 Y 1 X s 1248 305 m 1 -1 d 1 X -1 Y 2 X -1 Y 1 X -1 Y 2 X -1 Y 2 X -1 Y s 1257 299 m 1 X 1 -1 d 1 X -1 Y 2 X -1 Y 1 X -1 Y 2 X
 -1 Y 1 X s 1266 294 m 1 X -1 Y 1 X -1 Y 2 X -1 Y 2 X -1 Y 2 X -1 Y 1 X s 1275 289 m 1 X -1 Y 2 X -1 Y 1 X 1 -1 d 1 X -1 Y 2 X -1 Y s 1283 284 m 2 X -1 Y 2 X -1 Y 2 X -1 Y 1 X 1 -1 d 1 X s 1292 280 m 1 X -1 Y 2 X -1 Y 2 X -1 Y 2 X -1 Y 2 X -1 Y s
 1301 275 m 2 X -1 Y 2 X -1 Y 2 X -1 Y 3 X -1 Y s 1310 271 m 2 X -1 Y 2 X -1 Y 2 X 1 -1 d 2 X s 1319 268 m -1 Y 2 X -1 Y 2 X 1 -1 d 2 X -1 Y 1 X s 1327 264 m 1 X -1 Y 2 X 1 -1 d 2 X -1 Y 2 X -1 Y 1 X s 1336 260 m 2 X -1 Y 2 X 1 -1 d 2 X -1 Y 2 X s
 1345 257 m 1 X -1 Y 2 X -1 Y 3 X -1 Y 3 X s 1354 254 m -1 Y 3 X -1 Y 2 X 1 -1 d 2 X 1 -1 d s 1363 250 m 3 X -1 Y 3 X -1 Y 2 X s 1371 248 m 1 X -1 Y 3 X -1 Y 3 X -1 Y 2 X s 1380 245 m 1 X 1 -1 d 2 X 1 -1 d 3 X -1 Y 1 X s 1389 242 m 2 X 1 -1 d 2 X 1
 -1 d 3 X s 1398 240 m -1 Y 3 X 1 -1 d 3 X -1 Y 2 X s 1407 237 m 2 X -1 Y 4 X -1 Y 2 X s 1415 235 m 2 X -1 Y 4 X -1 Y 3 X s 1424 233 m 1 X -1 Y 4 X -1 Y 4 X s 1433 231 m 1 X -1 Y 4 X -1 Y 4 X s 1442 229 m 1 X -1 Y 5 X -1 Y 3 X s 1451 227 m 2 X -1 Y 5
 X -1 Y 1 X s 1459 225 m 4 X -1 Y 5 X -1 Y s 1468 223 m 5 X -1 Y 4 X s 1477 222 m 2 X -1 Y 6 X -1 Y 1 X s 1486 220 m 5 X -1 Y 4 X s 1495 219 m 3 X -1 Y 5 X s 1503 218 m 2 X -1 Y 7 X s 1512 217 m 1 -1 d 8 X -1 Y s 1521 215 m 8 X -1 Y 1 X s 1530 214 m
 8 X -1 Y 1 X s 1539 213 m 7 X -1 Y 1 X s 1547 212 m 9 X s 1556 212 m 1 X -1 Y 8 X s 1565 211 m 2 X -1 Y 7 X s 1574 210 m 5 X -1 Y 4 X s 1583 209 m 8 X s 1591 209 m 2 X -1 Y 7 X s 1600 208 m 8 X -1 Y 1 X s 1609 207 m 9 X s 1618 207 m 7 X -1 Y 2 X s
 1627 206 m 8 X s 1635 206 m 9 X s 1644 206 m 1 X -1 Y 8 X s 1653 205 m 9 X s 1662 205 m 4 X -1 Y 5 X s 1671 204 m 8 X s 1679 204 m 9 X s 1688 204 m 7 X 1 -1 d 1 X s 1697 203 m 9 X s 1706 203 m 9 X s 1715 203 m 8 X s 1723 203 m 9 X s 1732 203 m 4 X
 -1 Y 5 X s 1741 202 m 9 X s 1750 202 m 9 X s 1759 202 m 8 X s 1767 202 m 9 X s 1776 202 m 9 X s 1785 202 m 9 X s 1794 202 m 9 X s 1803 202 m 9 X s 1812 202 m 5 X -1 Y 3 X s 1820 201 m 9 X s 1829 201 m 9 X s 1838 201 m 9 X s 1847 201 m 9 X s 1856 201
 m 8 X s 1864 201 m 9 X s 1873 201 m 9 X s 1882 201 m 9 X s 1891 201 m 9 X s 1900 201 m 8 X s 1908 201 m 9 X s 1917 201 m 9 X s 1926 201 m 9 X s 1935 201 m 9 X s 1944 201 m 8 X s 1952 201 m 9 X s 1961 201 m 9 X s 1970 201 m 9 X s 1979 201 m 9 X s
 1988 201 m 8 X s 1996 201 m 9 X s 2005 201 m 9 X s 2014 201 m 9 X s 2023 201 m 9 X s 2032 201 m 8 X s 2040 201 m 1 X s 0 0.666667 0 c 1 1 1 c black 0 0.666667 0 c 245 1096 m 9 X s 254 1096 m 9 X s 263 1096 m 8 X s 271 1096 m 9 X s 280 1096 m 9 X s
 289 1096 m 9 X s 298 1096 m 9 X s 307 1096 m 8 X s 315 1096 m 9 X s 324 1096 m 9 X s 333 1096 m 9 X s 342 1096 m 9 X s 351 1096 m 1 X 1 Y 7 X s 359 1097 m 9 X s 368 1097 m 9 X s 377 1097 m 9 X s 386 1097 m 4 X 1 Y 5 X s 395 1098 m 8 X s 403 1098 m 9
 X s 412 1098 m 1 X 1 Y 8 X s 421 1099 m 9 X s 430 1099 m 1 Y 9 X s 439 1100 m 6 X 1 Y 2 X s 447 1101 m 9 X s 456 1101 m 1 X 1 Y 8 X s 465 1102 m 3 X 1 1 d 5 X s 474 1103 m 4 X 1 Y 5 X s 483 1104 m 4 X 1 1 d 3 X s 491 1105 m 5 X 1 Y 4 X s 500 1106 m
 4 X 1 Y 5 X s 509 1107 m 2 X 1 1 d 6 X s 518 1108 m 1 X 1 Y 7 X 1 Y 1 X s 527 1110 m 6 X 1 Y 2 X s 535 1111 m 4 X 1 1 d 4 X s 544 1112 m 2 X 1 Y 6 X 1 Y 1 X s 553 1114 m 5 X 1 Y 4 X s 562 1115 m 2 X 1 Y 5 X 1 1 d 1 X s 571 1117 m 4 X 1 Y 4 X s 579
 1118 m 1 X 1 Y 5 X 1 1 d 2 X s 588 1120 m 2 X 1 Y 5 X 1 Y 2 X s 597 1122 m 3 X 1 Y 5 X 1 Y 1 X s 606 1124 m 4 X 1 Y 4 X 1 1 d s 615 1126 m 4 X 1 Y 4 X 1 Y s 623 1128 m 5 X 1 Y 4 X 1 Y s 632 1130 m 4 X 1 Y 4 X 1 Y 1 X s 641 1132 m 3 X 1 Y 4 X 1 1 d 1
 X s 650 1134 m 3 X 1 Y 3 X 1 1 d 2 X s 659 1136 m 2 X 1 Y 4 X 1 Y 2 X s 667 1138 m 1 X 1 1 d 3 X 1 Y 4 X s 676 1140 m 1 Y 4 X 1 Y 4 X 1 Y 1 X s 685 1143 m 2 X 1 1 d 3 X 1 Y 3 X s 694 1145 m 1 X 1 Y 3 X 1 1 d 3 X 1 Y 1 X s 703 1148 m 3 X 1 Y 3 X 1 1
 d 1 X s 711 1150 m 2 X 1 Y 4 X 1 Y 3 X s 720 1152 m 1 1 d 3 X 1 Y 3 X 1 Y 2 X s 729 1155 m 1 X 1 1 d 3 X 1 Y 3 X 1 Y 1 X s 738 1158 m 3 X 1 Y 3 X 1 Y 3 X s 747 1160 m 1 1 d 3 X 1 Y 3 X 1 Y 1 X s 755 1163 m 2 X 1 Y 3 X 1 Y 4 X 1 Y s 764 1166 m 3 X 1
 Y 3 X 1 1 d 2 X s 773 1168 m 1 X 1 Y 3 X 1 Y 3 X 1 Y 2 X s 782 1171 m 1 X 1 Y 3 X 1 1 d 3 X 1 Y 1 X s 791 1174 m 2 X 1 Y 3 X 1 Y 3 X 1 Y s 799 1177 m 3 X 1 Y 4 X 1 Y 2 X s 808 1179 m 1 X 1 Y 3 X 1 Y 3 X 1 Y 2 X s 817 1182 m 1 X 1 Y 3 X 1 1 d 2 X 1 1
 d 1 X s 826 1185 m 2 X 1 Y 3 X 1 Y 3 X 1 Y 1 X s 835 1188 m 2 X 1 Y 3 X 1 Y 3 X 1 Y s 843 1191 m 3 X 1 Y 3 X 1 Y 3 X s 852 1193 m 1 1 d 3 X 1 Y 3 X 1 Y 2 X s 861 1196 m 1 X 1 Y 3 X 1 Y 3 X 1 Y 2 X s 870 1199 m 1 X 1 Y 3 X 1 Y 3 X 1 Y 2 X s 879 1202
 m 1 X 1 Y 3 X 1 1 d 3 X 1 Y s 887 1205 m 3 X 1 Y 3 X 1 Y 3 X s 896 1207 m 1 X 1 Y 4 X 1 Y 3 X 1 Y 1 X s 905 1210 m 2 X 1 1 d 3 X 1 Y 3 X s 914 1212 m 1 Y 4 X 1 Y 3 X 1 Y 2 X s 923 1215 m 2 X 1 Y 3 X 1 1 d 2 X s 931 1217 m 1 X 1 1 d 3 X 1 Y 4 X 1 Y s
 940 1220 m 4 X 1 Y 4 X 1 Y 1 X s 949 1222 m 3 X 1 Y 4 X 1 Y 2 X s 958 1224 m 3 X 1 1 d 4 X 1 Y 1 X s 967 1226 m 4 X 1 Y 4 X 1 Y s 975 1228 m 4 X 1 1 d -1 Y 1 Y 4 X s 984 1229 m 1 X 1 Y 6 X 1 Y 2 X s 993 1231 m 4 X 1 1 d 4 X s 1002 1232 m 1 1 d 7 X 1
 Y -1 Y 1 1 d s 1011 1234 m 6 X 1 Y 2 X s 1019 1235 m 8 X 1 Y 1 X s 1028 1236 m 9 X s 1037 1236 m 3 X 1 1 d -1 Y 1 X 1 Y -1 Y 1 1 d 3 X s 1046 1237 m 9 X s 1055 1237 m 8 X s 1063 1237 m 9 X s 1072 1237 m 9 X s 1081 1237 m 9 X s 1090 1237 m 9 X s 1099
 1237 m 1 X -1 Y 7 X s 1107 1236 m 7 X -1 Y 2 X s 1116 1235 m 7 X -1 Y 2 X s 1125 1234 m 6 X -1 Y 3 X s 1134 1233 m 2 X -1 Y 5 X -1 Y 2 X s 1143 1231 m 2 X 1 -1 d 5 X -1 Y s 1151 1229 m 4 X -1 Y 4 X -1 Y 1 X s 1160 1227 m 4 X -1 Y 4 X -1 Y 1 X s 1169
 1225 m 3 X -1 Y 3 X -1 Y 3 X s 1178 1223 m 1 X -1 Y 3 X -1 Y 3 X -1 Y 2 X s 1187 1220 m 1 X 1 -1 d 2 X -1 Y 3 X -1 Y 1 X s 1195 1217 m 3 X -1 Y 3 X -1 Y 2 X 1 -1 d s 1204 1214 m 3 X -1 Y 3 X -1 Y 2 X 1 -1 d s 1213 1211 m 2 X -1 Y 3 X -1 Y 3 X -1 Y 1
 X s 1222 1208 m 2 X -1 Y 2 X -1 Y 3 X -1 Y 2 X s 1231 1205 m -1 Y 3 X -1 Y 2 X -1 Y 2 X 1 -1 d s 1239 1201 m 2 X -1 Y 2 X -1 Y 2 X -1 Y 2 X -1 Y 1 X s 1248 1197 m 1 X -1 Y 2 X -1 Y 2 X -1 Y 2 X -1 Y 2 X s 1257 1193 m -1 Y 2 X 1 -1 d 1 X -1 Y 2 X -1
 Y 2 X -1 Y 1 X s 1266 1188 m 1 X -1 Y 2 X -1 Y 2 X -1 Y 2 X -1 Y 1 X 1 -1 d s 1275 1183 m 1 X -1 Y 2 X -1 Y 2 X -1 Y 2 X -1 Y 1 X -1 Y s 1283 1178 m 2 X -1 Y 2 X -1 Y 1 X -1 Y 2 X -1 Y 2 X -1 Y s 1292 1173 m 1 X 1 -1 d 1 X -1 Y 2 X -1 Y 1 X 1 -1 d 1
 X -1 Y 1 X s 1301 1168 m 1 -1 d 1 X -1 Y 1 X -1 Y 2 X -1 Y 1 X -1 Y 2 X -1 Y 1 X s 1310 1162 m 1 -1 d 1 X -1 Y 1 X -1 Y 2 X -1 Y 1 X -1 Y 2 X -1 Y 1 X s 1319 1156 m -1 Y 1 X 1 -1 d 1 X -1 Y 1 X 1 -1 d 1 X -1 Y 1 X -1 Y 1 X -1 Y s 1327 1149 m 2 X -1
 Y 1 X 1 -1 d 1 X -1 Y 1 X -1 Y 1 X 1 -1 d 1 X -1 Y s 1336 1143 m 1 X -1 Y 1 X 1 -1 d 1 X -1 Y 1 X -1 Y 1 X 1 -1 d 1 X -1 Y 1 X s 1345 1137 m -1 Y 1 X 1 -1 d 1 X -1 Y 1 X -1 Y 1 X -1 Y 1 X 1 -1 d 1 X -1 Y 1 X s 1354 1130 m -1 Y 1 X -1 Y 2 X -1 Y 1 X
 -1 Y 1 X -1 Y 1 X 1 -1 d 1 X -1 Y 1 X s 1363 1123 m -1 Y 1 X -1 Y 1 X -1 Y 2 X -1 Y 1 X -1 Y 1 X -1 Y 1 X 1 -1 d s 1371 1116 m 1 -1 d 1 X -1 Y 1 X -1 Y 1 X 1 -1 d 1 X -1 Y 1 X -1 Y 1 X -1 Y 1 X s 1380 1109 m -1 Y 2 X -1 Y 1 X -1 Y 1 X -1 Y 1 X -1 Y
 1 X 1 -1 d 1 -1 d 1 X -1 Y s 1389 1101 m 1 X -1 Y 1 X -1 Y 1 X -1 Y 1 X -1 Y 1 X -1 Y 1 X -1 Y 1 X -1 Y 1 X -1 Y 1 X s 1398 1093 m 1 -1 d 1 -1 d 1 -1 d 1 X -1 Y 1 X -1 Y 1 X -1 Y 1 X -1 Y 1 X -1 Y 1 X s 1407 1085 m -1 Y 1 X -1 Y 1 X -1 Y 1 X -1 Y 1
 X -1 Y 1 X -1 Y 1 X -1 Y 1 X -1 Y 1 X -1 Y s 1415 1076 m 1 X -1 Y 1 X -1 Y 1 X -1 Y 1 X -1 Y 1 X -1 Y 1 X -1 Y 1 X -1 Y 1 X -1 Y 1 X -1 Y s 1424 1067 m 1 X -1 Y 1 X -1 Y 1 X 1 -1 d -1 Y 1 X -1 Y 1 X -1 Y 1 X -1 Y 1 X -1 Y 1 X -1 Y s 1433 1058 m 1 X
 -1 Y 1 X -1 Y 1 X -1 Y 1 -1 d 1 -1 d -1 Y 1 X -1 Y 1 X -1 Y 1 X -1 Y 1 X s 1442 1049 m -1 Y 1 X -1 Y 1 X -1 Y 1 X -1 Y 1 X -1 Y 1 X -1 Y 1 -1 d 1 -1 d -1 Y 1 X -1 Y 1 X s 1451 1039 m -1 Y 1 X -1 Y 1 X -1 Y 1 X -1 Y 1 X -1 Y 1 -1 d -1 Y 1 X -1 Y 1 X
 -1 Y 1 X -1 Y s 1459 1029 m 1 X -1 Y 1 X -1 Y 1 X -1 Y 1 X -1 Y 1 X -1 Y 1 -1 d -1 Y 1 X -1 Y 1 X -1 Y 1 X -1 Y s 1468 1019 m 1 X -1 Y 1 X -1 Y 1 -1 d 1 -1 d -1 Y 1 X -1 Y 1 X -1 Y 1 X -1 Y 1 X -1 Y 1 X -1 Y s 1477 1009 m -1 Y 1 X -1 Y 1 X -1 Y 1 X
 -1 Y 1 -1 d 1 -1 d -1 Y 1 X -1 Y 1 X -1 Y 1 -1 d -1 Y 1 X s 1486 998 m -1 Y 1 X -1 Y 1 -1 d 1 -1 d -1 Y 1 X -1 Y 1 X -1 Y 1 -1 d 1 -1 d -1 Y 1 X -1 Y 1 X s 1495 987 m -1 Y 1 X -1 Y 1 -1 d -1 Y 1 X -1 Y 1 X -1 Y 1 X -1 Y 1 X -1 Y 1 -1 d -1 Y 1 X -1 Y
 s 1503 976 m 1 -1 d -1 Y 1 X -1 Y 1 X -1 Y 1 X -1 Y 1 -1 d 1 -1 d -1 Y 1 X -1 Y 1 X -1 Y 1 -1 d -1 Y s 1512 964 m 1 X -1 Y 1 X -1 Y 1 X -1 Y 1 -1 d -1 Y 1 X -1 Y 1 X -1 Y 1 -1 d -1 Y 1 X -1 Y 1 X -1 Y s 1521 953 m 1 -1 d -1 Y 1 X -1 Y 1 X -1 Y 1 -1
 d -1 Y 1 X -1 Y 1 X -1 Y 1 X -2 Y 1 X -1 Y 1 X s 1530 942 m -1 Y 1 X -1 Y 1 X -2 Y 1 X -1 Y 1 X -1 Y 1 -1 d -1 Y 1 X -1 Y 1 X -1 Y 1 -1 d 1 X -1 Y s 1539 930 m -1 Y 1 X -1 Y 1 X -1 Y 1 -1 d -1 Y 1 X -1 Y 1 -1 d -1 Y 1 X -1 Y 1 X -1 Y 1 -1 d -1 Y s
 1547 918 m 1 X -1 Y 1 X -2 Y 1 X -1 Y 1 X -1 Y 1 X -1 Y 1 X -2 Y 1 X -1 Y 1 X -1 Y 1 X -1 Y s 1556 907 m -1 Y 1 X -1 Y 1 X -2 Y 1 X -1 Y 1 X -1 Y 1 -1 d -1 Y 1 X -1 Y 1 X -1 Y 1 -1 d -1 Y 1 X -1 Y s 1565 894 m 1 X -1 Y 1 -1 d -1 Y 1 X -1 Y 1 -1 d 1
 -1 d -1 Y 1 X -1 Y 1 X -2 Y 1 X -1 Y 1 X s 1574 883 m -1 Y 1 X -1 Y 1 -1 d -1 Y 1 X -1 Y 1 -1 d -1 Y 1 X -1 Y 1 X -1 Y 1 X -2 Y 1 X -1 Y 1 -1 d s 1583 870 m -1 Y 1 X -1 Y 1 -1 d -1 Y 1 X -1 Y 1 X -1 Y 1 X -2 Y 1 X -1 Y 1 X -1 Y 1 X -2 Y s 1591 858 m
 1 X -1 Y 1 X -2 Y 1 X -1 Y 1 X -1 Y 1 -1 d -1 Y 1 X -1 Y 1 X -2 Y 1 X -1 Y 1 X -1 Y s 1600 846 m -1 Y 1 X -1 Y 1 X -2 Y 1 X -1 Y 1 X -1 Y 1 -1 d -1 Y 1 X -1 Y 1 X -1 Y 1 -1 d -1 Y 1 X -1 Y s 1609 833 m 1 X -2 Y 1 X -1 Y 1 X -1 Y 1 X -2 Y 1 X -1 Y 1
 -1 d -1 Y 1 X -2 Y 1 X -1 Y 1 X -1 Y s 1618 820 m -1 Y 1 X -1 Y 1 X -2 Y 1 X -1 Y 1 X -2 Y 1 X -1 Y 1 X -1 Y 1 -1 d -1 Y 1 X -1 Y 1 -1 d s 1627 807 m -1 Y 1 X -2 Y 1 X -1 Y 1 -1 d -1 Y 1 X -1 Y 1 X -2 Y 1 X -1 Y 1 -1 d -1 Y 1 X -2 Y s 1635 793 m 1 X
 -1 Y 1 X -2 Y 1 X -1 Y 1 X -2 Y 1 X -1 Y 1 X -2 Y 1 X -1 Y 1 -1 d -1 Y 1 X -1 Y s 1644 780 m -1 Y 1 X -1 Y 1 X -2 Y 1 X -1 Y 1 X -2 Y 1 X -2 Y 1 X -1 Y 1 X -2 Y 1 X -1 Y 1 -1 d s 1653 766 m -1 Y 1 X -1 Y 1 -1 d -1 Y 1 -1 d -1 Y 1 X -1 Y 1 -1 d -1 Y
 1 X -2 Y 1 X -1 Y 1 X -2 Y 1 X s 1662 752 m -1 Y 1 X -1 Y 1 -1 d -1 Y 1 X -2 Y 1 X -1 Y 1 -1 d -1 Y 1 X -1 Y 1 X -2 Y 1 X -2 Y 1 X s 1671 738 m -1 Y 1 -1 d -1 Y 1 X -1 Y 1 -1 d -1 Y 1 X -1 Y 1 X -2 Y 1 X -1 Y 1 -1 d -1 Y 1 X -2 Y s 1679 724 m 1 X -1
 Y 1 X -2 Y 1 X -1 Y 1 -1 d -1 Y 1 X -1 Y 1 -1 d -1 Y 1 -1 d -1 Y 1 X -1 Y 1 -1 d -1 Y s 1688 710 m 1 X -1 Y 1 -1 d -1 Y 1 X -2 Y 1 X -1 Y 1 -1 d -1 Y 1 X -2 Y 1 X -1 Y 1 -1 d -1 Y 1 X -1 Y s 1697 696 m -1 Y 1 X -2 Y 1 X -1 Y 1 -1 d -1 Y 1 X -2 Y 1 X
 -2 Y 1 X -1 Y 1 -1 d -1 Y 1 X -2 Y 1 X s 1706 681 m -1 Y 1 X -2 Y 1 X -1 Y 1 -1 d -1 Y 1 -1 d -1 Y 1 X -1 Y 1 -1 d -1 Y 1 X -2 Y 1 X -1 Y 1 -1 d s 1715 666 m -1 Y 1 X -2 Y 1 X -1 Y 1 -1 d -1 Y 1 X -2 Y 1 X -2 Y 1 X -1 Y 1 X -2 Y 1 X -1 Y s 1723 652
 m 1 -1 d -1 Y 1 X -2 Y 1 X -1 Y 1 X -2 Y 1 X -1 Y 1 X -2 Y 1 X -1 Y 1 X -2 Y 1 -1 d -1 Y s 1732 637 m 1 X -2 Y 1 X -1 Y 1 -1 d -1 Y 1 X -2 Y 1 X -1 Y 1 X -2 Y 1 X -2 Y 1 X -1 Y 1 X -1 Y s 1741 623 m -1 Y 1 X -1 Y 1 X -2 Y 1 X -1 Y 1 X -2 Y 1 X -1 Y
 1 -1 d -1 Y 1 X -2 Y 1 X -1 Y 1 X -1 Y s 1750 609 m -1 Y 1 X -1 Y 1 -1 d -1 Y 1 X -2 Y 1 X -1 Y 1 -1 d -1 Y 1 X -1 Y 1 -1 d -1 Y 1 X -1 Y 1 -1 d s 1759 595 m -1 Y 1 -1 d -1 Y 1 -1 d -1 Y 1 X -1 Y 1 -1 d -1 Y 1 X -2 Y 1 X -1 Y 1 -1 d -1 Y 1 -1 d -1 Y
 s 1767 580 m 1 X -2 Y 1 X -2 Y 1 X -1 Y 1 -1 d -2 Y 1 X -1 Y 1 -1 d -1 Y 1 -1 d -1 Y 1 -1 d -2 Y 1 X -1 Y s 1776 563 m -1 Y 1 X -2 Y 1 X -2 Y 1 X -2 Y 1 X -1 Y 1 -1 d -1 Y 1 X -2 Y 1 -1 d -1 Y 1 -1 d -1 Y 1 X -1 Y s 1785 546 m -1 Y 1 X -2 Y 1 X -2 Y
 1 X -2 Y 1 X -2 Y 1 X -2 Y 1 X -1 Y 1 -1 d -1 Y 1 X -2 Y 1 X -1 Y s 1794 529 m -1 Y 1 X -1 Y 1 -1 d -1 Y 1 -1 d -1 Y 1 -1 d -1 Y 1 X -2 Y 1 X -2 Y 1 X -2 Y 1 X -1 Y 1 -1 d s 1803 513 m -1 Y 1 X -2 Y 1 -1 d -1 Y 1 X -2 Y 1 X -1 Y 1 -1 d -1 Y 1 X -1 Y
 1 -1 d -1 Y 1 X -2 Y 1 X s 1812 498 m -1 Y 1 -1 d -1 Y 1 -1 d -1 Y 1 X -2 Y 1 X -1 Y 1 X -2 Y 1 X -1 Y 1 X -2 Y 1 X -1 Y s 1820 484 m -1 Y 1 X -1 Y 1 X -2 Y 1 X -2 Y 1 X -1 Y 1 X -1 Y 1 -1 d -1 Y 1 X -1 Y 1 -1 d -1 Y 1 X -1 Y s 1829 470 m -1 Y 1 X
 -1 Y 1 -1 d -1 Y 1 X -1 Y 1 X -2 Y 1 X -1 Y 1 -1 d 1 -1 d -1 Y 1 X -2 Y 1 X s 1838 457 m -1 Y 1 -1 d 1 -1 d -1 Y 1 X -2 Y 1 X -1 Y 1 -1 d -1 Y 1 -1 d -1 Y 1 X -2 Y 1 X -2 Y 1 X s 1847 442 m -1 Y 1 -1 d -1 Y 1 X -2 Y 1 X -1 Y 1 -1 d -1 Y 1 -1 d -1 Y
 1 X -2 Y 1 X -1 Y 1 X -2 Y 1 X s 1856 427 m -1 Y 1 -1 d -1 Y 1 -1 d -1 Y 1 X -2 Y 1 X -1 Y 1 -1 d -1 Y 1 -1 d -1 Y 1 X -2 Y 1 X -1 Y s 1864 412 m -1 Y 1 X -1 Y 1 -1 d -1 Y 1 -1 d -1 Y 1 X -2 Y 1 X -1 Y 1 -1 d -1 Y 1 -1 d -1 Y 1 X -2 Y 1 X -1 Y s
 1873 396 m 1 -1 d -1 Y 1 X -1 Y 1 -1 d -1 Y 1 X -2 Y 1 X -2 Y 1 X -1 Y 1 -1 d -1 Y 1 X -1 Y 1 X -1 Y s 1882 382 m -1 Y 1 -1 d -1 Y 1 X -2 Y 1 X -2 Y 1 X -1 Y 1 -1 d -1 Y 1 -1 d -1 Y 1 X -1 Y 1 -1 d -1 Y 1 X s 1891 367 m -1 Y 1 -1 d -1 Y 1 X -1 Y 1
 -1 d -1 Y 1 X -1 Y 1 -1 d -1 Y 1 X -1 Y 1 X -2 Y 1 X -2 Y 1 X s 1900 353 m -1 Y 1 -1 d -1 Y 1 X -1 Y 1 -1 d -1 Y 1 X -1 Y 1 X -2 Y 1 -1 d -1 Y 1 X -2 Y 1 X -1 Y s 1908 339 m -1 Y 1 X -1 Y 1 -1 d -1 Y 1 X -1 Y 1 X -1 Y 1 X -2 Y 1 X -2 Y 1 X -1 Y 1 -1
 d -1 Y 1 X -1 Y s 1917 325 m -1 Y 1 X -1 Y 1 X -2 Y 1 X -1 Y 1 X -1 Y 1 -1 d -1 Y 1 -1 d -1 Y 1 -1 d -1 Y 1 X -1 Y 1 -1 d s 1926 311 m -1 Y 1 X -2 Y 1 X -1 Y 1 X -1 Y 1 -1 d -1 Y 1 -1 d -1 Y 1 X -1 Y 1 -1 d -1 Y 1 X -1 Y 1 X -1 Y s 1935 297 m -1 Y 1
 X -1 Y 1 X -1 Y 1 X -1 Y 1 -1 d 1 -1 d -1 Y 1 X -1 Y 1 X -1 Y 1 X -1 Y 1 X s 1944 287 m -2 Y 1 X -1 Y 1 X -1 Y 1 X -1 Y 1 -1 d -1 Y 1 X -2 Y 1 X 1 -1 d -1 Y 1 X s 1952 276 m 1 X -1 Y 1 X -1 Y 1 X -2 Y 1 X -1 Y 1 X -1 Y 1 X -1 Y 1 X -1 Y 1 X -1 Y 1 X
 s 1961 267 m -1 Y 1 X -1 Y 2 X -1 Y 1 X -1 Y 1 X 1 -1 d 1 X -1 Y 1 X -1 Y 1 -1 d s 1970 259 m -1 Y 2 X -1 Y 1 X -1 Y 2 X -1 Y 1 X -1 Y 1 X 1 -1 d 1 X s 1979 253 m -1 Y 1 -1 d 1 X -1 Y 1 X -1 Y 1 X -1 Y 1 X -1 Y 1 X -2 Y 1 X -1 Y 1 X -1 Y 1 X s 1988
 243 m -1 Y 1 X -1 Y 1 -1 d 1 X -2 Y 1 X 1 -1 d -1 Y 2 X -2 Y 1 X s 1996 234 m -1 Y 1 X -1 Y 1 X -1 Y 1 -1 d -2 Y 2 X -1 Y 1 X -1 Y 1 X -1 Y 2 X s 2005 225 m -1 Y 2 X -1 Y 2 X -2 Y 1 X 1 -1 d -2 Y 1 X -1 Y 1 X -2 Y 1 X -1 Y s 2014 214 m 2 X -2 Y 2 X
 1 -1 d 1 X 1 -1 d 2 X s 2023 210 m -1 Y 3 X -1 Y 1 X -1 Y 3 X -1 Y 2 X s 2032 206 m 1 X -2 Y 7 X s 2040 204 m 1 X s black 3 lw 245 201 m 1796 X s 429 241 m -40 Y s 489 221 m -20 Y s 549 221 m -20 Y s 609 221 m -20 Y s 669 241 m -40 Y s 729 221 m -20
 Y s 789 221 m -20 Y s 850 221 m -20 Y s 910 241 m -40 Y s 970 221 m -20 Y s 1030 221 m -20 Y s 1090 221 m -20 Y s 1150 241 m -40 Y s 1210 221 m -20 Y s 1270 221 m -20 Y s 1330 221 m -20 Y s 1390 241 m -40 Y s 1450 221 m -20 Y s 1510 221 m -20 Y s
 1570 221 m -20 Y s 1630 241 m -40 Y s 1691 221 m -20 Y s 1751 221 m -20 Y s 1811 221 m -20 Y s 1871 241 m -40 Y s 429 241 m -40 Y s 369 221 m -20 Y s 309 221 m -20 Y s 249 221 m -20 Y s 1871 241 m -40 Y s 1931 221 m -20 Y s 1991 221 m -20 Y s 245
 201 m 1140 Y s 291 201 m -46 X s 268 253 m -23 X s 268 305 m -23 X s 268 357 m -23 X s 291 408 m -46 X s 268 460 m -23 X s 268 512 m -23 X s 268 564 m -23 X s 291 616 m -46 X s 268 667 m -23 X s 268 719 m -23 X s 268 771 m -23 X s 291 823 m -46 X s
 268 875 m -23 X s 268 926 m -23 X s 268 978 m -23 X s 291 1030 m -46 X s 268 1082 m -23 X s 268 1134 m -23 X s 268 1185 m -23 X s 291 1237 m -46 X s 291 1237 m -46 X s 268 1289 m -23 X s 268 1341 m -23 X s 0.490196 0.545098 0.615686 c 1 1 1 c
 0.490196 0.545098 0.615686 c 907 201 245 1341 bl 245 1341 m 907 X s 1152 1341 m 201 Y s 1152 1542 m -907 X s 245 1542 m -201 Y s black
 gsave  2268 1676 0 0 C 515.735 1471.36 t 0 r /Helvetica-Bold findfont 56.8825 sf 0 0 m (Signal efficiency) show NC gr  0 0 0.933333 c 9 lw 286 1492 m 190 X s black
 gsave  2268 1676 0 0 C 515.735 1368.97 t 0 r /Helvetica-Bold findfont 56.8825 sf 0 0 m (Background efficiency) show NC gr  1 0 0 c 286 1391 m 190 X s 0.490196 0.545098 0.615686 c 3 lw 1 1 1 c 0.490196 0.545098 0.615686 c 889 201 1152 1341 bl 1152
 1341 m 889 X s 2041 1341 m 201 Y s 2041 1542 m -889 X s 1152 1542 m -201 Y s black
 gsave  2268 1676 0 0 C 1418.27 1494.11 t 0 r /Helvetica-Bold findfont 56.8825 sf 0 0 m (Signal purity) show NC gr  0 0 0.933333 c[  52 12 ] 0 sd 6 lw 1192 1509 m 187 X s black
 gsave  2268 1676 0 0 C 1418.27 1429.65 t 0 r /Helvetica-Bold findfont 56.8825 sf 0 0 m (Signal efficiency*purity) show NC gr  0 0 0.933333 c[  22 12 ] 0 sd 1192 1441 m 187 X s black
 gsave  2268 1676 0 0 C 1501.7 1361.39 t 0 r /Helvetica-Bold findfont 56.8825 sf 0 0 m (S+B) show NC gr [  ] 0 sd 1483 1407 m 7 -49 d s 3 lw 1490 1358 m 8 64 d s 1498 1422 m 114 X s
 gsave  2268 1676 0 0 C 1418.27 1361.39 t 0 r /Helvetica-Bold findfont 56.8825 sf 0 0 m (S/) show NC gr  0 0.666667 0 c 9 lw 1192 1374 m 187 X s black 3 lw 245 1237 m 1796 X s
 gsave  2268 1676 0 0 C 337.503 386.801 t 0 r /Helvetica-Bold findfont 53.0904 sf 0 0 m (For 1000 signal and 1000 background) show NC gr 
 gsave  2268 1676 0 0 C 1058.01 318.542 t 0 r /Helvetica-Bold findfont 53.0904 sf 0 0 m ( is) show NC gr 
 gsave  2268 1676 0 0 C 955.626 318.542 t 0 r /Helvetica-Bold findfont 53.0904 sf 0 0 m (S+B) show NC gr  6 lw 933 360 m 7 -45 d s 3 lw 940 315 m 8 60 d s 948 375 m 110 X s
 gsave  2268 1676 0 0 C 337.503 318.542 t 0 r /Helvetica-Bold findfont 53.0904 sf 0 0 m (events the maximum S/) show NC gr 
 gsave  2268 1676 0 0 C 337.503 254.075 t 0 r /Helvetica-Bold findfont 53.0904 sf 0 0 m (25.89 when cutting at \2550.06) show NC gr  0.490196 0.545098 0.615686 c 0.364706 0.419608 0.490196 c 1471 96 23 1572 bf 0.490196 0.545098 0.615686 c 23 1572 m
 1471 X s 1494 1572 m 96 Y s 1494 1668 m -1471 X s 23 1668 m -96 Y s 1 1 1 c black 1 1 1 c
 gsave  2268 1676 0 0 C 75.8434 1600.29 t 0 r /Helvetica-Bold findfont 75.8434 sf 0 0 m (Cut efficiencies and optimal cut value) show NC gr  0 0.666667 0 c 2041 201 m 1140 Y s 1995 201 m 46 X s 2018 241 m 23 X s 2018 281 m 23 X s 2018 321 m 23 X s
 2018 361 m 23 X s 1995 401 m 46 X s 2018 441 m 23 X s 2018 481 m 23 X s 2018 521 m 23 X s 2018 561 m 23 X s 1995 601 m 46 X s 2018 641 m 23 X s 2018 681 m 23 X s 2018 721 m 23 X s 2018 761 m 23 X s 1995 801 m 46 X s 2018 841 m 23 X s 2018 881 m 23 X
 s 2018 921 m 23 X s 2018 961 m 23 X s 1995 1002 m 46 X s 2018 1042 m 23 X s 2018 1082 m 23 X s 2018 1122 m 23 X s 2018 1162 m 23 X s 1995 1202 m 46 X s 1995 1202 m 46 X s 2018 1242 m 23 X s 2018 1282 m 23 X s 2018 1322 m 23 X s black 0 0.666667 0 c
 gsave  2268 1676 0 0 C 2051.56 178.232 t 0 r /Helvetica-Bold findfont 64.4669 sf 0 0 m (0) show NC gr  black 0 0.666667 0 c
 gsave  2268 1676 0 0 C 2051.56 375.425 t 0 r /Helvetica-Bold findfont 64.4669 sf 0 0 m (5) show NC gr  black 0 0.666667 0 c
 gsave  2268 1676 0 0 C 2051.56 576.41 t 0 r /Helvetica-Bold findfont 64.4669 sf 0 0 m (10) show NC gr  black 0 0.666667 0 c
 gsave  2268 1676 0 0 C 2051.56 777.394 t 0 r /Helvetica-Bold findfont 64.4669 sf 0 0 m (15) show NC gr  black 0 0.666667 0 c
 gsave  2268 1676 0 0 C 2051.56 978.379 t 0 r /Helvetica-Bold findfont 64.4669 sf 0 0 m (20) show NC gr  black 0 0.666667 0 c
 gsave  2268 1676 0 0 C 2051.56 1175.57 t 0 r /Helvetica-Bold findfont 64.4669 sf 0 0 m (25) show NC gr  black 0 0.666667 0 c
 gsave  2268 1676 0 0 C 2203.25 963.211 t 90 r /Helvetica-Bold findfont 64.4669 sf 0 0 m (Significance) show NC gr 
 gr  gr showpage
end
%%EOF
