%!PS-Adobe-2.0 EPSF-2.0
%%BoundingBox:  0 0 567 419
%%Title: dataset/plots/overtrain_BDT.eps: TMVA comparison BDT
%%Creator: ROOT Version 6.14/04
%%CreationDate: Mon Mar  2 14:17:55 2020
%%DocumentNeededResources: ProcSet (FontSetInit)
%%EndComments
%%BeginProlog
80 dict begin
/s {stroke} def /l {lineto} def /m {moveto} def /t {translate} def
/r {rotate} def /rl {roll}  def /R {repeat} def
/d {rlineto} def /rm {rmoveto} def /gr {grestore} def /f {eofill} def
/c {setrgbcolor} def /black {0 setgray} def /sd {setdash} def
/cl {closepath} def /sf {scalefont setfont} def /lw {setlinewidth} def
/box {m dup 0 exch d exch 0 d 0 exch neg d cl} def
/NC{systemdict begin initclip end}def/C{NC box clip newpath}def
/bl {box s} def /bf {gsave box gsave f grestore 1 lw [] 0 sd s grestore} def /Y { 0 exch d} def /X { 0 d} def 
/K {{pop pop 0 moveto} exch kshow} bind def
/ita {/ang 15 def gsave [1 0 ang dup sin exch cos div 1 0 0] concat} def 
/mp {newpath /y exch def /x exch def} def
/side {[w .77 mul w .23 mul] .385 w mul sd w 0 l currentpoint t -144 r} def
/mr {mp x y w2 0 360 arc} def /m24 {mr s} def /m20 {mr f} def
/mb {mp x y w2 add m w2 neg 0 d 0 w neg d w 0 d 0 w d cl} def
/mt {mp x y w2 add m w2 neg w neg d w 0 d cl} def
/w4 {w 4 div} def
/w6 {w 6 div} def
/w8 {w 8 div} def
/m21 {mb f} def /m25 {mb s} def /m22 {mt f} def /m26{mt s} def
/m23 {mp x y w2 sub m w2 w d w neg 0 d cl f} def
/m27 {mp x y w2 add m w3 neg w2 neg d w3 w2 neg d w3 w2 d cl s} def
/m28 {mp x w2 sub y w2 sub w3 add m w3 0 d  0 w3 neg d w3 0 d 0 w3 d w3 0 d  0 w3 d w3 neg 0 d 0 w3 d w3 neg 0 d 0 w3 neg d w3 neg 0 d cl s } def
/m29 {mp gsave x w2 sub y w2 add w3 sub m currentpoint t 4 {side} repeat cl fill gr} def
/m30 {mp gsave x w2 sub y w2 add w3 sub m currentpoint t 4 {side} repeat cl s gr} def
/m31 {mp x y w2 sub m 0 w d x w2 sub y m w 0 d x w2 sub y w2 add m w w neg d x w2 sub y w2 sub m w w d s} def
/m32 {mp x y w2 sub m w2 w d w neg 0 d cl s} def
/m33 {mp x y w2 add m w3 neg w2 neg d w3 w2 neg d w3 w2 d cl f} def
/m34 {mp x w2 sub y w2 sub w3 add m w3 0 d  0 w3 neg d w3 0 d 0 w3 d w3 0 d  0 w3 d w3 neg 0 d 0 w3 d w3 neg 0 d 0 w3 neg d w3 neg 0 d cl f } def
/m35 {mp x y w2 add m w2 neg w2 neg d w2 w2 neg d w2 w2 d w2 neg w2 d x y w2 sub m 0 w d x w2 sub y m w 0 d s} def
/m36 {mb x w2 sub y w2 add m w w neg d x w2 sub y w2 sub m w w d s} def
/m37 {mp x y m w4 neg w2 d w4 neg w2 neg d w2 0 d  w4 neg w2 neg d w2 0 d w4 neg w2 d w2 0 d w4 neg w2 d w4 neg w2 neg d cl s} def
/m38 {mp x w4 sub y w2 add m w4 neg w4 neg d 0 w2 neg d w4 w4 neg d w2 0 d w4 w4 d 0 w2 d w4 neg w4 d w2 neg 0 d x y w2 sub m 0 w d x w2 sub y m w 0 d cl s} def
/m39 {mp x y m w4 neg w2 d w4 neg w2 neg d w2 0 d  w4 neg w2 neg d w2 0 d w4 neg w2 d w2 0 d w4 neg w2 d w4 neg w2 neg d cl f} def
/m40 {mp x y m w4 w2 d w4 w4 neg d w2 neg w4 neg d w2 w4 neg d w4 neg w4 neg d w4 neg w2 d w4 neg w2 neg d w4 neg w4 d w2 w4 d w2 neg w4 d w4 w4 d w4 w2 neg d cl s} def
/m41 {mp x y m w4 w2 d w4 w4 neg d w2 neg w4 neg d w2 w4 neg d w4 neg w4 neg d w4 neg w2 d w4 neg w2 neg d w4 neg w4 d w2 w4 d w2 neg w4 d w4 w4 d w4 w2 neg d cl f} def
/m42 {mp x y w2 add m w8 neg w2 -3 4 div mul d w2 -3 4 div mul w8 neg d w2 3 4 div mul w8 neg d w8 w2 -3 4 div mul d w8 w2 3 4 div mul d w2 3 4 div mul w8 d w2 -3 4 div mul w8 d w8 neg w2 3 4 div mul d cl s} def
/m43 {mp x y w2 add m w8 neg w2 -3 4 div mul d w2 -3 4 div mul w8 neg d w2 3 4 div mul w8 neg d w8 w2 -3 4 div mul d w8 w2 3 4 div mul d w2 3 4 div mul w8 d w2 -3 4 div mul w8 d w8 neg w2 3 4 div mul d cl f} def
/m44 {mp x y m w6 neg w2 d w2 2 3 div mul 0 d w6 neg w2 neg d w2 w6 d 0 w2 -2 3 div mul d w2 neg w6 d w6 w2 neg d w2 -2 3 div mul 0 d w6 w2 d w2 neg w6 neg d 0 w2 2 3 div mul d w2 w6 neg d cl s} def
/m45 {mp x y m w6 neg w2 d w2 2 3 div mul 0 d w6 neg w2 neg d w2 w6 d 0 w2 -2 3 div mul d w2 neg w6 d w6 w2 neg d w2 -2 3 div mul 0 d w6 w2 d w2 neg w6 neg d 0 w2 2 3 div mul d w2 w6 neg d cl f} def
/m46 {mp x y w4 add m w4 neg w4 d w4 neg w4 neg d  w4 w4 neg d w4 neg w4 neg d w4 w4 neg d w4 w4 d w4 w4 neg d w4 w4 d w4 neg w4 d w4 w4 d w4 neg w4 d w4 neg w4 neg d cl s} def
/m47 {mp x y w4 add m w4 neg w4 d w4 neg w4 neg d w4 w4 neg d w4 neg w4 neg d  w4 w4 neg d w4 w4 d w4 w4 neg d w4 w4 d w4 neg w4 d w4 w4 d w4 neg w4 d w4 neg w4 neg d cl f} def
/m48 {mp x y w4 add m w4 neg w4 d w4 neg w4 neg d w4 w4 neg d  w4 neg w4 neg d w4 w4 neg d w4 w4 d w4 w4 neg d w4 w4 d w4 neg w4 d w4 w4 d w4 neg w4 d w4 neg w4 neg d  w4 w4 neg d w4 neg w4 neg d w4 neg w4 d w4 w4 d cl f} def
/m49 {mp x w2 sub w3 add y w2 sub w3 add m  0 w3 neg d w3 0 d 0 w3 d w3 0 d 0 w3 d w3 neg 0 d 0 w3 d w3 neg 0 d 0 w3 neg d w3 neg 0 d 0 w3 neg d w3 0 d 0 w3 d w3 0 d 0 w3 neg d w3 neg 0 d cl f } def
/m2 {mp x y w2 sub m 0 w d x w2 sub y m w 0 d s} def
/m5 {mp x w2 sub y w2 sub m w w d x w2 sub y w2 add m w w neg d s} def
%%IncludeResource: ProcSet (FontSetInit)
%%IncludeResource: font Times-Roman
%%IncludeResource: font Times-Italic
%%IncludeResource: font Times-Bold
%%IncludeResource: font Times-BoldItalic
%%IncludeResource: font Helvetica
%%IncludeResource: font Helvetica-Oblique
%%IncludeResource: font Helvetica-Bold
%%IncludeResource: font Helvetica-BoldOblique
%%IncludeResource: font Courier
%%IncludeResource: font Courier-Oblique
%%IncludeResource: font Courier-Bold
%%IncludeResource: font Courier-BoldOblique
%%IncludeResource: font Symbol
%%IncludeResource: font ZapfDingbats
/reEncode {exch findfont dup length dict begin {1 index /FID eq  {pop pop} {def} ifelse } forall /Encoding exch def currentdict end dup /FontName get exch definefont pop } def [/Times-Bold /Times-Italic /Times-BoldItalic /Helvetica /Helvetica-Oblique
 /Helvetica-Bold /Helvetica-BoldOblique /Courier /Courier-Oblique /Courier-Bold /Courier-BoldOblique /Times-Roman /AvantGarde-Book /AvantGarde-BookOblique /AvantGarde-Demi /AvantGarde-DemiOblique /Bookman-Demi /Bookman-DemiItalic /Bookman-Light
 /Bookman-LightItalic /Helvetica-Narrow /Helvetica-Narrow-Bold /Helvetica-Narrow-BoldOblique /Helvetica-Narrow-Oblique /NewCenturySchlbk-Roman /NewCenturySchlbk-Bold /NewCenturySchlbk-BoldItalic /NewCenturySchlbk-Italic /Palatino-Bold
 /Palatino-BoldItalic /Palatino-Italic /Palatino-Roman ] {ISOLatin1Encoding reEncode } forall
%%EndProlog
%%BeginSetup
%%EndSetup
newpath  gsave  .25 .25 scale  gsave  0 0 t 0.490196 0.545098 0.615686 c[  ] 0 sd 3 lw 0.941176 0.941176 0.941176 c 2268 1676 0 0 bf black 1 1 0.992157 c 1916 1308 238 201 bf black 1916 1308 238 201 bl 1 1 0.992157 c 1916 1308 238 201 bf black 1916
 1308 238 201 bl 238 201 m 1916 X s 263 244 m -43 Y s 347 222 m -21 Y s 431 222 m -21 Y s 515 222 m -21 Y s 598 244 m -43 Y s 682 222 m -21 Y s 766 222 m -21 Y s 850 222 m -21 Y s 934 244 m -43 Y s 1018 222 m -21 Y s 1101 222 m -21 Y s 1185 222 m -21
 Y s 1269 244 m -43 Y s 1353 222 m -21 Y s 1437 222 m -21 Y s 1521 222 m -21 Y s 1604 244 m -43 Y s 1688 222 m -21 Y s 1772 222 m -21 Y s 1856 222 m -21 Y s 1940 244 m -43 Y s 263 244 m -43 Y s 1940 244 m -43 Y s 2024 222 m -21 Y s 2107 222 m -21 Y s
 gsave  2268 1676 0 0 C 231.322 128.934 t 0 r /Helvetica-Bold findfont 64.4669 sf 0 0 m (0.6) show NC gr 
 gsave  2268 1676 0 0 C 200.985 128.934 t 0 r /Symbol findfont 64.4669 sf 0 0 m (-) show NC gr 
 gsave  2268 1676 0 0 C 565.033 128.934 t 0 r /Helvetica-Bold findfont 64.4669 sf 0 0 m (0.4) show NC gr 
 gsave  2268 1676 0 0 C 530.904 128.934 t 0 r /Symbol findfont 64.4669 sf 0 0 m (-) show NC gr 
 gsave  2268 1676 0 0 C 902.536 128.934 t 0 r /Helvetica-Bold findfont 64.4669 sf 0 0 m (0.2) show NC gr 
 gsave  2268 1676 0 0 C 872.199 128.934 t 0 r /Symbol findfont 64.4669 sf 0 0 m (-) show NC gr 
 gsave  2268 1676 0 0 C 1247.62 128.934 t 0 r /Helvetica-Bold findfont 64.4669 sf 0 0 m (0) show NC gr 
 gsave  2268 1676 0 0 C 1558.58 128.934 t 0 r /Helvetica-Bold findfont 64.4669 sf 0 0 m (0.2) show NC gr 
 gsave  2268 1676 0 0 C 1892.29 128.934 t 0 r /Helvetica-Bold findfont 64.4669 sf 0 0 m (0.4) show NC gr 
 gsave  2268 1676 0 0 C 1664.76 34.1295 t 0 r /Helvetica-Bold findfont 72.0512 sf 0 0 m (BDT response) show NC gr  238 1509 m 1916 X s 263 1466 m 43 Y s 347 1487 m 22 Y s 431 1487 m 22 Y s 515 1487 m 22 Y s 598 1466 m 43 Y s 682 1487 m 22 Y s 766
 1487 m 22 Y s 850 1487 m 22 Y s 934 1466 m 43 Y s 1018 1487 m 22 Y s 1101 1487 m 22 Y s 1185 1487 m 22 Y s 1269 1466 m 43 Y s 1353 1487 m 22 Y s 1437 1487 m 22 Y s 1521 1487 m 22 Y s 1604 1466 m 43 Y s 1688 1487 m 22 Y s 1772 1487 m 22 Y s 1856 1487
 m 22 Y s 1940 1466 m 43 Y s 263 1466 m 43 Y s 1940 1466 m 43 Y s 2024 1487 m 22 Y s 2107 1487 m 22 Y s 238 201 m 1308 Y s 291 201 m -53 X s 265 238 m -27 X s 265 274 m -27 X s 265 311 m -27 X s 265 347 m -27 X s 291 384 m -53 X s 265 421 m -27 X s
 265 457 m -27 X s 265 494 m -27 X s 265 530 m -27 X s 291 567 m -53 X s 265 604 m -27 X s 265 640 m -27 X s 265 677 m -27 X s 265 713 m -27 X s 291 750 m -53 X s 265 787 m -27 X s 265 823 m -27 X s 265 860 m -27 X s 265 896 m -27 X s 291 933 m -53 X
 s 265 969 m -27 X s 265 1006 m -27 X s 265 1043 m -27 X s 265 1079 m -27 X s 291 1116 m -53 X s 265 1152 m -27 X s 265 1189 m -27 X s 265 1226 m -27 X s 265 1262 m -27 X s 291 1299 m -53 X s 265 1335 m -27 X s 265 1372 m -27 X s 265 1408 m -27 X s
 265 1445 m -27 X s 291 1482 m -53 X s 291 1482 m -53 X s
 gsave  2268 1676 0 0 C 174.44 178.232 t 0 r /Helvetica-Bold findfont 64.4669 sf 0 0 m (0) show NC gr 
 gsave  2268 1676 0 0 C 121.349 360.256 t 0 r /Helvetica-Bold findfont 64.4669 sf 0 0 m (0.5) show NC gr 
 gsave  2268 1676 0 0 C 182.024 542.28 t 0 r /Helvetica-Bold findfont 64.4669 sf 0 0 m (1) show NC gr 
 gsave  2268 1676 0 0 C 121.349 724.304 t 0 r /Helvetica-Bold findfont 64.4669 sf 0 0 m (1.5) show NC gr 
 gsave  2268 1676 0 0 C 174.44 906.328 t 0 r /Helvetica-Bold findfont 64.4669 sf 0 0 m (2) show NC gr 
 gsave  2268 1676 0 0 C 121.349 1092.14 t 0 r /Helvetica-Bold findfont 64.4669 sf 0 0 m (2.5) show NC gr 
 gsave  2268 1676 0 0 C 174.44 1274.17 t 0 r /Helvetica-Bold findfont 64.4669 sf 0 0 m (3) show NC gr 
 gsave  2268 1676 0 0 C 121.349 1456.19 t 0 r /Helvetica-Bold findfont 64.4669 sf 0 0 m (3.5) show NC gr 
 gsave  2268 1676 0 0 C 64.4669 1425.86 t 90 r /Helvetica-Bold findfont 72.0512 sf 0 0 m (dx) show NC gr 
 gsave  2268 1676 0 0 C 30.3373 1406.89 t 90 r /Helvetica-Bold findfont 45.506 sf 0 0 m ( ) show NC gr 
 gsave  2268 1676 0 0 C 64.4669 1384.14 t 90 r /Helvetica-Bold findfont 72.0512 sf 0 0 m (/) show NC gr 
 gsave  2268 1676 0 0 C 30.3373 1365.18 t 90 r /Helvetica-Bold findfont 45.506 sf 0 0 m ( ) show NC gr 
 gsave  2268 1676 0 0 C 60.6747 1092.14 t 90 r /Helvetica-Bold findfont 72.0512 sf 0 0 m (\(1/N\) dN) show NC gr  2154 201 m 1308 Y s 2101 201 m 53 X s 2128 238 m 26 X s 2128 274 m 26 X s 2128 311 m 26 X s 2128 347 m 26 X s 2101 384 m 53 X s 2128 421
 m 26 X s 2128 457 m 26 X s 2128 494 m 26 X s 2128 530 m 26 X s 2101 567 m 53 X s 2128 604 m 26 X s 2128 640 m 26 X s 2128 677 m 26 X s 2128 713 m 26 X s 2101 750 m 53 X s 2128 787 m 26 X s 2128 823 m 26 X s 2128 860 m 26 X s 2128 896 m 26 X s 2101
 933 m 53 X s 2128 969 m 26 X s 2128 1006 m 26 X s 2128 1043 m 26 X s 2128 1079 m 26 X s 2101 1116 m 53 X s 2128 1152 m 26 X s 2128 1189 m 26 X s 2128 1226 m 26 X s 2128 1262 m 26 X s 2101 1299 m 53 X s 2128 1335 m 26 X s 2128 1372 m 26 X s 2128 1408
 m 26 X s 2128 1445 m 26 X s 2101 1482 m 53 X s 2101 1482 m 53 X s 0.490196 0.545098 0.615686 c 1 1 1 c 0.490196 0.545098 0.615686 c 907 202 238 1307 bl 238 1307 m 907 X s 1145 1307 m 202 Y s 1145 1509 m -907 X s 238 1509 m -202 Y s black
 gsave  2268 1676 0 0 C 417.138 1437.23 t 0 r /Helvetica-Bold findfont 56.8825 sf 0 0 m (Signal \(test sample\)) show NC gr  0.49 0.6 0.82 c 265 1423 m 127 X 70 Y -127 X f 0 0 0.933333 c 265 1493 m 127 X s 265 1423 m 127 X s 392 1423 m 70 Y s 265
 1423 m 70 Y s black
 gsave  2268 1676 0 0 C 417.138 1338.64 t 0 r /Helvetica-Bold findfont 56.8825 sf 0 0 m (Background \(test sample\)) show NC gr  1 0 0 c 392 1354 m -32 -32 d s 383 1393 m -71 -71 d s 335 1393 m -70 -69 d s 286 1393 m -21 -21 d s 0 0 0.933333 c 1 0 0
 c 265 1393 m 127 X s 265 1322 m 127 X s 392 1322 m 71 Y s 265 1322 m 71 Y s 0 0 0.933333 c 0.49 0.6 0.82 c black 0.49 0.6 0.82 c 238 201 m 192 X 1 Y 48 X 3 Y 48 X -1 Y 47 X 8 Y 48 X 8 Y 48 X 2 Y 48 X 12 Y 48 X 23 Y 48 X 26 Y 48 X 41 Y 48 X 19 Y 48 X
 65 Y 48 X 25 Y 48 X 107 Y 47 X 34 Y 48 X 89 Y 48 X 48 Y 48 X 47 Y 48 X 98 Y 48 X 103 Y 48 X 118 Y 48 X -16 Y 48 X 92 Y 48 X 54 Y 47 X -154 Y 48 X -61 Y 48 X -110 Y 48 X -83 Y 48 X -145 Y 48 X -105 Y 48 X -69 Y 48 X -63 Y 48 X -62 Y 48 X -46 Y 48 X
 -69 Y 47 X -28 Y 48 X -11 Y f 0 0 0.933333 c 0.49 0.6 0.82 c 0 0 0.933333 c 238 201 m 192 X 1 Y 48 X 3 Y 48 X -1 Y 47 X 8 Y 48 X 8 Y 48 X 2 Y 48 X 12 Y 48 X 23 Y 48 X 26 Y 48 X 41 Y 48 X 19 Y 48 X 65 Y 48 X 25 Y 48 X 107 Y 47 X 34 Y 48 X 89 Y 48 X
 48 Y 48 X 47 Y 48 X 98 Y 48 X 103 Y 48 X 118 Y 48 X -16 Y 48 X 92 Y 48 X 54 Y 47 X -154 Y 48 X -61 Y 48 X -110 Y 48 X -83 Y 48 X -145 Y 48 X -105 Y 48 X -69 Y 48 X -63 Y 48 X -62 Y 48 X -46 Y 48 X -69 Y 47 X -28 Y 48 X -11 Y s 1 0 0 c black 1 0 0 c
 2125 201 m s 2078 202 m -1 -1 d s 2030 202 m -1 -1 d s 1982 202 m -1 -1 d s 1935 204 m -2 -3 d s 1890 206 m -5 -5 d s 1847 211 m -10 -10 d s 1802 215 m -13 -14 d s 1765 226 m -24 -25 d s 1723 232 m -31 -31 d s 1689 246 m -45 -45 d s 1658 263 m -62
 -62 d s 1627 280 m -79 -79 d s 1605 306 m -105 -105 d s 1579 329 m -127 -128 d s 1554 351 m -150 -150 d s 1532 377 m -176 -176 d s 1525 419 m -217 -218 d s 1484 425 m -225 -224 d s 1484 473 m -273 -272 d s 1438 476 m -275 -275 d s 1436 522 m -321
 -321 d s 1405 539 m -338 -338 d s 1388 570 m -369 -369 d s 1369 600 m -398 -399 d s 1340 618 m -417 -417 d s 1340 666 m -465 -465 d s 1299 673 m -472 -472 d s 1292 715 m -514 -514 d s 1279 750 m -549 -549 d s 1244 763 m -562 -562 d s 1204 771 m -570
 -570 d s 1196 811 m -610 -610 d s 1196 859 m -658 -658 d s 1166 877 m -676 -676 d s 1148 908 m -706 -707 d s 1143 951 m -749 -750 d s 1100 956 m -622 -623 d s 458 314 m -28 -29 d s 397 253 m -15 -15 d s 366 222 m -21 -21 d s 1100 1004 m -527 -527 d
 s 568 472 m -42 -43 d s 501 405 m -23 -24 d s 300 204 m -3 -3 d s 1066 1018 m -445 -445 d s 613 565 m -40 -40 d s 250 202 m -1 -1 d s 1037 1037 m -368 -368 d s 633 633 m -12 -12 d s 997 1045 m -232 -232 d s 762 810 m -45 -45 d s 680 728 m -11 -11 d
 s 922 1018 m -61 -61 d s 857 953 m -44 -44 d s 776 873 m -11 -12 d s 866 1010 m -5 -5 d s 238 202 m 48 X 2 Y 48 X 18 Y 48 X 31 Y 48 X 61 Y 48 X 91 Y 48 X 67 Y 47 X 93 Y 48 X 68 Y 48 X 95 Y 48 X 82 Y 48 X 63 Y 48 X 80 Y 48 X 57 Y 48 X 8 Y 48 X 27 Y
 48 X -8 Y 48 X -19 Y 47 X -67 Y 48 X -74 Y 48 X -106 Y 48 X -21 Y 48 X -77 Y 48 X -73 Y 48 X -61 Y 48 X -63 Y 48 X -57 Y 48 X -68 Y 47 X -45 Y 48 X -43 Y 48 X -17 Y 48 X -20 Y 48 X -11 Y 48 X -4 Y 48 X -5 Y 48 X -2 Y 48 X -2 Y 143 X -1 Y 48 X s
 0.490196 0.545098 0.615686 c 1 1 1 c 0.490196 0.545098 0.615686 c 952 202 1202 1307 bl 1202 1307 m 952 X s 2154 1307 m 202 Y s 2154 1509 m -952 X s 1202 1509 m -202 Y s black
 gsave  2268 1676 0 0 C 1296.92 1437.23 t 0 r /Helvetica-Bold findfont 56.8825 sf 0 0 m (Signal \(training sample\)) show NC gr  0 0 0.933333 c /w 21 def /w2 {w 2 div} def /w3 {w 3 div} def 1250 1458 m20 black
 gsave  2268 1676 0 0 C 1296.92 1338.64 t 0 r /Helvetica-Bold findfont 56.8825 sf 0 0 m (Background \(training sample\)) show NC gr  1 0 0 c 1250 1358 m20 0 0 0.933333 c 1 1 1 c 0 0 0.933333 c 382 202 m 16 X s 413 202 m 17 X s 382 194 m 15 Y s 430
 194 m 15 Y s 406 202 m20 478 202 m 16 X s 509 202 m 17 X s 478 195 m 15 Y s 526 195 m 15 Y s 502 202 m20 526 204 m 16 X s 557 204 m 16 X s 526 196 m 15 Y s 573 196 m 15 Y s 549 204 m20 573 208 m 17 X s 605 208 m 16 X s 573 201 m 15 Y s 621 201 m 15
 Y s 597 208 m20 621 214 m 17 X s 653 214 m 16 X s 621 207 m 15 Y s 669 207 m 15 Y s 645 214 m20 669 219 m 17 X s 701 219 m 16 X s 669 211 m 15 Y s 717 211 m 15 Y s 693 219 m20 717 228 m 17 X s 749 228 m 16 X s 717 221 m 15 Y s 765 221 m 15 Y s 741
 228 m20 765 247 m 16 X s 797 247 m 16 X s 765 239 m 15 Y s 813 239 m 15 Y s 789 247 m20 813 266 m 16 X s 845 266 m 16 X s 813 259 m 15 Y s 861 259 m 15 Y s 837 266 m20 861 285 m 16 X s 892 285 m 17 X s 861 277 m 15 Y s 909 277 m 15 Y s 885 285 m20
 933 323 m 1 Y s 933 339 m 1 Y s 909 331 m 16 X s 940 331 m 17 X s 925 323 m 15 X s 925 340 m 15 X s 909 324 m 15 Y s 957 324 m 15 Y s 933 331 m20 981 367 m 3 Y s 981 385 m 3 Y s 957 378 m 16 X s 988 378 m 17 X s 973 367 m 15 X s 973 388 m 15 X s 957
 370 m 15 Y s 1005 370 m 15 Y s 981 378 m20 1029 427 m 5 Y s 1029 447 m 4 Y s 1005 439 m 16 X s 1036 439 m 17 X s 1021 427 m 15 X s 1021 451 m 15 X s 1005 432 m 15 Y s 1053 432 m 15 Y s 1029 439 m20 1076 501 m 7 Y s 1076 523 m 6 Y s 1053 515 m 16 X s
 1084 515 m 16 X s 1069 501 m 15 X s 1069 529 m 15 X s 1053 508 m 15 Y s 1100 508 m 15 Y s 1076 515 m20 1124 595 m 8 Y s 1124 618 m 8 Y s 1100 610 m 17 X s 1132 610 m 16 X s 1117 595 m 15 X s 1117 626 m 15 X s 1100 603 m 15 Y s 1148 603 m 15 Y s 1124
 610 m20 1172 628 m 9 Y s 1172 652 m 8 Y s 1148 644 m 17 X s 1180 644 m 16 X s 1165 628 m 15 X s 1165 660 m 15 X s 1148 637 m 15 Y s 1196 637 m 15 Y s 1172 644 m20 1220 703 m 9 Y s 1220 728 m 10 Y s 1196 720 m 17 X s 1228 720 m 16 X s 1213 703 m 15 X
 s 1213 738 m 15 X s 1196 712 m 16 Y s 1244 712 m 16 Y s 1220 720 m20 1268 739 m 11 Y s 1268 765 m 11 Y s 1244 757 m 16 X s 1276 757 m 16 X s 1260 739 m 16 X s 1260 776 m 16 X s 1244 750 m 15 Y s 1292 750 m 15 Y s 1268 757 m20 1316 876 m 13 Y s 1316
 904 m 13 Y s 1292 897 m 16 X s 1324 897 m 16 X s 1308 876 m 16 X s 1308 917 m 16 X s 1292 889 m 15 Y s 1340 889 m 15 Y s 1316 897 m20 1364 978 m 14 Y s 1364 1007 m 14 Y s 1340 1000 m 16 X s 1371 1000 m 17 X s 1356 978 m 15 X s 1356 1021 m 15 X s
 1340 992 m 15 Y s 1388 992 m 15 Y s 1364 1000 m20 1412 1042 m 15 Y s 1412 1072 m 15 Y s 1388 1064 m 16 X s 1419 1064 m 17 X s 1404 1042 m 15 X s 1404 1087 m 15 X s 1388 1057 m 15 Y s 1436 1057 m 15 Y s 1412 1064 m20 1460 1075 m 15 Y s 1460 1106 m 15
 Y s 1436 1098 m 16 X s 1467 1098 m 17 X s 1452 1075 m 15 X s 1452 1121 m 15 X s 1436 1090 m 16 Y s 1484 1090 m 16 Y s 1460 1098 m20 1508 1165 m 17 Y s 1508 1197 m 16 Y s 1484 1189 m 16 X s 1515 1189 m 17 X s 1500 1165 m 15 X s 1500 1213 m 15 X s
 1484 1182 m 15 Y s 1532 1182 m 15 Y s 1508 1189 m20 1556 1118 m 16 Y s 1556 1149 m 16 Y s 1532 1142 m 16 X s 1563 1142 m 16 X s 1548 1118 m 15 X s 1548 1165 m 15 X s 1532 1134 m 15 Y s 1579 1134 m 15 Y s 1556 1142 m20 1603 1063 m 15 Y s 1603 1093 m
 15 Y s 1579 1086 m 17 X s 1611 1086 m 16 X s 1596 1063 m 15 X s 1596 1108 m 15 X s 1579 1078 m 15 Y s 1627 1078 m 15 Y s 1603 1086 m20 1651 974 m 15 Y s 1651 1004 m 14 Y s 1627 996 m 17 X s 1659 996 m 16 X s 1644 974 m 15 X s 1644 1018 m 15 X s 1627
 989 m 15 Y s 1675 989 m 15 Y s 1651 996 m20 1699 858 m 12 Y s 1699 885 m 13 Y s 1675 878 m 17 X s 1707 878 m 16 X s 1692 858 m 15 X s 1692 898 m 15 X s 1675 870 m 15 Y s 1723 870 m 15 Y s 1699 878 m20 1747 739 m 10 Y s 1747 764 m 11 Y s 1723 757 m
 17 X s 1755 757 m 16 X s 1740 739 m 15 X s 1740 775 m 15 X s 1723 749 m 15 Y s 1771 749 m 15 Y s 1747 757 m20 1795 659 m 9 Y s 1795 683 m 9 Y s 1771 676 m 16 X s 1803 676 m 16 X s 1787 659 m 16 X s 1787 692 m 16 X s 1771 668 m 15 Y s 1819 668 m 15 Y
 s 1795 676 m20 1843 565 m 7 Y s 1843 587 m 8 Y s 1819 580 m 16 X s 1851 580 m 16 X s 1835 565 m 16 X s 1835 595 m 16 X s 1819 572 m 15 Y s 1867 572 m 15 Y s 1843 580 m20 1891 467 m 6 Y s 1891 488 m 5 Y s 1867 480 m 16 X s 1898 480 m 17 X s 1883 467
 m 15 X s 1883 493 m 15 X s 1867 473 m 15 Y s 1915 473 m 15 Y s 1891 480 m20 1939 410 m 4 Y s 1939 429 m 4 Y s 1915 422 m 16 X s 1946 422 m 17 X s 1931 410 m 15 X s 1931 433 m 15 X s 1915 414 m 15 Y s 1963 414 m 15 Y s 1939 422 m20 1987 350 m 2 Y s
 1987 367 m 3 Y s 1963 360 m 16 X s 1994 360 m 17 X s 1979 350 m 15 X s 1979 370 m 15 X s 1963 352 m 15 Y s 2011 352 m 15 Y s 1987 360 m20 2035 294 m s 2035 309 m s 2011 301 m 16 X s 2042 301 m 17 X s 2027 294 m 15 X s 2027 309 m 15 X s 2011 294 m 15
 Y s 2059 294 m 15 Y s 2035 301 m20 2059 241 m 16 X s 2090 241 m 16 X s 2059 234 m 15 Y s 2106 234 m 15 Y s 2082 241 m20 2106 210 m 17 X s 2138 210 m 16 X s 2106 202 m 16 Y s 2154 202 m 16 Y s 2130 210 m20 1 0 0 c 1 1 1 c 1 0 0 c 238 202 m 16 X s 270
 202 m 16 X s 238 194 m 15 Y s 286 194 m 15 Y s 262 202 m20 286 207 m 16 X s 318 207 m 16 X s 286 199 m 16 Y s 334 199 m 16 Y s 310 207 m20 334 219 m 16 X s 365 219 m 17 X s 334 211 m 15 Y s 382 211 m 15 Y s 358 219 m20 382 251 m 16 X s 413 251 m 17
 X s 382 244 m 15 Y s 430 244 m 15 Y s 406 251 m20 430 316 m 16 X s 461 316 m 17 X s 430 308 m 16 Y s 478 308 m 16 Y s 454 316 m20 478 390 m 16 X s 509 390 m 17 X s 478 382 m 15 Y s 526 382 m 15 Y s 502 390 m20 526 489 m 16 X s 557 489 m 16 X s 526
 482 m 15 Y s 573 482 m 15 Y s 549 489 m20 597 549 m s 597 564 m 1 Y s 573 557 m 17 X s 605 557 m 16 X s 590 549 m 15 X s 590 565 m 15 X s 573 549 m 15 Y s 621 549 m 15 Y s 597 557 m20 645 631 m 2 Y s 645 648 m 1 Y s 621 640 m 17 X s 653 640 m 16 X s
 638 631 m 15 X s 638 649 m 15 X s 621 633 m 15 Y s 669 633 m 15 Y s 645 640 m20 693 730 m 2 Y s 693 747 m 3 Y s 669 740 m 17 X s 701 740 m 16 X s 686 730 m 15 X s 686 750 m 15 X s 669 732 m 15 Y s 717 732 m 15 Y s 693 740 m20 741 795 m 3 Y s 741 813
 m 3 Y s 717 805 m 17 X s 749 805 m 16 X s 734 795 m 15 X s 734 816 m 15 X s 717 798 m 15 Y s 765 798 m 15 Y s 741 805 m20 789 881 m 4 Y s 789 900 m 4 Y s 765 893 m 16 X s 797 893 m 16 X s 781 881 m 16 X s 781 904 m 16 X s 765 885 m 15 Y s 813 885 m
 15 Y s 789 893 m20 837 951 m 4 Y s 837 971 m 4 Y s 813 963 m 16 X s 845 963 m 16 X s 829 951 m 16 X s 829 975 m 16 X s 813 955 m 16 Y s 861 955 m 16 Y s 837 963 m20 885 1007 m 5 Y s 885 1027 m 5 Y s 861 1019 m 16 X s 892 1019 m 17 X s 877 1007 m 15
 X s 877 1032 m 15 X s 861 1012 m 15 Y s 909 1012 m 15 Y s 885 1019 m20 933 988 m 5 Y s 933 1008 m 5 Y s 909 1000 m 16 X s 940 1000 m 17 X s 925 988 m 15 X s 925 1013 m 15 X s 909 993 m 15 Y s 957 993 m 15 Y s 933 1000 m20 981 1055 m 5 Y s 981 1075 m
 6 Y s 957 1068 m 16 X s 988 1068 m 17 X s 973 1055 m 15 X s 973 1081 m 15 X s 957 1060 m 15 Y s 1005 1060 m 15 Y s 981 1068 m20 1029 1056 m 6 Y s 1029 1077 m 5 Y s 1005 1069 m 16 X s 1036 1069 m 17 X s 1021 1056 m 15 X s 1021 1082 m 15 X s 1005 1062
 m 15 Y s 1053 1062 m 15 Y s 1029 1069 m20 1076 988 m 5 Y s 1076 1008 m 5 Y s 1053 1001 m 16 X s 1084 1001 m 16 X s 1069 988 m 15 X s 1069 1013 m 15 X s 1053 993 m 15 Y s 1100 993 m 15 Y s 1076 1001 m20 1124 938 m 4 Y s 1124 957 m 4 Y s 1100 949 m 17
 X s 1132 949 m 16 X s 1117 938 m 15 X s 1117 961 m 15 X s 1100 942 m 15 Y s 1148 942 m 15 Y s 1124 949 m20 1172 875 m 4 Y s 1172 894 m 4 Y s 1148 887 m 17 X s 1180 887 m 16 X s 1165 875 m 15 X s 1165 898 m 15 X s 1148 879 m 15 Y s 1196 879 m 15 Y s
 1172 887 m20 1220 798 m 3 Y s 1220 816 m 3 Y s 1196 808 m 17 X s 1228 808 m 16 X s 1213 798 m 15 X s 1213 819 m 15 X s 1196 801 m 15 Y s 1244 801 m 15 Y s 1220 808 m20 1268 717 m 2 Y s 1268 734 m 3 Y s 1244 727 m 16 X s 1276 727 m 16 X s 1260 717 m
 16 X s 1260 737 m 16 X s 1244 719 m 15 Y s 1292 719 m 15 Y s 1268 727 m20 1316 651 m 2 Y s 1316 668 m 2 Y s 1292 660 m 16 X s 1324 660 m 16 X s 1308 651 m 16 X s 1308 670 m 16 X s 1292 653 m 15 Y s 1340 653 m 15 Y s 1316 660 m20 1364 598 m 1 Y s
 1364 614 m 1 Y s 1340 606 m 16 X s 1371 606 m 17 X s 1356 598 m 15 X s 1356 615 m 15 X s 1340 599 m 15 Y s 1388 599 m 15 Y s 1364 606 m20 1412 512 m s 1412 527 m s 1388 519 m 16 X s 1419 519 m 17 X s 1404 512 m 15 X s 1404 527 m 15 X s 1388 512 m 15
 Y s 1436 512 m 15 Y s 1412 519 m20 1436 465 m 16 X s 1467 465 m 17 X s 1436 458 m 15 Y s 1484 458 m 15 Y s 1460 465 m20 1484 398 m 16 X s 1515 398 m 17 X s 1484 390 m 15 Y s 1532 390 m 15 Y s 1508 398 m20 1532 336 m 16 X s 1563 336 m 16 X s 1532 329
 m 15 Y s 1579 329 m 15 Y s 1556 336 m20 1579 298 m 17 X s 1611 298 m 16 X s 1579 290 m 16 Y s 1627 290 m 16 Y s 1603 298 m20 1627 263 m 17 X s 1659 263 m 16 X s 1627 255 m 15 Y s 1675 255 m 15 Y s 1651 263 m20 1675 239 m 17 X s 1707 239 m 16 X s
 1675 231 m 15 Y s 1723 231 m 15 Y s 1699 239 m20 1723 227 m 17 X s 1755 227 m 16 X s 1723 219 m 15 Y s 1771 219 m 15 Y s 1747 227 m20 1771 216 m 16 X s 1803 216 m 16 X s 1771 209 m 15 Y s 1819 209 m 15 Y s 1795 216 m20 1819 209 m 16 X s 1851 209 m
 16 X s 1819 201 m 15 Y s 1867 201 m 15 Y s 1843 209 m20 1867 205 m 16 X s 1898 205 m 17 X s 1867 198 m 15 Y s 1915 198 m 15 Y s 1891 205 m20 1915 203 m 16 X s 1946 203 m 17 X s 1915 195 m 15 Y s 1963 195 m 15 Y s 1939 203 m20 1963 202 m 16 X s 1994
 202 m 17 X s 1963 195 m 15 Y s 2011 195 m 15 Y s 1987 202 m20 black
 gsave  2268 1676 0 0 C 272.126 1240.34 t 0 r /Helvetica-Bold findfont 49.2982 sf 0 0 m (Kolmogorov\255Smirnov test: signal \(background\) probability = 0.002 \(    0\)) show NC gr  238 201 m 1916 X s 263 244 m -43 Y s 347 222 m -21 Y s 431 222 m -21
 Y s 515 222 m -21 Y s 598 244 m -43 Y s 682 222 m -21 Y s 766 222 m -21 Y s 850 222 m -21 Y s 934 244 m -43 Y s 1018 222 m -21 Y s 1101 222 m -21 Y s 1185 222 m -21 Y s 1269 244 m -43 Y s 1353 222 m -21 Y s 1437 222 m -21 Y s 1521 222 m -21 Y s 1604
 244 m -43 Y s 1688 222 m -21 Y s 1772 222 m -21 Y s 1856 222 m -21 Y s 1940 244 m -43 Y s 263 244 m -43 Y s 1940 244 m -43 Y s 2024 222 m -21 Y s 2107 222 m -21 Y s 238 1509 m 1916 X s 263 1466 m 43 Y s 347 1487 m 22 Y s 431 1487 m 22 Y s 515 1487 m
 22 Y s 598 1466 m 43 Y s 682 1487 m 22 Y s 766 1487 m 22 Y s 850 1487 m 22 Y s 934 1466 m 43 Y s 1018 1487 m 22 Y s 1101 1487 m 22 Y s 1185 1487 m 22 Y s 1269 1466 m 43 Y s 1353 1487 m 22 Y s 1437 1487 m 22 Y s 1521 1487 m 22 Y s 1604 1466 m 43 Y s
 1688 1487 m 22 Y s 1772 1487 m 22 Y s 1856 1487 m 22 Y s 1940 1466 m 43 Y s 263 1466 m 43 Y s 1940 1466 m 43 Y s 2024 1487 m 22 Y s 2107 1487 m 22 Y s 238 201 m 1308 Y s 291 201 m -53 X s 265 238 m -27 X s 265 274 m -27 X s 265 311 m -27 X s 265 347
 m -27 X s 291 384 m -53 X s 265 421 m -27 X s 265 457 m -27 X s 265 494 m -27 X s 265 530 m -27 X s 291 567 m -53 X s 265 604 m -27 X s 265 640 m -27 X s 265 677 m -27 X s 265 713 m -27 X s 291 750 m -53 X s 265 787 m -27 X s 265 823 m -27 X s 265
 860 m -27 X s 265 896 m -27 X s 291 933 m -53 X s 265 969 m -27 X s 265 1006 m -27 X s 265 1043 m -27 X s 265 1079 m -27 X s 291 1116 m -53 X s 265 1152 m -27 X s 265 1189 m -27 X s 265 1226 m -27 X s 265 1262 m -27 X s 291 1299 m -53 X s 265 1335 m
 -27 X s 265 1372 m -27 X s 265 1408 m -27 X s 265 1445 m -27 X s 291 1482 m -53 X s 291 1482 m -53 X s 2154 201 m 1308 Y s 2101 201 m 53 X s 2128 238 m 26 X s 2128 274 m 26 X s 2128 311 m 26 X s 2128 347 m 26 X s 2101 384 m 53 X s 2128 421 m 26 X s
 2128 457 m 26 X s 2128 494 m 26 X s 2128 530 m 26 X s 2101 567 m 53 X s 2128 604 m 26 X s 2128 640 m 26 X s 2128 677 m 26 X s 2128 713 m 26 X s 2101 750 m 53 X s 2128 787 m 26 X s 2128 823 m 26 X s 2128 860 m 26 X s 2128 896 m 26 X s 2101 933 m 53 X
 s 2128 969 m 26 X s 2128 1006 m 26 X s 2128 1043 m 26 X s 2128 1079 m 26 X s 2101 1116 m 53 X s 2128 1152 m 26 X s 2128 1189 m 26 X s 2128 1226 m 26 X s 2128 1262 m 26 X s 2101 1299 m 53 X s 2128 1335 m 26 X s 2128 1372 m 26 X s 2128 1408 m 26 X s
 2128 1445 m 26 X s 2101 1482 m 53 X s 2101 1482 m 53 X s
 gsave  2268 1676 0 0 C 2211.02 192.756 t 90 r /Helvetica-Bold findfont 45.506 sf 0 0 m (U/O\255flow \(S,B\): \(0.0, 0.0\)% / \(0.0, 0.0\)%) show NC gr  0.490196 0.545098 0.615686 c 0.364706 0.419608 0.490196 c 1587 96 23 1572 bf 0.490196 0.545098
 0.615686 c 23 1572 m 1587 X s 1610 1572 m 96 Y s 1610 1668 m -1587 X s 23 1668 m -96 Y s 1 1 1 c black 1 1 1 c
 gsave  2268 1676 0 0 C 102.389 1600.29 t 0 r /Helvetica-Bold findfont 68.259 sf 0 0 m (TMVA overtraining check for classifier: BDT) show NC gr 
 gr  gr showpage
end
%%EOF
