%!PS-Adobe-2.0 EPSF-2.0
%%BoundingBox:  0 0 567 294
%%Title: dataset/plots/variables_id_c2.eps: Input variables (training sample)
%%Creator: ROOT Version 6.14/04
%%CreationDate: Mon Mar  2 12:21:40 2020
%%DocumentNeededResources: ProcSet (FontSetInit)
%%EndComments
%%BeginProlog
80 dict begin
/s {stroke} def /l {lineto} def /m {moveto} def /t {translate} def
/r {rotate} def /rl {roll}  def /R {repeat} def
/d {rlineto} def /rm {rmoveto} def /gr {grestore} def /f {eofill} def
/c {setrgbcolor} def /black {0 setgray} def /sd {setdash} def
/cl {closepath} def /sf {scalefont setfont} def /lw {setlinewidth} def
/box {m dup 0 exch d exch 0 d 0 exch neg d cl} def
/NC{systemdict begin initclip end}def/C{NC box clip newpath}def
/bl {box s} def /bf {gsave box gsave f grestore 1 lw [] 0 sd s grestore} def /Y { 0 exch d} def /X { 0 d} def 
/K {{pop pop 0 moveto} exch kshow} bind def
/ita {/ang 15 def gsave [1 0 ang dup sin exch cos div 1 0 0] concat} def 
/mp {newpath /y exch def /x exch def} def
/side {[w .77 mul w .23 mul] .385 w mul sd w 0 l currentpoint t -144 r} def
/mr {mp x y w2 0 360 arc} def /m24 {mr s} def /m20 {mr f} def
/mb {mp x y w2 add m w2 neg 0 d 0 w neg d w 0 d 0 w d cl} def
/mt {mp x y w2 add m w2 neg w neg d w 0 d cl} def
/w4 {w 4 div} def
/w6 {w 6 div} def
/w8 {w 8 div} def
/m21 {mb f} def /m25 {mb s} def /m22 {mt f} def /m26{mt s} def
/m23 {mp x y w2 sub m w2 w d w neg 0 d cl f} def
/m27 {mp x y w2 add m w3 neg w2 neg d w3 w2 neg d w3 w2 d cl s} def
/m28 {mp x w2 sub y w2 sub w3 add m w3 0 d  0 w3 neg d w3 0 d 0 w3 d w3 0 d  0 w3 d w3 neg 0 d 0 w3 d w3 neg 0 d 0 w3 neg d w3 neg 0 d cl s } def
/m29 {mp gsave x w2 sub y w2 add w3 sub m currentpoint t 4 {side} repeat cl fill gr} def
/m30 {mp gsave x w2 sub y w2 add w3 sub m currentpoint t 4 {side} repeat cl s gr} def
/m31 {mp x y w2 sub m 0 w d x w2 sub y m w 0 d x w2 sub y w2 add m w w neg d x w2 sub y w2 sub m w w d s} def
/m32 {mp x y w2 sub m w2 w d w neg 0 d cl s} def
/m33 {mp x y w2 add m w3 neg w2 neg d w3 w2 neg d w3 w2 d cl f} def
/m34 {mp x w2 sub y w2 sub w3 add m w3 0 d  0 w3 neg d w3 0 d 0 w3 d w3 0 d  0 w3 d w3 neg 0 d 0 w3 d w3 neg 0 d 0 w3 neg d w3 neg 0 d cl f } def
/m35 {mp x y w2 add m w2 neg w2 neg d w2 w2 neg d w2 w2 d w2 neg w2 d x y w2 sub m 0 w d x w2 sub y m w 0 d s} def
/m36 {mb x w2 sub y w2 add m w w neg d x w2 sub y w2 sub m w w d s} def
/m37 {mp x y m w4 neg w2 d w4 neg w2 neg d w2 0 d  w4 neg w2 neg d w2 0 d w4 neg w2 d w2 0 d w4 neg w2 d w4 neg w2 neg d cl s} def
/m38 {mp x w4 sub y w2 add m w4 neg w4 neg d 0 w2 neg d w4 w4 neg d w2 0 d w4 w4 d 0 w2 d w4 neg w4 d w2 neg 0 d x y w2 sub m 0 w d x w2 sub y m w 0 d cl s} def
/m39 {mp x y m w4 neg w2 d w4 neg w2 neg d w2 0 d  w4 neg w2 neg d w2 0 d w4 neg w2 d w2 0 d w4 neg w2 d w4 neg w2 neg d cl f} def
/m40 {mp x y m w4 w2 d w4 w4 neg d w2 neg w4 neg d w2 w4 neg d w4 neg w4 neg d w4 neg w2 d w4 neg w2 neg d w4 neg w4 d w2 w4 d w2 neg w4 d w4 w4 d w4 w2 neg d cl s} def
/m41 {mp x y m w4 w2 d w4 w4 neg d w2 neg w4 neg d w2 w4 neg d w4 neg w4 neg d w4 neg w2 d w4 neg w2 neg d w4 neg w4 d w2 w4 d w2 neg w4 d w4 w4 d w4 w2 neg d cl f} def
/m42 {mp x y w2 add m w8 neg w2 -3 4 div mul d w2 -3 4 div mul w8 neg d w2 3 4 div mul w8 neg d w8 w2 -3 4 div mul d w8 w2 3 4 div mul d w2 3 4 div mul w8 d w2 -3 4 div mul w8 d w8 neg w2 3 4 div mul d cl s} def
/m43 {mp x y w2 add m w8 neg w2 -3 4 div mul d w2 -3 4 div mul w8 neg d w2 3 4 div mul w8 neg d w8 w2 -3 4 div mul d w8 w2 3 4 div mul d w2 3 4 div mul w8 d w2 -3 4 div mul w8 d w8 neg w2 3 4 div mul d cl f} def
/m44 {mp x y m w6 neg w2 d w2 2 3 div mul 0 d w6 neg w2 neg d w2 w6 d 0 w2 -2 3 div mul d w2 neg w6 d w6 w2 neg d w2 -2 3 div mul 0 d w6 w2 d w2 neg w6 neg d 0 w2 2 3 div mul d w2 w6 neg d cl s} def
/m45 {mp x y m w6 neg w2 d w2 2 3 div mul 0 d w6 neg w2 neg d w2 w6 d 0 w2 -2 3 div mul d w2 neg w6 d w6 w2 neg d w2 -2 3 div mul 0 d w6 w2 d w2 neg w6 neg d 0 w2 2 3 div mul d w2 w6 neg d cl f} def
/m46 {mp x y w4 add m w4 neg w4 d w4 neg w4 neg d  w4 w4 neg d w4 neg w4 neg d w4 w4 neg d w4 w4 d w4 w4 neg d w4 w4 d w4 neg w4 d w4 w4 d w4 neg w4 d w4 neg w4 neg d cl s} def
/m47 {mp x y w4 add m w4 neg w4 d w4 neg w4 neg d w4 w4 neg d w4 neg w4 neg d  w4 w4 neg d w4 w4 d w4 w4 neg d w4 w4 d w4 neg w4 d w4 w4 d w4 neg w4 d w4 neg w4 neg d cl f} def
/m48 {mp x y w4 add m w4 neg w4 d w4 neg w4 neg d w4 w4 neg d  w4 neg w4 neg d w4 w4 neg d w4 w4 d w4 w4 neg d w4 w4 d w4 neg w4 d w4 w4 d w4 neg w4 d w4 neg w4 neg d  w4 w4 neg d w4 neg w4 neg d w4 neg w4 d w4 w4 d cl f} def
/m49 {mp x w2 sub w3 add y w2 sub w3 add m  0 w3 neg d w3 0 d 0 w3 d w3 0 d 0 w3 d w3 neg 0 d 0 w3 d w3 neg 0 d 0 w3 neg d w3 neg 0 d 0 w3 neg d w3 0 d 0 w3 d w3 0 d 0 w3 neg d w3 neg 0 d cl f } def
/m2 {mp x y w2 sub m 0 w d x w2 sub y m w 0 d s} def
/m5 {mp x w2 sub y w2 sub m w w d x w2 sub y w2 add m w w neg d s} def
%%IncludeResource: ProcSet (FontSetInit)
%%IncludeResource: font Times-Roman
%%IncludeResource: font Times-Italic
%%IncludeResource: font Times-Bold
%%IncludeResource: font Times-BoldItalic
%%IncludeResource: font Helvetica
%%IncludeResource: font Helvetica-Oblique
%%IncludeResource: font Helvetica-Bold
%%IncludeResource: font Helvetica-BoldOblique
%%IncludeResource: font Courier
%%IncludeResource: font Courier-Oblique
%%IncludeResource: font Courier-Bold
%%IncludeResource: font Courier-BoldOblique
%%IncludeResource: font Symbol
%%IncludeResource: font ZapfDingbats
/reEncode {exch findfont dup length dict begin {1 index /FID eq  {pop pop} {def} ifelse } forall /Encoding exch def currentdict end dup /FontName get exch definefont pop } def [/Times-Bold /Times-Italic /Times-BoldItalic /Helvetica /Helvetica-Oblique
 /Helvetica-Bold /Helvetica-BoldOblique /Courier /Courier-Oblique /Courier-Bold /Courier-BoldOblique /Times-Roman /AvantGarde-Book /AvantGarde-BookOblique /AvantGarde-Demi /AvantGarde-DemiOblique /Bookman-Demi /Bookman-DemiItalic /Bookman-Light
 /Bookman-LightItalic /Helvetica-Narrow /Helvetica-Narrow-Bold /Helvetica-Narrow-BoldOblique /Helvetica-Narrow-Oblique /NewCenturySchlbk-Roman /NewCenturySchlbk-Bold /NewCenturySchlbk-BoldItalic /NewCenturySchlbk-Italic /Palatino-Bold
 /Palatino-BoldItalic /Palatino-Italic /Palatino-Roman ] {ISOLatin1Encoding reEncode } forall
%%EndProlog
%%BeginSetup
%%EndSetup
newpath  gsave  .25 .25 scale  gsave  0 0 t 0.490196 0.545098 0.615686 c[  ] 0 sd 3 lw 0.941176 0.941176 0.941176 c 2268 1176 0 0 bf 0.490196 0.545098 0.615686 c 0.941176 0.941176 0.941176 c 710 565 23 600 bf black 1 1 0.992157 c 548 427 143 681 bf
 black 548 427 143 681 bl 1 1 0.992157 c 548 427 143 681 bf black 548 427 143 681 bl 0 0 0.933333 c 6 lw 0.49 0.6 0.82 c black 3 lw 0.49 0.6 0.82 c 143 681 m 151 X 1 Y 14 X -1 Y 13 X 1 Y 28 X 1 Y 13 X 1 Y 14 X 4 Y 14 X 43 Y 13 X 338 Y 14 X -331 Y 14
 X -48 Y 13 X -6 Y 14 X -2 Y 41 X -1 Y 192 X f 6 lw 0 0 0.933333 c 0.49 0.6 0.82 c 0 0 0.933333 c 143 681 m 151 X 1 Y 14 X -1 Y 13 X 1 Y 28 X 1 Y 13 X 1 Y 14 X 4 Y 14 X 43 Y 13 X 338 Y 14 X -331 Y 14 X -48 Y 13 X -6 Y 14 X -2 Y 41 X -1 Y 192 X s
 black 3 lw 143 681 m 548 X s 155 694 m -13 Y s 168 688 m -7 Y s 181 688 m -7 Y s 193 688 m -7 Y s 206 688 m -7 Y s 219 694 m -13 Y s 232 688 m -7 Y s 245 688 m -7 Y s 257 688 m -7 Y s 270 688 m -7 Y s 283 694 m -13 Y s 296 688 m -7 Y s 308 688 m -7
 Y s 321 688 m -7 Y s 334 688 m -7 Y s 347 694 m -13 Y s 359 688 m -7 Y s 372 688 m -7 Y s 385 688 m -7 Y s 398 688 m -7 Y s 411 694 m -13 Y s 423 688 m -7 Y s 436 688 m -7 Y s 449 688 m -7 Y s 462 688 m -7 Y s 474 694 m -13 Y s 487 688 m -7 Y s 500
 688 m -7 Y s 513 688 m -7 Y s 526 688 m -7 Y s 538 694 m -13 Y s 551 688 m -7 Y s 564 688 m -7 Y s 577 688 m -7 Y s 589 688 m -7 Y s 602 694 m -13 Y s 615 688 m -7 Y s 628 688 m -7 Y s 641 688 m -7 Y s 653 688 m -7 Y s 666 694 m -13 Y s 155 694 m
 -13 Y s 666 694 m -13 Y s 679 688 m -7 Y s
 gsave  710 565 23 600 C 150.613 653.603 t 0 r /Helvetica findfont 25.6688 sf 0 0 m (2) show NC gr 
 gsave  710 565 23 600 C 139.246 653.603 t 0 r /Symbol findfont 25.6688 sf 0 0 m (-) show NC gr 
 gsave  710 565 23 600 C 204.606 653.603 t 0 r /Helvetica findfont 25.6688 sf 0 0 m (1.5) show NC gr 
 gsave  710 565 23 600 C 193.239 653.603 t 0 r /Symbol findfont 25.6688 sf 0 0 m (-) show NC gr 
 gsave  710 565 23 600 C 281.333 653.603 t 0 r /Helvetica findfont 25.6688 sf 0 0 m (1) show NC gr 
 gsave  710 565 23 600 C 267.125 653.603 t 0 r /Symbol findfont 25.6688 sf 0 0 m (-) show NC gr 
 gsave  710 565 23 600 C 332.485 653.603 t 0 r /Helvetica findfont 25.6688 sf 0 0 m (0.5) show NC gr 
 gsave  710 565 23 600 C 321.118 653.603 t 0 r /Symbol findfont 25.6688 sf 0 0 m (-) show NC gr 
 gsave  710 565 23 600 C 400.687 653.603 t 0 r /Helvetica findfont 25.6688 sf 0 0 m (0) show NC gr 
 gsave  710 565 23 600 C 451.838 653.603 t 0 r /Helvetica findfont 25.6688 sf 0 0 m (0.5) show NC gr 
 gsave  710 565 23 600 C 531.407 653.603 t 0 r /Helvetica findfont 25.6688 sf 0 0 m (1) show NC gr 
 gsave  710 565 23 600 C 579.717 653.603 t 0 r /Helvetica findfont 25.6688 sf 0 0 m (1.5) show NC gr 
 gsave  710 565 23 600 C 656.444 653.603 t 0 r /Helvetica findfont 25.6688 sf 0 0 m (2) show NC gr 
 gsave  710 565 23 600 C 619.502 610.976 t 0 r /Helvetica findfont 28.5208 sf 0 0 m (m_d0) show NC gr  143 1108 m 548 X s 155 1095 m 13 Y s 168 1102 m 6 Y s 181 1102 m 6 Y s 193 1102 m 6 Y s 206 1102 m 6 Y s 219 1095 m 13 Y s 232 1102 m 6 Y s 245
 1102 m 6 Y s 257 1102 m 6 Y s 270 1102 m 6 Y s 283 1095 m 13 Y s 296 1102 m 6 Y s 308 1102 m 6 Y s 321 1102 m 6 Y s 334 1102 m 6 Y s 347 1095 m 13 Y s 359 1102 m 6 Y s 372 1102 m 6 Y s 385 1102 m 6 Y s 398 1102 m 6 Y s 411 1095 m 13 Y s 423 1102 m 6
 Y s 436 1102 m 6 Y s 449 1102 m 6 Y s 462 1102 m 6 Y s 474 1095 m 13 Y s 487 1102 m 6 Y s 500 1102 m 6 Y s 513 1102 m 6 Y s 526 1102 m 6 Y s 538 1095 m 13 Y s 551 1102 m 6 Y s 564 1102 m 6 Y s 577 1102 m 6 Y s 589 1102 m 6 Y s 602 1095 m 13 Y s 615
 1102 m 6 Y s 628 1102 m 6 Y s 641 1102 m 6 Y s 653 1102 m 6 Y s 666 1095 m 13 Y s 155 1095 m 13 Y s 666 1095 m 13 Y s 679 1102 m 6 Y s 143 681 m 427 Y s 160 681 m -17 X s 152 692 m -9 X s 152 704 m -9 X s 152 715 m -9 X s 152 726 m -9 X s 160 737 m
 -17 X s 152 748 m -9 X s 152 760 m -9 X s 152 771 m -9 X s 152 782 m -9 X s 160 793 m -17 X s 152 804 m -9 X s 152 815 m -9 X s 152 827 m -9 X s 152 838 m -9 X s 160 849 m -17 X s 152 860 m -9 X s 152 871 m -9 X s 152 882 m -9 X s 152 894 m -9 X s
 160 905 m -17 X s 152 916 m -9 X s 152 927 m -9 X s 152 938 m -9 X s 152 949 m -9 X s 160 961 m -17 X s 152 972 m -9 X s 152 983 m -9 X s 152 994 m -9 X s 152 1005 m -9 X s 160 1017 m -17 X s 152 1028 m -9 X s 152 1039 m -9 X s 152 1050 m -9 X s 152
 1061 m -9 X s 160 1072 m -17 X s 160 1072 m -17 X s 152 1084 m -9 X s 152 1095 m -9 X s 152 1106 m -9 X s
 gsave  710 565 23 600 C 119.354 670.653 t 0 r /Helvetica findfont 25.6688 sf 0 0 m (0) show NC gr 
 gsave  710 565 23 600 C 122.195 727.488 t 0 r /Helvetica findfont 25.6688 sf 0 0 m (1) show NC gr 
 gsave  710 565 23 600 C 119.354 784.323 t 0 r /Helvetica findfont 25.6688 sf 0 0 m (2) show NC gr 
 gsave  710 565 23 600 C 119.354 838.316 t 0 r /Helvetica findfont 25.6688 sf 0 0 m (3) show NC gr 
 gsave  710 565 23 600 C 119.354 895.151 t 0 r /Helvetica findfont 25.6688 sf 0 0 m (4) show NC gr 
 gsave  710 565 23 600 C 119.354 951.986 t 0 r /Helvetica findfont 25.6688 sf 0 0 m (5) show NC gr 
 gsave  710 565 23 600 C 119.354 1005.98 t 0 r /Helvetica findfont 25.6688 sf 0 0 m (6) show NC gr 
 gsave  710 565 23 600 C 119.354 1062.81 t 0 r /Helvetica findfont 25.6688 sf 0 0 m (7) show NC gr 
 gsave  710 565 23 600 C 45.468 1028.71 t 90 r /Helvetica findfont 28.5208 sf 0 0 m (0.107 ) show NC gr 
 gsave  710 565 23 600 C 31.2593 1023.03 t 90 r /Helvetica findfont 19.9646 sf 0 0 m ( ) show NC gr 
 gsave  710 565 23 600 C 45.468 1011.66 t 90 r /Helvetica findfont 28.5208 sf 0 0 m (/) show NC gr 
 gsave  710 565 23 600 C 53.9933 1005.98 t 90 r /Helvetica findfont 19.9646 sf 0 0 m ( ) show NC gr 
 gsave  710 565 23 600 C 45.468 897.993 t 90 r /Helvetica findfont 28.5208 sf 0 0 m (\(1/N\) dN) show NC gr  691 681 m 427 Y s 674 681 m 17 X s 683 692 m 8 X s 683 704 m 8 X s 683 715 m 8 X s 683 726 m 8 X s 674 737 m 17 X s 683 748 m 8 X s 683 760 m
 8 X s 683 771 m 8 X s 683 782 m 8 X s 674 793 m 17 X s 683 804 m 8 X s 683 815 m 8 X s 683 827 m 8 X s 683 838 m 8 X s 674 849 m 17 X s 683 860 m 8 X s 683 871 m 8 X s 683 882 m 8 X s 683 894 m 8 X s 674 905 m 17 X s 683 916 m 8 X s 683 927 m 8 X s
 683 938 m 8 X s 683 949 m 8 X s 674 961 m 17 X s 683 972 m 8 X s 683 983 m 8 X s 683 994 m 8 X s 683 1005 m 8 X s 674 1017 m 17 X s 683 1028 m 8 X s 683 1039 m 8 X s 683 1050 m 8 X s 683 1061 m 8 X s 674 1072 m 17 X s 674 1072 m 17 X s 683 1084 m 8
 X s 683 1095 m 8 X s 683 1106 m 8 X s 1 0 0 c 6 lw black 3 lw 1 0 0 c 676 682 m -1 Y s 661 682 m -1 Y s 646 682 m -1 Y s 631 681 m s 616 682 m -1 Y s 601 682 m -1 Y s 586 682 m -1 Y s 571 682 m -1 Y s 556 682 m -1 Y s 541 682 m -1 Y s 527 682 m -2
 -1 d s 512 683 m -2 -2 d s 498 684 m -3 -3 d s 484 685 m -4 -4 d s 472 688 m -7 -7 d s 458 689 m -8 -8 d s 449 696 m -14 -15 d s 444 706 m -24 -25 d s 438 714 m -33 -33 d s 431 723 m -41 -42 d s 431 738 m -56 -57 d s 431 753 m -55 -55 d s 371 693 m
 -11 -12 d s 431 768 m -41 -41 d s 376 713 m s 351 688 m -6 -7 d s 425 778 m -35 -36 d s 332 684 m -3 -3 d s 417 785 m -27 -28 d s 316 683 m -2 -2 d s 417 800 m -14 -14 d s 301 683 m -2 -2 d s 417 815 m -14 -14 d s 285 682 m -1 -1 d s 417 830 m -14
 -14 d s 270 682 m -1 -1 d s 417 845 m -14 -13 d s 255 682 m -1 -1 d s 417 861 m -14 -14 d s 240 682 m -1 -1 d s 417 876 m -14 -14 d s 224 682 m -1 Y s 407 881 m -4 -4 d s 209 682 m -1 Y s 194 682 m -1 Y s 179 682 m -1 Y s 164 681 m s 149 682 m -1 Y
 s 6 lw 143 682 m 14 X -1 Y 14 X 1 Y 123 X 1 Y 27 X 1 Y 14 X 1 Y 14 X 3 Y 13 X 5 Y 14 X 20 Y 14 X 58 Y 13 X 110 Y 14 X -103 Y 14 X -64 Y 13 X -18 Y 14 X -8 Y 14 X -3 Y 13 X -1 Y 14 X -1 Y 27 X -1 Y 96 X -1 Y 14 X 1 Y 55 X s black 3 lw 143 681 m 548 X
 s 155 694 m -13 Y s 168 688 m -7 Y s 181 688 m -7 Y s 193 688 m -7 Y s 206 688 m -7 Y s 219 694 m -13 Y s 232 688 m -7 Y s 245 688 m -7 Y s 257 688 m -7 Y s 270 688 m -7 Y s 283 694 m -13 Y s 296 688 m -7 Y s 308 688 m -7 Y s 321 688 m -7 Y s 334
 688 m -7 Y s 347 694 m -13 Y s 359 688 m -7 Y s 372 688 m -7 Y s 385 688 m -7 Y s 398 688 m -7 Y s 411 694 m -13 Y s 423 688 m -7 Y s 436 688 m -7 Y s 449 688 m -7 Y s 462 688 m -7 Y s 474 694 m -13 Y s 487 688 m -7 Y s 500 688 m -7 Y s 513 688 m -7
 Y s 526 688 m -7 Y s 538 694 m -13 Y s 551 688 m -7 Y s 564 688 m -7 Y s 577 688 m -7 Y s 589 688 m -7 Y s 602 694 m -13 Y s 615 688 m -7 Y s 628 688 m -7 Y s 641 688 m -7 Y s 653 688 m -7 Y s 666 694 m -13 Y s 155 694 m -13 Y s 666 694 m -13 Y s
 679 688 m -7 Y s 143 1108 m 548 X s 155 1095 m 13 Y s 168 1102 m 6 Y s 181 1102 m 6 Y s 193 1102 m 6 Y s 206 1102 m 6 Y s 219 1095 m 13 Y s 232 1102 m 6 Y s 245 1102 m 6 Y s 257 1102 m 6 Y s 270 1102 m 6 Y s 283 1095 m 13 Y s 296 1102 m 6 Y s 308
 1102 m 6 Y s 321 1102 m 6 Y s 334 1102 m 6 Y s 347 1095 m 13 Y s 359 1102 m 6 Y s 372 1102 m 6 Y s 385 1102 m 6 Y s 398 1102 m 6 Y s 411 1095 m 13 Y s 423 1102 m 6 Y s 436 1102 m 6 Y s 449 1102 m 6 Y s 462 1102 m 6 Y s 474 1095 m 13 Y s 487 1102 m 6
 Y s 500 1102 m 6 Y s 513 1102 m 6 Y s 526 1102 m 6 Y s 538 1095 m 13 Y s 551 1102 m 6 Y s 564 1102 m 6 Y s 577 1102 m 6 Y s 589 1102 m 6 Y s 602 1095 m 13 Y s 615 1102 m 6 Y s 628 1102 m 6 Y s 641 1102 m 6 Y s 653 1102 m 6 Y s 666 1095 m 13 Y s 155
 1095 m 13 Y s 666 1095 m 13 Y s 679 1102 m 6 Y s 143 681 m 427 Y s 160 681 m -17 X s 152 692 m -9 X s 152 704 m -9 X s 152 715 m -9 X s 152 726 m -9 X s 160 737 m -17 X s 152 748 m -9 X s 152 760 m -9 X s 152 771 m -9 X s 152 782 m -9 X s 160 793 m
 -17 X s 152 804 m -9 X s 152 815 m -9 X s 152 827 m -9 X s 152 838 m -9 X s 160 849 m -17 X s 152 860 m -9 X s 152 871 m -9 X s 152 882 m -9 X s 152 894 m -9 X s 160 905 m -17 X s 152 916 m -9 X s 152 927 m -9 X s 152 938 m -9 X s 152 949 m -9 X s
 160 961 m -17 X s 152 972 m -9 X s 152 983 m -9 X s 152 994 m -9 X s 152 1005 m -9 X s 160 1017 m -17 X s 152 1028 m -9 X s 152 1039 m -9 X s 152 1050 m -9 X s 152 1061 m -9 X s 160 1072 m -17 X s 160 1072 m -17 X s 152 1084 m -9 X s 152 1095 m -9 X
 s 152 1106 m -9 X s 691 681 m 427 Y s 674 681 m 17 X s 683 692 m 8 X s 683 704 m 8 X s 683 715 m 8 X s 683 726 m 8 X s 674 737 m 17 X s 683 748 m 8 X s 683 760 m 8 X s 683 771 m 8 X s 683 782 m 8 X s 674 793 m 17 X s 683 804 m 8 X s 683 815 m 8 X s
 683 827 m 8 X s 683 838 m 8 X s 674 849 m 17 X s 683 860 m 8 X s 683 871 m 8 X s 683 882 m 8 X s 683 894 m 8 X s 674 905 m 17 X s 683 916 m 8 X s 683 927 m 8 X s 683 938 m 8 X s 683 949 m 8 X s 674 961 m 17 X s 683 972 m 8 X s 683 983 m 8 X s 683
 994 m 8 X s 683 1005 m 8 X s 674 1017 m 17 X s 683 1028 m 8 X s 683 1039 m 8 X s 683 1050 m 8 X s 683 1061 m 8 X s 674 1072 m 17 X s 674 1072 m 17 X s 683 1084 m 8 X s 683 1095 m 8 X s 683 1106 m 8 X s
 gsave  710 565 23 600 C 719.017 679.067 t 90 r /Helvetica-Bold findfont 19.9646 sf 0 0 m (U/O\255flow \(S,B\): \(0.0, 0.3\)% / \(0.0, 0.2\)%) show NC gr  0.490196 0.545098 0.615686 c 0.364706 0.419608 0.490196 c 290 38 30 1124 bf 0.490196 0.545098
 0.615686 c 30 1124 m 290 X s 320 1124 m 38 Y s 320 1162 m -290 X s 30 1162 m -38 Y s 1 1 1 c black 1 1 1 c
 gsave  710 565 23 600 C 34.101 1136.7 t 0 r /Helvetica-Bold findfont 28.5208 sf 0 0 m (Input variable: m_d0) show NC gr  0.490196 0.545098 0.615686 c 0.941176 0.941176 0.941176 c 710 565 779 600 bf black 1 1 0.992157 c 548 427 899 681 bf black 548
 427 899 681 bl 1 1 0.992157 c 548 427 899 681 bf black 548 427 899 681 bl 0 0 0.933333 c 6 lw 0.49 0.6 0.82 c black 3 lw 0.49 0.6 0.82 c 899 681 m 384 Y 14 X 4 Y 14 X -164 Y 13 X -97 Y 14 X -55 Y 14 X -35 Y 13 X -6 Y 14 X -6 Y 14 X -2 Y 13 X -5 Y 14
 X -2 Y 14 X -3 Y 14 X -1 Y 13 X -5 Y 14 X -3 Y 14 X -3 Y 54 X -1 Y 28 X 1 Y 13 X -1 Y 247 X f 6 lw 0 0 0.933333 c 0.49 0.6 0.82 c 0 0 0.933333 c 899 1065 m 14 X 4 Y 14 X -164 Y 13 X -97 Y 14 X -55 Y 14 X -35 Y 13 X -6 Y 14 X -6 Y 14 X -2 Y 13 X -5 Y
 14 X -2 Y 14 X -3 Y 14 X -1 Y 13 X -5 Y 14 X -3 Y 14 X -3 Y 54 X -1 Y 28 X 1 Y 13 X -1 Y 247 X s black 3 lw 899 681 m 548 X s 985 694 m -13 Y s 1003 688 m -7 Y s 1021 688 m -7 Y s 1039 688 m -7 Y s 1056 688 m -7 Y s 1074 694 m -13 Y s 1092 688 m -7
 Y s 1110 688 m -7 Y s 1128 688 m -7 Y s 1146 688 m -7 Y s 1163 694 m -13 Y s 1181 688 m -7 Y s 1199 688 m -7 Y s 1217 688 m -7 Y s 1235 688 m -7 Y s 1252 694 m -13 Y s 1270 688 m -7 Y s 1288 688 m -7 Y s 1306 688 m -7 Y s 1324 688 m -7 Y s 1342 694
 m -13 Y s 1359 688 m -7 Y s 1377 688 m -7 Y s 1395 688 m -7 Y s 1413 688 m -7 Y s 1431 694 m -13 Y s 985 694 m -13 Y s 967 688 m -7 Y s 950 688 m -7 Y s 932 688 m -7 Y s 914 688 m -7 Y s 1431 694 m -13 Y s
 gsave  710 565 779 600 C 966.195 653.603 t 0 r /Helvetica findfont 25.6688 sf 0 0 m (0.1) show NC gr 
 gsave  710 565 779 600 C 1054.29 653.603 t 0 r /Helvetica findfont 25.6688 sf 0 0 m (0.2) show NC gr 
 gsave  710 565 779 600 C 1142.38 653.603 t 0 r /Helvetica findfont 25.6688 sf 0 0 m (0.3) show NC gr 
 gsave  710 565 779 600 C 1230.48 653.603 t 0 r /Helvetica findfont 25.6688 sf 0 0 m (0.4) show NC gr 
 gsave  710 565 779 600 C 1321.41 653.603 t 0 r /Helvetica findfont 25.6688 sf 0 0 m (0.5) show NC gr 
 gsave  710 565 779 600 C 1409.51 653.603 t 0 r /Helvetica findfont 25.6688 sf 0 0 m (0.6) show NC gr 
 gsave  710 565 779 600 C 1284.47 613.818 t 0 r /Helvetica findfont 28.5208 sf 0 0 m (m_d0_sigma) show NC gr  899 1108 m 548 X s 985 1095 m 13 Y s 1003 1102 m 6 Y s 1021 1102 m 6 Y s 1039 1102 m 6 Y s 1056 1102 m 6 Y s 1074 1095 m 13 Y s 1092 1102 m
 6 Y s 1110 1102 m 6 Y s 1128 1102 m 6 Y s 1146 1102 m 6 Y s 1163 1095 m 13 Y s 1181 1102 m 6 Y s 1199 1102 m 6 Y s 1217 1102 m 6 Y s 1235 1102 m 6 Y s 1252 1095 m 13 Y s 1270 1102 m 6 Y s 1288 1102 m 6 Y s 1306 1102 m 6 Y s 1324 1102 m 6 Y s 1342
 1095 m 13 Y s 1359 1102 m 6 Y s 1377 1102 m 6 Y s 1395 1102 m 6 Y s 1413 1102 m 6 Y s 1431 1095 m 13 Y s 985 1095 m 13 Y s 967 1102 m 6 Y s 950 1102 m 6 Y s 932 1102 m 6 Y s 914 1102 m 6 Y s 1431 1095 m 13 Y s 899 681 m 427 Y s 915 681 m -16 X s 907
 692 m -8 X s 907 702 m -8 X s 907 713 m -8 X s 915 724 m -16 X s 907 734 m -8 X s 907 745 m -8 X s 907 755 m -8 X s 915 766 m -16 X s 907 777 m -8 X s 907 787 m -8 X s 907 798 m -8 X s 915 808 m -16 X s 907 819 m -8 X s 907 830 m -8 X s 907 840 m -8
 X s 915 851 m -16 X s 907 861 m -8 X s 907 872 m -8 X s 907 882 m -8 X s 915 893 m -16 X s 907 904 m -8 X s 907 914 m -8 X s 907 925 m -8 X s 915 935 m -16 X s 907 946 m -8 X s 907 957 m -8 X s 907 967 m -8 X s 915 978 m -16 X s 907 988 m -8 X s 907
 999 m -8 X s 907 1009 m -8 X s 915 1020 m -16 X s 907 1031 m -8 X s 907 1041 m -8 X s 907 1052 m -8 X s 915 1062 m -16 X s 907 1073 m -8 X s 907 1084 m -8 X s 907 1094 m -8 X s 915 1105 m -16 X s 915 1105 m -16 X s
 gsave  710 565 779 600 C 875.259 670.653 t 0 r /Helvetica findfont 25.6688 sf 0 0 m (0) show NC gr 
 gsave  710 565 779 600 C 875.259 713.279 t 0 r /Helvetica findfont 25.6688 sf 0 0 m (2) show NC gr 
 gsave  710 565 779 600 C 875.259 755.906 t 0 r /Helvetica findfont 25.6688 sf 0 0 m (4) show NC gr 
 gsave  710 565 779 600 C 875.259 798.532 t 0 r /Helvetica findfont 25.6688 sf 0 0 m (6) show NC gr 
 gsave  710 565 779 600 C 875.259 841.158 t 0 r /Helvetica findfont 25.6688 sf 0 0 m (8) show NC gr 
 gsave  710 565 779 600 C 861.05 883.784 t 0 r /Helvetica findfont 25.6688 sf 0 0 m (10) show NC gr 
 gsave  710 565 779 600 C 861.05 926.411 t 0 r /Helvetica findfont 25.6688 sf 0 0 m (12) show NC gr 
 gsave  710 565 779 600 C 861.05 969.037 t 0 r /Helvetica findfont 25.6688 sf 0 0 m (14) show NC gr 
 gsave  710 565 779 600 C 861.05 1008.82 t 0 r /Helvetica findfont 25.6688 sf 0 0 m (16) show NC gr 
 gsave  710 565 779 600 C 861.05 1051.45 t 0 r /Helvetica findfont 25.6688 sf 0 0 m (18) show NC gr 
 gsave  710 565 779 600 C 861.05 1094.07 t 0 r /Helvetica findfont 25.6688 sf 0 0 m (20) show NC gr 
 gsave  710 565 779 600 C 801.374 1011.66 t 90 r /Helvetica findfont 28.5208 sf 0 0 m (0.0154 ) show NC gr 
 gsave  710 565 779 600 C 787.165 1005.98 t 90 r /Helvetica findfont 19.9646 sf 0 0 m ( ) show NC gr 
 gsave  710 565 779 600 C 801.374 994.613 t 90 r /Helvetica findfont 28.5208 sf 0 0 m (/) show NC gr 
 gsave  710 565 779 600 C 809.899 988.929 t 90 r /Helvetica findfont 19.9646 sf 0 0 m ( ) show NC gr 
 gsave  710 565 779 600 C 801.374 880.943 t 90 r /Helvetica findfont 28.5208 sf 0 0 m (\(1/N\) dN) show NC gr  1447 681 m 427 Y s 1430 681 m 17 X s 1438 692 m 9 X s 1438 702 m 9 X s 1438 713 m 9 X s 1430 724 m 17 X s 1438 734 m 9 X s 1438 745 m 9 X s
 1438 755 m 9 X s 1430 766 m 17 X s 1438 777 m 9 X s 1438 787 m 9 X s 1438 798 m 9 X s 1430 808 m 17 X s 1438 819 m 9 X s 1438 830 m 9 X s 1438 840 m 9 X s 1430 851 m 17 X s 1438 861 m 9 X s 1438 872 m 9 X s 1438 882 m 9 X s 1430 893 m 17 X s 1438
 904 m 9 X s 1438 914 m 9 X s 1438 925 m 9 X s 1430 935 m 17 X s 1438 946 m 9 X s 1438 957 m 9 X s 1438 967 m 9 X s 1430 978 m 17 X s 1438 988 m 9 X s 1438 999 m 9 X s 1438 1009 m 9 X s 1430 1020 m 17 X s 1438 1031 m 9 X s 1438 1041 m 9 X s 1438 1052
 m 9 X s 1430 1062 m 17 X s 1438 1073 m 9 X s 1438 1084 m 9 X s 1438 1094 m 9 X s 1430 1105 m 17 X s 1430 1105 m 17 X s 1 0 0 c 6 lw black 3 lw 1 0 0 c 1432 681 m s 1417 682 m -1 Y s 1402 681 m s 1387 681 m s 1372 681 m s 1357 682 m -1 Y s 1342 681 m
 s 1327 682 m -1 Y s 1312 682 m -1 -1 d s 1297 682 m -1 -1 d s 1282 681 m -1 X s 1267 682 m -1 -1 d s 1252 682 m -1 -1 d s 1237 682 m -1 -1 d s 1221 682 m -1 Y s 1206 682 m -1 Y s 1191 682 m -1 Y s 1177 682 m -1 -1 d s 1162 682 m -1 -1 d s 1147 683 m
 -1 -2 d s 1133 684 m -2 -3 d s 1121 687 m -5 -6 d s 1115 696 m -15 -15 d s 1105 701 m -20 -20 d s 1091 702 m -21 -21 d s 1082 708 m -27 -27 d s 1075 717 m -35 -36 d s 1064 720 m -39 -39 d s 1050 722 m -40 -41 d s 1039 726 m -44 -45 d s 1036 738 m
 -56 -57 d s 1027 744 m -62 -63 d s 1022 755 m -72 -74 d s 1012 760 m -77 -79 d s 1009 771 m -89 -90 d s 1007 784 m -102 -103 d s 995 788 m -82 -83 d s 911 704 m -12 -13 d s 995 803 m -82 -83 d s 989 812 m -62 -63 d s 923 745 m -10 -10 d s 981 820 m
 -54 -56 d s 981 835 m -54 -55 d s 981 850 m -54 -55 d s 968 851 m -41 -41 d s 968 867 m -28 -28 d s 935 834 m -8 -9 d s 963 877 m -23 -23 d s 954 883 m -14 -14 d s 6 lw 899 704 m 14 X 41 Y 14 X 89 Y 13 X 49 Y 14 X -6 Y 14 X -27 Y 13 X -38 Y 14 X -28
 Y 14 X -24 Y 13 X -16 Y 14 X -18 Y 14 X -4 Y 14 X -5 Y 13 X -9 Y 14 X -6 Y 14 X -6 Y 13 X -9 Y 14 X -3 Y 14 X -1 Y 13 X -1 Y 110 X -1 Y 27 X 1 Y 41 X -1 Y 14 X 1 Y 13 X -1 Y 41 X 1 Y 14 X -1 Y 28 X s black 3 lw 899 681 m 548 X s 985 694 m -13 Y s
 1003 688 m -7 Y s 1021 688 m -7 Y s 1039 688 m -7 Y s 1056 688 m -7 Y s 1074 694 m -13 Y s 1092 688 m -7 Y s 1110 688 m -7 Y s 1128 688 m -7 Y s 1146 688 m -7 Y s 1163 694 m -13 Y s 1181 688 m -7 Y s 1199 688 m -7 Y s 1217 688 m -7 Y s 1235 688 m -7
 Y s 1252 694 m -13 Y s 1270 688 m -7 Y s 1288 688 m -7 Y s 1306 688 m -7 Y s 1324 688 m -7 Y s 1342 694 m -13 Y s 1359 688 m -7 Y s 1377 688 m -7 Y s 1395 688 m -7 Y s 1413 688 m -7 Y s 1431 694 m -13 Y s 985 694 m -13 Y s 967 688 m -7 Y s 950 688 m
 -7 Y s 932 688 m -7 Y s 914 688 m -7 Y s 1431 694 m -13 Y s 899 1108 m 548 X s 985 1095 m 13 Y s 1003 1102 m 6 Y s 1021 1102 m 6 Y s 1039 1102 m 6 Y s 1056 1102 m 6 Y s 1074 1095 m 13 Y s 1092 1102 m 6 Y s 1110 1102 m 6 Y s 1128 1102 m 6 Y s 1146
 1102 m 6 Y s 1163 1095 m 13 Y s 1181 1102 m 6 Y s 1199 1102 m 6 Y s 1217 1102 m 6 Y s 1235 1102 m 6 Y s 1252 1095 m 13 Y s 1270 1102 m 6 Y s 1288 1102 m 6 Y s 1306 1102 m 6 Y s 1324 1102 m 6 Y s 1342 1095 m 13 Y s 1359 1102 m 6 Y s 1377 1102 m 6 Y s
 1395 1102 m 6 Y s 1413 1102 m 6 Y s 1431 1095 m 13 Y s 985 1095 m 13 Y s 967 1102 m 6 Y s 950 1102 m 6 Y s 932 1102 m 6 Y s 914 1102 m 6 Y s 1431 1095 m 13 Y s 899 681 m 427 Y s 915 681 m -16 X s 907 692 m -8 X s 907 702 m -8 X s 907 713 m -8 X s
 915 724 m -16 X s 907 734 m -8 X s 907 745 m -8 X s 907 755 m -8 X s 915 766 m -16 X s 907 777 m -8 X s 907 787 m -8 X s 907 798 m -8 X s 915 808 m -16 X s 907 819 m -8 X s 907 830 m -8 X s 907 840 m -8 X s 915 851 m -16 X s 907 861 m -8 X s 907 872
 m -8 X s 907 882 m -8 X s 915 893 m -16 X s 907 904 m -8 X s 907 914 m -8 X s 907 925 m -8 X s 915 935 m -16 X s 907 946 m -8 X s 907 957 m -8 X s 907 967 m -8 X s 915 978 m -16 X s 907 988 m -8 X s 907 999 m -8 X s 907 1009 m -8 X s 915 1020 m -16
 X s 907 1031 m -8 X s 907 1041 m -8 X s 907 1052 m -8 X s 915 1062 m -16 X s 907 1073 m -8 X s 907 1084 m -8 X s 907 1094 m -8 X s 915 1105 m -16 X s 915 1105 m -16 X s 1447 681 m 427 Y s 1430 681 m 17 X s 1438 692 m 9 X s 1438 702 m 9 X s 1438 713
 m 9 X s 1430 724 m 17 X s 1438 734 m 9 X s 1438 745 m 9 X s 1438 755 m 9 X s 1430 766 m 17 X s 1438 777 m 9 X s 1438 787 m 9 X s 1438 798 m 9 X s 1430 808 m 17 X s 1438 819 m 9 X s 1438 830 m 9 X s 1438 840 m 9 X s 1430 851 m 17 X s 1438 861 m 9 X s
 1438 872 m 9 X s 1438 882 m 9 X s 1430 893 m 17 X s 1438 904 m 9 X s 1438 914 m 9 X s 1438 925 m 9 X s 1430 935 m 17 X s 1438 946 m 9 X s 1438 957 m 9 X s 1438 967 m 9 X s 1430 978 m 17 X s 1438 988 m 9 X s 1438 999 m 9 X s 1438 1009 m 9 X s 1430
 1020 m 17 X s 1438 1031 m 9 X s 1438 1041 m 9 X s 1438 1052 m 9 X s 1430 1062 m 17 X s 1438 1073 m 9 X s 1438 1084 m 9 X s 1438 1094 m 9 X s 1430 1105 m 17 X s 1430 1105 m 17 X s
 gsave  710 565 779 600 C 1474.92 679.067 t 90 r /Helvetica-Bold findfont 19.9646 sf 0 0 m (U/O\255flow \(S,B\): \(0.0, 0.0\)% / \(0.0, 0.2\)%) show NC gr  0.490196 0.545098 0.615686 c 0.364706 0.419608 0.490196 c 389 38 786 1124 bf 0.490196 0.545098
 0.615686 c 786 1124 m 389 X s 1175 1124 m 38 Y s 1175 1162 m -389 X s 786 1162 m -38 Y s 1 1 1 c black 1 1 1 c
 gsave  710 565 779 600 C 790.007 1136.7 t 0 r /Helvetica-Bold findfont 28.5208 sf 0 0 m (Input variable: m_d0_sigma) show NC gr  0.490196 0.545098 0.615686 c 0.941176 0.941176 0.941176 c 711 565 1534 600 bf black 1 1 0.992157 c 547 427 1655 681 bf
 black 547 427 1655 681 bl 1 1 0.992157 c 547 427 1655 681 bf black 547 427 1655 681 bl 0 0 0.933333 c 6 lw 0.49 0.6 0.82 c black 3 lw 0.49 0.6 0.82 c 1655 681 m 194 Y 14 X -119 Y 14 X -75 Y 13 X 122 Y 14 X -122 Y 14 X 205 Y 13 X -93 Y 14 X -112 Y 14
 X 161 Y 13 X -161 Y 14 X 116 Y 14 X 92 Y 13 X -208 Y 14 X 48 Y 14 X -48 Y 13 X 70 Y 14 X -25 Y 14 X -45 Y 13 X 55 Y 14 X -55 Y 14 X 17 Y 14 X -17 Y 13 X 26 Y 14 X -14 Y 14 X -12 Y 13 X 16 Y 14 X -16 Y 14 X 4 Y 27 X -4 Y 14 X 1 Y 13 X -1 Y 14 X 2 Y
 14 X -1 Y 13 X -1 Y 14 X 1 Y 14 X -1 Y 41 X 1 Y 13 X -1 Y f 6 lw 0 0 0.933333 c 0.49 0.6 0.82 c 0 0 0.933333 c 1655 875 m 14 X -119 Y 14 X -75 Y 13 X 122 Y 14 X -122 Y 14 X 205 Y 13 X -93 Y 14 X -112 Y 14 X 161 Y 13 X -161 Y 14 X 116 Y 14 X 92 Y 13
 X -208 Y 14 X 48 Y 14 X -48 Y 13 X 70 Y 14 X -25 Y 14 X -45 Y 13 X 55 Y 14 X -55 Y 14 X 17 Y 14 X -17 Y 13 X 26 Y 14 X -14 Y 14 X -12 Y 13 X 16 Y 14 X -16 Y 14 X 4 Y 27 X -4 Y 14 X 1 Y 13 X -1 Y 14 X 2 Y 14 X -1 Y 13 X -1 Y 14 X 1 Y 14 X -1 Y 41 X 1
 Y 13 X s black 3 lw 1655 681 m 547 X s 1678 694 m -13 Y s 1690 688 m -7 Y s 1702 688 m -7 Y s 1713 688 m -7 Y s 1725 694 m -13 Y s 1737 688 m -7 Y s 1748 688 m -7 Y s 1760 688 m -7 Y s 1771 694 m -13 Y s 1783 688 m -7 Y s 1795 688 m -7 Y s 1806 688
 m -7 Y s 1818 694 m -13 Y s 1829 688 m -7 Y s 1841 688 m -7 Y s 1853 688 m -7 Y s 1864 694 m -13 Y s 1876 688 m -7 Y s 1887 688 m -7 Y s 1899 688 m -7 Y s 1911 694 m -13 Y s 1922 688 m -7 Y s 1934 688 m -7 Y s 1945 688 m -7 Y s 1957 694 m -13 Y s
 1969 688 m -7 Y s 1980 688 m -7 Y s 1992 688 m -7 Y s 2003 694 m -13 Y s 2015 688 m -7 Y s 2027 688 m -7 Y s 2038 688 m -7 Y s 2050 694 m -13 Y s 2061 688 m -7 Y s 2073 688 m -7 Y s 2085 688 m -7 Y s 2096 694 m -13 Y s 2108 688 m -7 Y s 2119 688 m
 -7 Y s 2131 688 m -7 Y s 2143 694 m -13 Y s 2154 688 m -7 Y s 2166 688 m -7 Y s 2177 688 m -7 Y s 2189 694 m -13 Y s 1678 694 m -13 Y s 1667 688 m -7 Y s 2189 694 m -13 Y s 2201 688 m -7 Y s
 gsave  711 565 1534 600 C 1668.11 653.603 t 0 r /Helvetica findfont 25.6688 sf 0 0 m (2) show NC gr 
 gsave  711 565 1534 600 C 1713.58 653.603 t 0 r /Helvetica findfont 25.6688 sf 0 0 m (4) show NC gr 
 gsave  711 565 1534 600 C 1761.89 653.603 t 0 r /Helvetica findfont 25.6688 sf 0 0 m (6) show NC gr 
 gsave  711 565 1534 600 C 1807.35 653.603 t 0 r /Helvetica findfont 25.6688 sf 0 0 m (8) show NC gr 
 gsave  711 565 1534 600 C 1847.14 653.603 t 0 r /Helvetica findfont 25.6688 sf 0 0 m (10) show NC gr 
 gsave  711 565 1534 600 C 1895.45 653.603 t 0 r /Helvetica findfont 25.6688 sf 0 0 m (12) show NC gr 
 gsave  711 565 1534 600 C 1940.92 653.603 t 0 r /Helvetica findfont 25.6688 sf 0 0 m (14) show NC gr 
 gsave  711 565 1534 600 C 1986.38 653.603 t 0 r /Helvetica findfont 25.6688 sf 0 0 m (16) show NC gr 
 gsave  711 565 1534 600 C 2034.69 653.603 t 0 r /Helvetica findfont 25.6688 sf 0 0 m (18) show NC gr 
 gsave  711 565 1534 600 C 2080.16 653.603 t 0 r /Helvetica findfont 25.6688 sf 0 0 m (20) show NC gr 
 gsave  711 565 1534 600 C 2125.63 653.603 t 0 r /Helvetica findfont 25.6688 sf 0 0 m (22) show NC gr 
 gsave  711 565 1534 600 C 2173.94 653.603 t 0 r /Helvetica findfont 25.6688 sf 0 0 m (24) show NC gr 
 gsave  711 565 1534 600 C 1935.23 610.976 t 0 r /Helvetica findfont 28.5208 sf 0 0 m (m_number_of_tracks) show NC gr  1655 1108 m 547 X s 1678 1095 m 13 Y s 1690 1102 m 6 Y s 1702 1102 m 6 Y s 1713 1102 m 6 Y s 1725 1095 m 13 Y s 1737 1102 m 6 Y s
 1748 1102 m 6 Y s 1760 1102 m 6 Y s 1771 1095 m 13 Y s 1783 1102 m 6 Y s 1795 1102 m 6 Y s 1806 1102 m 6 Y s 1818 1095 m 13 Y s 1829 1102 m 6 Y s 1841 1102 m 6 Y s 1853 1102 m 6 Y s 1864 1095 m 13 Y s 1876 1102 m 6 Y s 1887 1102 m 6 Y s 1899 1102 m
 6 Y s 1911 1095 m 13 Y s 1922 1102 m 6 Y s 1934 1102 m 6 Y s 1945 1102 m 6 Y s 1957 1095 m 13 Y s 1969 1102 m 6 Y s 1980 1102 m 6 Y s 1992 1102 m 6 Y s 2003 1095 m 13 Y s 2015 1102 m 6 Y s 2027 1102 m 6 Y s 2038 1102 m 6 Y s 2050 1095 m 13 Y s 2061
 1102 m 6 Y s 2073 1102 m 6 Y s 2085 1102 m 6 Y s 2096 1095 m 13 Y s 2108 1102 m 6 Y s 2119 1102 m 6 Y s 2131 1102 m 6 Y s 2143 1095 m 13 Y s 2154 1102 m 6 Y s 2166 1102 m 6 Y s 2177 1102 m 6 Y s 2189 1095 m 13 Y s 1678 1095 m 13 Y s 1667 1102 m 6 Y
 s 2189 1095 m 13 Y s 2201 1102 m 6 Y s 1655 681 m 427 Y s 1671 681 m -16 X s 1663 690 m -8 X s 1663 699 m -8 X s 1663 708 m -8 X s 1663 716 m -8 X s 1671 725 m -16 X s 1663 734 m -8 X s 1663 743 m -8 X s 1663 751 m -8 X s 1663 760 m -8 X s 1671 769
 m -16 X s 1663 778 m -8 X s 1663 787 m -8 X s 1663 795 m -8 X s 1663 804 m -8 X s 1671 813 m -16 X s 1663 822 m -8 X s 1663 830 m -8 X s 1663 839 m -8 X s 1663 848 m -8 X s 1671 857 m -16 X s 1663 865 m -8 X s 1663 874 m -8 X s 1663 883 m -8 X s
 1663 892 m -8 X s 1671 901 m -16 X s 1663 909 m -8 X s 1663 918 m -8 X s 1663 927 m -8 X s 1663 936 m -8 X s 1671 944 m -16 X s 1663 953 m -8 X s 1663 962 m -8 X s 1663 971 m -8 X s 1663 979 m -8 X s 1671 988 m -16 X s 1663 997 m -8 X s 1663 1006 m
 -8 X s 1663 1015 m -8 X s 1663 1023 m -8 X s 1671 1032 m -16 X s 1663 1041 m -8 X s 1663 1050 m -8 X s 1663 1058 m -8 X s 1663 1067 m -8 X s 1671 1076 m -16 X s 1671 1076 m -16 X s 1663 1085 m -8 X s 1663 1094 m -8 X s 1663 1102 m -8 X s
 gsave  711 565 1534 600 C 1631.16 670.653 t 0 r /Helvetica findfont 25.6688 sf 0 0 m (0) show NC gr 
 gsave  711 565 1534 600 C 1594.22 716.121 t 0 r /Helvetica findfont 25.6688 sf 0 0 m (0.05) show NC gr 
 gsave  711 565 1534 600 C 1614.11 758.747 t 0 r /Helvetica findfont 25.6688 sf 0 0 m (0.1) show NC gr 
 gsave  711 565 1534 600 C 1594.22 804.215 t 0 r /Helvetica findfont 25.6688 sf 0 0 m (0.15) show NC gr 
 gsave  711 565 1534 600 C 1608.43 846.842 t 0 r /Helvetica findfont 25.6688 sf 0 0 m (0.2) show NC gr 
 gsave  711 565 1534 600 C 1594.22 889.468 t 0 r /Helvetica findfont 25.6688 sf 0 0 m (0.25) show NC gr 
 gsave  711 565 1534 600 C 1608.43 934.936 t 0 r /Helvetica findfont 25.6688 sf 0 0 m (0.3) show NC gr 
 gsave  711 565 1534 600 C 1594.22 977.562 t 0 r /Helvetica findfont 25.6688 sf 0 0 m (0.35) show NC gr 
 gsave  711 565 1534 600 C 1608.43 1023.03 t 0 r /Helvetica findfont 25.6688 sf 0 0 m (0.4) show NC gr 
 gsave  711 565 1534 600 C 1594.22 1065.66 t 0 r /Helvetica findfont 25.6688 sf 0 0 m (0.45) show NC gr 
 gsave  711 565 1534 600 C 1557.28 1028.71 t 90 r /Helvetica findfont 28.5208 sf 0 0 m (0.589 ) show NC gr 
 gsave  711 565 1534 600 C 1543.07 1023.03 t 90 r /Helvetica findfont 19.9646 sf 0 0 m ( ) show NC gr 
 gsave  711 565 1534 600 C 1557.28 1011.66 t 90 r /Helvetica findfont 28.5208 sf 0 0 m (/) show NC gr 
 gsave  711 565 1534 600 C 1565.8 1005.98 t 90 r /Helvetica findfont 19.9646 sf 0 0 m ( ) show NC gr 
 gsave  711 565 1534 600 C 1557.28 897.993 t 90 r /Helvetica findfont 28.5208 sf 0 0 m (\(1/N\) dN) show NC gr  2202 681 m 427 Y s 2186 681 m 16 X s 2194 690 m 8 X s 2194 699 m 8 X s 2194 708 m 8 X s 2194 716 m 8 X s 2186 725 m 16 X s 2194 734 m 8 X
 s 2194 743 m 8 X s 2194 751 m 8 X s 2194 760 m 8 X s 2186 769 m 16 X s 2194 778 m 8 X s 2194 787 m 8 X s 2194 795 m 8 X s 2194 804 m 8 X s 2186 813 m 16 X s 2194 822 m 8 X s 2194 830 m 8 X s 2194 839 m 8 X s 2194 848 m 8 X s 2186 857 m 16 X s 2194
 865 m 8 X s 2194 874 m 8 X s 2194 883 m 8 X s 2194 892 m 8 X s 2186 901 m 16 X s 2194 909 m 8 X s 2194 918 m 8 X s 2194 927 m 8 X s 2194 936 m 8 X s 2186 944 m 16 X s 2194 953 m 8 X s 2194 962 m 8 X s 2194 971 m 8 X s 2194 979 m 8 X s 2186 988 m 16
 X s 2194 997 m 8 X s 2194 1006 m 8 X s 2194 1015 m 8 X s 2194 1023 m 8 X s 2186 1032 m 16 X s 2194 1041 m 8 X s 2194 1050 m 8 X s 2194 1058 m 8 X s 2194 1067 m 8 X s 2186 1076 m 16 X s 2186 1076 m 16 X s 2194 1085 m 8 X s 2194 1094 m 8 X s 2194 1102
 m 8 X s 1 0 0 c 6 lw black 3 lw 1 0 0 c 2188 681 m s 2173 681 m s 2158 681 m s 2143 681 m s 2128 681 m s 2113 681 m s 2098 682 m -1 Y s 2082 681 m s 2067 681 m s 2052 681 m s 2037 681 m s 2022 681 m s 2009 683 m -2 -2 d s 1992 681 m cl s 1978 682 m
 -1 -1 d s 1964 683 m -2 -2 d s 1947 681 m cl s 1933 683 m -1 -2 d s 1917 681 m cl s 1909 689 m -7 -8 d s 1888 683 m -1 -2 d s 1875 685 m -4 -4 d s 1867 692 m -7 -7 d s 1856 681 m s 1847 687 m -6 -6 d s 1835 690 m -2 -2 d s 1826 681 m cl s 1819 690 m
 -8 -9 d s 1819 705 m -23 -24 d s 1819 720 m -27 -28 d s 1781 681 m s 1819 735 m -13 -14 d s 1802 718 m -10 -10 d s 1778 694 m -12 -13 d s 1809 740 m -3 -3 d s 1778 709 m -13 -14 d s 1751 681 m s 1778 724 m -13 -14 d s 1751 697 m -15 -16 d s 1778 739
 m -13 -13 d s 1751 712 m -27 -28 d s 1721 681 m cl s 1778 755 m -13 -14 d s 1751 727 m -27 -28 d s 1710 686 m -4 -5 d s 1778 770 m -13 -14 d s 1751 742 m -27 -27 d s 1710 701 m -14 -14 d s 1691 681 m cl s 1746 752 m -22 -22 d s 1710 716 m -14 -14 d
 s 1683 689 m -8 -8 d s 1737 759 m -13 -14 d s 1710 731 m -14 -14 d s 1683 704 m -23 -23 d s 1737 774 m -13 -14 d s 1710 746 m -14 -13 d s 1683 719 m -28 -28 d s 1737 789 m -13 -14 d s 1710 762 m -14 -14 d s 1683 734 m -28 -27 d s 1737 804 m -13 -13
 d s 1710 777 m -14 -14 d s 1683 749 m -28 -27 d s 1737 820 m -13 -14 d s 1710 792 m -14 -14 d s 1683 764 m -28 -27 d s 1737 835 m -13 -14 d s 1710 807 m -14 -14 d s 1683 780 m -28 -28 d s 1737 850 m -13 -14 d s 1710 822 m -14 -13 d s 1683 795 m -28
 -28 d s 1737 865 m -13 -14 d s 1710 838 m -14 -14 d s 1683 810 m -28 -28 d s 1737 880 m -13 -13 d s 1710 853 m -14 -14 d s 1683 825 m -28 -27 d s 1737 896 m -13 -14 d s 1710 868 m -14 -14 d s 1683 840 m -28 -27 d s 1737 911 m -13 -14 d s 1709 883 m
 -13 -14 d s 1683 856 m -28 -28 d s 1737 926 m -13 -14 d s 1683 871 m -28 -28 d s 1730 934 m -6 -7 d s 1683 886 m -28 -28 d s 1683 901 m -28 -27 d s 1683 916 m -28 -27 d s 1683 931 m -28 -27 d s 1683 947 m -28 -28 d s 1683 962 m -28 -28 d s 1683 977
 m -28 -28 d s 1683 992 m -28 -27 d s 1683 1007 m -28 -27 d s 1683 1023 m -28 -28 d s 1683 1038 m -28 -28 d s 1683 1053 m -14 -14 d s 1664 1034 m -9 -9 d s 1683 1068 m -14 -14 d s 6 lw 1655 1034 m 14 X 35 Y 14 X -388 Y 13 X 202 Y 14 X -202 Y 14 X 253
 Y 13 X -182 Y 14 X -71 Y 14 X 90 Y 13 X -90 Y 14 X 37 Y 14 X 22 Y 13 X -59 Y 14 X 9 Y 14 X -9 Y 13 X 11 Y 14 X -7 Y 14 X -4 Y 13 X 8 Y 14 X -8 Y 14 X 2 Y 14 X -2 Y 13 X 2 Y 14 X -1 Y 14 X -1 Y 13 X 2 Y 14 X -2 Y 82 X 1 Y 14 X -1 Y 95 X s black 3 lw
 1655 681 m 547 X s 1678 694 m -13 Y s 1690 688 m -7 Y s 1702 688 m -7 Y s 1713 688 m -7 Y s 1725 694 m -13 Y s 1737 688 m -7 Y s 1748 688 m -7 Y s 1760 688 m -7 Y s 1771 694 m -13 Y s 1783 688 m -7 Y s 1795 688 m -7 Y s 1806 688 m -7 Y s 1818 694 m
 -13 Y s 1829 688 m -7 Y s 1841 688 m -7 Y s 1853 688 m -7 Y s 1864 694 m -13 Y s 1876 688 m -7 Y s 1887 688 m -7 Y s 1899 688 m -7 Y s 1911 694 m -13 Y s 1922 688 m -7 Y s 1934 688 m -7 Y s 1945 688 m -7 Y s 1957 694 m -13 Y s 1969 688 m -7 Y s 1980
 688 m -7 Y s 1992 688 m -7 Y s 2003 694 m -13 Y s 2015 688 m -7 Y s 2027 688 m -7 Y s 2038 688 m -7 Y s 2050 694 m -13 Y s 2061 688 m -7 Y s 2073 688 m -7 Y s 2085 688 m -7 Y s 2096 694 m -13 Y s 2108 688 m -7 Y s 2119 688 m -7 Y s 2131 688 m -7 Y s
 2143 694 m -13 Y s 2154 688 m -7 Y s 2166 688 m -7 Y s 2177 688 m -7 Y s 2189 694 m -13 Y s 1678 694 m -13 Y s 1667 688 m -7 Y s 2189 694 m -13 Y s 2201 688 m -7 Y s 1655 1108 m 547 X s 1678 1095 m 13 Y s 1690 1102 m 6 Y s 1702 1102 m 6 Y s 1713
 1102 m 6 Y s 1725 1095 m 13 Y s 1737 1102 m 6 Y s 1748 1102 m 6 Y s 1760 1102 m 6 Y s 1771 1095 m 13 Y s 1783 1102 m 6 Y s 1795 1102 m 6 Y s 1806 1102 m 6 Y s 1818 1095 m 13 Y s 1829 1102 m 6 Y s 1841 1102 m 6 Y s 1853 1102 m 6 Y s 1864 1095 m 13 Y
 s 1876 1102 m 6 Y s 1887 1102 m 6 Y s 1899 1102 m 6 Y s 1911 1095 m 13 Y s 1922 1102 m 6 Y s 1934 1102 m 6 Y s 1945 1102 m 6 Y s 1957 1095 m 13 Y s 1969 1102 m 6 Y s 1980 1102 m 6 Y s 1992 1102 m 6 Y s 2003 1095 m 13 Y s 2015 1102 m 6 Y s 2027 1102
 m 6 Y s 2038 1102 m 6 Y s 2050 1095 m 13 Y s 2061 1102 m 6 Y s 2073 1102 m 6 Y s 2085 1102 m 6 Y s 2096 1095 m 13 Y s 2108 1102 m 6 Y s 2119 1102 m 6 Y s 2131 1102 m 6 Y s 2143 1095 m 13 Y s 2154 1102 m 6 Y s 2166 1102 m 6 Y s 2177 1102 m 6 Y s 2189
 1095 m 13 Y s 1678 1095 m 13 Y s 1667 1102 m 6 Y s 2189 1095 m 13 Y s 2201 1102 m 6 Y s 1655 681 m 427 Y s 1671 681 m -16 X s 1663 690 m -8 X s 1663 699 m -8 X s 1663 708 m -8 X s 1663 716 m -8 X s 1671 725 m -16 X s 1663 734 m -8 X s 1663 743 m -8
 X s 1663 751 m -8 X s 1663 760 m -8 X s 1671 769 m -16 X s 1663 778 m -8 X s 1663 787 m -8 X s 1663 795 m -8 X s 1663 804 m -8 X s 1671 813 m -16 X s 1663 822 m -8 X s 1663 830 m -8 X s 1663 839 m -8 X s 1663 848 m -8 X s 1671 857 m -16 X s 1663 865
 m -8 X s 1663 874 m -8 X s 1663 883 m -8 X s 1663 892 m -8 X s 1671 901 m -16 X s 1663 909 m -8 X s 1663 918 m -8 X s 1663 927 m -8 X s 1663 936 m -8 X s 1671 944 m -16 X s 1663 953 m -8 X s 1663 962 m -8 X s 1663 971 m -8 X s 1663 979 m -8 X s 1671
 988 m -16 X s 1663 997 m -8 X s 1663 1006 m -8 X s 1663 1015 m -8 X s 1663 1023 m -8 X s 1671 1032 m -16 X s 1663 1041 m -8 X s 1663 1050 m -8 X s 1663 1058 m -8 X s 1663 1067 m -8 X s 1671 1076 m -16 X s 1671 1076 m -16 X s 1663 1085 m -8 X s 1663
 1094 m -8 X s 1663 1102 m -8 X s 2202 681 m 427 Y s 2186 681 m 16 X s 2194 690 m 8 X s 2194 699 m 8 X s 2194 708 m 8 X s 2194 716 m 8 X s 2186 725 m 16 X s 2194 734 m 8 X s 2194 743 m 8 X s 2194 751 m 8 X s 2194 760 m 8 X s 2186 769 m 16 X s 2194
 778 m 8 X s 2194 787 m 8 X s 2194 795 m 8 X s 2194 804 m 8 X s 2186 813 m 16 X s 2194 822 m 8 X s 2194 830 m 8 X s 2194 839 m 8 X s 2194 848 m 8 X s 2186 857 m 16 X s 2194 865 m 8 X s 2194 874 m 8 X s 2194 883 m 8 X s 2194 892 m 8 X s 2186 901 m 16
 X s 2194 909 m 8 X s 2194 918 m 8 X s 2194 927 m 8 X s 2194 936 m 8 X s 2186 944 m 16 X s 2194 953 m 8 X s 2194 962 m 8 X s 2194 971 m 8 X s 2194 979 m 8 X s 2186 988 m 16 X s 2194 997 m 8 X s 2194 1006 m 8 X s 2194 1015 m 8 X s 2194 1023 m 8 X s
 2186 1032 m 16 X s 2194 1041 m 8 X s 2194 1050 m 8 X s 2194 1058 m 8 X s 2194 1067 m 8 X s 2186 1076 m 16 X s 2186 1076 m 16 X s 2194 1085 m 8 X s 2194 1094 m 8 X s 2194 1102 m 8 X s
 gsave  711 565 1534 600 C 2230.83 679.067 t 90 r /Helvetica-Bold findfont 19.9646 sf 0 0 m (U/O\255flow \(S,B\): \(0.0, 0.0\)% / \(0.0, 0.0\)%) show NC gr  0.490196 0.545098 0.615686 c 0.364706 0.419608 0.490196 c 497 38 1542 1124 bf 0.490196
 0.545098 0.615686 c 1542 1124 m 497 X s 2039 1124 m 38 Y s 2039 1162 m -497 X s 1542 1162 m -38 Y s 1 1 1 c black 1 1 1 c
 gsave  711 565 1534 600 C 1543.07 1136.7 t 0 r /Helvetica-Bold findfont 28.5208 sf 0 0 m (Input variable: m_number_of_tracks) show NC gr  0.490196 0.545098 0.615686 c 0.941176 0.941176 0.941176 c 710 564 23 12 bf black 1 1 0.992157 c 548 427 143 93
 bf black 548 427 143 93 bl 1 1 0.992157 c 548 427 143 93 bf black 548 427 143 93 bl 0 0 0.933333 c 6 lw 0.49 0.6 0.82 c black 3 lw 0.49 0.6 0.82 c 143 93 m 214 Y 14 X -147 Y 14 X 31 Y 14 X 9 Y 13 X 12 Y 14 X 1 Y 14 X 13 Y 13 X 21 Y 14 X -20 Y 14 X
 -17 Y 13 X -47 Y 14 X -17 Y 14 X -23 Y 13 X -13 Y 14 X -5 Y 14 X -8 Y 13 X -1 Y 14 X -2 Y 14 X 1 Y 13 X -1 Y 28 X -1 Y 260 X f 6 lw 0 0 0.933333 c 0.49 0.6 0.82 c 0 0 0.933333 c 143 307 m 14 X -147 Y 14 X 31 Y 14 X 9 Y 13 X 12 Y 14 X 1 Y 14 X 13 Y
 13 X 21 Y 14 X -20 Y 14 X -17 Y 13 X -47 Y 14 X -17 Y 14 X -23 Y 13 X -13 Y 14 X -5 Y 14 X -8 Y 13 X -1 Y 14 X -2 Y 14 X 1 Y 13 X -1 Y 28 X -1 Y 260 X s black 3 lw 143 93 m 548 X s 143 106 m -13 Y s 162 100 m -7 Y s 180 100 m -7 Y s 198 100 m -7 Y s
 216 100 m -7 Y s 234 106 m -13 Y s 252 100 m -7 Y s 270 100 m -7 Y s 288 100 m -7 Y s 306 100 m -7 Y s 324 106 m -13 Y s 342 100 m -7 Y s 360 100 m -7 Y s 378 100 m -7 Y s 396 100 m -7 Y s 414 106 m -13 Y s 432 100 m -7 Y s 450 100 m -7 Y s 468 100
 m -7 Y s 486 100 m -7 Y s 504 106 m -13 Y s 522 100 m -7 Y s 540 100 m -7 Y s 558 100 m -7 Y s 576 100 m -7 Y s 594 106 m -13 Y s 612 100 m -7 Y s 631 100 m -7 Y s 649 100 m -7 Y s 667 100 m -7 Y s 685 106 m -13 Y s 685 106 m -13 Y s
 gsave  710 564 23 12 C 133.562 65.3603 t 0 r /Helvetica findfont 25.6688 sf 0 0 m (0) show NC gr 
 gsave  710 564 23 12 C 227.34 65.3603 t 0 r /Helvetica findfont 25.6688 sf 0 0 m (1) show NC gr 
 gsave  710 564 23 12 C 312.592 65.3603 t 0 r /Helvetica findfont 25.6688 sf 0 0 m (2) show NC gr 
 gsave  710 564 23 12 C 403.529 65.3603 t 0 r /Helvetica findfont 25.6688 sf 0 0 m (3) show NC gr 
 gsave  710 564 23 12 C 494.465 65.3603 t 0 r /Helvetica findfont 25.6688 sf 0 0 m (4) show NC gr 
 gsave  710 564 23 12 C 585.401 65.3603 t 0 r /Helvetica findfont 25.6688 sf 0 0 m (5) show NC gr 
 gsave  710 564 23 12 C 673.495 65.3603 t 0 r /Helvetica findfont 25.6688 sf 0 0 m (6) show NC gr 
 gsave  710 564 23 12 C 520.04 22.734 t 0 r /Helvetica findfont 28.5208 sf 0 0 m (m_z0_stddev) show NC gr  143 520 m 548 X s 143 507 m 13 Y s 162 513 m 7 Y s 180 513 m 7 Y s 198 513 m 7 Y s 216 513 m 7 Y s 234 507 m 13 Y s 252 513 m 7 Y s 270 513 m 7
 Y s 288 513 m 7 Y s 306 513 m 7 Y s 324 507 m 13 Y s 342 513 m 7 Y s 360 513 m 7 Y s 378 513 m 7 Y s 396 513 m 7 Y s 414 507 m 13 Y s 432 513 m 7 Y s 450 513 m 7 Y s 468 513 m 7 Y s 486 513 m 7 Y s 504 507 m 13 Y s 522 513 m 7 Y s 540 513 m 7 Y s
 558 513 m 7 Y s 576 513 m 7 Y s 594 507 m 13 Y s 612 513 m 7 Y s 631 513 m 7 Y s 649 513 m 7 Y s 667 513 m 7 Y s 685 507 m 13 Y s 685 507 m 13 Y s 143 93 m 427 Y s 160 93 m -17 X s 152 104 m -9 X s 152 115 m -9 X s 152 126 m -9 X s 160 137 m -17 X s
 152 148 m -9 X s 152 159 m -9 X s 152 170 m -9 X s 160 181 m -17 X s 152 192 m -9 X s 152 204 m -9 X s 152 215 m -9 X s 160 226 m -17 X s 152 237 m -9 X s 152 248 m -9 X s 152 259 m -9 X s 160 270 m -17 X s 152 281 m -9 X s 152 292 m -9 X s 152 303
 m -9 X s 160 314 m -17 X s 152 325 m -9 X s 152 336 m -9 X s 152 347 m -9 X s 160 358 m -17 X s 152 369 m -9 X s 152 380 m -9 X s 152 391 m -9 X s 160 402 m -17 X s 152 413 m -9 X s 152 424 m -9 X s 152 435 m -9 X s 160 446 m -17 X s 152 457 m -9 X
 s 152 469 m -9 X s 152 480 m -9 X s 160 491 m -17 X s 160 491 m -17 X s 152 502 m -9 X s 152 513 m -9 X s
 gsave  710 564 23 12 C 119.354 82.4108 t 0 r /Helvetica findfont 25.6688 sf 0 0 m (0) show NC gr 
 gsave  710 564 23 12 C 96.6195 127.879 t 0 r /Helvetica findfont 25.6688 sf 0 0 m (0.2) show NC gr 
 gsave  710 564 23 12 C 96.6195 170.505 t 0 r /Helvetica findfont 25.6688 sf 0 0 m (0.4) show NC gr 
 gsave  710 564 23 12 C 96.6195 215.973 t 0 r /Helvetica findfont 25.6688 sf 0 0 m (0.6) show NC gr 
 gsave  710 564 23 12 C 96.6195 258.599 t 0 r /Helvetica findfont 25.6688 sf 0 0 m (0.8) show NC gr 
 gsave  710 564 23 12 C 122.195 304.067 t 0 r /Helvetica findfont 25.6688 sf 0 0 m (1) show NC gr 
 gsave  710 564 23 12 C 96.6195 349.535 t 0 r /Helvetica findfont 25.6688 sf 0 0 m (1.2) show NC gr 
 gsave  710 564 23 12 C 96.6195 392.162 t 0 r /Helvetica findfont 25.6688 sf 0 0 m (1.4) show NC gr 
 gsave  710 564 23 12 C 96.6195 437.63 t 0 r /Helvetica findfont 25.6688 sf 0 0 m (1.6) show NC gr 
 gsave  710 564 23 12 C 96.6195 480.256 t 0 r /Helvetica findfont 25.6688 sf 0 0 m (1.8) show NC gr 
 gsave  710 564 23 12 C 45.468 440.471 t 90 r /Helvetica findfont 28.5208 sf 0 0 m (0.152 ) show NC gr 
 gsave  710 564 23 12 C 31.2593 434.788 t 90 r /Helvetica findfont 19.9646 sf 0 0 m ( ) show NC gr 
 gsave  710 564 23 12 C 45.468 423.421 t 90 r /Helvetica findfont 28.5208 sf 0 0 m (/) show NC gr 
 gsave  710 564 23 12 C 53.9933 417.737 t 90 r /Helvetica findfont 19.9646 sf 0 0 m ( ) show NC gr 
 gsave  710 564 23 12 C 45.468 309.751 t 90 r /Helvetica findfont 28.5208 sf 0 0 m (\(1/N\) dN) show NC gr  691 93 m 427 Y s 674 93 m 17 X s 683 104 m 8 X s 683 115 m 8 X s 683 126 m 8 X s 674 137 m 17 X s 683 148 m 8 X s 683 159 m 8 X s 683 170 m 8
 X s 674 181 m 17 X s 683 192 m 8 X s 683 204 m 8 X s 683 215 m 8 X s 674 226 m 17 X s 683 237 m 8 X s 683 248 m 8 X s 683 259 m 8 X s 674 270 m 17 X s 683 281 m 8 X s 683 292 m 8 X s 683 303 m 8 X s 674 314 m 17 X s 683 325 m 8 X s 683 336 m 8 X s
 683 347 m 8 X s 674 358 m 17 X s 683 369 m 8 X s 683 380 m 8 X s 683 391 m 8 X s 674 402 m 17 X s 683 413 m 8 X s 683 424 m 8 X s 683 435 m 8 X s 674 446 m 17 X s 683 457 m 8 X s 683 469 m 8 X s 683 480 m 8 X s 674 491 m 17 X s 674 491 m 17 X s 683
 502 m 8 X s 683 513 m 8 X s 1 0 0 c 6 lw black 3 lw 1 0 0 c 676 93 m s 661 93 m s 646 93 m s 631 93 m s 616 93 m s 601 93 m s 586 93 m s 571 93 m s 556 93 m s 541 93 m s 526 93 m -1 X s 510 93 m s 495 93 m s 480 93 m s 466 94 m -1 -1 d s 451 94 m -1
 -1 d s 436 94 m -1 -1 d s 421 95 m -1 -2 d s 408 96 m -3 -3 d s 394 97 m -4 -4 d s 380 99 m -5 -6 d s 369 102 m -9 -9 d s 359 107 m -14 -14 d s 348 112 m -19 -19 d s 335 114 m -21 -21 d s 331 125 m -32 -32 d s 321 130 m -37 -37 d s 309 133 m -40 -40
 d s 308 147 m -54 -54 d s 298 153 m -59 -60 d s 294 164 m -70 -71 d s 291 176 m -82 -83 d s 280 180 m -86 -87 d s 280 195 m -101 -102 d s 267 197 m -103 -104 d s 262 207 m -113 -114 d s 246 207 m -20 -21 d s 220 181 m -77 -78 d s 203 178 m -5 -5 d s
 182 157 m -39 -39 d s 159 149 m -16 -16 d s 157 162 m -14 -13 d s 157 178 m -14 -14 d s 157 193 m -14 -14 d s 157 208 m -14 -14 d s 157 223 m -14 -14 d s 157 238 m -14 -13 d s 157 254 m -14 -14 d s 157 269 m -14 -14 d s 157 284 m -14 -14 d s 157 299
 m -14 -14 d s 157 314 m -14 -13 d s 157 329 m -14 -13 d s 157 345 m -14 -14 d s 157 360 m -14 -14 d s 157 375 m -14 -14 d s 157 390 m -14 -14 d s 157 405 m -14 -13 d s 157 421 m -14 -14 d s 157 436 m -14 -14 d s 157 451 m -14 -14 d s 157 466 m -14
 -14 d s 157 481 m -14 -13 d s 6 lw 143 481 m 14 X -332 Y 14 X 8 Y 14 X 2 Y 13 X 19 Y 14 X 3 Y 14 X 19 Y 13 X 7 Y 28 X -12 Y 13 X -19 Y 14 X -23 Y 14 X -20 Y 13 X -8 Y 14 X -13 Y 14 X -5 Y 13 X -5 Y 14 X -3 Y 14 X -2 Y 13 X -1 Y 14 X -1 Y 14 X -1 Y
 41 X -1 Y 219 X s black 3 lw 143 93 m 548 X s 143 106 m -13 Y s 162 100 m -7 Y s 180 100 m -7 Y s 198 100 m -7 Y s 216 100 m -7 Y s 234 106 m -13 Y s 252 100 m -7 Y s 270 100 m -7 Y s 288 100 m -7 Y s 306 100 m -7 Y s 324 106 m -13 Y s 342 100 m -7
 Y s 360 100 m -7 Y s 378 100 m -7 Y s 396 100 m -7 Y s 414 106 m -13 Y s 432 100 m -7 Y s 450 100 m -7 Y s 468 100 m -7 Y s 486 100 m -7 Y s 504 106 m -13 Y s 522 100 m -7 Y s 540 100 m -7 Y s 558 100 m -7 Y s 576 100 m -7 Y s 594 106 m -13 Y s 612
 100 m -7 Y s 631 100 m -7 Y s 649 100 m -7 Y s 667 100 m -7 Y s 685 106 m -13 Y s 685 106 m -13 Y s 143 520 m 548 X s 143 507 m 13 Y s 162 513 m 7 Y s 180 513 m 7 Y s 198 513 m 7 Y s 216 513 m 7 Y s 234 507 m 13 Y s 252 513 m 7 Y s 270 513 m 7 Y s
 288 513 m 7 Y s 306 513 m 7 Y s 324 507 m 13 Y s 342 513 m 7 Y s 360 513 m 7 Y s 378 513 m 7 Y s 396 513 m 7 Y s 414 507 m 13 Y s 432 513 m 7 Y s 450 513 m 7 Y s 468 513 m 7 Y s 486 513 m 7 Y s 504 507 m 13 Y s 522 513 m 7 Y s 540 513 m 7 Y s 558
 513 m 7 Y s 576 513 m 7 Y s 594 507 m 13 Y s 612 513 m 7 Y s 631 513 m 7 Y s 649 513 m 7 Y s 667 513 m 7 Y s 685 507 m 13 Y s 685 507 m 13 Y s 143 93 m 427 Y s 160 93 m -17 X s 152 104 m -9 X s 152 115 m -9 X s 152 126 m -9 X s 160 137 m -17 X s 152
 148 m -9 X s 152 159 m -9 X s 152 170 m -9 X s 160 181 m -17 X s 152 192 m -9 X s 152 204 m -9 X s 152 215 m -9 X s 160 226 m -17 X s 152 237 m -9 X s 152 248 m -9 X s 152 259 m -9 X s 160 270 m -17 X s 152 281 m -9 X s 152 292 m -9 X s 152 303 m -9
 X s 160 314 m -17 X s 152 325 m -9 X s 152 336 m -9 X s 152 347 m -9 X s 160 358 m -17 X s 152 369 m -9 X s 152 380 m -9 X s 152 391 m -9 X s 160 402 m -17 X s 152 413 m -9 X s 152 424 m -9 X s 152 435 m -9 X s 160 446 m -17 X s 152 457 m -9 X s 152
 469 m -9 X s 152 480 m -9 X s 160 491 m -17 X s 160 491 m -17 X s 152 502 m -9 X s 152 513 m -9 X s 691 93 m 427 Y s 674 93 m 17 X s 683 104 m 8 X s 683 115 m 8 X s 683 126 m 8 X s 674 137 m 17 X s 683 148 m 8 X s 683 159 m 8 X s 683 170 m 8 X s 674
 181 m 17 X s 683 192 m 8 X s 683 204 m 8 X s 683 215 m 8 X s 674 226 m 17 X s 683 237 m 8 X s 683 248 m 8 X s 683 259 m 8 X s 674 270 m 17 X s 683 281 m 8 X s 683 292 m 8 X s 683 303 m 8 X s 674 314 m 17 X s 683 325 m 8 X s 683 336 m 8 X s 683 347 m
 8 X s 674 358 m 17 X s 683 369 m 8 X s 683 380 m 8 X s 683 391 m 8 X s 674 402 m 17 X s 683 413 m 8 X s 683 424 m 8 X s 683 435 m 8 X s 674 446 m 17 X s 683 457 m 8 X s 683 469 m 8 X s 683 480 m 8 X s 674 491 m 17 X s 674 491 m 17 X s 683 502 m 8 X
 s 683 513 m 8 X s
 gsave  710 564 23 12 C 719.017 90.8246 t 90 r /Helvetica-Bold findfont 19.9646 sf 0 0 m (U/O\255flow \(S,B\): \(0.0, 0.0\)% / \(0.0, 0.0\)%) show NC gr  0.490196 0.545098 0.615686 c 0.364706 0.419608 0.490196 c 395 38 30 536 bf 0.490196 0.545098
 0.615686 c 30 536 m 395 X s 425 536 m 38 Y s 425 574 m -395 X s 30 574 m -38 Y s 1 1 1 c black 1 1 1 c
 gsave  710 564 23 12 C 34.101 548.458 t 0 r /Helvetica-Bold findfont 28.5208 sf 0 0 m (Input variable: m_z0_stddev) show NC gr  0.490196 0.545098 0.615686 c 0.941176 0.941176 0.941176 c 710 564 779 12 bf black 1 1 0.992157 c 548 427 899 93 bf black
 548 427 899 93 bl 1 1 0.992157 c 548 427 899 93 bf black 548 427 899 93 bl 0 0 0.933333 c 6 lw 0.49 0.6 0.82 c black 3 lw 0.49 0.6 0.82 c 899 93 m 29 Y 14 X 70 Y 14 X 136 Y 13 X 66 Y 14 X 87 Y 14 X -9 Y 13 X -69 Y 14 X -93 Y 14 X -95 Y 13 X -22 Y 14
 X -42 Y 14 X -25 Y 14 X -8 Y 13 X -13 Y 28 X -2 Y 13 X -4 Y 14 X -3 Y 27 X -2 Y 69 X -1 Y 219 X f 6 lw 0 0 0.933333 c 0.49 0.6 0.82 c 0 0 0.933333 c 899 122 m 14 X 70 Y 14 X 136 Y 13 X 66 Y 14 X 87 Y 14 X -9 Y 13 X -69 Y 14 X -93 Y 14 X -95 Y 13 X
 -22 Y 14 X -42 Y 14 X -25 Y 14 X -8 Y 13 X -13 Y 28 X -2 Y 13 X -4 Y 14 X -3 Y 27 X -2 Y 69 X -1 Y 219 X s black 3 lw 899 93 m 548 X s 955 106 m -13 Y s 966 100 m -7 Y s 977 100 m -7 Y s 989 100 m -7 Y s 1000 100 m -7 Y s 1012 106 m -13 Y s 1023 100
 m -7 Y s 1035 100 m -7 Y s 1046 100 m -7 Y s 1058 100 m -7 Y s 1069 106 m -13 Y s 1080 100 m -7 Y s 1092 100 m -7 Y s 1103 100 m -7 Y s 1115 100 m -7 Y s 1126 106 m -13 Y s 1138 100 m -7 Y s 1149 100 m -7 Y s 1160 100 m -7 Y s 1172 100 m -7 Y s 1183
 106 m -13 Y s 1195 100 m -7 Y s 1206 100 m -7 Y s 1218 100 m -7 Y s 1229 100 m -7 Y s 1241 106 m -13 Y s 1252 100 m -7 Y s 1263 100 m -7 Y s 1275 100 m -7 Y s 1286 100 m -7 Y s 1298 106 m -13 Y s 1309 100 m -7 Y s 1321 100 m -7 Y s 1332 100 m -7 Y s
 1344 100 m -7 Y s 1355 106 m -13 Y s 1366 100 m -7 Y s 1378 100 m -7 Y s 1389 100 m -7 Y s 1401 100 m -7 Y s 1412 106 m -13 Y s 955 106 m -13 Y s 943 100 m -7 Y s 932 100 m -7 Y s 920 100 m -7 Y s 909 100 m -7 Y s 1412 106 m -13 Y s 1424 100 m -7 Y
 s 1435 100 m -7 Y s
 gsave  710 564 779 12 C 946.303 65.3603 t 0 r /Helvetica findfont 25.6688 sf 0 0 m (1) show NC gr 
 gsave  710 564 779 12 C 1003.14 65.3603 t 0 r /Helvetica findfont 25.6688 sf 0 0 m (2) show NC gr 
 gsave  710 564 779 12 C 1059.97 65.3603 t 0 r /Helvetica findfont 25.6688 sf 0 0 m (3) show NC gr 
 gsave  710 564 779 12 C 1116.81 65.3603 t 0 r /Helvetica findfont 25.6688 sf 0 0 m (4) show NC gr 
 gsave  710 564 779 12 C 1173.64 65.3603 t 0 r /Helvetica findfont 25.6688 sf 0 0 m (5) show NC gr 
 gsave  710 564 779 12 C 1230.48 65.3603 t 0 r /Helvetica findfont 25.6688 sf 0 0 m (6) show NC gr 
 gsave  710 564 779 12 C 1287.31 65.3603 t 0 r /Helvetica findfont 25.6688 sf 0 0 m (7) show NC gr 
 gsave  710 564 779 12 C 1344.15 65.3603 t 0 r /Helvetica findfont 25.6688 sf 0 0 m (8) show NC gr 
 gsave  710 564 779 12 C 1400.98 65.3603 t 0 r /Helvetica findfont 25.6688 sf 0 0 m (9) show NC gr 
 gsave  710 564 779 12 C 1290.15 22.734 t 0 r /Helvetica findfont 28.5208 sf 0 0 m (m_z0_mean) show NC gr  899 520 m 548 X s 955 507 m 13 Y s 966 513 m 7 Y s 977 513 m 7 Y s 989 513 m 7 Y s 1000 513 m 7 Y s 1012 507 m 13 Y s 1023 513 m 7 Y s 1035 513
 m 7 Y s 1046 513 m 7 Y s 1058 513 m 7 Y s 1069 507 m 13 Y s 1080 513 m 7 Y s 1092 513 m 7 Y s 1103 513 m 7 Y s 1115 513 m 7 Y s 1126 507 m 13 Y s 1138 513 m 7 Y s 1149 513 m 7 Y s 1160 513 m 7 Y s 1172 513 m 7 Y s 1183 507 m 13 Y s 1195 513 m 7 Y s
 1206 513 m 7 Y s 1218 513 m 7 Y s 1229 513 m 7 Y s 1241 507 m 13 Y s 1252 513 m 7 Y s 1263 513 m 7 Y s 1275 513 m 7 Y s 1286 513 m 7 Y s 1298 507 m 13 Y s 1309 513 m 7 Y s 1321 513 m 7 Y s 1332 513 m 7 Y s 1344 513 m 7 Y s 1355 507 m 13 Y s 1366 513
 m 7 Y s 1378 513 m 7 Y s 1389 513 m 7 Y s 1401 513 m 7 Y s 1412 507 m 13 Y s 955 507 m 13 Y s 943 513 m 7 Y s 932 513 m 7 Y s 920 513 m 7 Y s 909 513 m 7 Y s 1412 507 m 13 Y s 1424 513 m 7 Y s 1435 513 m 7 Y s 899 93 m 427 Y s 915 93 m -16 X s 907
 104 m -8 X s 907 116 m -8 X s 907 127 m -8 X s 907 138 m -8 X s 915 149 m -16 X s 907 160 m -8 X s 907 172 m -8 X s 907 183 m -8 X s 907 194 m -8 X s 915 205 m -16 X s 907 216 m -8 X s 907 228 m -8 X s 907 239 m -8 X s 907 250 m -8 X s 915 261 m -16
 X s 907 272 m -8 X s 907 284 m -8 X s 907 295 m -8 X s 907 306 m -8 X s 915 317 m -16 X s 907 328 m -8 X s 907 340 m -8 X s 907 351 m -8 X s 907 362 m -8 X s 915 373 m -16 X s 907 385 m -8 X s 907 396 m -8 X s 907 407 m -8 X s 907 418 m -8 X s 915
 429 m -16 X s 907 441 m -8 X s 907 452 m -8 X s 907 463 m -8 X s 907 474 m -8 X s 915 485 m -16 X s 915 485 m -16 X s 907 497 m -8 X s 907 508 m -8 X s 907 519 m -8 X s
 gsave  710 564 779 12 C 875.259 82.4108 t 0 r /Helvetica findfont 25.6688 sf 0 0 m (0) show NC gr 
 gsave  710 564 779 12 C 858.208 139.246 t 0 r /Helvetica findfont 25.6688 sf 0 0 m (0.1) show NC gr 
 gsave  710 564 779 12 C 852.525 196.081 t 0 r /Helvetica findfont 25.6688 sf 0 0 m (0.2) show NC gr 
 gsave  710 564 779 12 C 852.525 250.074 t 0 r /Helvetica findfont 25.6688 sf 0 0 m (0.3) show NC gr 
 gsave  710 564 779 12 C 852.525 306.909 t 0 r /Helvetica findfont 25.6688 sf 0 0 m (0.4) show NC gr 
 gsave  710 564 779 12 C 852.525 363.744 t 0 r /Helvetica findfont 25.6688 sf 0 0 m (0.5) show NC gr 
 gsave  710 564 779 12 C 852.525 420.579 t 0 r /Helvetica findfont 25.6688 sf 0 0 m (0.6) show NC gr 
 gsave  710 564 779 12 C 852.525 474.572 t 0 r /Helvetica findfont 25.6688 sf 0 0 m (0.7) show NC gr 
 gsave  710 564 779 12 C 801.374 440.471 t 90 r /Helvetica findfont 28.5208 sf 0 0 m (0.239 ) show NC gr 
 gsave  710 564 779 12 C 787.165 434.788 t 90 r /Helvetica findfont 19.9646 sf 0 0 m ( ) show NC gr 
 gsave  710 564 779 12 C 801.374 423.421 t 90 r /Helvetica findfont 28.5208 sf 0 0 m (/) show NC gr 
 gsave  710 564 779 12 C 809.899 417.737 t 90 r /Helvetica findfont 19.9646 sf 0 0 m ( ) show NC gr 
 gsave  710 564 779 12 C 801.374 309.751 t 90 r /Helvetica findfont 28.5208 sf 0 0 m (\(1/N\) dN) show NC gr  1447 93 m 427 Y s 1430 93 m 17 X s 1438 104 m 9 X s 1438 116 m 9 X s 1438 127 m 9 X s 1438 138 m 9 X s 1430 149 m 17 X s 1438 160 m 9 X s
 1438 172 m 9 X s 1438 183 m 9 X s 1438 194 m 9 X s 1430 205 m 17 X s 1438 216 m 9 X s 1438 228 m 9 X s 1438 239 m 9 X s 1438 250 m 9 X s 1430 261 m 17 X s 1438 272 m 9 X s 1438 284 m 9 X s 1438 295 m 9 X s 1438 306 m 9 X s 1430 317 m 17 X s 1438 328
 m 9 X s 1438 340 m 9 X s 1438 351 m 9 X s 1438 362 m 9 X s 1430 373 m 17 X s 1438 385 m 9 X s 1438 396 m 9 X s 1438 407 m 9 X s 1438 418 m 9 X s 1430 429 m 17 X s 1438 441 m 9 X s 1438 452 m 9 X s 1438 463 m 9 X s 1438 474 m 9 X s 1430 485 m 17 X s
 1430 485 m 17 X s 1438 497 m 9 X s 1438 508 m 9 X s 1438 519 m 9 X s 1 0 0 c 6 lw black 3 lw 1 0 0 c 1432 93 m s 1417 93 m s 1402 93 m s 1387 93 m s 1372 93 m s 1357 94 m -1 Y s 1342 93 m s 1327 93 m s 1312 93 m -1 X s 1296 93 m s 1282 94 m -1 -1 d
 s 1267 94 m -1 -1 d s 1252 94 m -1 -1 d s 1237 94 m -1 -1 d s 1223 95 m -2 -2 d s 1210 98 m -4 -5 d s 1199 101 m -8 -8 d s 1187 104 m -11 -11 d s 1174 107 m -13 -14 d s 1169 116 m -23 -23 d s 1159 122 m -28 -29 d s 1146 123 m -30 -30 d s 1145 138 m
 -45 -45 d s 1132 140 m -47 -47 d s 1123 146 m -53 -53 d s 1118 157 m -63 -64 d s 1110 164 m -70 -71 d s 1105 173 m -80 -80 d s 1104 188 m -94 -95 d s 1091 190 m -96 -97 d s 1091 205 m -111 -112 d s 1079 208 m -114 -115 d s 1077 221 m -127 -128 d s
 1077 237 m -142 -144 d s 1068 242 m -148 -149 d s 1064 253 m -137 -138 d s 917 105 m -4 -3 d s 906 94 m -1 -1 d s 1064 268 m -124 -124 d s 1064 284 m -124 -124 d s 1050 285 m -96 -96 d s 952 186 m -12 -11 d s 1050 300 m -96 -96 d s 1041 306 m -73
 -73 d s 1035 316 m -54 -54 d s 975 255 m -7 -7 d s 1022 318 m -41 -41 d s 1018 329 m -23 -23 d s 991 301 m -10 -9 d s 999 325 m -4 -4 d s 6 lw 899 94 m 14 X 11 Y 14 X 25 Y 13 X 56 Y 14 X 32 Y 14 X 37 Y 13 X 46 Y 14 X 24 Y 14 X 4 Y 13 X -13 Y 14 X
 -10 Y 14 X -22 Y 14 X -42 Y 13 X -34 Y 14 X -20 Y 14 X -24 Y 13 X -18 Y 14 X -8 Y 14 X -16 Y 13 X -6 Y 14 X -9 Y 14 X -6 Y 13 X -3 Y 14 X -3 Y 14 X -1 Y 54 X -1 Y 69 X 1 Y 13 X -1 Y 83 X s black 3 lw 899 93 m 548 X s 955 106 m -13 Y s 966 100 m -7 Y
 s 977 100 m -7 Y s 989 100 m -7 Y s 1000 100 m -7 Y s 1012 106 m -13 Y s 1023 100 m -7 Y s 1035 100 m -7 Y s 1046 100 m -7 Y s 1058 100 m -7 Y s 1069 106 m -13 Y s 1080 100 m -7 Y s 1092 100 m -7 Y s 1103 100 m -7 Y s 1115 100 m -7 Y s 1126 106 m
 -13 Y s 1138 100 m -7 Y s 1149 100 m -7 Y s 1160 100 m -7 Y s 1172 100 m -7 Y s 1183 106 m -13 Y s 1195 100 m -7 Y s 1206 100 m -7 Y s 1218 100 m -7 Y s 1229 100 m -7 Y s 1241 106 m -13 Y s 1252 100 m -7 Y s 1263 100 m -7 Y s 1275 100 m -7 Y s 1286
 100 m -7 Y s 1298 106 m -13 Y s 1309 100 m -7 Y s 1321 100 m -7 Y s 1332 100 m -7 Y s 1344 100 m -7 Y s 1355 106 m -13 Y s 1366 100 m -7 Y s 1378 100 m -7 Y s 1389 100 m -7 Y s 1401 100 m -7 Y s 1412 106 m -13 Y s 955 106 m -13 Y s 943 100 m -7 Y s
 932 100 m -7 Y s 920 100 m -7 Y s 909 100 m -7 Y s 1412 106 m -13 Y s 1424 100 m -7 Y s 1435 100 m -7 Y s 899 520 m 548 X s 955 507 m 13 Y s 966 513 m 7 Y s 977 513 m 7 Y s 989 513 m 7 Y s 1000 513 m 7 Y s 1012 507 m 13 Y s 1023 513 m 7 Y s 1035 513
 m 7 Y s 1046 513 m 7 Y s 1058 513 m 7 Y s 1069 507 m 13 Y s 1080 513 m 7 Y s 1092 513 m 7 Y s 1103 513 m 7 Y s 1115 513 m 7 Y s 1126 507 m 13 Y s 1138 513 m 7 Y s 1149 513 m 7 Y s 1160 513 m 7 Y s 1172 513 m 7 Y s 1183 507 m 13 Y s 1195 513 m 7 Y s
 1206 513 m 7 Y s 1218 513 m 7 Y s 1229 513 m 7 Y s 1241 507 m 13 Y s 1252 513 m 7 Y s 1263 513 m 7 Y s 1275 513 m 7 Y s 1286 513 m 7 Y s 1298 507 m 13 Y s 1309 513 m 7 Y s 1321 513 m 7 Y s 1332 513 m 7 Y s 1344 513 m 7 Y s 1355 507 m 13 Y s 1366 513
 m 7 Y s 1378 513 m 7 Y s 1389 513 m 7 Y s 1401 513 m 7 Y s 1412 507 m 13 Y s 955 507 m 13 Y s 943 513 m 7 Y s 932 513 m 7 Y s 920 513 m 7 Y s 909 513 m 7 Y s 1412 507 m 13 Y s 1424 513 m 7 Y s 1435 513 m 7 Y s 899 93 m 427 Y s 915 93 m -16 X s 907
 104 m -8 X s 907 116 m -8 X s 907 127 m -8 X s 907 138 m -8 X s 915 149 m -16 X s 907 160 m -8 X s 907 172 m -8 X s 907 183 m -8 X s 907 194 m -8 X s 915 205 m -16 X s 907 216 m -8 X s 907 228 m -8 X s 907 239 m -8 X s 907 250 m -8 X s 915 261 m -16
 X s 907 272 m -8 X s 907 284 m -8 X s 907 295 m -8 X s 907 306 m -8 X s 915 317 m -16 X s 907 328 m -8 X s 907 340 m -8 X s 907 351 m -8 X s 907 362 m -8 X s 915 373 m -16 X s 907 385 m -8 X s 907 396 m -8 X s 907 407 m -8 X s 907 418 m -8 X s 915
 429 m -16 X s 907 441 m -8 X s 907 452 m -8 X s 907 463 m -8 X s 907 474 m -8 X s 915 485 m -16 X s 915 485 m -16 X s 907 497 m -8 X s 907 508 m -8 X s 907 519 m -8 X s 1447 93 m 427 Y s 1430 93 m 17 X s 1438 104 m 9 X s 1438 116 m 9 X s 1438 127 m
 9 X s 1438 138 m 9 X s 1430 149 m 17 X s 1438 160 m 9 X s 1438 172 m 9 X s 1438 183 m 9 X s 1438 194 m 9 X s 1430 205 m 17 X s 1438 216 m 9 X s 1438 228 m 9 X s 1438 239 m 9 X s 1438 250 m 9 X s 1430 261 m 17 X s 1438 272 m 9 X s 1438 284 m 9 X s
 1438 295 m 9 X s 1438 306 m 9 X s 1430 317 m 17 X s 1438 328 m 9 X s 1438 340 m 9 X s 1438 351 m 9 X s 1438 362 m 9 X s 1430 373 m 17 X s 1438 385 m 9 X s 1438 396 m 9 X s 1438 407 m 9 X s 1438 418 m 9 X s 1430 429 m 17 X s 1438 441 m 9 X s 1438 452
 m 9 X s 1438 463 m 9 X s 1438 474 m 9 X s 1430 485 m 17 X s 1430 485 m 17 X s 1438 497 m 9 X s 1438 508 m 9 X s 1438 519 m 9 X s
 gsave  710 564 779 12 C 1474.92 90.8246 t 90 r /Helvetica-Bold findfont 19.9646 sf 0 0 m (U/O\255flow \(S,B\): \(0.0, 0.0\)% / \(0.0, 0.0\)%) show NC gr  0.490196 0.545098 0.615686 c 0.364706 0.419608 0.490196 c 378 38 786 536 bf 0.490196 0.545098
 0.615686 c 786 536 m 378 X s 1164 536 m 38 Y s 1164 574 m -378 X s 786 574 m -38 Y s 1 1 1 c black 1 1 1 c
 gsave  710 564 779 12 C 790.007 548.458 t 0 r /Helvetica-Bold findfont 28.5208 sf 0 0 m (Input variable: m_z0_mean) show NC gr  0.490196 0.545098 0.615686 c 0.941176 0.941176 0.941176 c 711 564 1534 12 bf black 1 1 0.992157 c 547 427 1655 93 bf
 black 547 427 1655 93 bl 1 1 0.992157 c 547 427 1655 93 bf black 547 427 1655 93 bl 0 0 0.933333 c 6 lw 0.49 0.6 0.82 c black 3 lw 0.49 0.6 0.82 c 1655 93 m 122 Y 14 X -122 Y 520 X 388 Y 13 X -388 Y f 6 lw 0 0 0.933333 c 0.49 0.6 0.82 c 0 0 0.933333
 c 1655 215 m 14 X -122 Y 520 X 388 Y 13 X s black 3 lw 1655 93 m 547 X s 1655 106 m -13 Y s 1682 100 m -7 Y s 1709 100 m -7 Y s 1735 100 m -7 Y s 1762 106 m -13 Y s 1789 100 m -7 Y s 1815 100 m -7 Y s 1842 100 m -7 Y s 1869 106 m -13 Y s 1895 100 m
 -7 Y s 1922 100 m -7 Y s 1949 100 m -7 Y s 1976 106 m -13 Y s 2002 100 m -7 Y s 2029 100 m -7 Y s 2056 100 m -7 Y s 2082 106 m -13 Y s 2109 100 m -7 Y s 2136 100 m -7 Y s 2162 100 m -7 Y s 2189 106 m -13 Y s 2189 106 m -13 Y s
 gsave  711 564 1534 12 C 1645.37 65.3603 t 0 r /Helvetica findfont 25.6688 sf 0 0 m (0) show NC gr 
 gsave  711 564 1534 12 C 1741.99 65.3603 t 0 r /Helvetica findfont 25.6688 sf 0 0 m (0.2) show NC gr 
 gsave  711 564 1534 12 C 1847.14 65.3603 t 0 r /Helvetica findfont 25.6688 sf 0 0 m (0.4) show NC gr 
 gsave  711 564 1534 12 C 1955.12 65.3603 t 0 r /Helvetica findfont 25.6688 sf 0 0 m (0.6) show NC gr 
 gsave  711 564 1534 12 C 2060.27 65.3603 t 0 r /Helvetica findfont 25.6688 sf 0 0 m (0.8) show NC gr 
 gsave  711 564 1534 12 C 2182.46 65.3603 t 0 r /Helvetica findfont 25.6688 sf 0 0 m (1) show NC gr 
 gsave  711 564 1534 12 C 1932.39 25.5758 t 0 r /Helvetica findfont 28.5208 sf 0 0 m (m_closest_vx_is_pvx) show NC gr  1655 520 m 547 X s 1655 507 m 13 Y s 1682 513 m 7 Y s 1709 513 m 7 Y s 1735 513 m 7 Y s 1762 507 m 13 Y s 1789 513 m 7 Y s 1815 513
 m 7 Y s 1842 513 m 7 Y s 1869 507 m 13 Y s 1895 513 m 7 Y s 1922 513 m 7 Y s 1949 513 m 7 Y s 1976 507 m 13 Y s 2002 513 m 7 Y s 2029 513 m 7 Y s 2056 513 m 7 Y s 2082 507 m 13 Y s 2109 513 m 7 Y s 2136 513 m 7 Y s 2162 513 m 7 Y s 2189 507 m 13 Y s
 2189 507 m 13 Y s 1655 93 m 427 Y s 1671 93 m -16 X s 1663 106 m -8 X s 1663 119 m -8 X s 1663 132 m -8 X s 1663 145 m -8 X s 1671 158 m -16 X s 1663 171 m -8 X s 1663 185 m -8 X s 1663 198 m -8 X s 1663 211 m -8 X s 1671 224 m -16 X s 1663 237 m -8
 X s 1663 250 m -8 X s 1663 263 m -8 X s 1663 276 m -8 X s 1671 289 m -16 X s 1663 302 m -8 X s 1663 315 m -8 X s 1663 328 m -8 X s 1663 341 m -8 X s 1671 354 m -16 X s 1663 367 m -8 X s 1663 380 m -8 X s 1663 394 m -8 X s 1663 407 m -8 X s 1671 420
 m -16 X s 1663 433 m -8 X s 1663 446 m -8 X s 1663 459 m -8 X s 1663 472 m -8 X s 1671 485 m -16 X s 1671 485 m -16 X s 1663 498 m -8 X s 1663 511 m -8 X s
 gsave  711 564 1534 12 C 1631.16 82.4108 t 0 r /Helvetica findfont 25.6688 sf 0 0 m (0) show NC gr 
 gsave  711 564 1534 12 C 1631.16 147.771 t 0 r /Helvetica findfont 25.6688 sf 0 0 m (5) show NC gr 
 gsave  711 564 1534 12 C 1616.96 213.131 t 0 r /Helvetica findfont 25.6688 sf 0 0 m (10) show NC gr 
 gsave  711 564 1534 12 C 1616.96 278.492 t 0 r /Helvetica findfont 25.6688 sf 0 0 m (15) show NC gr 
 gsave  711 564 1534 12 C 1616.96 343.852 t 0 r /Helvetica findfont 25.6688 sf 0 0 m (20) show NC gr 
 gsave  711 564 1534 12 C 1616.96 409.212 t 0 r /Helvetica findfont 25.6688 sf 0 0 m (25) show NC gr 
 gsave  711 564 1534 12 C 1616.96 474.572 t 0 r /Helvetica findfont 25.6688 sf 0 0 m (30) show NC gr 
 gsave  711 564 1534 12 C 1557.28 423.421 t 90 r /Helvetica findfont 28.5208 sf 0 0 m (0.0256 ) show NC gr 
 gsave  711 564 1534 12 C 1543.07 417.737 t 90 r /Helvetica findfont 19.9646 sf 0 0 m ( ) show NC gr 
 gsave  711 564 1534 12 C 1557.28 406.37 t 90 r /Helvetica findfont 28.5208 sf 0 0 m (/) show NC gr 
 gsave  711 564 1534 12 C 1565.8 400.687 t 90 r /Helvetica findfont 19.9646 sf 0 0 m ( ) show NC gr 
 gsave  711 564 1534 12 C 1557.28 292.7 t 90 r /Helvetica findfont 28.5208 sf 0 0 m (\(1/N\) dN) show NC gr  2202 93 m 427 Y s 2186 93 m 16 X s 2194 106 m 8 X s 2194 119 m 8 X s 2194 132 m 8 X s 2194 145 m 8 X s 2186 158 m 16 X s 2194 171 m 8 X s
 2194 185 m 8 X s 2194 198 m 8 X s 2194 211 m 8 X s 2186 224 m 16 X s 2194 237 m 8 X s 2194 250 m 8 X s 2194 263 m 8 X s 2194 276 m 8 X s 2186 289 m 16 X s 2194 302 m 8 X s 2194 315 m 8 X s 2194 328 m 8 X s 2194 341 m 8 X s 2186 354 m 16 X s 2194 367
 m 8 X s 2194 380 m 8 X s 2194 394 m 8 X s 2194 407 m 8 X s 2186 420 m 16 X s 2194 433 m 8 X s 2194 446 m 8 X s 2194 459 m 8 X s 2194 472 m 8 X s 2186 485 m 16 X s 2186 485 m 16 X s 2194 498 m 8 X s 2194 511 m 8 X s 1 0 0 c 6 lw black 3 lw 1 0 0 c
 2202 108 m -13 -14 d s 2188 93 m s 2202 123 m -13 -14 d s 2173 93 m s 2202 138 m -13 -14 d s 2158 93 m s 2202 153 m -13 -14 d s 2143 93 m s 2202 168 m -13 -13 d s 2128 93 m s 2202 184 m -13 -14 d s 2113 93 m s 2202 199 m -13 -14 d s 2098 93 m s 2202
 214 m -13 -14 d s 2082 93 m s 2202 229 m -13 -14 d s 2067 93 m s 2202 244 m -13 -13 d s 2052 93 m s 2202 259 m -13 -13 d s 2037 93 m s 2022 93 m s 2007 93 m s 1992 93 m s 1977 93 m cl s 1962 93 m s 1947 93 m s 1932 93 m s 1917 93 m s 1902 93 m s
 1887 93 m s 1871 93 m s 1856 93 m s 1841 93 m s 1826 93 m cl s 1811 93 m s 1796 93 m s 1781 93 m cl s 1766 93 m s 1751 93 m s 1736 93 m cl s 1721 93 m s 1706 93 m s 1691 93 m s 1675 93 m cl s 1669 102 m -9 -9 d s 1669 117 m -14 -14 d s 1669 132 m
 -14 -14 d s 1669 147 m -14 -14 d s 1669 162 m -14 -13 d s 1669 178 m -14 -14 d s 1669 193 m -14 -14 d s 1669 208 m -14 -14 d s 1669 223 m -14 -14 d s 1669 238 m -14 -13 d s 1669 254 m -14 -14 d s 1669 269 m -14 -14 d s 1669 284 m -14 -14 d s 1669
 299 m -14 -14 d s 1669 314 m -14 -13 d s 1669 329 m -14 -13 d s 1669 345 m -14 -14 d s 1669 360 m -14 -14 d s 1669 375 m -14 -14 d s 1669 390 m -14 -14 d s 1669 405 m -14 -13 d s 1669 421 m -14 -14 d s 1669 436 m -14 -14 d s 6 lw 1655 437 m 14 X
 -344 Y 520 X 166 Y 13 X s black 3 lw 1655 93 m 547 X s 1655 106 m -13 Y s 1682 100 m -7 Y s 1709 100 m -7 Y s 1735 100 m -7 Y s 1762 106 m -13 Y s 1789 100 m -7 Y s 1815 100 m -7 Y s 1842 100 m -7 Y s 1869 106 m -13 Y s 1895 100 m -7 Y s 1922 100 m
 -7 Y s 1949 100 m -7 Y s 1976 106 m -13 Y s 2002 100 m -7 Y s 2029 100 m -7 Y s 2056 100 m -7 Y s 2082 106 m -13 Y s 2109 100 m -7 Y s 2136 100 m -7 Y s 2162 100 m -7 Y s 2189 106 m -13 Y s 2189 106 m -13 Y s 1655 520 m 547 X s 1655 507 m 13 Y s
 1682 513 m 7 Y s 1709 513 m 7 Y s 1735 513 m 7 Y s 1762 507 m 13 Y s 1789 513 m 7 Y s 1815 513 m 7 Y s 1842 513 m 7 Y s 1869 507 m 13 Y s 1895 513 m 7 Y s 1922 513 m 7 Y s 1949 513 m 7 Y s 1976 507 m 13 Y s 2002 513 m 7 Y s 2029 513 m 7 Y s 2056 513
 m 7 Y s 2082 507 m 13 Y s 2109 513 m 7 Y s 2136 513 m 7 Y s 2162 513 m 7 Y s 2189 507 m 13 Y s 2189 507 m 13 Y s 1655 93 m 427 Y s 1671 93 m -16 X s 1663 106 m -8 X s 1663 119 m -8 X s 1663 132 m -8 X s 1663 145 m -8 X s 1671 158 m -16 X s 1663 171
 m -8 X s 1663 185 m -8 X s 1663 198 m -8 X s 1663 211 m -8 X s 1671 224 m -16 X s 1663 237 m -8 X s 1663 250 m -8 X s 1663 263 m -8 X s 1663 276 m -8 X s 1671 289 m -16 X s 1663 302 m -8 X s 1663 315 m -8 X s 1663 328 m -8 X s 1663 341 m -8 X s 1671
 354 m -16 X s 1663 367 m -8 X s 1663 380 m -8 X s 1663 394 m -8 X s 1663 407 m -8 X s 1671 420 m -16 X s 1663 433 m -8 X s 1663 446 m -8 X s 1663 459 m -8 X s 1663 472 m -8 X s 1671 485 m -16 X s 1671 485 m -16 X s 1663 498 m -8 X s 1663 511 m -8 X
 s 2202 93 m 427 Y s 2186 93 m 16 X s 2194 106 m 8 X s 2194 119 m 8 X s 2194 132 m 8 X s 2194 145 m 8 X s 2186 158 m 16 X s 2194 171 m 8 X s 2194 185 m 8 X s 2194 198 m 8 X s 2194 211 m 8 X s 2186 224 m 16 X s 2194 237 m 8 X s 2194 250 m 8 X s 2194
 263 m 8 X s 2194 276 m 8 X s 2186 289 m 16 X s 2194 302 m 8 X s 2194 315 m 8 X s 2194 328 m 8 X s 2194 341 m 8 X s 2186 354 m 16 X s 2194 367 m 8 X s 2194 380 m 8 X s 2194 394 m 8 X s 2194 407 m 8 X s 2186 420 m 16 X s 2194 433 m 8 X s 2194 446 m 8
 X s 2194 459 m 8 X s 2194 472 m 8 X s 2186 485 m 16 X s 2186 485 m 16 X s 2194 498 m 8 X s 2194 511 m 8 X s
 gsave  711 564 1534 12 C 2230.83 90.8246 t 90 r /Helvetica-Bold findfont 19.9646 sf 0 0 m (U/O\255flow \(S,B\): \(0.0, 0.0\)% / \(0.0, 0.0\)%) show NC gr  0.490196 0.545098 0.615686 c 0.364706 0.419608 0.490196 c 497 38 1542 536 bf 0.490196 0.545098
 0.615686 c 1542 536 m 497 X s 2039 536 m 38 Y s 2039 574 m -497 X s 1542 574 m -38 Y s 1 1 1 c black 1 1 1 c
 gsave  711 564 1534 12 C 1540.23 548.458 t 0 r /Helvetica-Bold findfont 28.5208 sf 0 0 m (Input variable: m_closest_vx_is_pvx) show NC gr 
 gr  gr showpage
end
%%EOF
